﻿<?xml version="1.0" encoding="utf-8"?>
<!DOCTYPE svg PUBLIC "-//W3C//DTD SVG 1.0//EN" "http://www.w3.org/TR/2001/REC-SVG-20010904/DTD/svg10.dtd"[
	<!ENTITY ns_flows "http://ns.adobe.com/Flows/1.0/">
	<!ENTITY ns_svg "http://www.w3.org/2000/svg">
	<!ENTITY ns_xlink "http://www.w3.org/1999/xlink">
	<!ENTITY st0 "font-size:7px;font-family:'MS-PGothic';adobe-font-script:japanese;">
	<!ENTITY st1 "font-size:6px;font-family:'ArialMT';">
	<!-- White fill  -->
	<!ENTITY st2 "fill:#FFFFFF;stroke:#000000; stroke-width:1.41;stroke-linecap:round;stroke-linejoin:round;">
	<!-- Yellow fill  -->
	<!ENTITY st3 "fill:#FFFFCC;stroke:#FFFFCC; stroke-width:0.1;stroke-linecap:round;stroke-linejoin:round;">
	<!-- Gray fill  -->
	<!ENTITY st4 "fill:#CCCCCC;stroke:#CCCCCC; stroke-width:0.1;stroke-linecap:round;stroke-linejoin:round;">
	<!-- Light-blue fill -->
	<!ENTITY st5 "fill:#CCECF4;stroke:#000000; stroke-width:1.133;stroke-linecap:round;stroke-linejoin:round;">
	<!ENTITY st6 "fill:none;stroke-linecap:butt; stroke-linejoin:round;">
	<!ENTITY st7 "fill:none;stroke:#000000;stroke-linecap:round;stroke-linejoin:round;">
	<!ENTITY st8 "enable-background:new    ;">
	<!-- Black fill -->
	<!ENTITY st9 "fill:#000000;stroke:#000000; stroke-linecap:round;stroke-linejoin:round;">
	<!-- SRS note   -->
	<!ENTITY st10 "font-size:9px;font-family:'ArialMT';">
	<!ENTITY st11 "font-size:9px;font-family:'Svg Symbol';">
	<!ENTITY st12 "font-size:6px;font-family:'Svg Symbol';">
	<!ENTITY st13 "fill:none;stroke:#ff0000;stroke-linecap:round;stroke-linejoin:round;">
	<!-- Yellow fill  -->
	<!ENTITY st14 "fill:#FFFF00;stroke:#FFFF00; stroke-width:0.1;stroke-linecap:round;stroke-linejoin:round;">
	<!ENTITY st15 "font-size:6px;font-family:'MS-PGothic';adobe-font-script:japanese;">
	<!ENTITY st16 "1.00 0.00 0.00 1.00">
	<!ENTITY st17 "0.00 -1.00 1.00 0.00">
	<!ENTITY st18 "font-size:6px;font-family:'Arial';">
	<!ENTITY st19 "font-size:9px;font-family:'Arial';">
	<!ENTITY st20 "font-size:6px;font-family:'MS-PGothic','MS PGothic';adobe-font-script:japanese;">
	<!ENTITY st21 "font-size:7px;font-family:'MS-PGothic','MS PGothic';adobe-font-script:japanese;">
	<!ATTLIST svg
		xmlns:ewd CDATA #FIXED "http://shcl.co.jp/ewd"
		xmlns:a CDATA #FIXED "http://ns.adobe.com/AdobeSVGViewerExtensions/3.0/"
		ewd:ver CDATA #IMPLIED
	>
	<!ATTLIST a
		ewd:lineID CDATA #IMPLIED
		ewd:groupID CDATA #IMPLIED
		ewd:figtype CDATA #IMPLIED
		ewd:code CDATA #IMPLIED
		ewd:figID CDATA #IMPLIED
		ewd:pinNo CDATA #IMPLIED
		ewd:comment CDATA #IMPLIED >
	<!ATTLIST g
		ewd:lineID CDATA #IMPLIED
		ewd:groupID CDATA #IMPLIED
		ewd:figtype CDATA #IMPLIED
		ewd:code CDATA #IMPLIED
		ewd:figID CDATA #IMPLIED
		ewd:pinNo CDATA #IMPLIED
		ewd:comment CDATA #IMPLIED >
	<!ATTLIST text
		ewd:textID CDATA #IMPLIED >
	<!ATTLIST title
		ewd:textID CDATA #IMPLIED >
]>
<!-- Generator: Shintec Hozumi YS   -->
<svg onload="call_execInitLoadProc_svg('system')" style="overflow:visible;  enable-background:new 0 0 7244.162 710.000" viewBox="0 0 7244.162 710.000" height="710.000" width="7244.162" xml:space="preserve" ewd:ver="2.1.2.9" xmlns="&ns_svg;" xmlns:a="http://ns.adobe.com/AdobeSVGViewerExtensions/3.0/" xmlns:ewd="http://shcl.co.jp/ewd" xmlns:xlink="&ns_xlink;"><script type="text/javascript" xlink:href="../../../../../system/js/ewd/fig/svgfig.js" xmlns:xlink="http://www.w3.org/1999/xlink" />
<g id="ewd_top"><a ewd:figtype="conn" style="cursor:pointer;" ewd:code="C51" ewd:figID="1"><path style="fill:#CCECF4;stroke:#000000; stroke-width:1.133; stroke-linecap:round;stroke-linejoin:round; " d=" M  4946.17,   299.24  L  4946.17,   265.24  L  4929.18,   265.24  L  4929.18,   299.24  L  4946.17,   299.24 " /><title ewd:textID="31">Back-Up Light Switch Assembly</title></a><a ewd:figtype="conn" style="cursor:pointer;" ewd:code="C24" ewd:figID="2"><path style="fill:#CCECF4;stroke:#000000; stroke-width:1.133; stroke-linecap:round;stroke-linejoin:round; " d=" M  4980.17,   265.24  L  4980.17,   299.24  L  5031.16,   299.24  L  5031.16,   265.24  L  4980.17,   265.24 " /><title ewd:textID="77">Park/Neutral Position Switch Assembly</title></a><a ewd:figtype="conn" style="cursor:pointer;" ewd:code="G50,G94" ewd:figID="3"><path style="fill:#CCECF4;stroke:#000000; stroke-width:1.133; stroke-linecap:round;stroke-linejoin:round; " d=" M  7011.33,   163.26  L  7028.33,   163.26  L  7028.33,   180.26  L  7011.33,   180.26  L  7011.33,   163.26 " /><title ewd:textID="57">No. 10 Junction Connector , No. 27 Junction Connector</title></a><a ewd:figtype="rb" style="cursor:pointer;" ewd:code="FUSE10" ewd:figID="4"><path style="fill:#CCECF4;stroke:#000000; stroke-width:0; stroke-linecap:round;stroke-linejoin:round; " d=" M  6871.10,    35.78  L  6871.10,    78.27  L  6896.60,    78.27  L  6896.60,    35.78  L  6871.10,    35.78 " /></a><a ewd:figtype="rb" style="cursor:pointer;" ewd:code="FUSE76" ewd:figID="5"><path style="fill:#CCECF4;stroke:#000000; stroke-width:0; stroke-linecap:round;stroke-linejoin:round; " d=" M  6480.17,    35.78  L  6480.17,    78.27  L  6505.66,    78.27  L  6505.66,    35.78  L  6480.17,    35.78 " /></a><a ewd:figtype="conn" style="cursor:pointer;" ewd:code="A4" ewd:figID="6"><path style="fill:#CCECF4;stroke:#000000; stroke-width:1.133; stroke-linecap:round;stroke-linejoin:round; " d=" M  6067.99,   392.72  L  6067.99,   350.23  L  6144.47,   350.23  L  6144.47,   392.72  L  6067.99,   392.72 " /><title ewd:textID="32">Brake Actuator Assembly</title></a><a ewd:figtype="conn" style="cursor:pointer;" ewd:code="A3" ewd:figID="7"><path style="fill:#CCECF4;stroke:#000000; stroke-width:1.133; stroke-linecap:round;stroke-linejoin:round; " d=" M  5966.00,   392.72  L  5966.00,   350.23  L  6042.49,   350.23  L  6042.49,   392.72  L  5966.00,   392.72 " /><title ewd:textID="32">Brake Actuator Assembly</title></a><a ewd:figtype="conn" style="cursor:pointer;" ewd:code="G61,G108" ewd:figID="8"><path style="fill:#CCECF4;stroke:#000000; stroke-width:1.133; stroke-linecap:round;stroke-linejoin:round; " d=" M  6484.42,   163.26  L  6501.41,   163.26  L  6501.41,   180.26  L  6484.42,   180.26  L  6484.42,   163.26 " /><title ewd:textID="74">No. 40 Junction Connector , No. 20 Junction Connector</title></a><a ewd:figtype="conn" style="cursor:pointer;" ewd:code="G54,G93" ewd:figID="9"><path style="fill:#CCECF4;stroke:#000000; stroke-width:1.133; stroke-linecap:round;stroke-linejoin:round; " d=" M  4249.29,   265.24  L  4308.78,   265.24  L  4308.78,   282.24  L  4249.29,   282.24  L  4249.29,   265.24 " /><title ewd:textID="61">No. 14 Junction Connector , No. 26 Junction Connector</title></a><a ewd:figtype="conn" style="cursor:pointer;" ewd:code="N5" ewd:figID="10"><path style="fill:#CCECF4;stroke:#000000; stroke-width:1.133; stroke-linecap:round;stroke-linejoin:round; " d=" M  4266.29,   503.20  L  4266.29,   469.21  L  4249.29,   469.21  L  4249.29,   503.20  L  4266.29,   503.20 " /><title ewd:textID="78">Parking Brake Switch Assembly</title></a><a ewd:figtype="conn" style="cursor:pointer;" ewd:code="G68" ewd:figID="11"><path style="fill:#CCECF4;stroke:#000000; stroke-width:1.133; stroke-linecap:round;stroke-linejoin:round; " d=" M  4708.21,   265.24  L  4767.70,   265.24  L  4767.70,   282.24  L  4708.21,   282.24  L  4708.21,   265.24 " /><title ewd:textID="52">No. 2 CAN Junction Connector</title></a><a ewd:figtype="conn" style="cursor:pointer;" ewd:code="G63" ewd:figID="12"><path style="fill:#CCECF4;stroke:#000000; stroke-width:1.133; stroke-linecap:round;stroke-linejoin:round; " d=" M  4869.69,   265.24  L  4869.69,   282.24  L  4886.68,   282.24  L  4886.68,   265.24  L  4869.69,   265.24 " /><title ewd:textID="66">No. 22 Junction Connector</title></a><a ewd:figtype="conn" style="cursor:pointer;" ewd:code="G56,G105" ewd:figID="13"><path style="fill:#CCECF4;stroke:#000000; stroke-width:1.133; stroke-linecap:round;stroke-linejoin:round; " d=" M  6382.43,   163.26  L  6399.43,   163.26  L  6399.43,   180.26  L  6382.43,   180.26  L  6382.43,   163.26 " /><title ewd:textID="71">No. 37 Junction Connector , No. 16 Junction Connector</title></a><a ewd:figtype="conn" style="cursor:pointer;" ewd:code="C62" ewd:figID="14"><path style="fill:#CCECF4;stroke:#000000; stroke-width:1.133; stroke-linecap:round;stroke-linejoin:round; " d=" M  6824.36,   477.71  L  6824.36,   511.70  L  6943.34,   511.70  L  6943.34,   477.71  L  6824.36,   477.71 " /><title ewd:textID="86">Speedometer Sensor</title></a><a ewd:figtype="conn" style="cursor:pointer;" ewd:code="G61,G108" ewd:figID="15"><path style="fill:#CCECF4;stroke:#000000; stroke-width:1.133; stroke-linecap:round;stroke-linejoin:round; " d=" M   152.97,   180.26  L   169.97,   180.26  L   169.97,   197.25  L   152.97,   197.25  L   152.97,   180.26 " /><title ewd:textID="74">No. 40 Junction Connector , No. 20 Junction Connector</title></a><a ewd:figtype="conn" style="cursor:pointer;" ewd:code="G53" ewd:figID="16"><path style="fill:#CCECF4;stroke:#000000; stroke-width:1.133; stroke-linecap:round;stroke-linejoin:round; " d=" M   254.96,   188.75  L   271.95,   188.75  L   271.95,   205.75  L   254.96,   205.75  L   254.96,   188.75 " /><title ewd:textID="59">No. 13 Junction Connector</title></a><a ewd:figtype="conn" style="cursor:pointer;" ewd:code="K7" ewd:figID="17"><path style="fill:#CCECF4;stroke:#000000; stroke-width:1.133; stroke-linecap:round;stroke-linejoin:round; " d=" M   569.40,   299.24  L   679.89,   299.24  L   679.89,   341.73  L   569.40,   341.73  L   569.40,   299.24 " /><title ewd:textID="39">Front No. 2 Speaker Assembly LH</title></a><a ewd:figtype="conn" style="cursor:pointer;" ewd:code="J7" ewd:figID="18"><path style="fill:#CCECF4;stroke:#000000; stroke-width:1.133; stroke-linecap:round;stroke-linejoin:round; " d=" M  1793.20,   299.24  L  1903.68,   299.24  L  1903.68,   341.73  L  1793.20,   341.73  L  1793.20,   299.24 " /><title ewd:textID="40">Front No. 2 Speaker Assembly RH</title></a><a ewd:figtype="conn" style="cursor:pointer;" ewd:code="P2" ewd:figID="19"><path style="fill:#CCECF4;stroke:#000000; stroke-width:1.133; stroke-linecap:round;stroke-linejoin:round; " d=" M  1385.27,   154.76  L  1385.27,   188.75  L  1546.74,   188.75  L  1546.74,   154.76  L  1385.27,   154.76 " /><title ewd:textID="83">Rear Television Camera Assembly</title></a><a ewd:figtype="conn" style="cursor:pointer;" ewd:code="G4,z2" ewd:figID="20"><path style="fill:#CCECF4;stroke:#000000; stroke-width:1.133; stroke-linecap:round;stroke-linejoin:round; " d=" M  3977.34,   350.23  L  3807.36,   350.23  L  3807.36,   333.23  L  3977.34,   333.23  L  3977.34,   350.23 " /><title ewd:textID="88">Spiral Cable Sub-Assembly , Steering Pad Switch Assembly</title></a><a ewd:figtype="conn" style="cursor:pointer;" ewd:code="z2" ewd:figID="21"><path style="fill:#CCECF4;stroke:#000000; stroke-width:1.133; stroke-linecap:round;stroke-linejoin:round; " d=" M  3977.34,   359.29  L  3977.34,   545.69  L  3807.36,   545.69  L  3807.36,   359.29  L  3977.34,   359.29 " /><title ewd:textID="88">Spiral Cable Sub-Assembly , Steering Pad Switch Assembly</title></a><a ewd:figtype="conn" style="cursor:pointer;" ewd:code="G62,G95" ewd:figID="22"><path style="fill:#CCECF4;stroke:#000000; stroke-width:1.133; stroke-linecap:round;stroke-linejoin:round; " d=" M  4036.83,   350.23  L  4087.82,   350.23  L  4087.82,   333.23  L  4036.83,   333.23  L  4036.83,   350.23 " /><title ewd:textID="65">No. 21 Junction Connector , No. 28 Junction Connector</title></a><a ewd:figtype="conn" style="cursor:pointer;" ewd:code="G52,G108" ewd:figID="23"><path style="fill:#CCECF4;stroke:#000000; stroke-width:1.133; stroke-linecap:round;stroke-linejoin:round; " d=" M  4538.24,   265.24  L  4555.24,   265.24  L  4555.24,   282.24  L  4538.24,   282.24  L  4538.24,   265.24 " /><title ewd:textID="73">No. 40 Junction Connector , No. 12 Junction Connector</title></a><a ewd:figtype="conn" style="cursor:pointer;" ewd:code="C67" ewd:figID="24"><path style="fill:#CCECF4;stroke:#000000; stroke-width:1.133; stroke-linecap:round;stroke-linejoin:round; " d=" M  6917.84,   579.69  L  6934.84,   579.69  L  6934.84,   596.69  L  6917.84,   596.69  L  6917.84,   579.69 " /><title ewd:textID="54">No. 6 Junction Connector</title></a><a ewd:figtype="conn" style="cursor:pointer;" ewd:code="G63" ewd:figID="25"><path style="fill:#CCECF4;stroke:#000000; stroke-width:1.133; stroke-linecap:round;stroke-linejoin:round; " d=" M  6441.92,   511.70  L  6492.92,   511.70  L  6492.92,   528.70  L  6441.92,   528.70  L  6441.92,   511.70 " /><title ewd:textID="66">No. 22 Junction Connector</title></a><a ewd:figtype="conn" style="cursor:pointer;" ewd:code="K4" ewd:figID="26"><path style="fill:#CCECF4;stroke:#000000; stroke-width:1.133; stroke-linecap:round;stroke-linejoin:round; " d=" M   611.90,   243.99  L   611.90,   235.50  L   607.65,   227.00  L   633.14,   227.00  L   628.89,   235.50  L   628.89,   243.99  L   611.90,   243.99 " /><title ewd:textID="37">Front No. 1 Speaker Assembly LH</title></a><a ewd:figtype="conn" style="cursor:pointer;" ewd:code="J4" ewd:figID="27"><path style="fill:#CCECF4;stroke:#000000; stroke-width:1.133; stroke-linecap:round;stroke-linejoin:round; " d=" M  1835.69,   243.99  L  1835.69,   235.50  L  1831.44,   227.00  L  1856.94,   227.00  L  1852.69,   235.50  L  1852.69,   243.99  L  1835.69,   243.99 " /><title ewd:textID="38">Front No. 1 Speaker Assembly RH</title></a><a ewd:figtype="conn" style="cursor:pointer;" ewd:code="L2" ewd:figID="28"><path style="fill:#CCECF4;stroke:#000000; stroke-width:1.133; stroke-linecap:round;stroke-linejoin:round; " d=" M   798.87,   337.48  L   798.87,   345.98  L   794.62,   354.48  L   820.11,   354.48  L   815.86,   345.98  L   815.86,   337.48  L   798.87,   337.48 " /><title ewd:textID="82">Rear Speaker Assembly RH</title></a><a ewd:figtype="conn" style="cursor:pointer;" ewd:code="M2" ewd:figID="29"><path style="fill:#CCECF4;stroke:#000000; stroke-width:1.133; stroke-linecap:round;stroke-linejoin:round; " d=" M   917.85,   337.48  L   917.85,   345.98  L   913.60,   354.48  L   939.09,   354.48  L   934.84,   345.98  L   934.84,   337.48  L   917.85,   337.48 " /><title ewd:textID="81">Rear Speaker Assembly LH</title></a><a ewd:figtype="rb" style="cursor:pointer;" ewd:code="FUSE23" ewd:figID="30"><path style="fill:#CCECF4;stroke:#000000; stroke-width:0; stroke-linecap:round;stroke-linejoin:round; " d=" M    46.74,    35.78  L    46.74,    78.27  L    72.24,    78.27  L    72.24,    35.78  L    46.74,    35.78 " /></a><a ewd:figtype="rb" style="cursor:pointer;" ewd:code="FUSE76" ewd:figID="31"><path style="fill:#CCECF4;stroke:#000000; stroke-width:0; stroke-linecap:round;stroke-linejoin:round; " d=" M   148.73,    35.78  L   148.73,    78.27  L   174.22,    78.27  L   174.22,    35.78  L   148.73,    35.78 " /></a><a ewd:figtype="conn" style="cursor:pointer;" ewd:code="G9,G10" ewd:figID="32"><path style="fill:#CCECF4;stroke:#000000; stroke-width:1.133; stroke-linecap:round;stroke-linejoin:round; " d=" M  6348.44,   239.75  L  6348.44,   460.71  L  7223.79,   460.71  L  7223.79,   239.75  L  6348.44,   239.75 " /><title ewd:textID="34">Combination Meter Assembly</title></a><a ewd:figtype="conn" style="cursor:pointer;" ewd:code="C115" ewd:figID="33"><path style="fill:#CCECF4;stroke:#000000; stroke-width:1.133; stroke-linecap:round;stroke-linejoin:round; " d=" M  6977.33,   579.69  L  6994.33,   579.69  L  6994.33,   596.69  L  6977.33,   596.69  L  6977.33,   579.69 " /><title ewd:textID="55">No. 7 Junction Connector</title></a><a ewd:figtype="conn" style="cursor:pointer;" ewd:code="G67" ewd:figID="34"><path style="fill:#CCECF4;stroke:#000000; stroke-width:1.133; stroke-linecap:round;stroke-linejoin:round; " d=" M  5796.03,   120.77  L  6033.99,   120.77  L  6033.99,   146.26  L  5796.03,   146.26  L  5796.03,   120.77 " /><title ewd:textID="50">No. 1 CAN Junction Connector</title></a><a ewd:figtype="conn" style="cursor:pointer;" ewd:code="G127" ewd:figID="35"><path style="fill:#CCECF4;stroke:#000000; stroke-width:1.133; stroke-linecap:round;stroke-linejoin:round; " d=" M  7087.82,    69.77  L  7121.81,    69.77  L  7121.81,    35.78  L  7087.82,    35.78  L  7087.82,    69.77 " /><title ewd:textID="36">Engine Stop and Start ECU</title></a><a ewd:figtype="conn" style="cursor:pointer;" ewd:code="G127" ewd:figID="36"><path style="fill:#CCECF4;stroke:#000000; stroke-width:1.133; stroke-linecap:round;stroke-linejoin:round; " d=" M   399.43,   409.72  L   484.42,   409.72  L   484.42,   375.72  L   399.43,   375.72  L   399.43,   409.72 " /><title ewd:textID="36">Engine Stop and Start ECU</title></a><a ewd:figtype="conn" style="cursor:pointer;" ewd:code="a1" ewd:figID="37"><path style="fill:#CCECF4;stroke:#000000; stroke-width:1.133; stroke-linecap:round;stroke-linejoin:round; " d=" M  3144.47,   324.73  L  3144.47,   367.22  L  3781.87,   367.22  L  3781.87,   324.73  L  3144.47,   324.73 " /><title ewd:textID="51">No. 1 Stereo Jack Adapter Assembly</title></a><a ewd:figtype="conn" style="cursor:pointer;" ewd:code="G128" ewd:figID="38"><path style="fill:#CCECF4;stroke:#000000; stroke-width:1.133; stroke-linecap:round;stroke-linejoin:round; " d=" M  5303.11,   120.77  L  5303.11,   163.26  L  5473.09,   163.26  L  5473.09,   120.77  L  5303.11,   120.77 " /><title ewd:textID="49">Network Gateway ECU</title></a><a ewd:figtype="conn" style="cursor:pointer;" ewd:code="G132,G133,G135" ewd:figID="39"><path style="fill:#CCECF4;stroke:#000000; stroke-width:1.133; stroke-linecap:round;stroke-linejoin:round; " d=" M  5311.61,   290.74  L  5311.61,   316.23  L  5464.59,   316.23  L  5464.59,   290.74  L  5311.61,   290.74 " /><title ewd:textID="53">No. 4 CAN Junction Connector</title></a><a ewd:figtype="conn" style="cursor:pointer;" ewd:code="d2-A,d4-B" ewd:figID="40"><path style="fill:#CCECF4;stroke:#000000; stroke-width:1.133; stroke-linecap:round;stroke-linejoin:round; " d=" M  2889.52,   231.25  L  2889.52,   273.74  L  3101.98,   273.74  L  3101.98,   231.25  L  2889.52,   231.25 " /><title ewd:textID="46">Navigation ECU</title></a><a ewd:figtype="conn" style="cursor:pointer;" ewd:code="G37,G38,G40,G41,G113-K,G114-L,G115-M,G116-N,G117-F,G118-G,G119-H,a2-E,a3-O,d1-I,d3-J" ewd:figID="41"><path style="fill:#CCECF4;stroke:#000000; stroke-width:1.133; stroke-linecap:round;stroke-linejoin:round; " d=" M   348.44,    69.77  L  4895.18,    69.77  L  4895.18,   120.77  L   348.44,   120.77  L   348.44,    69.77 " /><title ewd:textID="48">Navigation Receiver Assembly , Radio Receiver Assembly , Radio &amp; Display Receiver Assembly</title></a><a ewd:figtype="conn" style="cursor:pointer;" ewd:code="G130" ewd:figID="42"><path style="fill:#CCECF4;stroke:#000000; stroke-width:1.133; stroke-linecap:round;stroke-linejoin:round; " d=" M  2141.64,   409.72  L  2141.64,   452.21  L  2379.60,   452.21  L  2379.60,   409.72  L  2141.64,   409.72 " /><title ewd:textID="91">Telephone Transceiver Assembly</title></a><a ewd:figtype="conn" style="cursor:pointer;" ewd:code="Q3" ewd:figID="43"><path style="fill:#CCECF4;stroke:#000000; stroke-width:1.133; stroke-linecap:round;stroke-linejoin:round; " d=" M  2396.60,   409.72  L  2396.60,   460.71  L  2532.58,   460.71  L  2532.58,   409.72  L  2396.60,   409.72 " /><title ewd:textID="43">Map Light Assembly</title></a><a ewd:figtype="jb" style="cursor:pointer;" ewd:code="2" ewd:figID="51"><path style="&st4; " d=" M  4920.68,    35.78  L  4997.17,    35.78  L  4997.17,   112.27  L  4920.68,   112.27  L  4920.68,    35.78  " /></a><a ewd:figtype="jb" style="cursor:pointer;" ewd:code="2" ewd:figID="52"><path style="&st4; " d=" M  7164.30,    35.78  L  7164.30,   103.77  L  7223.79,   103.77  L  7223.79,    35.78  L  7164.30,    35.78  " /></a><a ewd:figtype="jb" style="cursor:pointer;" ewd:code="2" ewd:figID="53"><path style="&st4; " d=" M   246.46,   112.27  L   246.46,    35.78  L   305.95,    35.78  L   305.95,   112.27  L   246.46,   112.27  " /></a><a ewd:figtype="fuse" style="cursor:pointer;" ewd:code="FUSE23" ewd:figID="121"><path style="&st7; stroke-width:0;" d=" M    46.74,    35.78  L    46.74,    78.27  L    72.24,    78.27  L    72.24,    35.78  L    46.74,    35.78 " /></a><a ewd:figtype="fuse" style="cursor:pointer;" ewd:code="FUSE76" ewd:figID="122"><path style="&st7; stroke-width:0;" d=" M   148.73,    35.78  L   148.73,    78.27  L   174.22,    78.27  L   174.22,    35.78  L   148.73,    35.78 " /></a><a ewd:figtype="fuse" style="cursor:pointer;" ewd:code="FUSE59" ewd:figID="123"><path style="&st7; stroke-width:0;" d=" M   250.71,    35.78  L   250.71,    78.27  L   276.20,    78.27  L   276.20,    35.78  L   250.71,    35.78 " /></a><a ewd:figtype="fuse" style="cursor:pointer;" ewd:code="FUSE56" ewd:figID="124"><path style="&st7; stroke-width:0;" d=" M  4950.42,    78.27  L  4924.93,    78.27  L  4924.93,    35.78  L  4950.42,    35.78  L  4950.42,    78.27 " /></a><a ewd:figtype="fuse" style="cursor:pointer;" ewd:code="FUSE76" ewd:figID="125"><path style="&st7; stroke-width:0;" d=" M  6480.17,    35.78  L  6480.17,    78.27  L  6505.66,    78.27  L  6505.66,    35.78  L  6480.17,    35.78 " /></a><a ewd:figtype="fuse" style="cursor:pointer;" ewd:code="FUSE10" ewd:figID="126"><path style="&st7; stroke-width:0;" d=" M  6871.10,    35.78  L  6871.10,    78.27  L  6896.60,    78.27  L  6896.60,    35.78  L  6871.10,    35.78 " /></a><a ewd:figtype="fuse" style="cursor:pointer;" ewd:code="FUSE51" ewd:figID="127"><path style="&st7; stroke-width:0;" d=" M  7168.55,    35.78  L  7168.55,    78.27  L  7194.05,    78.27  L  7194.05,    35.78  L  7168.55,    35.78 " /></a><a ewd:comment="16,28" style="cursor:pointer;" ewd:lineID="1"><path style="stroke:#00A0C6;stroke-width: 5.10 ;&st6;" d=" M    59.49,   112.27  L    59.49,   188.75  " /></a><a ewd:comment="17,28" style="cursor:pointer;" ewd:lineID="2"><path style="stroke:#99D9E8;stroke-width: 5.10 ;&st6;" d=" M    59.49,   112.27  L    59.49,   120.77  L    50.99,   129.26  L    33.99,   129.26  L    33.99,   171.76  L    50.99,   171.76  L    59.49,   180.26  L    59.49,   188.75  " /></a><a style="cursor:pointer;" ewd:lineID="3"><path style="stroke:#999999;stroke-width: 5.10 ;&st6;" d=" M   161.47,   112.27  L   161.47,   162.12  " /></a><a ewd:comment="11,12" style="cursor:pointer;" ewd:lineID="4"><path style="stroke:#008837;stroke-width: 5.10 ;&st6;" d=" M   263.46,   112.27  L   263.46,   188.75  " /></a><a ewd:comment="11,12" style="cursor:pointer;" ewd:lineID="5"><path style="stroke:#008837;stroke-width: 5.10 ;&st6;" d=" M   365.44,   138.90  L   365.44,   239.75  L   263.46,   239.75  L   263.46,   205.75  " /></a><a ewd:comment="28" style="cursor:pointer;" ewd:lineID="6"><path style="stroke:#999999;stroke-width: 5.10 ;&st6;" d=" M   416.43,   147.96  L   416.43,   154.76  L   407.93,   163.26  L   390.93,   163.26  L   390.93,   256.74  L   161.47,   256.74  L   161.47,   215.38  " /></a><a ewd:comment="27" style="cursor:pointer;" ewd:lineID="7"><path style="stroke:#999999;stroke-width: 5.10 ;&st6;" d=" M   416.43,   147.96  L   416.43,   366.66  " /></a><a ewd:comment="28" style="cursor:pointer;" ewd:lineID="8"><path style="stroke:#99D9E8;stroke-width: 5.10 ;&st6;" d=" M   467.42,   147.96  L   467.42,   154.76  L   458.92,   163.26  L   441.93,   163.26  L   441.93,   273.74  L    59.49,   273.74  L    59.49,   203.48  " /></a><a ewd:comment="27" style="cursor:pointer;" ewd:lineID="9"><path style="stroke:#99D9E8;stroke-width: 5.10 ;&st6;" d=" M   467.42,   147.96  L   467.42,   366.66  " /></a><a style="cursor:pointer;" ewd:lineID="10"><path style="stroke:#F668B2;stroke-width: 5.10 ;&st6;" d=" M   543.91,   208.02  L   543.91,   147.96  " /></a><a ewd:comment="3" style="cursor:pointer;" ewd:lineID="11"><path style="stroke:#F668B2;stroke-width: 5.10 ;&st6;" d=" M   586.40,   341.73  L   586.40,   358.73  L   543.91,   358.73  L   543.91,   222.75  " /></a><a ewd:comment="4,5" style="cursor:pointer;" ewd:lineID="12"><path style="stroke:#F668B2;stroke-width: 5.10 ;&st6;" d=" M   611.90,   239.75  L   552.41,   239.75  L   543.91,   231.25  L   543.91,   222.75  " /></a><a ewd:comment="3" style="cursor:pointer;" ewd:lineID="13"><path style="stroke:#F668B2;stroke-width: 5.10 ;&st6;" d=" M   611.90,   239.75  L   603.40,   239.75  L   586.40,   256.74  L   586.40,   299.24  " /></a><a ewd:comment="3" style="cursor:pointer;" ewd:lineID="14"><path style="stroke:#56077D;stroke-width: 5.10 ;&st6;" d=" M   628.89,   239.75  L   637.39,   239.75  L   654.39,   256.74  L   654.39,   299.24  " /></a><a ewd:comment="4,5" style="cursor:pointer;" ewd:lineID="15"><path style="stroke:#56077D;stroke-width: 5.10 ;&st6;" d=" M   628.89,   239.75  L   705.38,   239.75  L   713.88,   231.25  L   713.88,   222.75  " /></a><a ewd:comment="3" style="cursor:pointer;" ewd:lineID="16"><path style="stroke:#56077D;stroke-width: 5.10 ;&st6;" d=" M   654.39,   341.73  L   654.39,   358.73  L   713.88,   358.73  L   713.88,   222.75  " /></a><a style="cursor:pointer;" ewd:lineID="17"><path style="stroke:#56077D;stroke-width: 5.10 ;&st6;" d=" M   713.88,   147.96  L   713.88,   208.02  " /></a><a ewd:comment="3,4" style="cursor:pointer;" ewd:lineID="18"><path style="stroke:#FF0000;stroke-width: 5.10 ;&st6;" d=" M   781.87,   282.24  L   781.87,   341.73  L   798.87,   341.73  " /></a><a ewd:comment="3,4" style="cursor:pointer;" ewd:lineID="19"><path style="stroke:#FF0000;stroke-width: 5.10 ;&st6;" d=" M   781.87,   211.98  L   781.87,   259.01  " /></a><a ewd:comment="3,4" style="cursor:pointer;" ewd:lineID="20"><path style="stroke:#FF0000;stroke-width: 5.10 ;&st6;" d=" M   781.87,   147.96  L   781.87,   197.25  " /></a><a ewd:comment="3,4" style="cursor:pointer;" ewd:lineID="21"> d=" M   832.86,   282.24  L   832.86,   341.73  L   815.86,   341.73 
	
		<path style="stroke:#000000;stroke-width: 5.10 ;&st6;" d=" M   832.86,   282.24  L   832.86,   341.73  L   815.86,   341.73  " /><path style="stroke:#FFFFFF;stroke-width: 4.53 ;&st6;" d=" M   832.86,   282.24  L   832.86,   341.73  L   815.86,   341.73  " /></a><a ewd:comment="3,4" style="cursor:pointer;" ewd:lineID="22"> d=" M   832.86,   212.27  L   832.86,   258.73 
	
		<path style="stroke:#000000;stroke-width: 5.10 ;&st6;" d=" M   832.86,   212.27  L   832.86,   258.73  " /><path style="stroke:#FFFFFF;stroke-width: 4.53 ;&st6;" d=" M   832.86,   212.27  L   832.86,   258.73  " /></a><a ewd:comment="3,4" style="cursor:pointer;" ewd:lineID="23"> d=" M   832.86,   147.96  L   832.86,   197.25 
	
		<path style="stroke:#000000;stroke-width: 5.10 ;&st6;" d=" M   832.86,   147.96  L   832.86,   197.25  " /><path style="stroke:#FFFFFF;stroke-width: 4.53 ;&st6;" d=" M   832.86,   147.96  L   832.86,   197.25  " /></a><a ewd:comment="3,4" style="cursor:pointer;" ewd:lineID="24"><path style="stroke:#000000;stroke-width: 5.10 ;&st6;" d=" M   900.85,   282.24  L   900.85,   341.73  L   917.85,   341.73  " /></a><a ewd:comment="3,4" style="cursor:pointer;" ewd:lineID="25"><path style="stroke:#000000;stroke-width: 5.10 ;&st6;" d=" M   900.85,   211.98  L   900.85,   259.01  " /></a><a ewd:comment="3,4" style="cursor:pointer;" ewd:lineID="26"><path style="stroke:#000000;stroke-width: 5.10 ;&st6;" d=" M   900.85,   147.96  L   900.85,   197.25  " /></a><a ewd:comment="3,4" style="cursor:pointer;" ewd:lineID="27"><path style="stroke:#FFE600;stroke-width: 5.10 ;&st6;" d=" M   951.84,   282.24  L   951.84,   341.73  L   934.84,   341.73  " /></a><a ewd:comment="3,4" style="cursor:pointer;" ewd:lineID="28"><path style="stroke:#FFE600;stroke-width: 5.10 ;&st6;" d=" M   951.84,   211.98  L   951.84,   259.01  " /></a><a ewd:comment="3,4" style="cursor:pointer;" ewd:lineID="29"><path style="stroke:#FFE600;stroke-width: 5.10 ;&st6;" d=" M   951.84,   147.96  L   951.84,   197.25  " /></a><a style="cursor:pointer;" ewd:lineID="30"><path style="stroke:#992903;stroke-width: 5.10 ;&st6;" d=" M  1062.32,   681.67  L  1062.32,   163.26  L  1087.82,   163.26  L  1096.32,   154.76  L  1096.32,   147.96  " /></a><a style="cursor:pointer;" ewd:lineID="31"><path style="stroke:#992903;stroke-width: 5.10 ;&st6;" d=" M  1096.32,   147.96  L  1096.32,   681.67  " /></a><a ewd:comment="20" style="cursor:pointer;" ewd:lineID="32"><path style="stroke:#000000;stroke-width: 5.10 ;&st6;" d=" M  1138.81,   147.96  L  1138.81,   681.67  " /><path style="stroke:#FFFFFF;stroke-width: 4.53 ;&st6;" d=" M  1138.81,   147.96  L  1138.81,   681.67  " /><path style="stroke:#000000;stroke-width: 1.13 ;&st6;" d=" M  1138.81,   147.96  L  1138.81,   681.67  " /></a><a ewd:comment="20" style="cursor:pointer;" ewd:lineID="33"><path style="stroke:#000000;stroke-width: 5.10 ;&st6;" d=" M  1172.80,   681.67  L  1172.80,   163.26  L  1147.31,   163.26  L  1138.81,   154.76  L  1138.81,   147.96  " /><path style="stroke:#FFFFFF;stroke-width: 4.53 ;&st6;" d=" M  1172.80,   681.67  L  1172.80,   163.26  L  1147.31,   163.26  L  1138.81,   154.76  L  1138.81,   147.96  " /><path style="stroke:#000000;stroke-width: 1.13 ;&st6;" d=" M  1172.80,   681.67  L  1172.80,   163.26  L  1147.31,   163.26  L  1138.81,   154.76  L  1138.81,   147.96  " /></a><a ewd:comment="8" style="cursor:pointer;" ewd:lineID="34"><path style="stroke:#000000;stroke-width: 5.10 ;&st6;" d=" M  1232.29,   299.24  L  1232.29,   469.21  L  1529.74,   469.21  L  1529.74,   356.46  " /></a><a ewd:comment="8" style="cursor:pointer;" ewd:lineID="35"><path style="stroke:#000000;stroke-width: 5.10 ;&st6;" d=" M  1232.29,   211.98  L  1232.29,   284.50  " /></a><a ewd:comment="8" style="cursor:pointer;" ewd:lineID="36"><path style="stroke:#000000;stroke-width: 5.10 ;&st6;" d=" M  1232.29,   138.90  L  1232.29,   197.25  " /></a><a ewd:comment="8" style="cursor:pointer;" ewd:lineID="37"><path style="stroke:#FF0000;stroke-width: 5.10 ;&st6;" d=" M  1274.79,   299.24  L  1274.79,   452.21  L  1487.25,   452.21  L  1487.25,   356.46  " /></a><a ewd:comment="8" style="cursor:pointer;" ewd:lineID="38"><path style="stroke:#FF0000;stroke-width: 5.10 ;&st6;" d=" M  1274.79,   211.98  L  1274.79,   284.50  " /></a><a ewd:comment="8" style="cursor:pointer;" ewd:lineID="39"><path style="stroke:#FF0000;stroke-width: 5.10 ;&st6;" d=" M  1274.79,   138.90  L  1274.79,   197.25  " /></a><a ewd:comment="8" style="cursor:pointer;" ewd:lineID="40"> d=" M  1317.28,   299.24  L  1317.28,   435.21  L  1444.76,   435.21  L  1444.76,   356.74 
	
		<path style="stroke:#000000;stroke-width: 5.10 ;&st6;" d=" M  1317.28,   299.24  L  1317.28,   435.21  L  1444.76,   435.21  L  1444.76,   356.74  " /><path style="stroke:#FFFFFF;stroke-width: 4.53 ;&st6;" d=" M  1317.28,   299.24  L  1317.28,   435.21  L  1444.76,   435.21  L  1444.76,   356.74  " /></a><a ewd:comment="8" style="cursor:pointer;" ewd:lineID="41"> d=" M  1317.28,   212.27  L  1317.28,   284.22 
	
		<path style="stroke:#000000;stroke-width: 5.10 ;&st6;" d=" M  1317.28,   212.27  L  1317.28,   284.22  " /><path style="stroke:#FFFFFF;stroke-width: 4.53 ;&st6;" d=" M  1317.28,   212.27  L  1317.28,   284.22  " /></a><a ewd:comment="8" style="cursor:pointer;" ewd:lineID="42"> d=" M  1317.28,   138.90  L  1317.28,   197.25 
	
		<path style="stroke:#000000;stroke-width: 5.10 ;&st6;" d=" M  1317.28,   138.90  L  1317.28,   197.25  " /><path style="stroke:#FFFFFF;stroke-width: 4.53 ;&st6;" d=" M  1317.28,   138.90  L  1317.28,   197.25  " /></a><a ewd:comment="8" style="cursor:pointer;" ewd:lineID="43"><path style="stroke:#00A0C6;stroke-width: 5.10 ;&st6;" d=" M  1359.77,   299.24  L  1359.77,   333.23  " /></a><a ewd:comment="8" style="cursor:pointer;" ewd:lineID="44"><path style="stroke:#00A0C6;stroke-width: 5.10 ;&st6;" d=" M  1359.77,   256.74  L  1359.77,   284.50  " /></a><a ewd:comment="8" style="cursor:pointer;" ewd:lineID="45"><path style="stroke:#00A0C6;stroke-width: 5.10 ;&st6;" d=" M  1402.27,   356.46  L  1402.27,   409.72  L  1368.27,   409.72  " /></a><a ewd:comment="8" style="cursor:pointer;" ewd:lineID="46"><path style="stroke:#00A0C6;stroke-width: 5.10 ;&st6;" d=" M  1402.27,   307.73  L  1402.27,   341.73  " /></a><a ewd:comment="8" style="cursor:pointer;" ewd:lineID="47"><path style="stroke:#00A0C6;stroke-width: 5.10 ;&st6;" d=" M  1402.27,   222.75  L  1402.27,   188.75  " /></a><a ewd:comment="8" style="cursor:pointer;" ewd:lineID="48"> d=" M  1444.76,   341.73  L  1444.76,   188.75 
	
		<path style="stroke:#000000;stroke-width: 5.10 ;&st6;" d=" M  1444.76,   341.73  L  1444.76,   188.75  " /><path style="stroke:#FFFFFF;stroke-width: 4.53 ;&st6;" d=" M  1444.76,   341.73  L  1444.76,   188.75  " /></a><a ewd:comment="8" style="cursor:pointer;" ewd:lineID="49"><path style="stroke:#FF0000;stroke-width: 5.10 ;&st6;" d=" M  1487.25,   341.73  L  1487.25,   188.75  " /></a><a ewd:comment="8" style="cursor:pointer;" ewd:lineID="50"><path style="stroke:#000000;stroke-width: 5.10 ;&st6;" d=" M  1529.74,   341.73  L  1529.74,   188.75  " /></a><a ewd:comment="29" style="cursor:pointer;" ewd:lineID="51"><path style="stroke:#7FC97F;stroke-width: 5.10 ;&st6;" d=" M  1767.70,   208.02  L  1767.70,   205.75  L  1759.21,   197.25  L  1742.21,   197.25  L  1742.21,   588.19  L  2226.63,   588.19  L  2226.63,   452.21  " /></a><a ewd:comment="30" style="cursor:pointer;" ewd:lineID="52"><path style="stroke:#7FC97F;stroke-width: 5.10 ;&st6;" d=" M  1767.70,   147.96  L  1767.70,   208.02  " /></a><a ewd:comment="29" style="cursor:pointer;" ewd:lineID="53"><path style="stroke:#7FC97F;stroke-width: 5.10 ;&st6;" d=" M  1767.70,   147.96  L  1767.70,   154.76  L  1759.21,   163.26  L  1716.71,   163.26  L  1716.71,   613.68  L  2260.62,   613.68  L  2260.62,   452.21  " /></a><a ewd:comment="3" style="cursor:pointer;" ewd:lineID="54"><path style="stroke:#7FC97F;stroke-width: 5.10 ;&st6;" d=" M  1810.20,   341.73  L  1810.20,   367.22  L  1767.70,   367.22  L  1767.70,   222.75  " /></a><a ewd:comment="3" style="cursor:pointer;" ewd:lineID="55"><path style="stroke:#7FC97F;stroke-width: 5.10 ;&st6;" d=" M  1810.20,   299.24  L  1810.20,   256.74  L  1827.19,   239.75  L  1835.69,   239.75  " /></a><a ewd:comment="4,5" style="cursor:pointer;" ewd:lineID="56"><path style="stroke:#7FC97F;stroke-width: 5.10 ;&st6;" d=" M  1835.69,   239.75  L  1776.20,   239.75  L  1767.70,   231.25  L  1767.70,   222.75  " /></a><a ewd:comment="4,5" style="cursor:pointer;" ewd:lineID="57"><path style="stroke:#00A0C6;stroke-width: 5.10 ;&st6;" d=" M  1852.69,   239.75  L  1929.18,   239.75  L  1937.68,   231.25  L  1937.68,   222.75  " /></a><a ewd:comment="3" style="cursor:pointer;" ewd:lineID="58"><path style="stroke:#00A0C6;stroke-width: 5.10 ;&st6;" d=" M  1878.19,   341.73  L  1878.19,   367.22  L  1937.68,   367.22  L  1937.68,   222.75  " /></a><a ewd:comment="3" style="cursor:pointer;" ewd:lineID="59"><path style="stroke:#00A0C6;stroke-width: 5.10 ;&st6;" d=" M  1878.19,   299.24  L  1878.19,   256.74  L  1861.19,   239.75  L  1852.69,   239.75  " /></a><a ewd:comment="29" style="cursor:pointer;" ewd:lineID="60"><path style="stroke:#00A0C6;stroke-width: 5.10 ;&st6;" d=" M  1937.68,   208.02  L  1937.68,   205.75  L  1946.17,   197.25  L  1963.17,   197.25  L  1963.17,   562.69  L  2192.63,   562.69  L  2192.63,   452.21  " /></a><a ewd:comment="30" style="cursor:pointer;" ewd:lineID="61"><path style="stroke:#00A0C6;stroke-width: 5.10 ;&st6;" d=" M  1937.68,   147.96  L  1937.68,   208.02  " /></a><a ewd:comment="29" style="cursor:pointer;" ewd:lineID="62"><path style="stroke:#00A0C6;stroke-width: 5.10 ;&st6;" d=" M  1937.68,   147.96  L  1937.68,   154.76  L  1946.17,   163.26  L  1988.67,   163.26  L  1988.67,   537.20  L  2158.64,   537.20  L  2158.64,   452.21  " /></a><a ewd:comment="29" style="cursor:pointer;" ewd:lineID="63"><path style="stroke:#7FC97F;stroke-width: 5.10 ;&st6;" d=" M  2158.64,   138.90  L  2158.64,   409.72  " /></a><a ewd:comment="20" style="cursor:pointer;" ewd:lineID="64"> d=" M  2422.10,   341.73  L  2422.10,   409.72 
	
		<path style="stroke:#000000;stroke-width: 5.10 ;&st6;" d=" M  2422.10,   341.73  L  2422.10,   409.72  " /><path style="stroke:#FFFFFF;stroke-width: 4.53 ;&st6;" d=" M  2422.10,   341.73  L  2422.10,   409.72  " /></a><a ewd:comment="20,29" style="cursor:pointer;" ewd:lineID="65"> d=" M  2422.10,   326.71  L  2422.10,   324.73  L  2413.60,   316.23  L  2362.61,   316.23  L  2362.61,   409.72 
	
		<path style="stroke:#000000;stroke-width: 5.10 ;&st6;" d=" M  2422.10,   326.71  L  2422.10,   324.73  L  2413.60,   316.23  L  2362.61,   316.23  L  2362.61,   409.72  " /><path style="stroke:#FFFFFF;stroke-width: 4.53 ;&st6;" d=" M  2422.10,   326.71  L  2422.10,   324.73  L  2413.60,   316.23  L  2362.61,   316.23  L  2362.61,   409.72  " /></a><a ewd:comment="20,29" style="cursor:pointer;" ewd:lineID="66"><path style="stroke:#008837;stroke-width: 5.10 ;&st6;" d=" M  2422.10,   147.96  L  2422.10,   154.76  L  2413.60,   163.26  L  2192.63,   163.26  L  2192.63,   409.72  " /></a><a ewd:comment="20,30" style="cursor:pointer;" ewd:lineID="67"> d=" M  2422.10,   147.96  L  2422.10,   326.71 
	
		<path style="stroke:#000000;stroke-width: 5.10 ;&st6;" d=" M  2422.10,   147.96  L  2422.10,   326.71  " /><path style="stroke:#FFFFFF;stroke-width: 4.53 ;&st6;" d=" M  2422.10,   147.96  L  2422.10,   326.71  " /></a><a ewd:comment="20" style="cursor:pointer;" ewd:lineID="68"><path style="stroke:#FF0000;stroke-width: 5.10 ;&st6;" d=" M  2464.59,   341.73  L  2464.59,   409.72  " /></a><a ewd:comment="20,29" style="cursor:pointer;" ewd:lineID="69"><path style="stroke:#FF0000;stroke-width: 5.10 ;&st6;" d=" M  2464.59,   327.00  L  2464.59,   324.73  L  2447.59,   307.73  L  2447.59,   299.24  L  2328.61,   299.24  L  2328.61,   409.72  " /></a><a ewd:comment="20,29" style="cursor:pointer;" ewd:lineID="70"><path style="stroke:#FF0000;stroke-width: 5.10 ;&st6;" d=" M  2464.59,   147.96  L  2464.59,   154.76  L  2447.59,   171.76  L  2447.59,   180.26  L  2226.63,   180.26  L  2226.63,   409.72  " /></a><a ewd:comment="20,30" style="cursor:pointer;" ewd:lineID="71"><path style="stroke:#FF0000;stroke-width: 5.10 ;&st6;" d=" M  2464.59,   147.96  L  2464.59,   327.00  " /></a><a ewd:comment="20" style="cursor:pointer;" ewd:lineID="72"><path style="stroke:#000000;stroke-width: 5.10 ;&st6;" d=" M  2507.08,   409.72  L  2507.08,   341.73  " /></a><a ewd:comment="20,29" style="cursor:pointer;" ewd:lineID="73"><path style="stroke:#000000;stroke-width: 5.10 ;&st6;" d=" M  2507.08,   327.00  L  2507.08,   324.73  L  2490.08,   307.73  L  2490.08,   282.24  L  2294.62,   282.24  L  2294.62,   409.72  " /></a><a ewd:comment="20,30" style="cursor:pointer;" ewd:lineID="74"><path style="stroke:#000000;stroke-width: 5.10 ;&st6;" d=" M  2507.08,   147.96  L  2507.08,   327.00  " /></a><a ewd:comment="#,21" style="cursor:pointer;" ewd:lineID="75"><path style="stroke:#000000;stroke-width: 0.85 ;&st6;" d=" M  2906.51,   129.83  L  2906.51,   222.18  " /></a><a ewd:comment="21" style="cursor:pointer;" ewd:lineID="76"><path style="stroke:#000000;stroke-width: 5.10 ;&st6;" d=" M  2932.01,   129.83  L  2932.01,   222.18  " /></a><a ewd:comment="21" style="cursor:pointer;" ewd:lineID="77"><path style="stroke:#000000;stroke-width: 5.10 ;&st6;" d=" M  2957.51,   129.83  L  2957.51,   222.18  " /></a><a ewd:comment="21" style="cursor:pointer;" ewd:lineID="78"><path style="stroke:#000000;stroke-width: 5.10 ;&st6;" d=" M  2983.00,   129.83  L  2983.00,   222.18  " /></a><a ewd:comment="21" style="cursor:pointer;" ewd:lineID="79"> d=" M  3008.50,   129.83  L  3008.50,   222.18 
	
		<path style="stroke:#000000;stroke-width: 5.10 ;&st6;" d=" M  3008.50,   129.83  L  3008.50,   222.18  " /><path style="stroke:#FFFFFF;stroke-width: 4.53 ;&st6;" d=" M  3008.50,   129.83  L  3008.50,   222.18  " /></a><a ewd:comment="21" style="cursor:pointer;" ewd:lineID="80"><path style="stroke:#000000;stroke-width: 5.10 ;&st6;" d=" M  3033.99,   129.83  L  3033.99,   222.18  " /></a><a ewd:comment="21" style="cursor:pointer;" ewd:lineID="81"><path style="stroke:#000000;stroke-width: 5.10 ;&st6;" d=" M  3059.49,   129.83  L  3059.49,   222.18  " /></a><a ewd:comment="21" style="cursor:pointer;" ewd:lineID="82"> d=" M  3084.98,   129.83  L  3084.98,   222.18 
	
		<path style="stroke:#000000;stroke-width: 5.10 ;&st6;" d=" M  3084.98,   129.83  L  3084.98,   222.18  " /><path style="stroke:#FFFFFF;stroke-width: 4.53 ;&st6;" d=" M  3084.98,   129.83  L  3084.98,   222.18  " /></a><a ewd:comment="22" style="cursor:pointer;" ewd:lineID="83"><path style="stroke:#000000;stroke-width: 5.10 ;&st6;" d=" M  3161.47,   231.25  L  3161.47,   324.73  " /></a><a ewd:comment="22" style="cursor:pointer;" ewd:lineID="84"><path style="stroke:#000000;stroke-width: 5.10 ;&st6;" d=" M  3161.47,   138.90  L  3161.47,   216.52  " /></a><a ewd:comment="22" style="cursor:pointer;" ewd:lineID="85"> d=" M  3203.96,   231.25  L  3203.96,   324.73 
	
		<path style="stroke:#000000;stroke-width: 5.10 ;&st6;" d=" M  3203.96,   231.25  L  3203.96,   324.73  " /><path style="stroke:#FFFFFF;stroke-width: 4.53 ;&st6;" d=" M  3203.96,   231.25  L  3203.96,   324.73  " /></a><a ewd:comment="22" style="cursor:pointer;" ewd:lineID="86"> d=" M  3203.96,   138.90  L  3203.96,   216.23 
	
		<path style="stroke:#000000;stroke-width: 5.10 ;&st6;" d=" M  3203.96,   138.90  L  3203.96,   216.23  " /><path style="stroke:#FFFFFF;stroke-width: 4.53 ;&st6;" d=" M  3203.96,   138.90  L  3203.96,   216.23  " /></a><a ewd:comment="22" style="cursor:pointer;" ewd:lineID="87"><path style="stroke:#000000;stroke-width: 5.10 ;&st6;" d=" M  3288.95,   324.73  L  3288.95,   231.25  " /></a><a ewd:comment="22" style="cursor:pointer;" ewd:lineID="88"><path style="stroke:#008837;stroke-width: 5.10 ;&st6;" d=" M  3288.95,   216.52  L  3288.95,   138.90  " /></a><a ewd:comment="22" style="cursor:pointer;" ewd:lineID="89"><path style="stroke:#000000;stroke-width: 5.10 ;&st6;" d=" M  3339.94,   231.25  L  3339.94,   324.73  " /></a><a ewd:comment="22" style="cursor:pointer;" ewd:lineID="90"><path style="stroke:#000000;stroke-width: 5.10 ;&st6;" d=" M  3339.94,   138.90  L  3339.94,   216.52  " /></a><a ewd:comment="22" style="cursor:pointer;" ewd:lineID="91"><path style="stroke:#FF0000;stroke-width: 5.10 ;&st6;" d=" M  3382.43,   231.25  L  3382.43,   324.73  " /></a><a ewd:comment="22" style="cursor:pointer;" ewd:lineID="92"><path style="stroke:#FF0000;stroke-width: 5.10 ;&st6;" d=" M  3382.43,   138.90  L  3382.43,   216.52  " /></a><a ewd:comment="22" style="cursor:pointer;" ewd:lineID="93"> d=" M  3424.93,   324.73  L  3424.93,   231.25 
	
		<path style="stroke:#000000;stroke-width: 5.10 ;&st6;" d=" M  3424.93,   324.73  L  3424.93,   231.25  " /><path style="stroke:#FFFFFF;stroke-width: 4.53 ;&st6;" d=" M  3424.93,   324.73  L  3424.93,   231.25  " /></a><a ewd:comment="22" style="cursor:pointer;" ewd:lineID="94"> d=" M  3424.93,   138.90  L  3424.93,   216.23 
	
		<path style="stroke:#000000;stroke-width: 5.10 ;&st6;" d=" M  3424.93,   138.90  L  3424.93,   216.23  " /><path style="stroke:#FFFFFF;stroke-width: 4.53 ;&st6;" d=" M  3424.93,   138.90  L  3424.93,   216.23  " /></a><a ewd:comment="#,22" style="cursor:pointer;" ewd:lineID="95"><path style="stroke:#000000;stroke-width: 0.85 ;&st6;" d=" M  3518.41,   138.90  L  3518.41,   324.73  " /></a><a ewd:comment="#,22" style="cursor:pointer;" ewd:lineID="96"><path style="stroke:#000000;stroke-width: 0.85 ;&st6;" d=" M  3560.91,   138.90  L  3560.91,   324.73  " /></a><a ewd:comment="#,22" style="cursor:pointer;" ewd:lineID="97"><path style="stroke:#000000;stroke-width: 0.85 ;&st6;" d=" M  3722.38,   138.90  L  3722.38,   324.73  " /></a><a ewd:comment="#,22" style="cursor:pointer;" ewd:lineID="98"><path style="stroke:#000000;stroke-width: 0.85 ;&st6;" d=" M  3764.87,   138.90  L  3764.87,   324.73  " /></a><a ewd:comment="9" style="cursor:pointer;" ewd:lineID="99"><path style="stroke:#008837;stroke-width: 5.10 ;&st6;" d=" M  3841.36,   324.16  L  3841.36,   147.96  " /></a><a ewd:comment="9" style="cursor:pointer;" ewd:lineID="100"><path style="stroke:#56077D;stroke-width: 5.10 ;&st6;" d=" M  3892.35,   324.16  L  3892.35,   205.75  L  4045.32,   205.75  L  4045.32,   315.10  " /></a><a ewd:comment="9" style="cursor:pointer;" ewd:lineID="101"><path style="stroke:#FFE600;stroke-width: 5.10 ;&st6;" d=" M  3943.34,   324.16  L  3943.34,   147.96  " /></a><a ewd:comment="9" style="cursor:pointer;" ewd:lineID="102"><path style="stroke:#000000;stroke-width: 5.10 ;&st6;" d=" M  4045.32,   368.36  L  4045.32,   681.67  " /><path style="stroke:#FFFFFF;stroke-width: 4.53 ;&st6;" d=" M  4045.32,   368.36  L  4045.32,   681.67  " /><path style="stroke:#000000;stroke-width: 1.13 ;&st6;" d=" M  4045.32,   368.36  L  4045.32,   681.67  " /></a><a ewd:comment="9" style="cursor:pointer;" ewd:lineID="103"><path style="stroke:#56077D;stroke-width: 5.10 ;&st6;" d=" M  4079.32,   315.10  L  4079.32,   147.96  " /></a><a ewd:comment="9" style="cursor:pointer;" ewd:lineID="104"><path style="stroke:#000000;stroke-width: 5.10 ;&st6;" d=" M  4087.82,   681.67  L  4087.82,   384.22  L  4053.82,   384.22  L  4045.32,   375.72  L  4045.32,   368.36  " /><path style="stroke:#FFFFFF;stroke-width: 4.53 ;&st6;" d=" M  4087.82,   681.67  L  4087.82,   384.22  L  4053.82,   384.22  L  4045.32,   375.72  L  4045.32,   368.36  " /><path style="stroke:#000000;stroke-width: 1.13 ;&st6;" d=" M  4087.82,   681.67  L  4087.82,   384.22  L  4053.82,   384.22  L  4045.32,   375.72  L  4045.32,   368.36  " /></a><a ewd:comment="22" style="cursor:pointer;" ewd:lineID="105"><path style="stroke:#008837;stroke-width: 5.10 ;&st6;" d=" M  4257.79,   469.21  L  4257.79,   398.95  " /></a><a ewd:comment="22" style="cursor:pointer;" ewd:lineID="106"><path style="stroke:#008837;stroke-width: 5.10 ;&st6;" d=" M  4257.79,   375.72  L  4257.79,   300.37  " /></a><a ewd:comment="22" style="cursor:pointer;" ewd:lineID="107"><path style="stroke:#008837;stroke-width: 5.10 ;&st6;" d=" M  4257.79,   138.90  L  4257.79,   247.11  " /></a><a ewd:comment="22" style="cursor:pointer;" ewd:lineID="108"> d=" M  4376.77,   138.90  L  4376.77,   613.68  L  6603.40,   613.68  L  6603.40,   469.77 
	
		<path style="stroke:#000000;stroke-width: 5.10 ;&st6;" d=" M  4376.77,   138.90  L  4376.77,   613.68  L  6603.40,   613.68  L  6603.40,   469.77  " /><path style="stroke:#FFFFFF;stroke-width: 4.53 ;&st6;" d=" M  4376.77,   138.90  L  4376.77,   613.68  L  6603.40,   613.68  L  6603.40,   469.77  " /></a><a ewd:comment="22" style="cursor:pointer;" ewd:lineID="109"><path style="stroke:#000000;stroke-width: 5.10 ;&st6;" d=" M  4410.76,   138.90  L  4410.76,   596.69  L  6569.40,   596.69  L  6569.40,   469.77  " /></a><a style="cursor:pointer;" ewd:lineID="110"> d=" M  4546.74,   300.37  L  4546.74,   545.69  L  6365.44,   545.69  L  6365.44,   469.77 
	
		<path style="stroke:#000000;stroke-width: 5.10 ;&st6;" d=" M  4546.74,   300.37  L  4546.74,   545.69  L  6365.44,   545.69  L  6365.44,   469.77  " /><path style="stroke:#FFFFFF;stroke-width: 4.53 ;&st6;" d=" M  4546.74,   300.37  L  4546.74,   545.69  L  6365.44,   545.69  L  6365.44,   469.77  " /></a><a style="cursor:pointer;" ewd:lineID="111"> d=" M  4546.74,   147.96  L  4546.74,   247.11 
	
		<path style="stroke:#000000;stroke-width: 5.10 ;&st6;" d=" M  4546.74,   147.96  L  4546.74,   247.11  " /><path style="stroke:#FFFFFF;stroke-width: 4.53 ;&st6;" d=" M  4546.74,   147.96  L  4546.74,   247.11  " /></a><a ewd:comment="22" style="cursor:pointer;" ewd:lineID="112"><path style="stroke:#56077D;stroke-width: 5.10 ;&st6;" d=" M  4716.71,   138.90  L  4716.71,   265.24  " /></a><a ewd:comment="31,12" style="cursor:pointer;" ewd:lineID="113"><path style="stroke:#56077D;stroke-width: 5.10 ;&st6;" d=" M  4716.71,   138.90  L  4716.71,   146.26  L  4733.71,   163.26  L  4733.71,   180.26  L  4810.20,   180.26  L  4810.20,   460.71  L  5456.09,   460.71  L  5456.09,   325.30  " /></a><a ewd:comment="22" style="cursor:pointer;" ewd:lineID="114"> d=" M  4759.20,   282.24  L  4759.20,   477.71  L  5804.53,   477.71  L  5804.53,   146.26 
	
		<path style="stroke:#000000;stroke-width: 5.10 ;&st6;" d=" M  4759.20,   282.24  L  4759.20,   477.71  L  5804.53,   477.71  L  5804.53,   146.26  " /><path style="stroke:#FFFFFF;stroke-width: 4.53 ;&st6;" d=" M  4759.20,   282.24  L  4759.20,   477.71  L  5804.53,   477.71  L  5804.53,   146.26  " /></a><a ewd:comment="22" style="cursor:pointer;" ewd:lineID="115"> d=" M  4759.20,   138.90  L  4759.20,   265.24 
	
		<path style="stroke:#000000;stroke-width: 5.10 ;&st6;" d=" M  4759.20,   138.90  L  4759.20,   265.24  " /><path style="stroke:#FFFFFF;stroke-width: 4.53 ;&st6;" d=" M  4759.20,   138.90  L  4759.20,   265.24  " /></a><a ewd:comment="31,12" style="cursor:pointer;" ewd:lineID="116"> d=" M  4759.20,   138.90  L  4759.20,   146.26  L  4776.20,   163.26  L  4844.19,   163.26  L  4844.19,   443.71  L  5422.09,   443.71  L  5422.09,   325.30 
	
		<path style="stroke:#000000;stroke-width: 5.10 ;&st6;" d=" M  4759.20,   138.90  L  4759.20,   146.26  L  4776.20,   163.26  L  4844.19,   163.26  L  4844.19,   443.71  L  5422.09,   443.71  L  5422.09,   325.30  " /><path style="stroke:#FFFFFF;stroke-width: 4.53 ;&st6;" d=" M  4759.20,   138.90  L  4759.20,   146.26  L  4776.20,   163.26  L  4844.19,   163.26  L  4844.19,   443.71  L  5422.09,   443.71  L  5422.09,   325.30  " /></a><a ewd:comment="22" style="cursor:pointer;" ewd:lineID="117"><path style="stroke:#FF0000;stroke-width: 5.10 ;&st6;" d=" M  4878.18,   138.90  L  4878.18,   265.24  " /></a><a ewd:comment="22" style="cursor:pointer;" ewd:lineID="118"><path style="stroke:#FF0000;stroke-width: 5.10 ;&st6;" d=" M  4937.67,   299.24  L  4937.67,   358.73  L  5014.16,   358.73  L  5022.66,   367.22  L  5022.66,   375.72  " /></a><a ewd:comment="22" style="cursor:pointer;" ewd:lineID="119"><path style="stroke:#F668B2;stroke-width: 5.10 ;&st6;" d=" M  4937.67,   188.75  L  4937.67,   265.24  " /></a><a ewd:comment="22" style="cursor:pointer;" ewd:lineID="120"><path style="stroke:#F668B2;stroke-width: 5.10 ;&st6;" d=" M  4937.67,   188.75  L  4937.67,   197.25  L  4946.17,   205.75  L  5005.66,   205.75  L  5005.66,   265.24  " /></a><a ewd:comment="22" style="cursor:pointer;" ewd:lineID="121"><path style="stroke:#F668B2;stroke-width: 5.10 ;&st6;" d=" M  4937.67,   112.27  L  4937.67,   174.02  " /></a><a ewd:comment="22" style="cursor:pointer;" ewd:lineID="122"><path style="stroke:#FF0000;stroke-width: 5.10 ;&st6;" d=" M  5022.66,   390.45  L  5022.66,   409.72  L  4878.18,   409.72  L  4878.18,   282.24  " /></a><a ewd:comment="22" style="cursor:pointer;" ewd:lineID="123"><path style="stroke:#FF0000;stroke-width: 5.10 ;&st6;" d=" M  5022.66,   299.24  L  5022.66,   375.72  " /></a><a ewd:comment="31,12" style="cursor:pointer;" ewd:lineID="124"> d=" M  5320.11,   163.26  L  5320.11,   281.67 
	
		<path style="stroke:#000000;stroke-width: 5.10 ;&st6;" d=" M  5320.11,   163.26  L  5320.11,   281.67  " /><path style="stroke:#FFFFFF;stroke-width: 4.53 ;&st6;" d=" M  5320.11,   163.26  L  5320.11,   281.67  " /></a><a ewd:comment="31,12" style="cursor:pointer;" ewd:lineID="125"><path style="stroke:#F668B2;stroke-width: 5.10 ;&st6;" d=" M  5354.11,   163.26  L  5354.11,   281.67  " /></a><a ewd:comment="31,12" style="cursor:pointer;" ewd:lineID="126"> d=" M  5422.09,   163.26  L  5422.09,   281.67 
	
		<path style="stroke:#000000;stroke-width: 5.10 ;&st6;" d=" M  5422.09,   163.26  L  5422.09,   281.67  " /><path style="stroke:#FFFFFF;stroke-width: 4.53 ;&st6;" d=" M  5422.09,   163.26  L  5422.09,   281.67  " /></a><a ewd:comment="31,12" style="cursor:pointer;" ewd:lineID="127"><path style="stroke:#56077D;stroke-width: 5.10 ;&st6;" d=" M  5456.09,   163.26  L  5456.09,   281.67  " /></a><a ewd:comment="31,12" style="cursor:pointer;" ewd:lineID="128"> d=" M  5804.53,   120.77  L  5804.53,    95.27  L  5456.09,    95.27  L  5456.09,   120.77 
	
		<path style="stroke:#000000;stroke-width: 5.10 ;&st6;" d=" M  5804.53,   120.77  L  5804.53,    95.27  L  5456.09,    95.27  L  5456.09,   120.77  " /><path style="stroke:#FFFFFF;stroke-width: 4.53 ;&st6;" d=" M  5804.53,   120.77  L  5804.53,    95.27  L  5456.09,    95.27  L  5456.09,   120.77  " /></a><a ewd:comment="22" style="cursor:pointer;" ewd:lineID="129"><path style="stroke:#7FC97F;stroke-width: 5.10 ;&st6;" d=" M  5847.02,   146.26  L  5847.02,   494.70  L  4716.71,   494.70  L  4716.71,   282.24  " /></a><a ewd:comment="31,12" style="cursor:pointer;" ewd:lineID="130"><path style="stroke:#FF0000;stroke-width: 5.10 ;&st6;" d=" M  5847.02,   120.77  L  5847.02,    69.77  L  5422.09,    69.77  L  5422.09,   120.77  " /></a><a ewd:comment="22" style="cursor:pointer;" ewd:lineID="131"><path style="stroke:#99D9E8;stroke-width: 5.10 ;&st6;" d=" M  5898.01,   146.26  L  5898.01,   664.67  L  7079.32,   664.67  L  7079.32,   469.77  " /></a><a ewd:comment="22" style="cursor:pointer;" ewd:lineID="132"> d=" M  5940.51,   146.26  L  5940.51,   647.68  L  7045.32,   647.68  L  7045.32,   469.77 
	
		<path style="stroke:#000000;stroke-width: 5.10 ;&st6;" d=" M  5940.51,   146.26  L  5940.51,   647.68  L  7045.32,   647.68  L  7045.32,   469.77  " /><path style="stroke:#FFFFFF;stroke-width: 4.53 ;&st6;" d=" M  5940.51,   146.26  L  5940.51,   647.68  L  7045.32,   647.68  L  7045.32,   469.77  " /></a><a ewd:comment="22" style="cursor:pointer;" ewd:lineID="133"><path style="stroke:#000000;stroke-width: 5.10 ;&st6;" d=" M  5983.00,   350.23  L  5983.00,   239.75  " /></a><a ewd:comment="22" style="cursor:pointer;" ewd:lineID="134"><path style="stroke:#000000;stroke-width: 5.10 ;&st6;" d=" M  5983.00,   146.26  L  5983.00,   225.01  " /></a><a style="cursor:pointer;" ewd:lineID="135"><path style="stroke:#FFE600;stroke-width: 5.10 ;&st6;" d=" M  6025.49,   392.72  L  6025.49,   494.70  L  6118.98,   494.70  L  6127.48,   503.20  L  6127.48,   511.70  " /></a><a ewd:comment="22" style="cursor:pointer;" ewd:lineID="136"> d=" M  6025.49,   350.23  L  6025.49,   239.75 
	
		<path style="stroke:#000000;stroke-width: 5.10 ;&st6;" d=" M  6025.49,   350.23  L  6025.49,   239.75  " /><path style="stroke:#FFFFFF;stroke-width: 4.53 ;&st6;" d=" M  6025.49,   350.23  L  6025.49,   239.75  " /></a><a ewd:comment="22" style="cursor:pointer;" ewd:lineID="137"> d=" M  6025.49,   146.26  L  6025.49,   224.73 
	
		<path style="stroke:#000000;stroke-width: 5.10 ;&st6;" d=" M  6025.49,   146.26  L  6025.49,   224.73  " /><path style="stroke:#FFFFFF;stroke-width: 4.53 ;&st6;" d=" M  6025.49,   146.26  L  6025.49,   224.73  " /></a><a ewd:comment="22" style="cursor:pointer;" ewd:lineID="138"><path style="stroke:#000000;stroke-width: 5.10 ;&st6;" d=" M  6084.98,   350.23  L  6084.98,   282.24  L  6000.00,   282.24  L  6000.00,   265.24  L  5983.00,   248.24  L  5983.00,   239.75  " /></a><a style="cursor:pointer;" ewd:lineID="139"><path style="stroke:#FFE600;stroke-width: 5.10 ;&st6;" d=" M  6127.48,   526.43  L  6127.48,   579.69  L  6450.42,   579.69  L  6450.42,   528.70  " /></a><a style="cursor:pointer;" ewd:lineID="140"><path style="stroke:#FFE600;stroke-width: 5.10 ;&st6;" d=" M  6127.48,   392.72  L  6127.48,   511.70  " /></a><a ewd:comment="22" style="cursor:pointer;" ewd:lineID="141"> d=" M  6127.48,   350.23  L  6127.48,   256.74  L  6033.99,   256.74  L  6025.49,   248.24  L  6025.49,   239.75 
	
		<path style="stroke:#000000;stroke-width: 5.10 ;&st6;" d=" M  6127.48,   350.23  L  6127.48,   256.74  L  6033.99,   256.74  L  6025.49,   248.24  L  6025.49,   239.75  " /><path style="stroke:#FFFFFF;stroke-width: 4.53 ;&st6;" d=" M  6127.48,   350.23  L  6127.48,   256.74  L  6033.99,   256.74  L  6025.49,   248.24  L  6025.49,   239.75  " /></a><a style="cursor:pointer;" ewd:lineID="142"><path style="stroke:#56077D;stroke-width: 5.10 ;&st6;" d=" M  6390.93,   230.68  L  6390.93,   198.39  " /></a><a style="cursor:pointer;" ewd:lineID="143"><path style="stroke:#56077D;stroke-width: 5.10 ;&st6;" d=" M  6390.93,   145.13  L  6390.93,    95.27  L  6263.45,    95.27  L  6263.45,   562.69  L  4453.26,   562.69  L  4453.26,   147.96  " /></a><a style="cursor:pointer;" ewd:lineID="144"><path style="stroke:#FFE600;stroke-width: 5.10 ;&st6;" d=" M  6450.42,   469.77  L  6450.42,   511.70  " /></a><a style="cursor:pointer;" ewd:lineID="145"><path style="stroke:#FFE600;stroke-width: 5.10 ;&st6;" d=" M  6484.42,   528.70  L  6484.42,   579.69  L  6883.85,   579.69  L  6883.85,   568.92  " /></a><a style="cursor:pointer;" ewd:lineID="146"><path style="stroke:#999999;stroke-width: 5.10 ;&st6;" d=" M  6492.92,   230.68  L  6492.92,   198.39  " /></a><a style="cursor:pointer;" ewd:lineID="147"><path style="stroke:#999999;stroke-width: 5.10 ;&st6;" d=" M  6492.92,   103.77  L  6492.92,   145.13  " /></a><a ewd:comment="22" style="cursor:pointer;" ewd:lineID="148"><path style="stroke:#56077D;stroke-width: 5.10 ;&st6;" d=" M  6637.39,   469.77  L  6637.39,   630.68  L  4300.28,   630.68  L  4300.28,   300.37  " /></a><a style="cursor:pointer;" ewd:lineID="149"><path style="stroke:#99D9E8;stroke-width: 5.10 ;&st6;" d=" M  6790.37,   520.20  L  6790.37,   554.19  L  6841.36,   554.19  L  6841.36,   511.70  " /></a><a style="cursor:pointer;" ewd:lineID="150"><path style="stroke:#99D9E8;stroke-width: 5.10 ;&st6;" d=" M  6790.37,   505.47  L  6790.37,   469.77  " /></a><a style="cursor:pointer;" ewd:lineID="151"><path style="stroke:#FFE600;stroke-width: 5.10 ;&st6;" d=" M  6883.85,   511.70  L  6883.85,   554.19  " /></a><a style="cursor:pointer;" ewd:lineID="152"> d=" M  6883.85,   195.27  L  6883.85,   214.25  L  6951.84,   214.25  L  6951.84,    95.27  L  7019.83,    95.27  L  7019.83,   145.13 
	
		<path style="stroke:#000000;stroke-width: 5.10 ;&st6;" d=" M  6883.85,   195.27  L  6883.85,   214.25  L  6951.84,   214.25  L  6951.84,    95.27  L  7019.83,    95.27  L  7019.83,   145.13  " /><path style="stroke:#FFFFFF;stroke-width: 4.53 ;&st6;" d=" M  6883.85,   195.27  L  6883.85,   214.25  L  6951.84,   214.25  L  6951.84,    95.27  L  7019.83,    95.27  L  7019.83,   145.13  " /></a><a ewd:comment="17" style="cursor:pointer;" ewd:lineID="153"><path style="stroke:#999999;stroke-width: 5.10 ;&st6;" d=" M  6883.85,   103.77  L  6883.85,   180.26  " /></a><a ewd:comment="16" style="cursor:pointer;" ewd:lineID="154"> d=" M  6883.85,   103.77  L  6883.85,   112.27  L  6892.35,   120.77  L  6909.35,   120.77  L  6909.35,   163.26  L  6892.35,   163.26  L  6883.85,   171.76  L  6883.85,   180.26 
	
		<path style="stroke:#000000;stroke-width: 5.10 ;&st6;" d=" M  6883.85,   103.77  L  6883.85,   112.27  L  6892.35,   120.77  L  6909.35,   120.77  L  6909.35,   163.26  L  6892.35,   163.26  L  6883.85,   171.76  L  6883.85,   180.26  " /><path style="stroke:#FFFFFF;stroke-width: 4.53 ;&st6;" d=" M  6883.85,   103.77  L  6883.85,   112.27  L  6892.35,   120.77  L  6909.35,   120.77  L  6909.35,   163.26  L  6892.35,   163.26  L  6883.85,   171.76  L  6883.85,   180.26  " /></a><a ewd:comment="25" style="cursor:pointer;" ewd:lineID="155"><path style="stroke:#992903;stroke-width: 5.10 ;&st6;" d=" M  6926.34,   596.69  L  6926.34,   681.67  " /></a><a ewd:comment="25" style="cursor:pointer;" ewd:lineID="156"><path style="stroke:#992903;stroke-width: 5.10 ;&st6;" d=" M  6926.34,   579.69  L  6926.34,   511.70  " /></a><a ewd:comment="26" style="cursor:pointer;" ewd:lineID="157"><path style="stroke:#992903;stroke-width: 5.10 ;&st6;" d=" M  6926.34,   511.70  L  6926.34,   520.20  L  6934.84,   528.70  L  6985.83,   528.70  L  6985.83,   579.69  " /></a><a ewd:comment="26" style="cursor:pointer;" ewd:lineID="158"><path style="stroke:#992903;stroke-width: 5.10 ;&st6;" d=" M  6985.83,   596.69  L  6985.83,   681.67  " /></a><a style="cursor:pointer;" ewd:lineID="159"> d=" M  7019.83,   230.68  L  7019.83,   198.39 
	
		<path style="stroke:#000000;stroke-width: 5.10 ;&st6;" d=" M  7019.83,   230.68  L  7019.83,   198.39  " /><path style="stroke:#FFFFFF;stroke-width: 4.53 ;&st6;" d=" M  7019.83,   230.68  L  7019.83,   198.39  " /></a><a style="cursor:pointer;" ewd:lineID="160"><path style="stroke:#000000;stroke-width: 5.10 ;&st6;" d=" M  7164.30,   469.77  L  7164.30,   477.71  L  7155.80,   486.20  L  7121.81,   486.20  L  7121.81,   681.67  " /><path style="stroke:#FFFFFF;stroke-width: 4.53 ;&st6;" d=" M  7164.30,   469.77  L  7164.30,   477.71  L  7155.80,   486.20  L  7121.81,   486.20  L  7121.81,   681.67  " /><path style="stroke:#000000;stroke-width: 1.13 ;&st6;" d=" M  7164.30,   469.77  L  7164.30,   477.71  L  7155.80,   486.20  L  7121.81,   486.20  L  7121.81,   681.67  " /></a><a style="cursor:pointer;" ewd:lineID="161"><path style="stroke:#000000;stroke-width: 5.10 ;&st6;" d=" M  7164.30,   469.77  L  7164.30,   681.67  " /><path style="stroke:#FFFFFF;stroke-width: 4.53 ;&st6;" d=" M  7164.30,   469.77  L  7164.30,   681.67  " /><path style="stroke:#000000;stroke-width: 1.13 ;&st6;" d=" M  7164.30,   469.77  L  7164.30,   681.67  " /></a><a ewd:comment="27" style="cursor:pointer;" ewd:lineID="162"><path style="stroke:#FFE600;stroke-width: 5.10 ;&st6;" d=" M  7181.30,   230.68  L  7181.30,   222.75  L  7172.80,   214.25  L  7104.81,   214.25  L  7104.81,    78.84  " /></a><a ewd:comment="28" style="cursor:pointer;" ewd:lineID="163"><path style="stroke:#FFE600;stroke-width: 5.10 ;&st6;" d=" M  7181.30,   103.77  L  7181.30,   230.68  " /></a><a ewd:comment="14" style="cursor:pointer;" ewd:lineID="164"><path style="stroke:#000000;stroke-width: 5.10 ;&st6;" d=" M  7206.80,   469.77  L  7206.80,   681.67  " /><path style="stroke:#FFFFFF;stroke-width: 4.53 ;&st6;" d=" M  7206.80,   469.77  L  7206.80,   681.67  " /><path style="stroke:#000000;stroke-width: 1.13 ;&st6;" d=" M  7206.80,   469.77  L  7206.80,   681.67  " /></a><a style="cursor:pointer;" ewd:lineID="165"><path style="stroke:#000000;stroke-width: 0.85;stroke-dasharray:3, 1.5;&st6;" d=" M  1359.77,   205.75  L  1359.77,   222.75  " /></a><a style="cursor:pointer;" ewd:lineID="166"><path style="stroke:#000000;stroke-width: 0.85;stroke-dasharray:3, 1.5;&st6;" d=" M  1359.77,   138.90  L  1359.77,   154.76  " /></a><a style="cursor:pointer;" ewd:lineID="167"><path style="stroke:#000000;stroke-width: 0.85;stroke-dasharray:3, 1.5;&st6;" d=" M  1359.77,   180.26  L  1359.77,   197.25  " /></a><a style="cursor:pointer;" ewd:lineID="168"><path style="stroke:#000000;stroke-width: 0.85;stroke-dasharray:3, 1.5;&st6;" d=" M  3246.46,   197.25  L  3246.46,   222.75  " /></a><a style="cursor:pointer;" ewd:lineID="169"><path style="stroke:#000000;stroke-width: 0.85;stroke-dasharray:3, 1.5;&st6;" d=" M  3467.42,   290.74  L  3467.42,   324.73  " /></a><a style="cursor:pointer;" ewd:lineID="170"><path style="stroke:#000000;stroke-width: 0.85;stroke-dasharray:3, 1.5;&st6;" d=" M  3467.42,   231.25  L  3467.42,   256.74  " /></a><a style="cursor:pointer;" ewd:lineID="171"><path style="stroke:#000000;stroke-width: 0.85;stroke-dasharray:3, 1.5;&st6;" d=" M  3467.42,   197.25  L  3467.42,   222.75  " /></a><a style="cursor:pointer;" ewd:lineID="172"><path style="stroke:#000000;stroke-width: 0.85;stroke-dasharray:3, 1.5;&st6;" d=" M  3246.46,   138.90  L  3246.46,   163.26  " /></a><a style="cursor:pointer;" ewd:lineID="173"><path style="stroke:#000000;stroke-width: 0.85;stroke-dasharray:3, 1.5;&st6;" d=" M  3246.46,   231.25  L  3246.46,   256.74  " /></a><a style="cursor:pointer;" ewd:lineID="174"><path style="stroke:#000000;stroke-width: 0.85;stroke-dasharray:3, 1.5;&st6;" d=" M  3467.42,   138.90  L  3467.42,   163.26  " /></a><a style="cursor:pointer;" ewd:lineID="175"><path style="stroke:#000000;stroke-width: 0.85;stroke-dasharray:3, 1.5;&st6;" d=" M  2549.57,   147.96  L  2549.57,   205.75  " /></a><a style="cursor:pointer;" ewd:lineID="176"><path style="stroke:#000000;stroke-width: 0.85;stroke-dasharray:3, 1.5;&st6;" d=" M  2549.57,   239.75  L  2549.57,   333.23  " /></a><a style="cursor:pointer;" ewd:lineID="177"><path style="stroke:#000000;stroke-width: 0.85;stroke-dasharray:3, 1.5;&st6;" d=" M  2549.57,   341.73  L  2549.57,   358.73  " /></a><a ewd:comment="20,29" style="cursor:pointer;" ewd:lineID="178"><path style="stroke:#000000;stroke-width: 0.85;stroke-dasharray:3, 1.5;&st6;" d=" M  2260.62,   409.72  L  2260.62,   265.24  L  2532.58,   265.24  L  2532.58,   307.73  L  2549.57,   324.73  L  2549.57,   333.23  " /></a><a ewd:figtype="w2w" style="cursor:pointer;" ewd:pinNo="12" ewd:code="AG2" ewd:figID="54"><path style="&st2;" d=" M    67.99,   188.75  L    50.99,   188.75  L    50.99,   197.25  L    67.99,   197.25  L    67.99,   188.75 " /><text style="&st8;" transform="matrix(&st16;  53.85  195.12 )"><tspan x="0" style="&st18;" y="0">AG2</tspan></text></a><a ewd:figtype="w2w" style="cursor:pointer;" ewd:pinNo="1" ewd:code="KG1" ewd:figID="55"><path style="&st2;" d=" M   552.41,   214.25  L   535.41,   214.25  L   535.41,   222.75  L   552.41,   222.75  L   552.41,   214.25 " /><text style="&st8;" transform="matrix(&st16;  538.27  220.62 )"><tspan x="0" style="&st18;" y="0">KG1</tspan></text></a><a ewd:figtype="w2w" style="cursor:pointer;" ewd:pinNo="11" ewd:code="KG1" ewd:figID="56"><path style="&st2;" d=" M   722.38,   214.25  L   705.38,   214.25  L   705.38,   222.75  L   722.38,   222.75  L   722.38,   214.25 " /><text style="&st8;" transform="matrix(&st16;  708.24  220.62 )"><tspan x="0" style="&st18;" y="0">KG1</tspan></text></a><a ewd:figtype="w2w" style="cursor:pointer;" ewd:pinNo="7" ewd:code="LN2" ewd:figID="57"><path style="&st2;" d=" M   790.37,   273.74  L   773.37,   273.74  L   773.37,   282.24  L   790.37,   282.24  L   790.37,   273.74 " /><text style="&st8;" transform="matrix(&st16;  776.6  280.11 )"><tspan x="0" style="&st18;" y="0">LN2</tspan></text></a><a ewd:figtype="w2w" style="cursor:pointer;" ewd:pinNo="11" ewd:code="LN1" ewd:figID="58"><path style="&st2;" d=" M   790.37,   265.24  L   773.37,   265.24  L   773.37,   273.74  L   790.37,   273.74  L   790.37,   265.24 " /><text style="&st8;" transform="matrix(&st16;  776.6  271.61 )"><tspan x="0" style="&st18;" y="0">LN1</tspan></text></a><a ewd:figtype="w2w" style="cursor:pointer;" ewd:pinNo="11" ewd:code="GN2" ewd:figID="59"><path style="&st2;" d=" M   790.37,   197.25  L   773.37,   197.25  L   773.37,   205.75  L   790.37,   205.75  L   790.37,   197.25 " /><text style="&st8;" transform="matrix(&st16;  776.23  203.62 )"><tspan x="0" style="&st18;" y="0">GN2</tspan></text></a><a ewd:figtype="w2w" style="cursor:pointer;" ewd:pinNo="13" ewd:code="LN2" ewd:figID="60"><path style="&st2;" d=" M   841.36,   273.74  L   824.36,   273.74  L   824.36,   282.24  L   841.36,   282.24  L   841.36,   273.74 " /><text style="&st8;" transform="matrix(&st16;  827.59  280.11 )"><tspan x="0" style="&st18;" y="0">LN2</tspan></text></a><a ewd:figtype="w2w" style="cursor:pointer;" ewd:pinNo="6" ewd:code="LN1" ewd:figID="61"><path style="&st2;" d=" M   841.36,   265.24  L   824.36,   265.24  L   824.36,   273.74  L   841.36,   273.74  L   841.36,   265.24 " /><text style="&st8;" transform="matrix(&st16;  827.59  271.61 )"><tspan x="0" style="&st18;" y="0">LN1</tspan></text></a><a ewd:figtype="w2w" style="cursor:pointer;" ewd:pinNo="6" ewd:code="GN2" ewd:figID="62"><path style="&st2;" d=" M   841.36,   197.25  L   824.36,   197.25  L   824.36,   205.75  L   841.36,   205.75  L   841.36,   197.25 " /><text style="&st8;" transform="matrix(&st16;  827.22  203.62 )"><tspan x="0" style="&st18;" y="0">GN2</tspan></text></a><a ewd:figtype="w2w" style="cursor:pointer;" ewd:pinNo="7" ewd:code="MN2" ewd:figID="63"><path style="&st2;" d=" M   909.35,   273.74  L   892.35,   273.74  L   892.35,   282.24  L   909.35,   282.24  L   909.35,   273.74 " /><text style="&st8;" transform="matrix(&st16;  894.94  280.11 )"><tspan x="0" style="&st18;" y="0">MN2</tspan></text></a><a ewd:figtype="w2w" style="cursor:pointer;" ewd:pinNo="6" ewd:code="MN1" ewd:figID="64"><path style="&st2;" d=" M   909.35,   265.24  L   892.35,   265.24  L   892.35,   273.74  L   909.35,   273.74  L   909.35,   265.24 " /><text style="&st8;" transform="matrix(&st16;  894.94  271.61 )"><tspan x="0" style="&st18;" y="0">MN1</tspan></text></a><a ewd:figtype="w2w" style="cursor:pointer;" ewd:pinNo="13" ewd:code="GN1" ewd:figID="65"><path style="&st2;" d=" M   909.35,   197.25  L   892.35,   197.25  L   892.35,   205.75  L   909.35,   205.75  L   909.35,   197.25 " /><text style="&st8;" transform="matrix(&st16;  895.21  203.62 )"><tspan x="0" style="&st18;" y="0">GN1</tspan></text></a><a ewd:figtype="w2w" style="cursor:pointer;" ewd:pinNo="13" ewd:code="MN2" ewd:figID="66"><path style="&st2;" d=" M   960.34,   273.74  L   943.34,   273.74  L   943.34,   282.24  L   960.34,   282.24  L   960.34,   273.74 " /><text style="&st8;" transform="matrix(&st16;  945.93  280.11 )"><tspan x="0" style="&st18;" y="0">MN2</tspan></text></a><a ewd:figtype="w2w" style="cursor:pointer;" ewd:pinNo="11" ewd:code="MN1" ewd:figID="67"><path style="&st2;" d=" M   960.34,   265.24  L   943.34,   265.24  L   943.34,   273.74  L   960.34,   273.74  L   960.34,   265.24 " /><text style="&st8;" transform="matrix(&st16;  945.93  271.61 )"><tspan x="0" style="&st18;" y="0">MN1</tspan></text></a><a ewd:figtype="w2w" style="cursor:pointer;" ewd:pinNo="12" ewd:code="GN1" ewd:figID="68"><path style="&st2;" d=" M   960.34,   197.25  L   943.34,   197.25  L   943.34,   205.75  L   960.34,   205.75  L   960.34,   197.25 " /><text style="&st8;" transform="matrix(&st16;  946.2  203.62 )"><tspan x="0" style="&st18;" y="0">GN1</tspan></text></a><a ewd:figtype="w2w" style="cursor:pointer;" ewd:pinNo="3" ewd:code="ON4" ewd:figID="69"><path style="&st2;" d=" M  1240.79,   290.74  L  1223.80,   290.74  L  1223.80,   299.24  L  1240.79,   299.24  L  1240.79,   290.74 " /><text style="&st8;" transform="matrix(&st16;  1226.5  297.11 )"><tspan x="0" style="&st18;" y="0">ON4</tspan></text></a><a ewd:figtype="w2w" style="cursor:pointer;" ewd:pinNo="5" ewd:code="GN3" ewd:figID="70"><path style="&st2;" d=" M  1240.79,   197.25  L  1223.80,   197.25  L  1223.80,   205.75  L  1240.79,   205.75  L  1240.79,   197.25 " /><text style="&st8;" transform="matrix(&st16;  1226.65  203.62 )"><tspan x="0" style="&st18;" y="0">GN3</tspan></text></a><a ewd:figtype="w2w" style="cursor:pointer;" ewd:pinNo="4" ewd:code="ON4" ewd:figID="71"><path style="&st2;" d=" M  1283.29,   290.74  L  1266.29,   290.74  L  1266.29,   299.24  L  1283.29,   299.24  L  1283.29,   290.74 " /><text style="&st8;" transform="matrix(&st16;  1268.99  297.11 )"><tspan x="0" style="&st18;" y="0">ON4</tspan></text></a><a ewd:figtype="w2w" style="cursor:pointer;" ewd:pinNo="3" ewd:code="GN3" ewd:figID="72"><path style="&st2;" d=" M  1283.29,   197.25  L  1266.29,   197.25  L  1266.29,   205.75  L  1283.29,   205.75  L  1283.29,   197.25 " /><text style="&st8;" transform="matrix(&st16;  1269.14  203.62 )"><tspan x="0" style="&st18;" y="0">GN3</tspan></text></a><a ewd:figtype="w2w" style="cursor:pointer;" ewd:pinNo="2" ewd:code="ON4" ewd:figID="73"><path style="&st2;" d=" M  1325.78,   290.74  L  1308.78,   290.74  L  1308.78,   299.24  L  1325.78,   299.24  L  1325.78,   290.74 " /><text style="&st8;" transform="matrix(&st16;  1311.49  297.11 )"><tspan x="0" style="&st18;" y="0">ON4</tspan></text></a><a ewd:figtype="w2w" style="cursor:pointer;" ewd:pinNo="4" ewd:code="GN3" ewd:figID="74"><path style="&st2;" d=" M  1325.78,   197.25  L  1308.78,   197.25  L  1308.78,   205.75  L  1325.78,   205.75  L  1325.78,   197.25 " /><text style="&st8;" transform="matrix(&st16;  1311.64  203.62 )"><tspan x="0" style="&st18;" y="0">GN3</tspan></text></a><a ewd:figtype="w2w" style="cursor:pointer;" ewd:pinNo="6" ewd:code="ON4" ewd:figID="75"><path style="&st2;" d=" M  1368.27,   290.74  L  1351.27,   290.74  L  1351.27,   299.24  L  1368.27,   299.24  L  1368.27,   290.74 " /><text style="&st8;" transform="matrix(&st16;  1353.98  297.11 )"><tspan x="0" style="&st18;" y="0">ON4</tspan></text></a><a ewd:figtype="w2w" style="cursor:pointer;" ewd:pinNo="2" ewd:code="GN3" ewd:figID="76"><path style="&st2;" d=" M  1368.27,   197.25  L  1351.27,   197.25  L  1351.27,   205.75  L  1368.27,   205.75  L  1368.27,   197.25 " /><text style="&st8;" transform="matrix(&st16;  1354.13  203.62 )"><tspan x="0" style="&st18;" y="0">GN3</tspan></text></a><a ewd:figtype="w2w" style="cursor:pointer;" ewd:pinNo="8" ewd:code="PO2" ewd:figID="77"><path style="&st2;" d=" M  1410.76,   341.73  L  1393.77,   341.73  L  1393.77,   350.23  L  1410.76,   350.23  L  1410.76,   341.73 " /><text style="&st8;" transform="matrix(&st16;  1396.77  348.1 )"><tspan x="0" style="&st18;" y="0">PO2</tspan></text></a><a ewd:figtype="w2w" style="cursor:pointer;" ewd:pinNo="5" ewd:code="PO2" ewd:figID="78"><path style="&st2;" d=" M  1453.26,   341.73  L  1436.26,   341.73  L  1436.26,   350.23  L  1453.26,   350.23  L  1453.26,   341.73 " /><text style="&st8;" transform="matrix(&st16;  1439.27  348.1 )"><tspan x="0" style="&st18;" y="0">PO2</tspan></text></a><a ewd:figtype="w2w" style="cursor:pointer;" ewd:pinNo="6" ewd:code="PO2" ewd:figID="79"><path style="&st2;" d=" M  1495.75,   341.73  L  1478.75,   341.73  L  1478.75,   350.23  L  1495.75,   350.23  L  1495.75,   341.73 " /><text style="&st8;" transform="matrix(&st16;  1481.76  348.1 )"><tspan x="0" style="&st18;" y="0">PO2</tspan></text></a><a ewd:figtype="w2w" style="cursor:pointer;" ewd:pinNo="7" ewd:code="PO2" ewd:figID="80"><path style="&st2;" d=" M  1538.24,   341.73  L  1521.25,   341.73  L  1521.25,   350.23  L  1538.24,   350.23  L  1538.24,   341.73 " /><text style="&st8;" transform="matrix(&st16;  1524.25  348.1 )"><tspan x="0" style="&st18;" y="0">PO2</tspan></text></a><a ewd:figtype="w2w" style="cursor:pointer;" ewd:pinNo="1" ewd:code="JG1" ewd:figID="81"><path style="&st2;" d=" M  1776.20,   214.25  L  1759.21,   214.25  L  1759.21,   222.75  L  1776.20,   222.75  L  1776.20,   214.25 " /><text style="&st8;" transform="matrix(&st16;  1762.89  220.62 )"><tspan x="0" style="&st18;" y="0">JG1</tspan></text></a><a ewd:figtype="w2w" style="cursor:pointer;" ewd:pinNo="11" ewd:code="JG1" ewd:figID="82"><path style="&st2;" d=" M  1946.17,   214.25  L  1929.18,   214.25  L  1929.18,   222.75  L  1946.17,   222.75  L  1946.17,   214.25 " /><text style="&st8;" transform="matrix(&st16;  1932.86  220.62 )"><tspan x="0" style="&st18;" y="0">JG1</tspan></text></a><a ewd:figtype="w2w" style="cursor:pointer;" ewd:pinNo="10" ewd:code="QG1" ewd:figID="83"><path style="&st2;" d=" M  2430.59,   333.23  L  2413.60,   333.23  L  2413.60,   341.73  L  2430.59,   341.73  L  2430.59,   333.23 " /><text style="&st8;" transform="matrix(&st16;  2416.15  339.6 )"><tspan x="0" style="&st18;" y="0">QG1</tspan></text></a><a ewd:figtype="w2w" style="cursor:pointer;" ewd:pinNo="9" ewd:code="QG1" ewd:figID="84"><path style="&st2;" d=" M  2473.09,   333.23  L  2456.09,   333.23  L  2456.09,   341.73  L  2473.09,   341.73  L  2473.09,   333.23 " /><text style="&st8;" transform="matrix(&st16;  2458.64  339.6 )"><tspan x="0" style="&st18;" y="0">QG1</tspan></text></a><a ewd:figtype="w2w" style="cursor:pointer;" ewd:pinNo="8" ewd:code="QG1" ewd:figID="85"><path style="&st2;" d=" M  2515.58,   333.23  L  2498.58,   333.23  L  2498.58,   341.73  L  2515.58,   341.73  L  2515.58,   333.23 " /><text style="&st8;" transform="matrix(&st16;  2501.14  339.6 )"><tspan x="0" style="&st18;" y="0">QG1</tspan></text></a><a ewd:figtype="w2w" style="cursor:pointer;" ewd:pinNo="11" ewd:code="QG1" ewd:figID="86"><path style="&st2;" d=" M  2558.07,   333.23  L  2541.08,   333.23  L  2541.08,   341.73  L  2558.07,   341.73  L  2558.07,   333.23 " /><text style="&st8;" transform="matrix(&st16;  2543.63  339.6 )"><tspan x="0" style="&st18;" y="0">QG1</tspan></text></a><a ewd:figtype="w2w" style="cursor:pointer;" ewd:pinNo="8" ewd:code="aG1" ewd:figID="87"><path style="&st2;" d=" M  3169.97,   222.75  L  3152.97,   222.75  L  3152.97,   231.25  L  3169.97,   231.25  L  3169.97,   222.75 " /><text style="&st8;" transform="matrix(&st16;  3156.47  229.12 )"><tspan x="0" style="&st18;" y="0">aG1</tspan></text></a><a ewd:figtype="w2w" style="cursor:pointer;" ewd:pinNo="9" ewd:code="aG1" ewd:figID="88"><path style="&st2;" d=" M  3212.46,   222.75  L  3195.47,   222.75  L  3195.47,   231.25  L  3212.46,   231.25  L  3212.46,   222.75 " /><text style="&st8;" transform="matrix(&st16;  3198.96  229.12 )"><tspan x="0" style="&st18;" y="0">aG1</tspan></text></a><a ewd:figtype="w2w" style="cursor:pointer;" ewd:pinNo="1" ewd:code="aG1" ewd:figID="89"><path style="&st2;" d=" M  3254.96,   222.75  L  3237.96,   222.75  L  3237.96,   231.25  L  3254.96,   231.25  L  3254.96,   222.75 " /><text style="&st8;" transform="matrix(&st16;  3241.45  229.12 )"><tspan x="0" style="&st18;" y="0">aG1</tspan></text></a><a ewd:figtype="w2w" style="cursor:pointer;" ewd:pinNo="5" ewd:code="aG1" ewd:figID="90"><path style="&st2;" d=" M  3297.45,   222.75  L  3280.45,   222.75  L  3280.45,   231.25  L  3297.45,   231.25  L  3297.45,   222.75 " /><text style="&st8;" transform="matrix(&st16;  3283.95  229.12 )"><tspan x="0" style="&st18;" y="0">aG1</tspan></text></a><a ewd:figtype="w2w" style="cursor:pointer;" ewd:pinNo="6" ewd:code="aG1" ewd:figID="91"><path style="&st2;" d=" M  3348.44,   222.75  L  3331.44,   222.75  L  3331.44,   231.25  L  3348.44,   231.25  L  3348.44,   222.75 " /><text style="&st8;" transform="matrix(&st16;  3334.94  229.12 )"><tspan x="0" style="&st18;" y="0">aG1</tspan></text></a><a ewd:figtype="w2w" style="cursor:pointer;" ewd:pinNo="13" ewd:code="aG1" ewd:figID="92"><path style="&st2;" d=" M  3390.93,   222.75  L  3373.94,   222.75  L  3373.94,   231.25  L  3390.93,   231.25  L  3390.93,   222.75 " /><text style="&st8;" transform="matrix(&st16;  3377.43  229.12 )"><tspan x="0" style="&st18;" y="0">aG1</tspan></text></a><a ewd:figtype="w2w" style="cursor:pointer;" ewd:pinNo="7" ewd:code="aG1" ewd:figID="93"><path style="&st2;" d=" M  3433.43,   222.75  L  3416.43,   222.75  L  3416.43,   231.25  L  3433.43,   231.25  L  3433.43,   222.75 " /><text style="&st8;" transform="matrix(&st16;  3419.92  229.12 )"><tspan x="0" style="&st18;" y="0">aG1</tspan></text></a><a ewd:figtype="w2w" style="cursor:pointer;" ewd:pinNo="14" ewd:code="aG1" ewd:figID="94"><path style="&st2;" d=" M  3475.92,   222.75  L  3458.92,   222.75  L  3458.92,   231.25  L  3475.92,   231.25  L  3475.92,   222.75 " /><text style="&st8;" transform="matrix(&st16;  3462.42  229.12 )"><tspan x="0" style="&st18;" y="0">aG1</tspan></text></a><a ewd:figtype="w2w" style="cursor:pointer;" ewd:pinNo="15" ewd:code="GN2" ewd:figID="95"><path style="&st2;" d=" M  4266.29,   384.22  L  4249.29,   384.22  L  4249.29,   392.72  L  4266.29,   392.72  L  4266.29,   384.22 " /><text style="&st8;" transform="matrix(&st16;  4252.14  390.59 )"><tspan x="0" style="&st18;" y="0">GN2</tspan></text></a><a ewd:figtype="w2w" style="cursor:pointer;" ewd:pinNo="18" ewd:code="GN1" ewd:figID="96"><path style="&st2;" d=" M  4266.29,   375.72  L  4249.29,   375.72  L  4249.29,   384.22  L  4266.29,   384.22  L  4266.29,   375.72 " /><text style="&st8;" transform="matrix(&st16;  4252.14  382.09 )"><tspan x="0" style="&st18;" y="0">GN1</tspan></text></a><a ewd:figtype="w2w" style="cursor:pointer;" ewd:pinNo="11" ewd:code="CG2" ewd:figID="97"><path style="&st2;" d=" M  4946.17,   180.26  L  4929.18,   180.26  L  4929.18,   188.75  L  4946.17,   188.75  L  4946.17,   180.26 " /><text style="&st8;" transform="matrix(&st16;  4931.92  186.62 )"><tspan x="0" style="&st18;" y="0">CG2</tspan></text></a><a ewd:figtype="w2w" style="cursor:pointer;" ewd:pinNo="20" ewd:code="CG2" ewd:figID="98"><path style="&st2;" d=" M  5031.16,   375.72  L  5014.16,   375.72  L  5014.16,   384.22  L  5031.16,   384.22  L  5031.16,   375.72 " /><text style="&st8;" transform="matrix(&st16;  5016.9  382.09 )"><tspan x="0" style="&st18;" y="0">CG2</tspan></text></a><a ewd:figtype="w2w" style="cursor:pointer;" ewd:pinNo="20" ewd:code="AG1" ewd:figID="99"><path style="&st2;" d=" M  5991.50,   231.25  L  5974.50,   231.25  L  5974.50,   239.75  L  5991.50,   239.75  L  5991.50,   231.25 " /><text style="&st8;" transform="matrix(&st16;  5977.36  237.62 )"><tspan x="0" style="&st18;" y="0">AG1</tspan></text></a><a ewd:figtype="w2w" style="cursor:pointer;" ewd:pinNo="21" ewd:code="AG1" ewd:figID="100"><path style="&st2;" d=" M  6033.99,   231.25  L  6016.99,   231.25  L  6016.99,   239.75  L  6033.99,   239.75  L  6033.99,   231.25 " /><text style="&st8;" transform="matrix(&st16;  6019.85  237.62 )"><tspan x="0" style="&st18;" y="0">AG1</tspan></text></a><a ewd:figtype="w2w" style="cursor:pointer;" ewd:pinNo="13" ewd:code="AG2" ewd:figID="101"><path style="&st2;" d=" M  6135.97,   511.70  L  6118.98,   511.70  L  6118.98,   520.20  L  6135.97,   520.20  L  6135.97,   511.70 " /><text style="&st8;" transform="matrix(&st16;  6121.83  518.07 )"><tspan x="0" style="&st18;" y="0">AG2</tspan></text></a><a ewd:figtype="w2w" style="cursor:pointer;" ewd:pinNo="2" ewd:code="CG1" ewd:figID="102"><path style="&st2;" d=" M  6798.86,   511.70  L  6781.87,   511.70  L  6781.87,   520.20  L  6798.86,   520.20  L  6798.86,   511.70 " /><text style="&st8;" transform="matrix(&st16;  6784.61  518.07 )"><tspan x="0" style="&st18;" y="0">CG1</tspan></text></a><a ewd:figtype="w2w" style="cursor:pointer;" ewd:pinNo="12" ewd:code="CG1" ewd:figID="103"><path style="&st2;" d=" M  6892.35,   554.19  L  6875.35,   554.19  L  6875.35,   562.69  L  6892.35,   562.69  L  6892.35,   554.19 " /><text style="&st8;" transform="matrix(&st16;  6878.09  560.56 )"><tspan x="0" style="&st18;" y="0">CG1</tspan></text></a><a ewd:figtype="w2w" style="cursor:pointer;" ewd:pinNo="24" ewd:code="AG1" ewd:figID="104"><path style="&st2;" d=" M  6892.35,   180.26  L  6875.35,   180.26  L  6875.35,   188.75  L  6892.35,   188.75  L  6892.35,   180.26 " /><text style="&st8;" transform="matrix(&st16;  6878.21  186.62 )"><tspan x="0" style="&st18;" y="0">AG1</tspan></text></a><a ewd:figtype="gp" style="cursor:pointer;" ewd:code="GB" ewd:figID="105"><path style="&st2;" d=" M  1051.70,   681.67  L  1072.95,   681.67  L  1062.32,   697.25  L  1051.70,   681.67 " /><text style="&st8;" transform="matrix(&st16;  1058.3  689.46 )"><tspan x="0" style="&st18;" y="0">GB</tspan></text></a><a ewd:figtype="gp" style="cursor:pointer;" ewd:code="GC" ewd:figID="106"><path style="&st2;" d=" M  1085.69,   681.67  L  1106.94,   681.67  L  1096.32,   697.25  L  1085.69,   681.67 " /><text style="&st8;" transform="matrix(&st16;  1092.07  689.46 )"><tspan x="0" style="&st18;" y="0">GC</tspan></text></a><a ewd:figtype="gp" style="cursor:pointer;" ewd:code="GD" ewd:figID="107"><path style="&st2;" d=" M  1128.19,   681.67  L  1149.43,   681.67  L  1138.81,   697.25  L  1128.19,   681.67 " /><text style="&st8;" transform="matrix(&st16;  1134.6  689.46 )"><tspan x="0" style="&st18;" y="0">GD</tspan></text></a><a ewd:figtype="gp" style="cursor:pointer;" ewd:code="GB" ewd:figID="108"><path style="&st2;" d=" M  1162.18,   681.67  L  1183.43,   681.67  L  1172.80,   697.25  L  1162.18,   681.67 " /><text style="&st8;" transform="matrix(&st16;  1168.78  689.46 )"><tspan x="0" style="&st18;" y="0">GB</tspan></text></a><a ewd:figtype="gp" style="cursor:pointer;" ewd:code="GB" ewd:figID="109"><path style="&st2;" d=" M  4034.70,   681.67  L  4055.95,   681.67  L  4045.32,   697.25  L  4034.70,   681.67 " /><text style="&st8;" transform="matrix(&st16;  4041.3  689.46 )"><tspan x="0" style="&st18;" y="0">GB</tspan></text></a><a ewd:figtype="gp" style="cursor:pointer;" ewd:code="GC" ewd:figID="110"><path style="&st2;" d=" M  4077.19,   681.67  L  4098.44,   681.67  L  4087.82,   697.25  L  4077.19,   681.67 " /><text style="&st8;" transform="matrix(&st16;  4083.57  689.46 )"><tspan x="0" style="&st18;" y="0">GC</tspan></text></a><a ewd:figtype="gp" style="cursor:pointer;" ewd:code="CA" ewd:figID="111"><path style="&st2;" d=" M  6915.72,   681.67  L  6936.97,   681.67  L  6926.34,   697.25  L  6915.72,   681.67 " /><text style="&st8;" transform="matrix(&st16;  6922.24  689.46 )"><tspan x="0" style="&st18;" y="0">CA</tspan></text></a><a ewd:figtype="gp" style="cursor:pointer;" ewd:code="CB" ewd:figID="112"><path style="&st2;" d=" M  6975.21,   681.67  L  6996.46,   681.67  L  6985.83,   697.25  L  6975.21,   681.67 " /><text style="&st8;" transform="matrix(&st16;  6981.84  689.46 )"><tspan x="0" style="&st18;" y="0">CB</tspan></text></a><a ewd:figtype="gp" style="cursor:pointer;" ewd:code="GA" ewd:figID="113"><path style="&st2;" d=" M  7111.19,   681.67  L  7132.43,   681.67  L  7121.81,   697.25  L  7111.19,   681.67 " /><text style="&st8;" transform="matrix(&st16;  7117.67  689.46 )"><tspan x="0" style="&st18;" y="0">GA</tspan></text></a><a ewd:figtype="gp" style="cursor:pointer;" ewd:code="GD" ewd:figID="114"><path style="&st2;" d=" M  7153.68,   681.67  L  7174.93,   681.67  L  7164.30,   697.25  L  7153.68,   681.67 " /><text style="&st8;" transform="matrix(&st16;  7160.09  689.46 )"><tspan x="0" style="&st18;" y="0">GD</tspan></text></a><a ewd:figtype="gp" style="cursor:pointer;" ewd:code="GC" ewd:figID="115"><path style="&st2;" d=" M  7196.17,   681.67  L  7217.42,   681.67  L  7206.80,   697.25  L  7196.17,   681.67 " /><text style="&st8;" transform="matrix(&st16;  7202.54  689.46 )"><tspan x="0" style="&st18;" y="0">GC</tspan></text></a><a ewd:figtype="sp" style="cursor:pointer;" ewd:code="SP42" ewd:figID="116"><path style="&st2;" d=" M  1355.52,   401.22  L  1364.02,   401.22  L  1368.27,   405.47  L  1368.27,   413.97  L  1364.02,   418.22  L  1355.52,   418.22  L  1351.27,   413.97  L  1351.27,   405.47  L  1355.52,   401.22 " /></a><a ewd:figtype="sp" style="cursor:pointer;" ewd:code="SP41" ewd:figID="117"><path style="&st2;" d=" M  1355.52,   333.23  L  1364.02,   333.23  L  1368.27,   337.48  L  1368.27,   345.98  L  1364.02,   350.23  L  1355.52,   350.23  L  1351.27,   345.98  L  1351.27,   337.48  L  1355.52,   333.23 " /></a><a ewd:figtype="sp" style="cursor:pointer;" ewd:code="SP39" ewd:figID="118"><path style="&st2;" d=" M  1355.52,   239.75  L  1364.02,   239.75  L  1368.27,   243.99  L  1368.27,   252.49  L  1364.02,   256.74  L  1355.52,   256.74  L  1351.27,   252.49  L  1351.27,   243.99  L  1355.52,   239.75 " /></a><a ewd:figtype="sp" style="cursor:pointer;" ewd:code="SP43" ewd:figID="119"><path style="&st2;" d=" M  1398.02,   290.74  L  1406.51,   290.74  L  1410.76,   294.99  L  1410.76,   303.48  L  1406.51,   307.73  L  1398.02,   307.73  L  1393.77,   303.48  L  1393.77,   294.99  L  1398.02,   290.74 " /></a><a ewd:figtype="sp" style="cursor:pointer;" ewd:code="SP44" ewd:figID="120"><path style="&st2;" d=" M  1398.02,   222.75  L  1406.51,   222.75  L  1410.76,   227.00  L  1410.76,   235.50  L  1406.51,   239.75  L  1398.02,   239.75  L  1393.77,   235.50  L  1393.77,   227.00  L  1398.02,   222.75 " /></a></g></svg>