﻿<?xml version="1.0" encoding="utf-8"?>
<!DOCTYPE svg PUBLIC "-//W3C//DTD SVG 1.0//EN" "http://www.w3.org/TR/2001/REC-SVG-20010904/DTD/svg10.dtd"[
	<!ENTITY ns_flows "http://ns.adobe.com/Flows/1.0/">
	<!ENTITY ns_svg "http://www.w3.org/2000/svg">
	<!ENTITY ns_xlink "http://www.w3.org/1999/xlink">
	<!ENTITY st0 "font-size:7px;font-family:'MS-PGothic';adobe-font-script:japanese;">
	<!ENTITY st1 "font-size:6px;font-family:'ArialMT';">
	<!-- White fill  -->
	<!ENTITY st2 "fill:#FFFFFF;stroke:#000000; stroke-width:1.41;stroke-linecap:round;stroke-linejoin:round;">
	<!-- Yellow fill  -->
	<!ENTITY st3 "fill:#FFFFCC;stroke:#FFFFCC; stroke-width:0.1;stroke-linecap:round;stroke-linejoin:round;">
	<!-- Gray fill  -->
	<!ENTITY st4 "fill:#CCCCCC;stroke:#CCCCCC; stroke-width:0.1;stroke-linecap:round;stroke-linejoin:round;">
	<!-- Light-blue fill -->
	<!ENTITY st5 "fill:#CCECF4;stroke:#000000; stroke-width:1.133;stroke-linecap:round;stroke-linejoin:round;">
	<!ENTITY st6 "fill:none;stroke-linecap:butt; stroke-linejoin:round;">
	<!ENTITY st7 "fill:none;stroke:#000000;stroke-linecap:round;stroke-linejoin:round;">
	<!ENTITY st8 "enable-background:new    ;">
	<!-- Black fill -->
	<!ENTITY st9 "fill:#000000;stroke:#000000; stroke-linecap:round;stroke-linejoin:round;">
	<!-- SRS note   -->
	<!ENTITY st10 "font-size:9px;font-family:'ArialMT';">
	<!ENTITY st11 "font-size:9px;font-family:'Svg Symbol';">
	<!ENTITY st12 "font-size:6px;font-family:'Svg Symbol';">
	<!ENTITY st13 "fill:none;stroke:#ff0000;stroke-linecap:round;stroke-linejoin:round;">
	<!-- Yellow fill  -->
	<!ENTITY st14 "fill:#FFFF00;stroke:#FFFF00; stroke-width:0.1;stroke-linecap:round;stroke-linejoin:round;">
	<!ENTITY st15 "font-size:6px;font-family:'MS-PGothic';adobe-font-script:japanese;">
	<!ENTITY st16 "1.00 0.00 0.00 1.00">
	<!ENTITY st17 "0.00 -1.00 1.00 0.00">
	<!ENTITY st18 "font-size:6px;font-family:'Arial';">
	<!ENTITY st19 "font-size:9px;font-family:'Arial';">
	<!ENTITY st20 "font-size:6px;font-family:'MS-PGothic','MS PGothic';adobe-font-script:japanese;">
	<!ENTITY st21 "font-size:7px;font-family:'MS-PGothic','MS PGothic';adobe-font-script:japanese;">
	<!ATTLIST svg
		xmlns:ewd CDATA #FIXED "http://shcl.co.jp/ewd"
		xmlns:a CDATA #FIXED "http://ns.adobe.com/AdobeSVGViewerExtensions/3.0/"
		ewd:ver CDATA #IMPLIED
	>
	<!ATTLIST a
		ewd:lineID CDATA #IMPLIED
		ewd:groupID CDATA #IMPLIED
		ewd:figtype CDATA #IMPLIED
		ewd:code CDATA #IMPLIED
		ewd:figID CDATA #IMPLIED
		ewd:pinNo CDATA #IMPLIED
		ewd:comment CDATA #IMPLIED >
	<!ATTLIST g
		ewd:lineID CDATA #IMPLIED
		ewd:groupID CDATA #IMPLIED
		ewd:figtype CDATA #IMPLIED
		ewd:code CDATA #IMPLIED
		ewd:figID CDATA #IMPLIED
		ewd:pinNo CDATA #IMPLIED
		ewd:comment CDATA #IMPLIED >
	<!ATTLIST text
		ewd:textID CDATA #IMPLIED >
	<!ATTLIST title
		ewd:textID CDATA #IMPLIED >
]>
<!-- Generator: Shintec Hozumi YS   -->
<svg onload="call_execInitLoadProc_svg('system')" style="overflow:visible;  enable-background:new 0 0 1033.386 710.000" viewBox="0 0 1033.386 710.000" height="710.000" width="1033.386" xml:space="preserve" ewd:ver="2.1.2.9" xmlns="&ns_svg;" xmlns:a="http://ns.adobe.com/AdobeSVGViewerExtensions/3.0/" xmlns:ewd="http://shcl.co.jp/ewd" xmlns:xlink="&ns_xlink;">
<text style="&st18;" transform="matrix(&st17;  106.79  386.69 )">W</text><text style="&st18;" transform="matrix(&st17;  492.06  329.44 )">(*2)</text><text style="&st18;" transform="matrix(&st17;  480.72  326.69 )">G</text><text style="&st18;" transform="matrix(&st17;  33.13  592.9 )">(*5)</text><text style="&st18;" transform="matrix(&st16;  50.03  442.85 )">(*5)</text><text style="&st18;" transform="matrix(&st16;  53.05  431.52 )">B</text><text style="&st18;" transform="matrix(&st17;  21.8  589.88 )">B</text><text style="&st18;" transform="matrix(&st17;  106.79  198.94 )">B</text><text style="&st18;" transform="matrix(&st17;  106.79  589.88 )">B</text><text style="&st18;" transform="matrix(&st17;  55.79  589.88 )">B</text><text style="&st18;" transform="matrix(&st17;  438.23  326.42 )">B</text><path style="stroke-width: 1.42 ;&st7;  " d=" M   169.97,   265.24  L   178.47,   265.24  " /><path style="stroke-width: 1.42 ;&st7;  " d=" M   246.46,   265.24  L   254.96,   265.24  " /><text style="&st18;" transform="matrix(&st17;  251.26  139.72 )">G</text><text style="&st18;" transform="matrix(&st17;  262.59  144.03 )">(*12)</text><text style="&st18;" transform="matrix(&st17;  251.26  326.69 )">G</text><text style="&st18;" transform="matrix(&st17;  262.59  331.0 )">(*12)</text><text style="&st18;" transform="matrix(&st17;  174.77  327.2 )">W</text><text style="&st18;" transform="matrix(&st17;  186.11  331.0 )">(*12)</text><text style="&st18;" transform="matrix(&st17;  251.26  241.71 )">G</text><text style="&st18;" transform="matrix(&st17;  262.59  246.01 )">(*12)</text><text style="&st18;" transform="matrix(&st17;  174.77  140.23 )">W</text><text style="&st18;" transform="matrix(&st17;  186.11  144.03 )">(*12)</text><g ewd:figtype="conn" ewd:figID="2" ewd:code="A61,b1"><path style="stroke-width: 1.42 ;&st7;  " d=" M     8.50,   469.21  L    42.49,   469.21  L    42.49,   528.70  L     8.50,   528.70  L     8.50,   469.21  " /><path style="stroke-width: 1.42 ;&st7;  " d=" M    29.75,   511.70  L    29.75,   510.28  L    21.25,   510.28  L    21.25,   511.70  L    29.75,   511.70  " /><path style="stroke-width: 1.42 ;&st7;  " d=" M    29.75,   491.87  L    21.25,   491.87  L    21.25,   490.45  L    29.75,   490.45  L    29.75,   491.87  " /><path style="stroke-width: 0.85 ;&st7;  " d=" M    25.50,   497.54  L    25.50,   500.37  " /><path style="stroke-width: 0.85 ;&st7;  " d=" M    25.50,   503.20  L    25.50,   506.03  " /><path style="stroke-width: 0.85 ;&st7;  " d=" M    25.50,   491.87  L    25.50,   494.70  " /><path style="stroke-width: 0.85 ;&st7;  " d=" M    25.50,   511.70  L    25.50,   528.70  " /><path style="stroke-width: 0.85 ;&st7;  " d=" M    25.50,   486.20  L    25.50,   469.21  " /><path style="stroke-width: 0.85 ;&st7;  " d=" M    17.00,   506.03  L    33.99,   506.03  " /><path style="stroke-width: 0.85 ;&st7;  " d=" M    17.00,   486.20  L    33.99,   486.20  " /><text style="&st18;" transform="matrix(&st16;  16.8  535.2 )">1</text><path style="stroke-width: 1.42 ;&st7;   " d=" M    30.03,   533.23  C    30.03    530.73     28.00    528.70     25.50    528.70  " /><path style="stroke-width: 1.42 ;&st7;   " d=" M    25.50,   528.70  C    22.99    528.70     20.96    530.73     20.96    533.23  " /><path style="stroke-width: 1.42 ;&st7;   " d=" M    20.96,   533.23  C    20.96    535.73     22.99    537.76     25.50    537.76  " /><path style="stroke-width: 1.42 ;&st7;   " d=" M    25.50,   537.76  C    28.00    537.76     30.03    535.73     30.03    533.23  " /><text style="&st18;" transform="matrix(&st16;  23.31  535.2 )">B</text><text style="&st18;" transform="matrix(&st16;  16.8  466.64 )">1</text><path style="stroke-width: 1.42 ;&st7;   " d=" M    30.03,   464.67  C    30.03    462.17     28.00    460.14     25.50    460.14  " /><path style="stroke-width: 1.42 ;&st7;   " d=" M    25.50,   460.14  C    22.99    460.14     20.96    462.17     20.96    464.67  " /><path style="stroke-width: 1.42 ;&st7;   " d=" M    20.96,   464.67  C    20.96    467.18     22.99    469.21     25.50    469.21  " /><path style="stroke-width: 1.42 ;&st7;   " d=" M    25.50,   469.21  C    28.00    469.21     30.03    467.18     30.03    464.67  " /><text style="&st18;" transform="matrix(&st16;  23.19  466.64 )">A</text><g ewd:figtype="title"><text style="&st18;" transform="matrix(&st17;  57.21  531.6 )" ewd:textID="16">No. 2 Battery</text><text style="&st18;" transform="matrix(&st17;  50.1  531.6 )">A61(A),b1(B)</text></g></g><g ewd:figtype="conn" ewd:figID="3" ewd:code="A48,A60,D2"><path style="stroke-width: 0.85 ;&st7;  " d=" M   109.29,   476.70  L   109.02,   477.17  L   108.92,   477.71  L   109.02,   478.24  L   109.29,   478.71  L   109.70,   479.05  L   110.21,   479.24  L   110.75,   479.24  L   111.26,   479.05  L   111.67,   478.71  L   111.95,   478.24  L   112.04,   477.71  L   111.95,   477.17  L   111.67,   476.70  L   111.26,   476.36  L   110.75,   476.17  L   110.21,   476.17  L   109.70,   476.36  L   109.29,   476.70  L   109.68,   477.41  L   109.68,   478.00  L   110.06,   478.44  L   110.63,   478.54  L   111.13,   478.25  L   111.33,   477.71  L   111.13,   477.16  L   110.63,   476.87  L   110.06,   476.97  L   110.48,   477.71  " /><path style="stroke-width: 0.85 ;&st7;  " d=" M    76.49,   469.21  L    76.49,   477.71  L   110.48,   477.71  " /><path style="stroke-width: 0.85 ;&st7;  " d=" M   110.48,   491.87  L   110.48,   494.70  " /><path style="stroke-width: 1.42 ;&st7;  " d=" M    67.99,   469.21  L   127.48,   469.21  L   127.48,   528.70  L    67.99,   528.70  L    67.99,   469.21  " /><path style="stroke-width: 1.42 ;&st7;  " d=" M   114.73,   511.70  L   114.73,   510.28  L   106.23,   510.28  L   106.23,   511.70  L   114.73,   511.70  " /><path style="stroke-width: 1.42 ;&st7;  " d=" M   114.73,   491.87  L   106.23,   491.87  L   106.23,   490.45  L   114.73,   490.45  L   114.73,   491.87  " /><path style="stroke-width: 0.85 ;&st7;  " d=" M   110.48,   486.20  L   110.48,   469.21  " /><path style="stroke-width: 0.85 ;&st7;  " d=" M   101.98,   506.03  L   118.98,   506.03  " /><path style="stroke-width: 0.85 ;&st7;  " d=" M   101.98,   486.20  L   118.98,   486.20  " /><path style="stroke-width: 0.85 ;&st7;  " d=" M   110.48,   503.20  L   110.48,   506.03  " /><path style="stroke-width: 0.85 ;&st7;  " d=" M   110.48,   497.54  L   110.48,   500.37  " /><path style="stroke-width: 0.85 ;&st7;  " d=" M   110.48,   511.70  L   110.48,   528.70  " /><text style="&st18;" transform="matrix(&st16;  67.79  466.64 )">1</text><text style="&st18;" transform="matrix(&st16;  74.11  466.64 )">D</text><path style="stroke-width: 1.42 ;&st7;   " d=" M    81.02,   464.67  C    81.02    462.17     78.99    460.14     76.49    460.14  " /><path style="stroke-width: 1.42 ;&st7;   " d=" M    76.49,   460.14  C    73.98    460.14     71.95    462.17     71.95    464.67  " /><path style="stroke-width: 1.42 ;&st7;   " d=" M    71.95,   464.67  C    71.95    467.18     73.98    469.21     76.49    469.21  " /><path style="stroke-width: 1.42 ;&st7;   " d=" M    76.49,   469.21  C    78.99    469.21     81.02    467.18     81.02    464.67  " /><text style="&st18;" transform="matrix(&st16;  101.79  535.2 )">1</text><text style="&st18;" transform="matrix(&st16;  108.06  535.2 )">C</text><path style="stroke-width: 1.42 ;&st7;   " d=" M   115.01,   533.23  C   115.01    530.73    112.98    528.70    110.48    528.70  " /><path style="stroke-width: 1.42 ;&st7;   " d=" M   110.48,   528.70  C   107.98    528.70    105.95    530.73    105.95    533.23  " /><path style="stroke-width: 1.42 ;&st7;   " d=" M   105.95,   533.23  C   105.95    535.73    107.98    537.76    110.48    537.76  " /><path style="stroke-width: 1.42 ;&st7;   " d=" M   110.48,   537.76  C   112.98    537.76    115.01    535.73    115.01    533.23  " /><text style="&st18;" transform="matrix(&st16;  108.18  466.64 )">A</text><text style="&st18;" transform="matrix(&st16;  101.79  466.64 )">1</text><path style="stroke-width: 1.42 ;&st7;   " d=" M   115.01,   464.67  C   115.01    462.17    112.98    460.14    110.48    460.14  " /><path style="stroke-width: 1.42 ;&st7;   " d=" M   110.48,   460.14  C   107.98    460.14    105.95    462.17    105.95    464.67  " /><path style="stroke-width: 1.42 ;&st7;   " d=" M   105.95,   464.67  C   105.95    467.18    107.98    469.21    110.48    469.21  " /><path style="stroke-width: 1.42 ;&st7;   " d=" M   110.48,   469.21  C   112.98    469.21    115.01    467.18    115.01    464.67  " /><g ewd:figtype="title"><text style="&st18;" transform="matrix(&st17;  142.2  531.6 )" ewd:textID="14">No. 1 Battery</text><text style="&st18;" transform="matrix(&st17;  135.37  531.6 )">A48(A),A60(D),D2(C)</text></g></g><g ewd:code="C9,C10,C74,C126" ewd:figID="5" ewd:comment="2,7,8,12" ewd:figtype="conn"><path style="stroke-width: 0.85 ;&st7;  " d=" M   169.36,   494.70  L   173.61,   487.34  " /><g ewd:code="" ewd:figID="76" ewd:comment="8" ewd:figtype="commref"><text style="&st18;" transform="matrix(&st17;  470.81  495.17 )">(*8)</text></g><path style="stroke-width: 0.85 ;&st7;   " d=" M   211.86,   494.70  C   211.86    496.66    213.44    498.24    215.40    498.24  " /><path style="stroke-width: 0.85 ;&st7;   " d=" M   215.40,   498.24  C   217.35    498.24    218.94    496.66    218.94    494.70  " /><path style="stroke-width: 0.85 ;&st7;   " d=" M   218.94,   494.70  C   218.94    493.71    218.58    492.87    217.87    492.17  " /><path style="stroke-width: 0.85 ;&st7;   " d=" M   217.88,   492.17  C   216.48    493.54    216.46    495.78    217.82    497.18  " /><path style="stroke-width: 0.85 ;&st7;   " d=" M   217.82,   497.18  C   219.19    498.58    221.44    498.60    222.83    497.23  " /><path style="stroke-width: 0.85 ;&st7;   " d=" M   222.83,   497.23  C   224.23    495.86    224.25    493.62    222.88    492.22  " /><path style="stroke-width: 0.85 ;&st7;   " d=" M   222.88,   492.22  C   222.87    492.21    222.85    492.19    222.83    492.17  " /><text style="&st18;" transform="matrix(&st16;  601.33  592.99 )">L</text><g ewd:code="" ewd:figID="78" ewd:comment="8" ewd:figtype="commref"><text style="&st18;" transform="matrix(&st16;  309.23  374.86 )">(*8)</text></g><g ewd:code="" ewd:figID="79" ewd:comment="7" ewd:figtype="commref"><text style="&st18;" transform="matrix(&st16;  309.23  519.33 )">(*7)</text></g><text style="&st18;" transform="matrix(&st16;  481.69  357.86 )">M</text><path style="stroke-width: 0.85 ;&st7;  " d=" M   202.16,   434.82  L   201.89,   435.29  L   201.80,   435.82  L   201.89,   436.36  L   202.16,   436.82  L   202.58,   437.17  L   203.08,   437.36  L   203.63,   437.36  L   204.14,   437.17  L   204.55,   436.82  L   204.82,   436.36  L   204.91,   435.82  L   204.82,   435.29  L   204.55,   434.82  L   204.14,   434.47  L   203.63,   434.29  L   203.08,   434.29  L   202.58,   434.47  L   202.16,   434.82  L   202.56,   435.53  L   202.56,   436.11  L   202.93,   436.56  L   203.50,   436.66  L   204.01,   436.37  L   204.21,   435.82  L   204.01,   435.28  L   203.50,   434.99  L   202.93,   435.09  L   203.36,   435.82  " /><text style="&st18;" transform="matrix(&st16;  574.16  505.17 )" ewd:textID="12">IC Regulator</text><text style="&st18;" transform="matrix(&st16;  444.51  358.42 )">B</text><path style="stroke-width: 0.85 ;&st7;  " d=" M   168.17,   493.70  L   167.90,   494.17  L   167.80,   494.70  L   167.90,   495.24  L   168.17,   495.71  L   168.58,   496.05  L   169.09,   496.24  L   169.63,   496.24  L   170.14,   496.05  L   170.56,   495.71  L   170.82,   495.24  L   170.92,   494.70  L   170.82,   494.17  L   170.56,   493.70  L   170.14,   493.35  L   169.63,   493.17  L   169.09,   493.17  L   168.58,   493.35  L   168.17,   493.70  L   168.56,   494.41  L   168.56,   494.99  L   168.94,   495.44  L   169.51,   495.54  L   170.01,   495.25  L   170.21,   494.70  L   170.01,   494.16  L   169.51,   493.87  L   168.94,   493.97  L   169.36,   494.70  " /><text style="&st18;" transform="matrix(&st16;  605.98  358.42 )">LIN</text><path style="stroke-width: 0.85 ;&st7;  " d=" M   236.16,   493.70  L   235.89,   494.17  L   235.79,   494.70  L   235.89,   495.24  L   236.16,   495.71  L   236.57,   496.05  L   237.08,   496.24  L   237.62,   496.24  L   238.13,   496.05  L   238.54,   495.71  L   238.81,   495.24  L   238.91,   494.70  L   238.81,   494.17  L   238.54,   493.70  L   238.13,   493.35  L   237.62,   493.17  L   237.08,   493.17  L   236.57,   493.35  L   236.16,   493.70  L   236.55,   494.41  L   236.55,   494.99  L   236.93,   495.44  L   237.50,   495.54  L   238.00,   495.25  L   238.20,   494.70  L   238.00,   494.16  L   237.50,   493.87  L   236.93,   493.97  L   237.35,   494.70  " /><g ewd:code="" ewd:figID="77" ewd:comment="7" ewd:figtype="commref"><text style="&st18;" transform="matrix(&st17;  381.57  473.92 )">(*7)</text></g><path style="stroke-width: 0.85 ;&st7;  " d=" M   211.86,   494.70  L   203.36,   494.70  " /><path style="stroke-width: 0.85 ;&st7;  " d=" M   416.43,   426.71  L   399.43,   409.72  L   399.43,   367.22  L   203.36,   367.22  L   203.36,   435.82  " /><path style="stroke-width: 0.85 ;&st7;  " d=" M   484.42,   460.71  L   501.42,   460.71  L   501.42,   545.69  L   169.36,   545.69  L   169.36,   494.70  " /><path style="stroke-width: 0.85 ;&st7;  " d=" M   237.35,   494.70  L   237.35,   528.70  L   390.93,   528.70  L   390.93,   443.71  L   433.43,   443.71  L   441.93,   435.21  " /><path style="stroke-width: 0.85 ;&st7;  " d=" M   457.73,   510.70  L   457.46,   511.17  L   457.37,   511.70  L   457.46,   512.23  L   457.73,   512.70  L   458.14,   513.05  L   458.65,   513.24  L   459.20,   513.24  L   459.70,   513.05  L   460.12,   512.70  L   460.39,   512.23  L   460.48,   511.70  L   460.39,   511.17  L   460.12,   510.70  L   459.70,   510.35  L   459.20,   510.16  L   458.65,   510.16  L   458.14,   510.35  L   457.73,   510.70  L   458.12,   511.41  L   458.12,   511.99  L   458.50,   512.44  L   459.07,   512.54  L   459.57,   512.25  L   459.77,   511.70  L   459.57,   511.15  L   459.07,   510.86  L   458.50,   510.96  L   458.92,   511.70  " /><path style="stroke-width: 0.85 ;&st7;  " d=" M   440.73,   468.20  L   440.46,   468.67  L   440.37,   469.21  L   440.46,   469.74  L   440.73,   470.21  L   441.15,   470.56  L   441.65,   470.74  L   442.20,   470.74  L   442.71,   470.56  L   443.12,   470.21  L   443.39,   469.74  L   443.48,   469.21  L   443.39,   468.67  L   443.12,   468.20  L   442.71,   467.86  L   442.20,   467.67  L   441.65,   467.67  L   441.15,   467.86  L   440.73,   468.20  L   441.13,   468.92  L   441.13,   469.50  L   441.50,   469.94  L   442.07,   470.04  L   442.58,   469.75  L   442.78,   469.21  L   442.58,   468.66  L   442.07,   468.37  L   441.50,   468.47  L   441.93,   469.21  " /><path style="stroke-width: 0.85 ;&st7;  " d=" M   464.59,   488.82  L   462.84,   486.20  L   455.00,   486.20  L   453.26,   483.59  " /><path style="stroke-width: 0.28 ;&st9;  " d=" M   458.92,   486.20  L   464.59,   494.70  L   453.26,   494.70  L   458.92,   486.20  " /><path style="stroke-width: 0.85 ;&st7;  " d=" M   441.93,   469.21  L   458.92,   469.21  L   458.92,   511.70  " /><path style="stroke-width: 0.85 ;&st7;  " d=" M   247.07,   494.70  L   247.07,   511.70  L   399.43,   511.70  L   399.43,   460.71  L   484.42,   460.71  " /><path style="stroke-width: 0.85 ;&st7;  " d=" M   364.83,   494.70  L   373.33,   494.70  L   373.33,   435.21  L   560.91,   435.21  " /><path style="stroke-width: 0.85 ;&st7;  " d=" M   305.95,   384.22  L   373.94,   384.22  L   373.94,   426.71  L   416.43,   426.71  " /><path style="stroke-width: 0.85 ;&st7;  " d=" M   304.76,   459.71  L   304.48,   460.18  L   304.39,   460.71  L   304.48,   461.24  L   304.76,   461.71  L   305.17,   462.06  L   305.68,   462.24  L   306.22,   462.24  L   306.73,   462.06  L   307.14,   461.71  L   307.41,   461.24  L   307.51,   460.71  L   307.41,   460.18  L   307.14,   459.71  L   306.73,   459.36  L   306.22,   459.17  L   305.68,   459.17  L   305.17,   459.36  L   304.76,   459.71  L   305.15,   460.42  L   305.15,   461.00  L   305.52,   461.44  L   306.10,   461.54  L   306.60,   461.26  L   306.80,   460.71  L   306.60,   460.16  L   306.10,   459.87  L   305.52,   459.97  L   305.95,   460.71  " /><path style="stroke-width: 0.85 ;&st7;  " d=" M   440.73,   570.19  L   440.46,   570.66  L   440.37,   571.19  L   440.46,   571.72  L   440.73,   572.19  L   441.15,   572.54  L   441.65,   572.73  L   442.20,   572.73  L   442.71,   572.54  L   443.12,   572.19  L   443.39,   571.72  L   443.48,   571.19  L   443.39,   570.66  L   443.12,   570.19  L   442.71,   569.84  L   442.20,   569.65  L   441.65,   569.65  L   441.15,   569.84  L   440.73,   570.19  L   441.13,   570.90  L   441.13,   571.48  L   441.50,   571.93  L   442.07,   572.03  L   442.58,   571.74  L   442.78,   571.19  L   442.58,   570.64  L   442.07,   570.35  L   441.50,   570.45  L   441.93,   571.19  " /><path style="stroke-width: 0.85 ;&st7;  " d=" M   440.73,   383.22  L   440.46,   383.69  L   440.37,   384.22  L   440.46,   384.75  L   440.73,   385.22  L   441.15,   385.57  L   441.65,   385.76  L   442.20,   385.76  L   442.71,   385.57  L   443.12,   385.22  L   443.39,   384.75  L   443.48,   384.22  L   443.39,   383.69  L   443.12,   383.22  L   442.71,   382.87  L   442.20,   382.69  L   441.65,   382.69  L   441.15,   382.87  L   440.73,   383.22  L   441.13,   383.93  L   441.13,   384.51  L   441.50,   384.96  L   442.07,   385.06  L   442.58,   384.77  L   442.78,   384.22  L   442.58,   383.67  L   442.07,   383.39  L   441.50,   383.48  L   441.93,   384.22  " /><path style="stroke-width: 0.85 ;&st7;  " d=" M   441.93,   511.70  L   484.42,   511.70  " /><path style="stroke-width: 0.85 ;&st7;  " d=" M   441.93,   384.22  L   577.90,   384.22  L   577.90,   426.71  " /><path style="stroke-width: 0.85 ;&st7;  " d=" M   441.93,   384.22  L   441.93,   511.70  " /><path style="stroke-width: 0.85 ;&st7;  " d=" M   484.42,   460.71  L   484.42,   384.22  " /><path style="stroke-width: 0.85 ;&st7;  " d=" M   416.43,   426.71  L   416.43,   511.70  L   441.93,   511.70  " /><path style="stroke-width: 0.85 ;&st7;  " d=" M   441.93,   384.22  L   416.43,   384.22  L   416.43,   426.71  " /><path style="stroke-width: 0.85 ;&st7;  " d=" M   422.09,   488.82  L   420.35,   486.20  L   412.51,   486.20  L   410.77,   483.59  " /><path style="stroke-width: 0.28 ;&st9;  " d=" M   416.43,   486.20  L   422.10,   494.70  L   410.76,   494.70  L   416.43,   486.20  " /><path style="stroke-width: 0.85 ;&st7;  " d=" M   447.59,   488.82  L   445.85,   486.20  L   438.01,   486.20  L   436.26,   483.59  " /><path style="stroke-width: 0.28 ;&st9;  " d=" M   441.93,   486.20  L   447.59,   494.70  L   436.26,   494.70  L   441.93,   486.20  " /><path style="stroke-width: 0.85 ;&st7;  " d=" M   490.08,   488.82  L   488.34,   486.20  L   480.50,   486.20  L   478.76,   483.59  " /><path style="stroke-width: 0.28 ;&st9;  " d=" M   484.42,   486.20  L   490.08,   494.70  L   478.75,   494.70  L   484.42,   486.20  " /><path style="stroke-width: 0.85 ;&st7;  " d=" M   490.08,   395.33  L   488.34,   392.72  L   480.50,   392.72  L   478.76,   390.11  " /><path style="stroke-width: 0.28 ;&st9;  " d=" M   484.42,   392.72  L   490.08,   401.22  L   478.75,   401.22  L   484.42,   392.72  " /><path style="stroke-width: 0.85 ;&st7;  " d=" M   422.09,   395.33  L   420.35,   392.72  L   412.51,   392.72  L   410.77,   390.11  " /><path style="stroke-width: 0.28 ;&st9;  " d=" M   416.43,   392.72  L   422.10,   401.22  L   410.76,   401.22  L   416.43,   392.72  " /><path style="stroke-width: 0.85 ;&st7;  " d=" M   447.59,   395.33  L   445.85,   392.72  L   438.01,   392.72  L   436.26,   390.11  " /><path style="stroke-width: 0.28 ;&st9;  " d=" M   441.93,   392.72  L   447.59,   401.22  L   436.26,   401.22  L   441.93,   392.72  " /><path style="stroke-width: 1.42 ;&st7;  " d=" M   161.47,   350.23  L   628.89,   350.23  L   628.89,   596.69  L   161.47,   596.69  L   161.47,   350.23  " /><path style="stroke-width: 0.85 ;&st7;  " d=" M   440.73,   510.70  L   440.46,   511.17  L   440.37,   511.70  L   440.46,   512.23  L   440.73,   512.70  L   441.15,   513.05  L   441.65,   513.24  L   442.20,   513.24  L   442.71,   513.05  L   443.12,   512.70  L   443.39,   512.23  L   443.48,   511.70  L   443.39,   511.17  L   443.12,   510.70  L   442.71,   510.35  L   442.20,   510.16  L   441.65,   510.16  L   441.15,   510.35  L   440.73,   510.70  L   441.13,   511.41  L   441.13,   511.99  L   441.50,   512.44  L   442.07,   512.54  L   442.58,   512.25  L   442.78,   511.70  L   442.58,   511.15  L   442.07,   510.86  L   441.50,   510.96  L   441.93,   511.70  " /><path style="stroke-width: 0.85 ;&st7;  " d=" M   441.93,   350.23  L   441.93,   384.22  " /><path style="stroke-width: 0.85 ;&st7;  " d=" M   603.40,   426.71  L   603.40,   350.23  " /><path style="stroke-width: 1.42 ;&st7;  " d=" M   560.91,   426.71  L   620.40,   426.71  L   620.40,   579.69  L   560.91,   579.69  L   560.91,   426.71  " /><path style="stroke-width: 0.85 ;&st7;  " d=" M   484.42,   511.70  L   484.42,   460.71  " /><path style="stroke-width: 0.85 ;&st7;  " d=" M   348.44,   562.69  L   339.94,   562.69  L   339.94,   571.19  L   560.91,   571.19  " /><path style="stroke-width: 0.85 ;&st7;  " d=" M   382.44,   562.69  L   560.91,   562.69  " /><path style="stroke-width: 0.85 ;&st7;  " d=" M   415.24,   425.71  L   414.97,   426.18  L   414.87,   426.71  L   414.97,   427.25  L   415.24,   427.72  L   415.65,   428.06  L   416.16,   428.25  L   416.70,   428.25  L   417.21,   428.06  L   417.62,   427.72  L   417.89,   427.25  L   417.99,   426.71  L   417.89,   426.18  L   417.62,   425.71  L   417.21,   425.37  L   416.70,   425.18  L   416.16,   425.18  L   415.65,   425.37  L   415.24,   425.71  L   415.63,   426.42  L   415.63,   427.01  L   416.01,   427.45  L   416.58,   427.55  L   417.08,   427.26  L   417.28,   426.71  L   417.08,   426.17  L   416.58,   425.88  L   416.01,   425.98  L   416.43,   426.71  " /><path style="stroke-width: 0.85 ;&st7;  " d=" M   440.73,   434.21  L   440.46,   434.68  L   440.37,   435.21  L   440.46,   435.75  L   440.73,   436.22  L   441.15,   436.56  L   441.65,   436.75  L   442.20,   436.75  L   442.71,   436.56  L   443.12,   436.22  L   443.39,   435.75  L   443.48,   435.21  L   443.39,   434.68  L   443.12,   434.21  L   442.71,   433.86  L   442.20,   433.68  L   441.65,   433.68  L   441.15,   433.86  L   440.73,   434.21  L   441.13,   434.92  L   441.13,   435.50  L   441.50,   435.95  L   442.07,   436.05  L   442.58,   435.76  L   442.78,   435.21  L   442.58,   434.67  L   442.07,   434.38  L   441.50,   434.48  L   441.93,   435.21  " /><path style="stroke-width: 0.85 ;&st7;  " d=" M   483.23,   459.71  L   482.95,   460.18  L   482.86,   460.71  L   482.95,   461.24  L   483.23,   461.71  L   483.64,   462.06  L   484.15,   462.24  L   484.69,   462.24  L   485.20,   462.06  L   485.61,   461.71  L   485.88,   461.24  L   485.98,   460.71  L   485.88,   460.18  L   485.61,   459.71  L   485.20,   459.36  L   484.69,   459.17  L   484.15,   459.17  L   483.64,   459.36  L   483.23,   459.71  L   483.62,   460.42  L   483.62,   461.00  L   483.99,   461.44  L   484.57,   461.54  L   485.07,   461.26  L   485.27,   460.71  L   485.07,   460.16  L   484.57,   459.87  L   483.99,   459.97  L   484.42,   460.71  " /><path style="stroke-width: 0.85 ;&st7;  " d=" M   483.23,   383.22  L   482.95,   383.69  L   482.86,   384.22  L   482.95,   384.75  L   483.23,   385.22  L   483.64,   385.57  L   484.15,   385.76  L   484.69,   385.76  L   485.20,   385.57  L   485.61,   385.22  L   485.88,   384.75  L   485.98,   384.22  L   485.88,   383.69  L   485.61,   383.22  L   485.20,   382.87  L   484.69,   382.69  L   484.15,   382.69  L   483.64,   382.87  L   483.23,   383.22  L   483.62,   383.93  L   483.62,   384.51  L   483.99,   384.96  L   484.57,   385.06  L   485.07,   384.77  L   485.27,   384.22  L   485.07,   383.67  L   484.57,   383.39  L   483.99,   383.48  L   484.42,   384.22  " /><g ewd:code="" ewd:figID="74" ewd:comment="7" ewd:figtype="commref"><text style="&st18;" transform="matrix(&st17;  381.57  414.43 )">(*7)</text></g><path style="stroke-width: 0.85 ;&st7;   " d=" M   222.83,   492.17  C   221.44    493.54    221.41    495.78    222.78    497.18  " /><path style="stroke-width: 0.85 ;&st7;   " d=" M   222.78,   497.18  C   224.15    498.58    226.39    498.60    227.79    497.23  " /><path style="stroke-width: 0.85 ;&st7;   " d=" M   227.79,   497.23  C   228.50    496.54    228.85    495.69    228.85    494.70  " /><path style="stroke-width: 0.85 ;&st7;   " d=" M   188.84,   492.17  C   187.44    493.54    187.42    495.78    188.79    497.18  " /><path style="stroke-width: 0.85 ;&st7;   " d=" M   188.79,   497.18  C   190.16    498.58    192.40    498.60    193.80    497.23  " /><path style="stroke-width: 0.85 ;&st7;   " d=" M   193.80,   497.23  C   194.50    496.54    194.86    495.69    194.86    494.70  " /><path style="stroke-width: 0.85 ;&st7;   " d=" M   183.88,   492.17  C   182.48    493.54    182.46    495.78    183.83    497.18  " /><path style="stroke-width: 0.85 ;&st7;   " d=" M   183.83,   497.18  C   185.20    498.58    187.44    498.60    188.84    497.23  " /><path style="stroke-width: 0.85 ;&st7;   " d=" M   188.84,   497.23  C   190.24    495.86    190.26    493.62    188.89    492.22  " /><path style="stroke-width: 0.85 ;&st7;   " d=" M   188.89,   492.22  C   188.87    492.21    188.86    492.19    188.84    492.17  " /><path style="stroke-width: 0.85 ;&st7;   " d=" M   177.86,   494.70  C   177.86    496.66    179.45    498.24    181.40    498.24  " /><path style="stroke-width: 0.85 ;&st7;   " d=" M   181.40,   498.24  C   183.36    498.24    184.94    496.66    184.94    494.70  " /><path style="stroke-width: 0.85 ;&st7;   " d=" M   184.94,   494.70  C   184.94    493.71    184.59    492.87    183.88    492.17  " /><path style="stroke-width: 0.85 ;&st7;   " d=" M   233.10,   487.34  C   234.80    486.37    235.38    484.20    234.40    482.50  " /><path style="stroke-width: 0.85 ;&st7;   " d=" M   234.40,   482.50  C   233.42    480.81    231.26    480.23    229.56    481.21  " /><path style="stroke-width: 0.85 ;&st7;   " d=" M   229.56,   481.21  C   228.70    481.70    228.15    482.43    227.90    483.39  " /><path style="stroke-width: 0.85 ;&st7;   " d=" M   227.90,   483.39  C   229.78    483.92    231.74    482.82    232.26    480.93  " /><path style="stroke-width: 0.85 ;&st7;   " d=" M   232.26,   480.93  C   232.79    479.05    231.69    477.10    229.80    476.57  " /><path style="stroke-width: 0.85 ;&st7;   " d=" M   229.80,   476.57  C   227.92    476.05    225.97    477.15    225.44    479.03  " /><path style="stroke-width: 0.85 ;&st7;   " d=" M   225.44,   479.03  C   225.44    479.06    225.43    479.08    225.42    479.10  " /><path style="stroke-width: 0.85 ;&st7;   " d=" M   225.42,   479.10  C   227.31    479.62    229.26    478.52    229.78    476.64  " /><path style="stroke-width: 0.85 ;&st7;   " d=" M   229.78,   476.64  C   230.31    474.76    229.21    472.80    227.33    472.28  " /><path style="stroke-width: 0.85 ;&st7;   " d=" M   227.33,   472.28  C   226.37    472.01    225.46    472.13    224.60    472.62  " /><path style="stroke-width: 0.85 ;&st7;   " d=" M   208.42,   449.66  C   210.31    450.19    212.26    449.08    212.79    447.20  " /><path style="stroke-width: 0.85 ;&st7;   " d=" M   212.79,   447.20  C   213.31    445.32    212.21    443.36    210.33    442.84  " /><path style="stroke-width: 0.85 ;&st7;   " d=" M   210.33,   442.84  C   209.37    442.57    208.46    442.69    207.61    443.18  " /><path style="stroke-width: 0.85 ;&st7;   " d=" M   210.90,   453.95  C   212.79    454.48    214.74    453.38    215.27    451.50  " /><path style="stroke-width: 0.85 ;&st7;   " d=" M   215.27,   451.50  C   215.79    449.61    214.69    447.66    212.81    447.13  " /><path style="stroke-width: 0.85 ;&st7;   " d=" M   212.81,   447.13  C   210.92    446.61    208.97    447.71    208.44    449.59  " /><path style="stroke-width: 0.85 ;&st7;   " d=" M   208.44,   449.59  C   208.44    449.62    208.43    449.64    208.43    449.66  " /><path style="stroke-width: 0.85 ;&st7;   " d=" M   216.10,   457.90  C   217.80    456.93    218.38    454.76    217.40    453.07  " /><path style="stroke-width: 0.85 ;&st7;   " d=" M   217.40,   453.07  C   216.42    451.37    214.26    450.79    212.56    451.77  " /><path style="stroke-width: 0.85 ;&st7;   " d=" M   212.56,   451.77  C   211.71    452.26    211.15    452.99    210.90    453.95  " /><path style="stroke-width: 0.85 ;&st7;   " d=" M   182.11,   472.62  C   180.42    471.65    178.25    472.23    177.27    473.92  " /><path style="stroke-width: 0.85 ;&st7;   " d=" M   177.27,   473.92  C   176.30    475.61    176.88    477.78    178.57    478.75  " /><path style="stroke-width: 0.85 ;&st7;   " d=" M   178.57,   478.75  C   179.43    479.25    180.34    479.36    181.29    479.10  " /><path style="stroke-width: 0.85 ;&st7;   " d=" M   181.29,   479.10  C   180.80    477.21    178.87    476.07    176.98    476.56  " /><path style="stroke-width: 0.85 ;&st7;   " d=" M   176.98,   476.56  C   175.08    477.04    173.95    478.97    174.43    480.87  " /><path style="stroke-width: 0.85 ;&st7;   " d=" M   174.43,   480.87  C   174.92    482.76    176.85    483.90    178.74    483.41  " /><path style="stroke-width: 0.85 ;&st7;   " d=" M   178.74,   483.41  C   178.77    483.40    178.79    483.40    178.81    483.39  " /><path style="stroke-width: 0.85 ;&st7;   " d=" M   178.81,   483.39  C   178.32    481.50    176.39    480.36    174.50    480.85  " /><path style="stroke-width: 0.85 ;&st7;   " d=" M   174.50,   480.85  C   172.61    481.33    171.47    483.26    171.95    485.16  " /><path style="stroke-width: 0.85 ;&st7;   " d=" M   171.95,   485.16  C   172.20    486.11    172.76    486.85    173.61    487.34  " /><path style="stroke-width: 0.85 ;&st7;   " d=" M   195.81,   453.95  C   195.32    452.06    193.39    450.92    191.50    451.41  " /><path style="stroke-width: 0.85 ;&st7;   " d=" M   191.50,   451.41  C   189.61    451.89    188.47    453.82    188.95    455.72  " /><path style="stroke-width: 0.85 ;&st7;   " d=" M   188.95,   455.72  C   189.20    456.68    189.75    457.41    190.61    457.90  " /><path style="stroke-width: 0.85 ;&st7;   " d=" M   198.29,   449.66  C   197.80    447.77    195.87    446.63    193.97    447.12  " /><path style="stroke-width: 0.85 ;&st7;   " d=" M   193.97,   447.12  C   192.08    447.60    190.94    449.53    191.43    451.43  " /><path style="stroke-width: 0.85 ;&st7;   " d=" M   191.43,   451.43  C   191.92    453.32    193.85    454.46    195.74    453.97  " /><path style="stroke-width: 0.85 ;&st7;   " d=" M   195.74,   453.97  C   195.77    453.97    195.78    453.96    195.81    453.95  " /><path style="stroke-width: 0.85 ;&st7;   " d=" M   199.11,   443.18  C   197.41    442.20    195.25    442.78    194.27    444.48  " /><path style="stroke-width: 0.85 ;&st7;   " d=" M   194.27,   444.48  C   193.29    446.17    193.87    448.34    195.57    449.32  " /><path style="stroke-width: 0.85 ;&st7;   " d=" M   195.57,   449.32  C   196.42    449.81    197.33    449.93    198.29    449.66  " /><path style="stroke-width: 0.85 ;&st7;   " d=" M   269.15,   481.95  C   268.17    480.26    266.01    479.68    264.31    480.66  " /><path style="stroke-width: 0.85 ;&st7;   " d=" M   264.31,   480.66  C   262.62    481.64    262.04    483.80    263.01    485.50  " /><path style="stroke-width: 0.85 ;&st7;   " d=" M   263.01,   485.50  C   263.51    486.35    264.24    486.91    265.20    487.16  " /><path style="stroke-width: 0.85 ;&st7;   " d=" M   265.20,   487.16  C   265.73    485.27    264.63    483.32    262.74    482.79  " /><path style="stroke-width: 0.85 ;&st7;   " d=" M   262.74,   482.79  C   260.86    482.27    258.91    483.37    258.38    485.25  " /><path style="stroke-width: 0.85 ;&st7;   " d=" M   258.38,   485.25  C   257.85    487.14    258.95    489.09    260.84    489.61  " /><path style="stroke-width: 0.85 ;&st7;   " d=" M   260.84,   489.61  C   260.86    489.62    260.88    489.63    260.91    489.63  " /><path style="stroke-width: 0.85 ;&st7;   " d=" M   303.42,   441.23  C   304.79    442.63    307.03    442.65    308.43    441.28  " /><path style="stroke-width: 0.85 ;&st7;   " d=" M   308.43,   441.28  C   309.82    439.91    309.85    437.67    308.48    436.27  " /><path style="stroke-width: 0.85 ;&st7;   " d=" M   308.48,   436.27  C   307.79    435.57    306.94    435.21    305.95    435.21  " /><path style="stroke-width: 0.85 ;&st7;   " d=" M   303.42,   446.19  C   304.79    447.59    307.03    447.61    308.43    446.24  " /><path style="stroke-width: 0.85 ;&st7;   " d=" M   308.43,   446.24  C   309.82    444.87    309.85    442.63    308.48    441.23  " /><path style="stroke-width: 0.85 ;&st7;   " d=" M   308.48,   441.23  C   307.11    439.84    304.87    439.81    303.47    441.18  " /><path style="stroke-width: 0.85 ;&st7;   " d=" M   303.47,   441.18  C   303.45    441.20    303.44    441.21    303.42    441.23  " /><path style="stroke-width: 0.85 ;&st7;   " d=" M   305.95,   452.21  C   307.90    452.21    309.49    450.62    309.49    448.67  " /><path style="stroke-width: 0.85 ;&st7;   " d=" M   309.49,   448.67  C   309.49    446.71    307.90    445.13    305.95    445.13  " /><path style="stroke-width: 0.85 ;&st7;   " d=" M   305.95,   445.13  C   304.96    445.13    304.11    445.48    303.42    446.19  " /><path style="stroke-width: 0.85 ;&st7;   " d=" M   303.42,   407.24  C   304.79    408.64    307.03    408.66    308.43    407.29  " /><path style="stroke-width: 0.85 ;&st7;   " d=" M   308.43,   407.29  C   309.82    405.92    309.85    403.68    308.48    402.28  " /><path style="stroke-width: 0.85 ;&st7;   " d=" M   308.48,   402.28  C   307.79    401.57    306.94    401.22    305.95    401.22  " /><path style="stroke-width: 0.85 ;&st7;   " d=" M   303.42,   412.20  C   304.79    413.59    307.03    413.62    308.43    412.25  " /><path style="stroke-width: 0.85 ;&st7;   " d=" M   308.43,   412.25  C   309.82    410.88    309.85    408.64    308.48    407.24  " /><path style="stroke-width: 0.85 ;&st7;   " d=" M   308.48,   407.24  C   307.11    405.84    304.87    405.82    303.47    407.19  " /><path style="stroke-width: 0.85 ;&st7;   " d=" M   303.47,   407.19  C   303.45    407.20    303.44    407.22    303.42    407.24  " /><path style="stroke-width: 0.85 ;&st7;   " d=" M   305.95,   418.22  C   307.90    418.22    309.49    416.63    309.49    414.67  " /><path style="stroke-width: 0.85 ;&st7;   " d=" M   309.49,   414.67  C   309.49    412.72    307.90    411.13    305.95    411.13  " /><path style="stroke-width: 0.85 ;&st7;   " d=" M   305.95,   411.13  C   304.96    411.13    304.11    411.49    303.42    412.20  " /><path style="stroke-width: 0.85 ;&st7;   " d=" M   342.75,   481.95  C   341.77    483.65    342.35    485.82    344.05    486.79  " /><path style="stroke-width: 0.85 ;&st7;   " d=" M   344.05,   486.79  C   345.74    487.77    347.91    487.19    348.88    485.50  " /><path style="stroke-width: 0.85 ;&st7;   " d=" M   348.88,   485.50  C   349.38    484.64    349.49    483.73    349.23    482.77  " /><path style="stroke-width: 0.85 ;&st7;   " d=" M   349.23,   482.77  C   347.33    483.26    346.19    485.19    346.68    487.09  " /><path style="stroke-width: 0.85 ;&st7;   " d=" M   346.68,   487.09  C   347.16    488.98    349.09    490.12    350.99    489.63  " /><path style="stroke-width: 0.85 ;&st7;   " d=" M   350.99,   489.63  C   352.88    489.15    354.02    487.22    353.54    485.32  " /><path style="stroke-width: 0.85 ;&st7;   " d=" M   353.54,   485.32  C   353.53    485.30    353.53    485.28    353.52    485.25  " /><path style="stroke-width: 0.85 ;&st7;   " d=" M   353.52,   485.25  C   351.63    485.74    350.48    487.67    350.97    489.56  " /><path style="stroke-width: 0.85 ;&st7;   " d=" M   350.97,   489.56  C   351.46    491.46    353.39    492.60    355.28    492.11  " /><path style="stroke-width: 0.85 ;&st7;   " d=" M   355.28,   492.11  C   356.24    491.87    356.97    491.31    357.47    490.45  " /><path style="stroke-width: 0.85 ;&st7;   " d=" M   313.31,   464.96  C   312.33    466.65    312.91    468.82    314.61    469.80  " /><path style="stroke-width: 0.85 ;&st7;   " d=" M   314.61,   469.80  C   316.30    470.77    318.47    470.19    319.44    468.50  " /><path style="stroke-width: 0.85 ;&st7;   " d=" M   319.44,   468.50  C   319.94    467.64    320.05    466.73    319.79    465.78  " /><path style="stroke-width: 0.85 ;&st7;   " d=" M   319.79,   465.78  C   317.89    466.26    316.75    468.19    317.24    470.09  " /><path style="stroke-width: 0.85 ;&st7;   " d=" M   317.24,   470.09  C   317.72    471.98    319.65    473.12    321.55    472.64  " /><path style="stroke-width: 0.85 ;&st7;   " d=" M   321.55,   472.64  C   323.44    472.15    324.59    470.22    324.10    468.33  " /><path style="stroke-width: 0.85 ;&st7;   " d=" M   324.10,   468.33  C   324.09    468.30    324.09    468.28    324.08    468.25  " /><path style="stroke-width: 0.85 ;&st7;   " d=" M   324.08,   468.26  C   322.18    468.74    321.04    470.67    321.53    472.57  " /><path style="stroke-width: 0.85 ;&st7;   " d=" M   321.53,   472.57  C   322.02    474.46    323.95    475.60    325.85    475.12  " /><path style="stroke-width: 0.85 ;&st7;   " d=" M   325.85,   475.12  C   326.81    474.87    327.54    474.31    328.03    473.46  " /><path style="stroke-width: 0.85 ;&st7;   " d=" M   290.35,   472.64  C   290.87    470.75    289.77    468.80    287.89    468.27  " /><path style="stroke-width: 0.85 ;&st7;   " d=" M   287.89,   468.27  C   286.00    467.75    284.05    468.85    283.52    470.73  " /><path style="stroke-width: 0.85 ;&st7;   " d=" M   283.52,   470.73  C   283.26    471.69    283.37    472.60    283.87    473.46  " /><path style="stroke-width: 0.85 ;&st7;   " d=" M   294.64,   470.16  C   295.17    468.28    294.06    466.32    292.18    465.80  " /><path style="stroke-width: 0.85 ;&st7;   " d=" M   292.18,   465.80  C   290.30    465.27    288.34    466.37    287.82    468.26  " /><path style="stroke-width: 0.85 ;&st7;   " d=" M   287.82,   468.26  C   287.29    470.14    288.39    472.09    290.28    472.62  " /><path style="stroke-width: 0.85 ;&st7;   " d=" M   290.28,   472.62  C   290.30    472.62    290.32    472.63    290.35    472.64  " /><path style="stroke-width: 0.85 ;&st7;   " d=" M   298.59,   464.96  C   297.61    463.26    295.44    462.68    293.75    463.66  " /><path style="stroke-width: 0.85 ;&st7;   " d=" M   293.75,   463.66  C   292.06    464.64    291.48    466.80    292.45    468.50  " /><path style="stroke-width: 0.85 ;&st7;   " d=" M   292.45,   468.50  C   292.95    469.36    293.68    469.91    294.64    470.16  " /><path style="stroke-width: 0.85 ;&st7;   " d=" M   260.91,   489.63  C   261.43    487.75    260.33    485.80    258.45    485.27  " /><path style="stroke-width: 0.85 ;&st7;   " d=" M   258.45,   485.27  C   256.56    484.75    254.61    485.85    254.08    487.73  " /><path style="stroke-width: 0.85 ;&st7;   " d=" M   254.08,   487.73  C   253.82    488.68    253.93    489.59    254.43    490.45  " /><path style="stroke-width: 0.85 ;&st7;   " d=" M   373.94,   562.69  C   373.94    560.74    372.35    559.15    370.40    559.15  " /><path style="stroke-width: 0.85 ;&st7;   " d=" M   370.40,   559.15  C   368.44    559.15    366.86    560.74    366.86    562.69  " /><path style="stroke-width: 0.85 ;&st7;   " d=" M   366.86,   562.69  C   366.86    563.68    367.21    564.53    367.92    565.22  " /><path style="stroke-width: 0.85 ;&st7;   " d=" M   367.92,   565.22  C   369.31    563.85    369.34    561.61    367.97    560.21  " /><path style="stroke-width: 0.85 ;&st7;   " d=" M   367.97,   560.21  C   366.60    558.82    364.36    558.79    362.96    560.16  " /><path style="stroke-width: 0.85 ;&st7;   " d=" M   362.96,   560.16  C   361.56    561.53    361.54    563.77    362.91    565.17  " /><path style="stroke-width: 0.85 ;&st7;   " d=" M   362.91,   565.17  C   362.93    565.19    362.94    565.20    362.96    565.22  " /><path style="stroke-width: 0.85 ;&st7;   " d=" M   362.96,   565.22  C   364.36    563.85    364.38    561.61    363.01    560.21  " /><path style="stroke-width: 0.85 ;&st7;   " d=" M   363.01,   560.21  C   361.64    558.82    359.40    558.79    358.00    560.16  " /><path style="stroke-width: 0.85 ;&st7;   " d=" M   358.00,   560.16  C   357.30    560.85    356.94    561.70    356.94    562.69  " /><g ewd:code="" ewd:figID="75" ewd:comment="8" ewd:figtype="commref"><text style="&st18;" transform="matrix(&st16;  309.23  553.33 )">(*8)</text></g><path style="stroke-width: 0.85 ;&st7;  " d=" M   237.35,   494.70  L   228.85,   494.70  " /><path style="stroke-width: 0.85 ;&st7;  " d=" M   203.36,   494.70  L   194.86,   494.70  " /><path style="stroke-width: 0.85 ;&st7;  " d=" M   177.86,   494.70  L   169.36,   494.70  " /><path style="stroke-width: 0.85 ;&st7;  " d=" M   233.10,   487.34  L   237.35,   494.70  " /><path style="stroke-width: 0.85 ;&st7;  " d=" M   220.35,   465.26  L   224.60,   472.62  " /><path style="stroke-width: 0.85 ;&st7;  " d=" M   203.36,   435.82  L   207.61,   443.18  " /><path style="stroke-width: 0.85 ;&st7;  " d=" M   216.10,   457.90  L   220.35,   465.26  " /><path style="stroke-width: 0.85 ;&st7;  " d=" M   182.11,   472.62  L   186.36,   465.26  " /><path style="stroke-width: 0.85 ;&st7;  " d=" M   186.36,   465.26  L   190.61,   457.90  " /><path style="stroke-width: 0.85 ;&st7;  " d=" M   199.11,   443.18  L   203.36,   435.82  " /><path style="stroke-width: 0.85 ;&st7;  " d=" M   305.95,   426.71  L   305.95,   435.21  " /><path style="stroke-width: 0.85 ;&st7;  " d=" M   305.95,   452.21  L   305.95,   460.71  " /><path style="stroke-width: 0.85 ;&st7;  " d=" M   305.95,   384.22  L   305.95,   401.22  " /><path style="stroke-width: 0.85 ;&st7;  " d=" M   305.95,   418.22  L   305.95,   426.71  " /><path style="stroke-width: 0.85 ;&st7;  " d=" M   342.75,   481.95  L   335.39,   477.71  " /><path style="stroke-width: 0.85 ;&st7;  " d=" M   364.83,   494.70  L   357.47,   490.45  " /><path style="stroke-width: 0.85 ;&st7;  " d=" M   313.31,   464.96  L   305.95,   460.71  " /><path style="stroke-width: 0.85 ;&st7;  " d=" M   335.39,   477.71  L   328.03,   473.46  " /><path style="stroke-width: 0.85 ;&st7;  " d=" M   276.51,   477.71  L   283.87,   473.46  " /><path style="stroke-width: 0.85 ;&st7;  " d=" M   298.59,   464.96  L   305.95,   460.71  " /><path style="stroke-width: 0.85 ;&st7;  " d=" M   247.07,   494.70  L   254.43,   490.45  " /><path style="stroke-width: 0.85 ;&st7;  " d=" M   269.15,   481.95  L   276.51,   477.71  " /><g ewd:code="" ewd:figID="73" ewd:comment="8" ewd:figtype="commref"><text style="&st18;" transform="matrix(&st16;  309.23  536.33 )">(*8)</text></g><path style="stroke-width: 0.85 ;&st7;  " d=" M   373.94,   562.69  L   382.44,   562.69  " /><path style="stroke-width: 0.85 ;&st7;  " d=" M   348.08,   562.69  L   356.94,   562.69  " /><text style="&st18;" transform="matrix(&st16;  251.61  357.86 )">IG</text><text style="&st18;" transform="matrix(&st16;  176.67  357.86 )">S</text><text style="&st18;" transform="matrix(&st16;  433.23  347.66 )">1</text><text style="&st18;" transform="matrix(&st16;  439.74  347.66 )">B</text><path style="stroke-width: 1.42 ;&st7;   " d=" M   446.46,   345.69  C   446.46    343.19    444.43    341.16    441.93    341.16  " /><path style="stroke-width: 1.42 ;&st7;   " d=" M   441.93,   341.16  C   439.42    341.16    437.39    343.19    437.39    345.69  " /><path style="stroke-width: 1.42 ;&st7;   " d=" M   437.39,   345.69  C   437.39    348.20    439.42    350.23    441.93    350.23  " /><path style="stroke-width: 1.42 ;&st7;   " d=" M   441.93,   350.23  C   444.43    350.23    446.46    348.20    446.46    345.69  " /><text style="&st18;" transform="matrix(&st16;  475.73  347.66 )">3</text><text style="&st18;" transform="matrix(&st16;  482.0  347.66 )">C</text><path style="stroke-width: 1.42 ;&st7;   " d=" M   488.95,   345.69  C   488.95    343.19    486.92    341.16    484.42    341.16  " /><path style="stroke-width: 1.42 ;&st7;   " d=" M   484.42,   341.16  C   481.92    341.16    479.89    343.19    479.89    345.69  " /><path style="stroke-width: 1.42 ;&st7;   " d=" M   479.89,   345.69  C   479.89    348.20    481.92    350.23    484.42    350.23  " /><path style="stroke-width: 1.42 ;&st7;   " d=" M   484.42,   350.23  C   486.92    350.23    488.95    348.20    488.95    345.69  " /><text style="&st18;" transform="matrix(&st16;  594.71  603.19 )">4</text><text style="&st18;" transform="matrix(&st16;  594.71  612.25 )">1</text><text style="&st18;" transform="matrix(&st16;  601.02  612.25 )">D</text><path style="stroke-width: 1.42 ;&st7;   " d=" M   607.93,   610.28  C   607.93    607.78    605.90    605.75    603.40    605.75  " /><path style="stroke-width: 1.42 ;&st7;   " d=" M   603.40,   605.75  C   600.90    605.75    598.87    607.78    598.87    610.28  " /><path style="stroke-width: 1.42 ;&st7;   " d=" M   598.87,   610.28  C   598.87    612.79    600.90    614.82    603.40    614.82  " /><path style="stroke-width: 1.42 ;&st7;   " d=" M   603.40,   614.82  C   605.90    614.82    607.93    612.79    607.93    610.28  " /><path style="stroke-width: 1.42 ;&st7;   " d=" M   607.93,   601.22  C   607.93    598.71    605.90    596.69    603.40    596.69  " /><path style="stroke-width: 1.42 ;&st7;   " d=" M   603.40,   596.69  C   600.90    596.69    598.87    598.71    598.87    601.22  " /><path style="stroke-width: 1.42 ;&st7;   " d=" M   598.87,   601.22  C   598.87    603.72    600.90    605.75    603.40    605.75  " /><path style="stroke-width: 1.42 ;&st7;   " d=" M   603.40,   605.75  C   605.90    605.75    607.93    603.72    607.93    601.22  " /><text style="&st18;" transform="matrix(&st16;  600.98  603.19 )">C</text><text style="&st18;" transform="matrix(&st16;  594.71  347.66 )">2</text><text style="&st18;" transform="matrix(&st16;  601.09  347.66 )">A</text><path style="stroke-width: 1.42 ;&st7;   " d=" M   607.93,   345.69  C   607.93    343.19    605.90    341.16    603.40    341.16  " /><path style="stroke-width: 1.42 ;&st7;   " d=" M   603.40,   341.16  C   600.90    341.16    598.87    343.19    598.87    345.69  " /><path style="stroke-width: 1.42 ;&st7;   " d=" M   598.87,   345.69  C   598.87    348.20    600.90    350.23    603.40    350.23  " /><path style="stroke-width: 1.42 ;&st7;   " d=" M   603.40,   350.23  C   605.90    350.23    607.93    348.20    607.93    345.69  " /><text style="&st18;" transform="matrix(&st16;  169.78  347.66 )">3</text><path style="stroke-width: 1.42 ;&st7;   " d=" M   183.00,   345.69  C   183.00    343.19    180.97    341.16    178.47    341.16  " /><path style="stroke-width: 1.42 ;&st7;   " d=" M   178.47,   341.16  C   175.97    341.16    173.94    343.19    173.94    345.69  " /><path style="stroke-width: 1.42 ;&st7;   " d=" M   173.94,   345.69  C   173.94    348.20    175.97    350.23    178.47    350.23  " /><path style="stroke-width: 1.42 ;&st7;   " d=" M   178.47,   350.23  C   180.97    350.23    183.00    348.20    183.00    345.69  " /><text style="&st18;" transform="matrix(&st16;  176.09  347.66 )">D</text><text style="&st18;" transform="matrix(&st16;  246.26  347.66 )">2</text><path style="stroke-width: 1.42 ;&st7;   " d=" M   259.49,   345.69  C   259.49    343.19    257.46    341.16    254.96    341.16  " /><path style="stroke-width: 1.42 ;&st7;   " d=" M   254.96,   341.16  C   252.45    341.16    250.42    343.19    250.42    345.69  " /><path style="stroke-width: 1.42 ;&st7;   " d=" M   250.42,   345.69  C   250.42    348.20    252.45    350.23    254.96    350.23  " /><path style="stroke-width: 1.42 ;&st7;   " d=" M   254.96,   350.23  C   257.46    350.23    259.49    348.20    259.49    345.69  " /><text style="&st18;" transform="matrix(&st16;  252.58  347.66 )">D</text><g ewd:figtype="title"><text style="&st18;" transform="matrix(&st16;  158.07  611.4 )" ewd:textID="11">Generator Assembly</text><text style="&st18;" transform="matrix(&st16;  158.06  604.58 )">C9(A),C10(B),C74(C),C126(D)</text></g><g ewd:code="" ewd:figID="69" ewd:comment="12" ewd:figtype="commref"><text style="&st18;" transform="matrix(&st16;  608.49  612.25 )">(*12)</text></g><g ewd:code="" ewd:figID="70" ewd:comment="2" ewd:figtype="commref"><text style="&st18;" transform="matrix(&st16;  608.49  603.19 )">(*2)</text></g></g><g ewd:figtype="conn" ewd:figID="7" ewd:code="C55"><path style="stroke-width: 1.42 ;&st7;  " d=" M   467.42,   171.76  L   467.42,   205.75  L   501.42,   205.75  L   501.42,   171.76  L   467.42,   171.76  " /><text style="&st18;" transform="matrix(&st16;  475.73  212.25 )">8</text><path style="stroke-width: 1.42 ;&st7;   " d=" M   488.95,   210.28  C   488.95    207.78    486.92    205.75    484.42    205.75  " /><path style="stroke-width: 1.42 ;&st7;   " d=" M   484.42,   205.75  C   481.92    205.75    479.89    207.78    479.89    210.28  " /><path style="stroke-width: 1.42 ;&st7;   " d=" M   479.89,   210.28  C   479.89    212.79    481.92    214.82    484.42    214.82  " /><path style="stroke-width: 1.42 ;&st7;   " d=" M   484.42,   214.82  C   486.92    214.82    488.95    212.79    488.95    210.28  " /><text style="&st18;" transform="matrix(&st16;  482.0  212.25 )">C</text><text style="&st18;" transform="matrix(&st16;  478.35  202.05 )">ALT</text><g ewd:figtype="title"><text style="&st18;" transform="matrix(&st16;  464.02  168.06 )">ECM</text><text style="&st18;" transform="matrix(&st16;  464.01  161.24 )">C55(C)</text></g></g><g ewd:figtype="rb" ewd:figID="12" ewd:code="FUSE46"><text style="&st18;" transform="matrix(&st16;  104.3  261.55 )">2</text><text style="&st18;" transform="matrix(&st16;  104.3  315.93 )">1</text><text style="&st18;" transform="matrix(&st16;  126.91  285.63 )">140A <tspan x="0 " dy="6.0">ALT</tspan></text><path style="stroke-width: 0.85 ;&st7;  " d=" M   110.48,   265.24  L   110.48,   239.75  " /><path style="stroke-width: 0.85 ;&st7;  " d=" M   110.48,   307.73  L   110.48,   333.23  " /><path style="stroke-width: 0.28 ;&st9;  " d=" M   110.48,   244.64  L   113.31,   247.47  L   113.31,   243.22  L   110.48,   240.39  L   107.65,   243.22  L   107.65,   247.47  L   110.48,   244.64  " /><path style="stroke-width: 0.28 ;&st9;  " d=" M   110.48,   328.33  L   107.65,   325.50  L   107.65,   329.75  L   110.48,   332.58  L   113.31,   329.75  L   113.31,   325.50  L   110.48,   328.33  " /><path style="stroke-width: 1.42 ;&st7;  " d=" M   112.61,   239.75  L   108.36,   239.75  " /><path style="stroke-width: 1.42 ;&st7;  " d=" M   112.61,   333.23  L   108.36,   333.23  " /><path style="stroke-width: 1.42 ;&st7;  " d=" M    97.73,   265.24  L    97.73,   307.73  L   123.23,   307.73  L   123.23,   265.24  L    97.73,   265.24  " /><path style="stroke-width: 0.85 ;&st7;  " d=" M   110.48,   265.24  L   110.48,   273.74  " /><path style="stroke-width: 0.85 ;&st7;   " d=" M   111.90,   297.82  C   111.90    297.04    111.26    296.40    110.48    296.40  " /><path style="stroke-width: 0.85 ;&st7;   " d=" M   110.48,   296.40  C   109.70    296.40    109.07    297.04    109.07    297.82  " /><path style="stroke-width: 0.85 ;&st7;   " d=" M   109.07,   297.82  C   109.07    298.60    109.70    299.24    110.48    299.24  " /><path style="stroke-width: 0.85 ;&st7;   " d=" M   110.48,   299.24  C   111.26    299.24    111.90    298.60    111.90    297.82  " /><path style="stroke-width: 0.85 ;&st7;   " d=" M   111.90,   275.16  C   111.90    274.37    111.26    273.74    110.48    273.74  " /><path style="stroke-width: 0.85 ;&st7;   " d=" M   110.48,   273.74  C   109.70    273.74    109.07    274.37    109.07    275.16  " /><path style="stroke-width: 0.85 ;&st7;   " d=" M   109.07,   275.16  C   109.07    275.94    109.70    276.57    110.48    276.57  " /><path style="stroke-width: 0.85 ;&st7;   " d=" M   110.48,   276.57  C   111.26    276.57    111.90    275.94    111.90    275.16  " /><path style="stroke-width: 1.42 ;&st7;   " d=" M   110.48,   296.40  C   113.22    294.79    114.13    291.26    112.52    288.52  " /><path style="stroke-width: 1.42 ;&st7;   " d=" M   112.52,   288.52  C   112.00    287.64    111.36    287.01    110.48    286.49  " /><path style="stroke-width: 1.42 ;&st7;   " d=" M   110.48,   276.57  C   107.74    278.19    106.83    281.71    108.44    284.45  " /><path style="stroke-width: 1.42 ;&st7;   " d=" M   108.44,   284.45  C   108.96    285.33    109.60    285.97    110.48    286.49  " /><path style="stroke-width: 0.85 ;&st7;  " d=" M   110.48,   299.24  L   110.48,   307.73  " /></g><g ewd:figtype="rb" ewd:figID="13" ewd:code="FUSE1"><path style="stroke-width: 1.42 ;&st7;  " d=" M   180.59,    95.27  L   176.35,    95.27  " /><path style="stroke-width: 1.42 ;&st7;  " d=" M   180.59,   103.77  L   176.35,   103.77  " /><path style="stroke-width: 0.85 ;&st7;  " d=" M   178.47,    78.27  L   178.47,    95.27  " /><path style="stroke-width: 1.42 ;&st7;   " d=" M   176.35,    95.27  C   174.00     95.27    172.10     97.17    172.10     99.52  " /><path style="stroke-width: 1.42 ;&st7;   " d=" M   172.10,    99.52  C   172.10    101.87    174.00    103.77    176.35    103.77  " /><path style="stroke-width: 1.42 ;&st7;   " d=" M   180.59,   103.77  C   182.94    103.77    184.84    101.87    184.84     99.52  " /><path style="stroke-width: 1.42 ;&st7;   " d=" M   184.84,    99.52  C   184.84     97.17    182.94     95.27    180.59     95.27  " /><path style="stroke-width: 0.28 ;&st9;  " d=" M   178.47,    90.37  L   175.64,    87.54  L   175.64,    91.79  L   178.47,    94.62  L   181.30,    91.79  L   181.30,    87.54  L   178.47,    90.37  " /><text style="&st18;" transform="matrix(&st16;  194.89  53.34 )">7.5A <tspan x="0 " dy="6.0">ALT-S/ </tspan><tspan x="0 " dy="6.0">ICS</tspan></text><text style="&st18;" transform="matrix(&st16;  176.67  101.49 )">1</text><text style="&st18;" transform="matrix(&st16;  172.29  86.47 )">2</text><text style="&st18;" transform="matrix(&st16;  170.43  32.08 )">(BAT)</text><path style="stroke-width: 0.85 ;&st7;  " d=" M   178.47,    69.77  L   178.47,    78.27  " /><path style="stroke-width: 1.42 ;&st7;   " d=" M   178.47,    47.11  C   175.73     48.72    174.82     52.25    176.43     54.99  " /><path style="stroke-width: 1.42 ;&st7;   " d=" M   176.43,    54.99  C   176.95     55.87    177.59     56.51    178.47     57.03  " /><path style="stroke-width: 1.42 ;&st7;   " d=" M   178.47,    66.94  C   181.21     65.33    182.12     61.80    180.51     59.06  " /><path style="stroke-width: 1.42 ;&st7;   " d=" M   180.51,    59.06  C   179.99     58.18    179.35     57.55    178.47     57.03  " /><path style="stroke-width: 0.85 ;&st7;   " d=" M   179.89,    45.69  C   179.89     44.91    179.25     44.28    178.47     44.28  " /><path style="stroke-width: 0.85 ;&st7;   " d=" M   178.47,    44.28  C   177.69     44.28    177.05     44.91    177.05     45.69  " /><path style="stroke-width: 0.85 ;&st7;   " d=" M   177.05,    45.69  C   177.05     46.48    177.69     47.11    178.47     47.11  " /><path style="stroke-width: 0.85 ;&st7;   " d=" M   178.47,    47.11  C   179.25     47.11    179.89     46.48    179.89     45.69  " /><path style="stroke-width: 0.85 ;&st7;   " d=" M   179.89,    68.36  C   179.89     67.57    179.25     66.94    178.47     66.94  " /><path style="stroke-width: 0.85 ;&st7;   " d=" M   178.47,    66.94  C   177.69     66.94    177.05     67.57    177.05     68.36  " /><path style="stroke-width: 0.85 ;&st7;   " d=" M   177.05,    68.36  C   177.05     69.14    177.69     69.77    178.47     69.77  " /><path style="stroke-width: 0.85 ;&st7;   " d=" M   178.47,    69.77  C   179.25     69.77    179.89     69.14    179.89     68.36  " /><path style="stroke-width: 1.42 ;&st7;  " d=" M   165.72,    35.78  L   165.72,    78.27  L   191.22,    78.27  L   191.22,    35.78  L   165.72,    35.78  " /></g><g ewd:figtype="conn" ewd:figID="14" ewd:code="A47"><path style="stroke-width: 0.85 ;&st7;  " d=" M   254.96,   197.25  L   254.96,   214.25  " /><path style="stroke-width: 1.42 ;&st7;  " d=" M   246.46,   197.25  L   263.46,   197.25  L   263.46,   214.25  L   246.46,   214.25  L   246.46,   197.25  " /><text style="&st18;" transform="matrix(&st16;  245.67  193.56 )">20</text><text style="&st18;" transform="matrix(&st16;  245.67  222.44 )">22</text><g ewd:figtype="title"><text style="&st18;" transform="matrix(&st17;  278.17  217.16 )" ewd:textID="18">No. 2 <tspan x="0 " dy="6.0">Junction </tspan><tspan x="0 " dy="6.0">Connector</tspan></text><text style="&st18;" transform="matrix(&st17;  271.35  217.15 )">A47</text></g></g><g ewd:figtype="jb" ewd:figID="22" ewd:code="1"><text style="&st18;" transform="matrix(&st16;  99.97  339.45 )">1</text><text style="&st18;" transform="matrix(&st16;  106.63  339.45 )">1A</text><path style="stroke-width: 1.42 ;&st7;   " d=" M   116.86,   337.48  C   116.86    335.13    114.95    333.23    112.61    333.23  " /><path style="stroke-width: 1.42 ;&st7;   " d=" M   112.61,   341.73  C   114.95    341.73    116.86    339.83    116.86    337.48  " /><path style="stroke-width: 1.42 ;&st7;   " d=" M   104.11,   337.48  C   104.11    339.83    106.01    341.73    108.36    341.73  " /><path style="stroke-width: 1.42 ;&st7;   " d=" M   108.36,   333.23  C   106.01    333.23    104.11    335.13    104.11    337.48  " /><path style="stroke-width: 1.42 ;&st7;  " d=" M   112.61,   341.73  L   108.36,   341.73  " /><path style="stroke-width: 1.42 ;&st7;  " d=" M   112.61,   333.23  L   108.36,   333.23  " /></g><g ewd:figtype="jb" ewd:figID="23" ewd:code="1"><text style="&st18;" transform="matrix(&st16;  99.97  237.47 )">1</text><text style="&st18;" transform="matrix(&st16;  106.51  237.47 )">1C</text><path style="stroke-width: 1.42 ;&st7;   " d=" M   116.86,   235.50  C   116.86    233.15    114.95    231.25    112.61    231.25  " /><path style="stroke-width: 1.42 ;&st7;   " d=" M   112.61,   239.75  C   114.95    239.75    116.86    237.84    116.86    235.50  " /><path style="stroke-width: 1.42 ;&st7;   " d=" M   104.11,   235.50  C   104.11    237.84    106.01    239.75    108.36    239.75  " /><path style="stroke-width: 1.42 ;&st7;   " d=" M   108.36,   231.25  C   106.01    231.25    104.11    233.15    104.11    235.50  " /><path style="stroke-width: 1.42 ;&st7;  " d=" M   112.61,   239.75  L   108.36,   239.75  " /><path style="stroke-width: 1.42 ;&st7;  " d=" M   112.61,   231.25  L   108.36,   231.25  " /></g><g ewd:figtype="jb" ewd:figID="25" ewd:code="2"><path style="stroke-width: 0.85 ;&st7;  " d=" M   254.96,    69.77  L   254.96,    78.27  " /><path style="stroke-width: 0.85 ;&st7;  " d=" M   254.96,    78.27  L   254.96,    95.27  " /><path style="stroke-width: 1.42 ;&st7;  " d=" M   257.08,    95.27  L   252.83,    95.27  " /><path style="stroke-width: 1.42 ;&st7;  " d=" M   257.08,   103.77  L   252.83,   103.77  " /><path style="stroke-width: 1.42 ;&st7;   " d=" M   254.96,    47.11  C   252.22     48.72    251.31     52.25    252.92     54.99  " /><path style="stroke-width: 1.42 ;&st7;   " d=" M   252.92,    54.99  C   253.44     55.87    254.08     56.51    254.96     57.03  " /><path style="stroke-width: 1.42 ;&st7;   " d=" M   254.96,    66.94  C   257.70     65.33    258.61     61.80    256.99     59.06  " /><path style="stroke-width: 1.42 ;&st7;   " d=" M   256.99,    59.06  C   256.47     58.18    255.84     57.55    254.96     57.03  " /><path style="stroke-width: 0.85 ;&st7;   " d=" M   256.37,    45.69  C   256.37     44.91    255.74     44.28    254.96     44.28  " /><path style="stroke-width: 0.85 ;&st7;   " d=" M   254.96,    44.28  C   254.18     44.28    253.54     44.91    253.54     45.69  " /><path style="stroke-width: 0.85 ;&st7;   " d=" M   253.54,    45.69  C   253.54     46.48    254.18     47.11    254.96     47.11  " /><path style="stroke-width: 0.85 ;&st7;   " d=" M   254.96,    47.11  C   255.74     47.11    256.37     46.48    256.37     45.69  " /><path style="stroke-width: 0.85 ;&st7;   " d=" M   256.37,    68.36  C   256.37     67.57    255.74     66.94    254.96     66.94  " /><path style="stroke-width: 0.85 ;&st7;   " d=" M   254.96,    66.94  C   254.18     66.94    253.54     67.57    253.54     68.36  " /><path style="stroke-width: 0.85 ;&st7;   " d=" M   253.54,    68.36  C   253.54     69.14    254.18     69.77    254.96     69.77  " /><path style="stroke-width: 0.85 ;&st7;   " d=" M   254.96,    69.77  C   255.74     69.77    256.37     69.14    256.37     68.36  " /><path style="stroke-width: 1.42 ;&st7;   " d=" M   252.83,    95.27  C   250.49     95.27    248.58     97.17    248.58     99.52  " /><path style="stroke-width: 1.42 ;&st7;   " d=" M   248.58,    99.52  C   248.58    101.87    250.49    103.77    252.83    103.77  " /><path style="stroke-width: 1.42 ;&st7;   " d=" M   257.08,   103.77  C   259.43    103.77    261.33    101.87    261.33     99.52  " /><path style="stroke-width: 1.42 ;&st7;   " d=" M   261.33,    99.52  C   261.33     97.17    259.43     95.27    257.08     95.27  " /><path style="stroke-width: 0.28 ;&st9;  " d=" M   254.96,    90.37  L   252.12,    87.54  L   252.12,    91.79  L   254.96,    94.62  L   257.79,    91.79  L   257.79,    87.54  L   254.96,    90.37  " /><path style="stroke-width: 1.42 ;&st7;  " d=" M   242.21,    35.78  L   242.21,    78.27  L   267.71,    78.27  L   267.71,    35.78  L   242.21,    35.78  " /><path style="stroke-width: 0.28 ;&st9;  " d=" M   254.96,    90.37  L   252.12,    87.54  L   252.12,    91.79  L   254.96,    94.62  L   257.79,    91.79  L   257.79,    87.54  L   254.96,    90.37  " /><text style="&st18;" transform="matrix(&st16;  271.38  53.34 )">10A <tspan x="0 " dy="6.0">IG1 </tspan><tspan x="0 " dy="6.0">NO.2</tspan></text><text style="&st18;" transform="matrix(&st16;  248.77  86.47 )">2</text><text style="&st18;" transform="matrix(&st16;  249.74  32.08 )">(IG)</text><text style="&st18;" transform="matrix(&st16;  250.99  101.49 )">2C</text><text style="&st18;" transform="matrix(&st16;  244.45  101.49 )">1</text></g><g ewd:figtype="w2w" ewd:figID="26" ewd:code="CA2"><path style="stroke-width: 1.42 ;&st7;  " d=" M   174.22,   256.18  L   178.47,   260.43  L   182.72,   256.18  " /><path style="stroke-width: 1.42 ;&st7;  " d=" M   182.72,   259.58  L   178.47,   263.82  L   174.22,   259.58  " /><text style="&st18;" transform="matrix(&st16;  165.84  271.46 )">2</text></g><g ewd:figtype="w2w" ewd:figID="27" ewd:code="CA2"><path style="stroke-width: 1.42 ;&st7;  " d=" M   250.71,   256.18  L   254.96,   260.43  L   259.21,   256.18  " /><path style="stroke-width: 1.42 ;&st7;  " d=" M   259.21,   259.58  L   254.96,   263.82  L   250.71,   259.58  " /><text style="&st18;" transform="matrix(&st16;  242.33  271.46 )">4</text></g><g ewd:figtype="gp" ewd:figID="30" ewd:code="bC"><path style="stroke-width: 0.85 ;&st7;  " d=" M    24.08,   710.00  L    26.91,   710.00  " /><path style="stroke-width: 0.85 ;&st7;  " d=" M    22.66,   707.17  L    28.33,   707.17  " /><path style="stroke-width: 0.85 ;&st7;  " d=" M    21.25,   704.33  L    29.75,   704.33  " /><path style="stroke-width: 0.85 ;&st7;  " d=" M    17.00,   701.50  L    33.99,   701.50  " /><path style="stroke-width: 0.85 ;&st7;  " d=" M    25.50,   697.25  L    25.50,   701.50  " /></g><g ewd:figtype="gp" ewd:figID="31" ewd:code="DA"><path style="stroke-width: 0.85 ;&st7;  " d=" M    58.07,   710.00  L    60.91,   710.00  " /><path style="stroke-width: 0.85 ;&st7;  " d=" M    56.66,   707.17  L    62.32,   707.17  " /><path style="stroke-width: 0.85 ;&st7;  " d=" M    55.24,   704.33  L    63.74,   704.33  " /><path style="stroke-width: 0.85 ;&st7;  " d=" M    50.99,   701.50  L    67.99,   701.50  " /><path style="stroke-width: 0.85 ;&st7;  " d=" M    59.49,   697.25  L    59.49,   701.50  " /></g><g ewd:figtype="gp" ewd:figID="32" ewd:code="DB"><path style="stroke-width: 0.85 ;&st7;  " d=" M   106.23,   704.33  L   114.73,   704.33  " /><path style="stroke-width: 0.85 ;&st7;  " d=" M   107.65,   707.17  L   113.31,   707.17  " /><path style="stroke-width: 0.85 ;&st7;  " d=" M   109.07,   710.00  L   111.90,   710.00  " /><path style="stroke-width: 0.85 ;&st7;  " d=" M   101.98,   701.50  L   118.98,   701.50  " /><path style="stroke-width: 0.85 ;&st7;  " d=" M   110.48,   697.25  L   110.48,   701.50  " /></g><g ewd:figtype="annex" ewd:figID="20" ewd:code=" "><path style="stroke-width: 1.42 ;&st7;   " d=" M   110.48,   438.05  C   113.61    436.90    115.23    433.44    114.08    430.31  " /><path style="stroke-width: 1.42 ;&st7;   " d=" M   114.08,   430.31  C   113.45    428.58    112.22    427.35    110.48    426.71  " /><path style="stroke-width: 1.42 ;&st7;   " d=" M   113.31,   412.55  C   113.31    410.99    112.05    409.72    110.48    409.72  " /><path style="stroke-width: 1.42 ;&st7;   " d=" M   110.48,   409.72  C   108.92    409.72    107.65    410.99    107.65    412.55  " /><path style="stroke-width: 1.42 ;&st7;   " d=" M   107.65,   412.55  C   107.65    414.11    108.92    415.38    110.48    415.38  " /><path style="stroke-width: 1.42 ;&st7;   " d=" M   110.48,   415.38  C   112.05    415.38    113.31    414.11    113.31    412.55  " /><path style="stroke-width: 1.42 ;&st7;   " d=" M   110.48,   415.38  C   107.35    416.52    105.74    419.98    106.88    423.11  " /><path style="stroke-width: 1.42 ;&st7;   " d=" M   106.88,   423.11  C   107.51    424.85    108.75    426.08    110.48    426.71  " /><path style="stroke-width: 1.42 ;&st7;   " d=" M   113.31,   440.88  C   113.31    439.31    112.05    438.05    110.48    438.05  " /><path style="stroke-width: 1.42 ;&st7;   " d=" M   110.48,   438.05  C   108.92    438.05    107.65    439.31    107.65    440.88  " /><path style="stroke-width: 1.42 ;&st7;   " d=" M   107.65,   440.88  C   107.65    442.44    108.92    443.71    110.48    443.71  " /><path style="stroke-width: 1.42 ;&st7;   " d=" M   110.48,   443.71  C   112.05    443.71    113.31    442.44    113.31    440.88  " /><text style="&st18;" transform="matrix(&st16;  115.57  425.86 )">FL MAIN <tspan x="0 " dy="6.0">3.0W</tspan></text></g><g ewd:figtype="annex" ewd:figID="58" ewd:code=" "><path style="stroke-width: 0.85 ;&st7;  " d=" M   433.43,   605.18  L   450.42,   605.18  " /><path style="stroke-width: 0.85 ;&st7;  " d=" M   437.68,   608.02  L   446.18,   608.02  " /><path style="stroke-width: 0.85 ;&st7;  " d=" M   439.09,   610.85  L   444.76,   610.85  " /><path style="stroke-width: 0.85 ;&st7;  " d=" M   440.51,   613.68  L   443.34,   613.68  " /><path style="stroke-width: 0.85 ;&st7;  " d=" M   441.93,   511.70  L   441.93,   605.18  " /></g><g ewd:code="9" ewd:figID="64" ewd:comment="" ewd:figtype="comment"><text style="&st18;" transform="matrix(&st16;  311.04  105.74 )">* 9 :1TR-FE, 2TR-FE</text></g><g ewd:code="1" ewd:figID="53" ewd:comment="" ewd:figtype="comment"><text style="&st18;" transform="matrix(&st16;  311.04  29.25 )">* 1 :1GD-FTV, 2GD-FTV, 1GR-FE, 1TR-FE, 2TR-FE</text></g><g ewd:code="6" ewd:figID="44" ewd:comment="" ewd:figtype="comment"><text style="&st18;" transform="matrix(&st16;  311.04  80.24 )" ewd:textID="2">* 6 :w/ TFT Display</text></g><g ewd:code="7" ewd:figID="43" ewd:comment="" ewd:figtype="comment"><text style="&st18;" transform="matrix(&st16;  311.04  88.74 )" ewd:textID="3">* 7 :80A Type</text></g><g ewd:code="13" ewd:figID="72" ewd:comment="" ewd:figtype="comment"><text style="&st18;" transform="matrix(&st16;  311.04  139.73 )" ewd:textID="5">*13 :Analog Meter w/o Dot Multi Display</text></g><g ewd:code="3" ewd:figID="50" ewd:comment="" ewd:figtype="comment"><text style="&st18;" transform="matrix(&st16;  311.04  46.25 )">* 3 :LHD 1GD-FTV, LHD 2GD-FTV, 1KD-FTV, 2KD-FTV, <tspan x="14.17" dy="8.5">1GR-FE, 1TR-FE, 2TR-FE</tspan></text></g><g ewd:code="5" ewd:figID="49" ewd:comment="" ewd:figtype="comment"><text style="&st18;" transform="matrix(&st16;  311.04  71.74 )" ewd:textID="1">* 5 :w/ No. 2 Battery</text></g><g ewd:code="8" ewd:figID="42" ewd:comment="" ewd:figtype="comment"><text style="&st18;" transform="matrix(&st16;  311.04  97.24 )" ewd:textID="4">* 8 :100A Type</text></g><g ewd:code="11" ewd:figID="66" ewd:comment="" ewd:figtype="comment"><text style="&st18;" transform="matrix(&st16;  311.04  122.73 )">*11 :1GR-FE</text></g><g ewd:code="10" ewd:figID="65" ewd:comment="" ewd:figtype="comment"><text style="&st18;" transform="matrix(&st16;  311.04  114.24 )">*10 :1GD-FTV, 2GD-FTV</text></g><g ewd:code="2" ewd:figID="52" ewd:comment="" ewd:figtype="comment"><text style="&st18;" transform="matrix(&st16;  311.04  37.75 )">* 2 :1KD-FTV, 2KD-FTV</text></g><g ewd:code="4" ewd:figID="51" ewd:comment="" ewd:figtype="comment"><text style="&st18;" transform="matrix(&st16;  311.04  63.24 )">* 4 :RHD 1GD-FTV, RHD 2GD-FTV</text></g><g ewd:code="12" ewd:figID="68" ewd:comment="" ewd:figtype="comment"><text style="&st18;" transform="matrix(&st16;  311.04  131.23 )">*12 :5L-E</text></g></svg>