﻿<?xml version="1.0" encoding="utf-8"?>
<!DOCTYPE svg PUBLIC "-//W3C//DTD SVG 1.0//EN" "http://www.w3.org/TR/2001/REC-SVG-20010904/DTD/svg10.dtd"[
	<!ENTITY ns_flows "http://ns.adobe.com/Flows/1.0/">
	<!ENTITY ns_svg "http://www.w3.org/2000/svg">
	<!ENTITY ns_xlink "http://www.w3.org/1999/xlink">
	<!ENTITY st0 "font-size:7px;font-family:'MS-PGothic';adobe-font-script:japanese;">
	<!ENTITY st1 "font-size:6px;font-family:'ArialMT';">
	<!-- White fill  -->
	<!ENTITY st2 "fill:#FFFFFF;stroke:#000000; stroke-width:1.41;stroke-linecap:round;stroke-linejoin:round;">
	<!-- Yellow fill  -->
	<!ENTITY st3 "fill:#FFFFCC;stroke:#FFFFCC; stroke-width:0.1;stroke-linecap:round;stroke-linejoin:round;">
	<!-- Gray fill  -->
	<!ENTITY st4 "fill:#CCCCCC;stroke:#CCCCCC; stroke-width:0.1;stroke-linecap:round;stroke-linejoin:round;">
	<!-- Light-blue fill -->
	<!ENTITY st5 "fill:#CCECF4;stroke:#000000; stroke-width:1.133;stroke-linecap:round;stroke-linejoin:round;">
	<!ENTITY st6 "fill:none;stroke-linecap:butt; stroke-linejoin:round;">
	<!ENTITY st7 "fill:none;stroke:#000000;stroke-linecap:round;stroke-linejoin:round;">
	<!ENTITY st8 "enable-background:new    ;">
	<!-- Black fill -->
	<!ENTITY st9 "fill:#000000;stroke:#000000; stroke-linecap:round;stroke-linejoin:round;">
	<!-- SRS note   -->
	<!ENTITY st10 "font-size:9px;font-family:'ArialMT';">
	<!ENTITY st11 "font-size:9px;font-family:'Svg Symbol';">
	<!ENTITY st12 "font-size:6px;font-family:'Svg Symbol';">
	<!ENTITY st13 "fill:none;stroke:#ff0000;stroke-linecap:round;stroke-linejoin:round;">
	<!-- Yellow fill  -->
	<!ENTITY st14 "fill:#FFFF00;stroke:#FFFF00; stroke-width:0.1;stroke-linecap:round;stroke-linejoin:round;">
	<!ENTITY st15 "font-size:6px;font-family:'MS-PGothic';adobe-font-script:japanese;">
	<!ENTITY st16 "1.00 0.00 0.00 1.00">
	<!ENTITY st17 "0.00 -1.00 1.00 0.00">
	<!ENTITY st18 "font-size:6px;font-family:'Arial';">
	<!ENTITY st19 "font-size:9px;font-family:'Arial';">
	<!ENTITY st20 "font-size:6px;font-family:'MS-PGothic','MS PGothic';adobe-font-script:japanese;">
	<!ENTITY st21 "font-size:7px;font-family:'MS-PGothic','MS PGothic';adobe-font-script:japanese;">
	<!ATTLIST svg
		xmlns:ewd CDATA #FIXED "http://shcl.co.jp/ewd"
		xmlns:a CDATA #FIXED "http://ns.adobe.com/AdobeSVGViewerExtensions/3.0/"
		ewd:ver CDATA #IMPLIED
	>
	<!ATTLIST a
		ewd:lineID CDATA #IMPLIED
		ewd:groupID CDATA #IMPLIED
		ewd:figtype CDATA #IMPLIED
		ewd:code CDATA #IMPLIED
		ewd:figID CDATA #IMPLIED
		ewd:pinNo CDATA #IMPLIED
		ewd:comment CDATA #IMPLIED >
	<!ATTLIST g
		ewd:lineID CDATA #IMPLIED
		ewd:groupID CDATA #IMPLIED
		ewd:figtype CDATA #IMPLIED
		ewd:code CDATA #IMPLIED
		ewd:figID CDATA #IMPLIED
		ewd:pinNo CDATA #IMPLIED
		ewd:comment CDATA #IMPLIED >
	<!ATTLIST text
		ewd:textID CDATA #IMPLIED >
	<!ATTLIST title
		ewd:textID CDATA #IMPLIED >
]>
<!-- Generator: Shintec Hozumi YS   -->
<svg onload="call_execInitLoadProc_svg('system')" style="overflow:visible;  enable-background:new 0 0 10283.990 710.000" viewBox="0 0 10283.990 710.000" height="710.000" width="10283.990" xml:space="preserve" ewd:ver="2.1.2.9" xmlns="&ns_svg;" xmlns:a="http://ns.adobe.com/AdobeSVGViewerExtensions/3.0/" xmlns:ewd="http://shcl.co.jp/ewd" xmlns:xlink="&ns_xlink;">
<path style="stroke-width: 1.42 ;&st7;  " d=" M  1611.20,    86.77  L  1606.23,    91.74  " /><path style="stroke-width: 1.42 ;&st7;  " d=" M  1618.26,   103.77  L  1623.23,    98.80  " /><path style="stroke-width: 1.42 ;&st7;  " d=" M  1606.23,    98.80  L  1611.20,   103.77  " /><path style="stroke-width: 1.42 ;&st7;  " d=" M  1623.23,    91.74  L  1618.26,    86.77  " /><path style="stroke-width: 1.42 ;&st7;  " d=" M  1662.19,    86.77  L  1657.22,    91.74  " /><path style="stroke-width: 1.42 ;&st7;  " d=" M  1669.25,   103.77  L  1674.22,    98.80  " /><path style="stroke-width: 1.42 ;&st7;  " d=" M  1657.22,    98.80  L  1662.19,   103.77  " /><path style="stroke-width: 1.42 ;&st7;  " d=" M  1674.22,    91.74  L  1669.25,    86.77  " /><path style="stroke-width: 1.42 ;&st7;  " d=" M  1713.19,    86.77  L  1708.21,    91.74  " /><path style="stroke-width: 1.42 ;&st7;  " d=" M  1720.24,   103.77  L  1725.21,    98.80  " /><path style="stroke-width: 1.42 ;&st7;  " d=" M  1708.21,    98.80  L  1713.18,   103.77  " /><path style="stroke-width: 1.42 ;&st7;  " d=" M  1725.21,    91.74  L  1720.24,    86.77  " /><path style="stroke-width: 1.42 ;&st7;  " d=" M  1903.68,   333.23  L  1895.18,   333.23  " /><text style="&st18;" transform="matrix(&st17;  1764.01  122.38 )">R</text><text style="&st18;" transform="matrix(&st17;  1800.84  303.95 )">(*2)</text><text style="&st18;" transform="matrix(&st17;  1758.34  303.95 )">(*2)</text><text style="&st18;" transform="matrix(&st17;  1715.85  303.95 )">(*2)</text><text style="&st18;" transform="matrix(&st16;  1527.63  91.57 )">R</text><text style="&st18;" transform="matrix(&st17;  1857.49  205.32 )">GR</text><text style="&st18;" transform="matrix(&st16;  1578.55  558.99 )">B</text><text style="&st18;" transform="matrix(&st16;  1527.56  558.99 )">B</text><text style="&st18;" transform="matrix(&st16;  1522.59  508.0 )">B(*2)</text><text style="&st18;" transform="matrix(&st16;  1573.58  508.0 )">B(*2)</text><text style="&st18;" transform="matrix(&st16;  1522.59  491.01 )">Y(*2)</text><text style="&st18;" transform="matrix(&st16;  1573.58  491.01 )">Y(*2)</text><text style="&st18;" transform="matrix(&st16;  1527.56  474.01 )">B</text><text style="&st18;" transform="matrix(&st16;  1578.55  474.01 )">B</text><text style="&st18;" transform="matrix(&st16;  1521.04  525.0 )">SB(*2)</text><text style="&st18;" transform="matrix(&st16;  1572.03  525.0 )">SB(*2)</text><text style="&st18;" transform="matrix(&st16;  1527.67  32.08 )">L</text><text style="&st18;" transform="matrix(&st16;  1578.66  32.08 )">L</text><text style="&st18;" transform="matrix(&st17;  1891.49  458.15 )">B</text><text style="&st18;" transform="matrix(&st17;  1976.47  300.85 )">R</text><text style="&st18;" transform="matrix(&st17;  1662.03  122.38 )">R</text><text style="&st18;" transform="matrix(&st17;  1764.01  203.97 )">W</text><text style="&st18;" transform="matrix(&st17;  1713.02  203.31 )">V</text><text style="&st18;" transform="matrix(&st17;  1662.03  203.0 )">P</text><text style="&st18;" transform="matrix(&st17;  1611.03  122.38 )">R</text><text style="&st18;" transform="matrix(&st16;  1689.11  91.57 )">R</text><text style="&st18;" transform="matrix(&st17;  1713.02  122.38 )">R</text><text style="&st18;" transform="matrix(&st17;  1611.03  203.07 )">L</text><text style="&st18;" transform="matrix(&st17;  1891.49  300.81 )">L</text><text style="&st18;" transform="matrix(&st17;  1891.49  364.55 )">L</text><text style="&st18;" transform="matrix(&st16;  1638.12  91.57 )">R</text><text style="&st18;" transform="matrix(&st16;  1578.63  91.57 )">R</text><text style="&st18;" transform="matrix(&st17;  1942.48  105.34 )">L</text><text style="&st18;" transform="matrix(&st16;  1527.56  542.0 )">B</text><text style="&st18;" transform="matrix(&st16;  1525.42  66.08 )">GR</text><text style="&st18;" transform="matrix(&st16;  1527.28  49.08 )">G</text><text style="&st18;" transform="matrix(&st16;  1578.55  542.0 )">B</text><text style="&st18;" transform="matrix(&st16;  1576.42  66.08 )">GR</text><text style="&st18;" transform="matrix(&st16;  1578.28  49.08 )">G</text><text style="&st18;" transform="matrix(&st17;  1857.49  107.59 )">GR</text><text style="&st18;" transform="matrix(&st17;  1653.53  300.81 )">L</text><text style="&st18;" transform="matrix(&st17;  1704.52  300.92 )">Y</text><text style="&st18;" transform="matrix(&st17;  1747.01  300.92 )">B</text><text style="&st18;" transform="matrix(&st17;  1789.5  302.48 )">SB</text><text style="&st18;" transform="matrix(&st17;  1832.0  300.92 )">B</text><text style="&st18;" transform="matrix(&st17;  1984.97  203.19 )">B</text><text style="&st18;" transform="matrix(&st17;  1899.99  203.46 )">G</text><text style="&st18;" transform="matrix(&st17;  1942.48  203.07 )">L</text><text style="&st18;" transform="matrix(&st16;  1527.63  626.98 )">R</text><text style="&st18;" transform="matrix(&st16;  1578.63  626.98 )">R</text><text style="&st18;" transform="matrix(&st16;  1527.56  609.99 )">B</text><text style="&st18;" transform="matrix(&st16;  1578.55  609.99 )">B</text><text style="&st18;" transform="matrix(&st17;  1653.53  436.9 )">B</text><g ewd:figtype="conn" ewd:figID="23" ewd:code="G59,G60,G103,G104"><path style="stroke-width: 0.85 ;&st7; stroke-dasharray:3, 1.5;" d=" M  1954.67,   176.86  L  1975.92,   176.86  " /><path style="stroke-width: 0.85 ;&st7; stroke-dasharray:3, 1.5;" d=" M  1954.67,   167.79  L  1975.92,   167.79  " /><path style="stroke-width: 0.85 ;&st7;  " d=" M  1946.17,   146.26  L  1946.17,   163.26  " /><path style="stroke-width: 1.42 ;&st7;  " d=" M  1937.68,   146.26  L  1997.17,   146.26  L  1997.17,   163.26  L  1937.68,   163.26  L  1937.68,   146.26  " /><path style="stroke-width: 0.85 ;&st7;  " d=" M  1946.17,   154.76  L  1988.67,   154.76  L  1988.67,   163.26  " /><path style="stroke-width: 0.85 ;&st7;  " d=" M  1944.98,   153.76  L  1944.71,   154.23  L  1944.62,   154.76  L  1944.71,   155.29  L  1944.98,   155.76  L  1945.39,   156.11  L  1945.90,   156.30  L  1946.45,   156.30  L  1946.95,   156.11  L  1947.37,   155.76  L  1947.64,   155.29  L  1947.73,   154.76  L  1947.64,   154.23  L  1947.37,   153.76  L  1946.95,   153.41  L  1946.45,   153.22  L  1945.90,   153.22  L  1945.39,   153.41  L  1944.98,   153.76  L  1945.38,   154.47  L  1945.38,   155.05  L  1945.75,   155.50  L  1946.32,   155.60  L  1946.83,   155.31  L  1947.02,   154.76  L  1946.83,   154.21  L  1946.32,   153.92  L  1945.75,   154.02  L  1946.17,   154.76  " /><text style="&st18;" transform="matrix(&st16;  1937.48  178.82 )">6</text><text style="&st18;" transform="matrix(&st16;  1937.48  169.76 )">6</text><path style="stroke-width: 1.42 ;&st7;   " d=" M  1950.71,   167.79  C  1950.71    165.29   1948.68    163.26   1946.17    163.26  " /><path style="stroke-width: 1.42 ;&st7;   " d=" M  1946.17,   163.26  C  1943.67    163.26   1941.64    165.29   1941.64    167.79  " /><path style="stroke-width: 1.42 ;&st7;   " d=" M  1941.64,   167.79  C  1941.64    170.29   1943.67    172.32   1946.17    172.32  " /><path style="stroke-width: 1.42 ;&st7;   " d=" M  1946.17,   172.32  C  1948.68    172.32   1950.71    170.29   1950.71    167.79  " /><path style="stroke-width: 1.42 ;&st7;   " d=" M  1950.71,   176.86  C  1950.71    174.35   1948.68    172.32   1946.17    172.32  " /><path style="stroke-width: 1.42 ;&st7;   " d=" M  1946.17,   172.32  C  1943.67    172.32   1941.64    174.35   1941.64    176.86  " /><path style="stroke-width: 1.42 ;&st7;   " d=" M  1941.64,   176.86  C  1941.64    179.36   1943.67    181.39   1946.17    181.39  " /><path style="stroke-width: 1.42 ;&st7;   " d=" M  1946.17,   181.39  C  1948.68    181.39   1950.71    179.36   1950.71    176.86  " /><text style="&st18;" transform="matrix(&st16;  1943.87  169.76 )">A</text><text style="&st18;" transform="matrix(&st16;  1943.75  178.82 )">C</text><text style="&st18;" transform="matrix(&st16;  1937.48  134.63 )">5</text><text style="&st18;" transform="matrix(&st16;  1937.48  143.7 )">5</text><text style="&st18;" transform="matrix(&st16;  1943.87  134.63 )">A</text><path style="stroke-width: 1.42 ;&st7;   " d=" M  1950.71,   141.73  C  1950.71    139.23   1948.68    137.20   1946.17    137.20  " /><path style="stroke-width: 1.42 ;&st7;   " d=" M  1946.17,   137.20  C  1943.67    137.20   1941.64    139.23   1941.64    141.73  " /><path style="stroke-width: 1.42 ;&st7;   " d=" M  1941.64,   141.73  C  1941.64    144.23   1943.67    146.26   1946.17    146.26  " /><path style="stroke-width: 1.42 ;&st7;   " d=" M  1946.17,   146.26  C  1948.68    146.26   1950.71    144.23   1950.71    141.73  " /><path style="stroke-width: 1.42 ;&st7;   " d=" M  1950.71,   132.66  C  1950.71    130.16   1948.68    128.13   1946.17    128.13  " /><path style="stroke-width: 1.42 ;&st7;   " d=" M  1946.17,   128.13  C  1943.67    128.13   1941.64    130.16   1941.64    132.66  " /><path style="stroke-width: 1.42 ;&st7;   " d=" M  1941.64,   132.66  C  1941.64    135.17   1943.67    137.20   1946.17    137.20  " /><path style="stroke-width: 1.42 ;&st7;   " d=" M  1946.17,   137.20  C  1948.68    137.20   1950.71    135.17   1950.71    132.66  " /><text style="&st18;" transform="matrix(&st16;  1943.75  143.7 )">C</text><text style="&st18;" transform="matrix(&st16;  1979.97  169.76 )">1</text><text style="&st18;" transform="matrix(&st16;  1979.97  178.82 )">1</text><path style="stroke-width: 1.42 ;&st7;   " d=" M  1993.20,   176.86  C  1993.20    174.35   1991.17    172.32   1988.67    172.32  " /><path style="stroke-width: 1.42 ;&st7;   " d=" M  1988.67,   172.32  C  1986.16    172.32   1984.14    174.35   1984.14    176.86  " /><path style="stroke-width: 1.42 ;&st7;   " d=" M  1984.14,   176.86  C  1984.14    179.36   1986.16    181.39   1988.67    181.39  " /><path style="stroke-width: 1.42 ;&st7;   " d=" M  1988.67,   181.39  C  1991.17    181.39   1993.20    179.36   1993.20    176.86  " /><text style="&st18;" transform="matrix(&st16;  1986.48  169.76 )">B</text><text style="&st18;" transform="matrix(&st16;  1986.29  178.82 )">D</text><path style="stroke-width: 1.42 ;&st7;   " d=" M  1993.20,   167.79  C  1993.20    165.29   1991.17    163.26   1988.67    163.26  " /><path style="stroke-width: 1.42 ;&st7;   " d=" M  1988.67,   163.26  C  1986.16    163.26   1984.14    165.29   1984.14    167.79  " /><path style="stroke-width: 1.42 ;&st7;   " d=" M  1984.14,   167.79  C  1984.14    170.29   1986.16    172.32   1988.67    172.32  " /><path style="stroke-width: 1.42 ;&st7;   " d=" M  1988.67,   172.32  C  1991.17    172.32   1993.20    170.29   1993.20    167.79  " /><g ewd:figtype="title"><text style="&st18;" transform="matrix(&st16;  1976.76  109.68 )">G59(A),G60(B)</text><text style="&st18;" transform="matrix(&st16;  1976.76  116.5 )" ewd:textID="84">No. 19 <tspan x="0 " dy="6.0">Junction Connector</tspan></text><text style="&st18;" transform="matrix(&st16;  1976.76  129.79 )">G103(C),G104(D)</text><text style="&st18;" transform="matrix(&st16;  1976.76  136.62 )" ewd:textID="95">No. 36 <tspan x="0 " dy="6.0">Junction Connector</tspan></text></g><g ewd:code="" ewd:figID="239" ewd:comment="" ewd:figtype="commref"><text style="&st18;" transform="matrix(&st16;  1993.76  169.76 )">(LHD)</text></g><g ewd:code="" ewd:figID="240" ewd:comment="" ewd:figtype="commref"><text style="&st18;" transform="matrix(&st16;  1993.76  178.82 )">(RHD)</text></g><g ewd:code="" ewd:figID="241" ewd:comment="" ewd:figtype="commref"><text style="&st18;" transform="matrix(&st16;  1951.27  134.63 )">(LHD)</text></g><g ewd:code="" ewd:figID="242" ewd:comment="" ewd:figtype="commref"><text style="&st18;" transform="matrix(&st16;  1951.27  143.7 )">(RHD)</text></g></g><g ewd:figtype="conn" ewd:figID="28" ewd:code="C19"><path style="stroke-width: 0.85 ;&st7;  " d=" M  1665.72,   171.76  L  1665.72,   180.26  " /><path style="stroke-width: 0.85 ;&st7;  " d=" M  1665.72,   146.26  L  1665.72,   154.76  " /><path style="stroke-width: 0.85 ;&st7;   " d=" M  1663.19,   160.78  C  1664.56    162.18   1666.80    162.20   1668.20    160.83  " /><path style="stroke-width: 0.85 ;&st7;   " d=" M  1668.20,   160.83  C  1669.60    159.46   1669.62    157.22   1668.25    155.82  " /><path style="stroke-width: 0.85 ;&st7;   " d=" M  1668.25,   155.82  C  1667.56    155.11   1666.71    154.76   1665.72    154.76  " /><path style="stroke-width: 0.85 ;&st7;   " d=" M  1663.19,   165.74  C  1664.56    167.13   1666.80    167.16   1668.20    165.79  " /><path style="stroke-width: 0.85 ;&st7;   " d=" M  1668.20,   165.79  C  1669.60    164.42   1669.62    162.18   1668.25    160.78  " /><path style="stroke-width: 0.85 ;&st7;   " d=" M  1668.25,   160.78  C  1666.88    159.38   1664.64    159.36   1663.24    160.73  " /><path style="stroke-width: 0.85 ;&st7;   " d=" M  1663.24,   160.73  C  1663.22    160.75   1663.21    160.76   1663.19    160.78  " /><path style="stroke-width: 0.85 ;&st7;   " d=" M  1665.72,   171.76  C  1667.68    171.76   1669.26    170.17   1669.26    168.22  " /><path style="stroke-width: 0.85 ;&st7;   " d=" M  1669.26,   168.22  C  1669.26    166.26   1667.68    164.67   1665.72    164.67  " /><path style="stroke-width: 0.85 ;&st7;   " d=" M  1665.72,   164.67  C  1664.73    164.67   1663.89    165.03   1663.19    165.74  " /><path style="stroke-width: 1.42 ;&st7;  " d=" M  1674.22,   180.26  L  1674.22,   146.26  L  1657.22,   146.26  L  1657.22,   180.26  L  1674.22,   180.26  " /><text style="&st18;" transform="matrix(&st16;  1659.54  188.45 )">2</text><text style="&st18;" transform="matrix(&st16;  1659.54  142.57 )">1</text><g ewd:figtype="title"><text style="&st18;" transform="matrix(&st17;  1688.94  183.16 )" ewd:textID="52">Fuel Injector <tspan x="0 " dy="6.0">Assembly No. 2</tspan></text><text style="&st18;" transform="matrix(&st17;  1681.83  183.15 )">C19</text></g></g><g ewd:figtype="conn" ewd:figID="32" ewd:code="C18"><path style="stroke-width: 0.85 ;&st7;  " d=" M  1614.73,   171.76  L  1614.73,   180.26  " /><path style="stroke-width: 0.85 ;&st7;  " d=" M  1614.73,   146.26  L  1614.73,   154.76  " /><path style="stroke-width: 0.85 ;&st7;   " d=" M  1614.73,   171.76  C  1616.69    171.76   1618.27    170.17   1618.27    168.22  " /><path style="stroke-width: 0.85 ;&st7;   " d=" M  1618.27,   168.22  C  1618.27    166.26   1616.69    164.67   1614.73    164.67  " /><path style="stroke-width: 0.85 ;&st7;   " d=" M  1614.73,   164.67  C  1613.74    164.67   1612.89    165.03   1612.20    165.74  " /><path style="stroke-width: 0.85 ;&st7;   " d=" M  1612.20,   165.74  C  1613.57    167.13   1615.81    167.16   1617.21    165.79  " /><path style="stroke-width: 0.85 ;&st7;   " d=" M  1617.21,   165.79  C  1618.61    164.42   1618.63    162.18   1617.26    160.78  " /><path style="stroke-width: 0.85 ;&st7;   " d=" M  1617.26,   160.78  C  1615.89    159.38   1613.65    159.36   1612.25    160.73  " /><path style="stroke-width: 0.85 ;&st7;   " d=" M  1612.25,   160.73  C  1612.23    160.75   1612.22    160.76   1612.20    160.78  " /><path style="stroke-width: 0.85 ;&st7;   " d=" M  1612.20,   160.78  C  1613.57    162.18   1615.81    162.20   1617.21    160.83  " /><path style="stroke-width: 0.85 ;&st7;   " d=" M  1617.21,   160.83  C  1618.61    159.46   1618.63    157.22   1617.26    155.82  " /><path style="stroke-width: 0.85 ;&st7;   " d=" M  1617.26,   155.82  C  1616.57    155.11   1615.72    154.76   1614.73    154.76  " /><path style="stroke-width: 1.42 ;&st7;  " d=" M  1623.23,   180.26  L  1623.23,   146.26  L  1606.23,   146.26  L  1606.23,   180.26  L  1623.23,   180.26  " /><text style="&st18;" transform="matrix(&st16;  1608.55  188.45 )">2</text><text style="&st18;" transform="matrix(&st16;  1608.55  142.57 )">1</text><g ewd:figtype="title"><text style="&st18;" transform="matrix(&st17;  1637.95  183.16 )" ewd:textID="51">Fuel Injector <tspan x="0 " dy="6.0">Assembly No. 1</tspan></text><text style="&st18;" transform="matrix(&st17;  1630.84  183.15 )">C18</text></g></g><g ewd:figtype="conn" ewd:figID="34" ewd:code="C20"><path style="stroke-width: 0.85 ;&st7;  " d=" M  1716.71,   146.26  L  1716.71,   154.76  " /><path style="stroke-width: 0.85 ;&st7;  " d=" M  1716.71,   171.76  L  1716.71,   180.26  " /><path style="stroke-width: 0.85 ;&st7;   " d=" M  1714.18,   160.78  C  1715.55    162.18   1717.79    162.20   1719.19    160.83  " /><path style="stroke-width: 0.85 ;&st7;   " d=" M  1719.19,   160.83  C  1720.59    159.46   1720.61    157.22   1719.24    155.82  " /><path style="stroke-width: 0.85 ;&st7;   " d=" M  1719.24,   155.82  C  1718.55    155.11   1717.70    154.76   1716.71    154.76  " /><path style="stroke-width: 0.85 ;&st7;   " d=" M  1714.18,   165.74  C  1715.55    167.13   1717.79    167.16   1719.19    165.79  " /><path style="stroke-width: 0.85 ;&st7;   " d=" M  1719.19,   165.79  C  1720.59    164.42   1720.61    162.18   1719.24    160.78  " /><path style="stroke-width: 0.85 ;&st7;   " d=" M  1719.24,   160.78  C  1717.87    159.38   1715.63    159.36   1714.23    160.73  " /><path style="stroke-width: 0.85 ;&st7;   " d=" M  1714.23,   160.73  C  1714.22    160.75   1714.20    160.76   1714.18    160.78  " /><path style="stroke-width: 0.85 ;&st7;   " d=" M  1716.71,   171.76  C  1718.67    171.76   1720.25    170.17   1720.25    168.22  " /><path style="stroke-width: 0.85 ;&st7;   " d=" M  1720.25,   168.22  C  1720.25    166.26   1718.67    164.67   1716.71    164.67  " /><path style="stroke-width: 0.85 ;&st7;   " d=" M  1716.71,   164.67  C  1715.72    164.67   1714.88    165.03   1714.18    165.74  " /><path style="stroke-width: 1.42 ;&st7;  " d=" M  1725.21,   180.26  L  1725.21,   146.26  L  1708.21,   146.26  L  1708.21,   180.26  L  1725.21,   180.26  " /><text style="&st18;" transform="matrix(&st16;  1710.53  188.45 )">2</text><text style="&st18;" transform="matrix(&st16;  1710.53  142.57 )">1</text><g ewd:figtype="title"><text style="&st18;" transform="matrix(&st17;  1739.93  183.16 )" ewd:textID="53">Fuel Injector <tspan x="0 " dy="6.0">Assembly No. 3</tspan></text><text style="&st18;" transform="matrix(&st17;  1732.82  183.15 )">C20</text></g></g><g ewd:figtype="conn" ewd:figID="38" ewd:code="C21"><path style="stroke-width: 0.85 ;&st7;  " d=" M  1767.70,   171.76  L  1767.70,   180.26  " /><path style="stroke-width: 0.85 ;&st7;  " d=" M  1767.70,   146.26  L  1767.70,   154.76  " /><path style="stroke-width: 0.85 ;&st7;   " d=" M  1767.70,   171.76  C  1769.66    171.76   1771.25    170.17   1771.25    168.22  " /><path style="stroke-width: 0.85 ;&st7;   " d=" M  1771.25,   168.22  C  1771.25    166.26   1769.66    164.67   1767.70    164.67  " /><path style="stroke-width: 0.85 ;&st7;   " d=" M  1767.70,   164.67  C  1766.71    164.67   1765.87    165.03   1765.18    165.74  " /><path style="stroke-width: 0.85 ;&st7;   " d=" M  1765.17,   165.74  C  1766.54    167.13   1768.79    167.16   1770.18    165.79  " /><path style="stroke-width: 0.85 ;&st7;   " d=" M  1770.18,   165.79  C  1771.58    164.42   1771.60    162.18   1770.23    160.78  " /><path style="stroke-width: 0.85 ;&st7;   " d=" M  1770.23,   160.78  C  1768.87    159.38   1766.62    159.36   1765.23    160.73  " /><path style="stroke-width: 0.85 ;&st7;   " d=" M  1765.23,   160.73  C  1765.21    160.75   1765.19    160.76   1765.17    160.78  " /><path style="stroke-width: 0.85 ;&st7;   " d=" M  1765.17,   160.78  C  1766.54    162.18   1768.79    162.20   1770.18    160.83  " /><path style="stroke-width: 0.85 ;&st7;   " d=" M  1770.18,   160.83  C  1771.58    159.46   1771.60    157.22   1770.23    155.82  " /><path style="stroke-width: 0.85 ;&st7;   " d=" M  1770.23,   155.82  C  1769.54    155.11   1768.70    154.76   1767.70    154.76  " /><path style="stroke-width: 1.42 ;&st7;  " d=" M  1776.20,   180.26  L  1776.20,   146.26  L  1759.21,   146.26  L  1759.21,   180.26  L  1776.20,   180.26  " /><text style="&st18;" transform="matrix(&st16;  1761.52  142.57 )">1</text><text style="&st18;" transform="matrix(&st16;  1761.52  188.45 )">2</text><g ewd:figtype="title"><text style="&st18;" transform="matrix(&st17;  1790.92  183.16 )" ewd:textID="54">Fuel Injector <tspan x="0 " dy="6.0">Assembly No. 4</tspan></text><text style="&st18;" transform="matrix(&st17;  1783.81  183.15 )">C21</text></g></g><g ewd:figtype="conn" ewd:figID="42" ewd:code="G64,G102"><path style="stroke-width: 1.42 ;&st7;  " d=" M  1852.69,   146.26  L  1869.69,   146.26  L  1869.69,   163.26  L  1852.69,   163.26  L  1852.69,   146.26  " /><path style="stroke-width: 0.85 ;&st7;  " d=" M  1861.19,   146.26  L  1861.19,   163.26  " /><text style="&st18;" transform="matrix(&st16;  1849.39  134.63 )">16</text><text style="&st18;" transform="matrix(&st16;  1849.39  143.7 )">19</text><path style="stroke-width: 1.42 ;&st7;   " d=" M  1865.72,   132.66  C  1865.72    130.16   1863.69    128.13   1861.19    128.13  " /><path style="stroke-width: 1.42 ;&st7;   " d=" M  1861.19,   128.13  C  1858.69    128.13   1856.66    130.16   1856.66    132.66  " /><path style="stroke-width: 1.42 ;&st7;   " d=" M  1856.66,   132.66  C  1856.66    135.17   1858.69    137.20   1861.19    137.20  " /><path style="stroke-width: 1.42 ;&st7;   " d=" M  1861.19,   137.20  C  1863.69    137.20   1865.72    135.17   1865.72    132.66  " /><path style="stroke-width: 1.42 ;&st7;   " d=" M  1865.72,   141.73  C  1865.72    139.23   1863.69    137.20   1861.19    137.20  " /><path style="stroke-width: 1.42 ;&st7;   " d=" M  1861.19,   137.20  C  1858.69    137.20   1856.66    139.23   1856.66    141.73  " /><path style="stroke-width: 1.42 ;&st7;   " d=" M  1856.66,   141.73  C  1856.66    144.23   1858.69    146.26   1861.19    146.26  " /><path style="stroke-width: 1.42 ;&st7;   " d=" M  1861.19,   146.26  C  1863.69    146.26   1865.72    144.23   1865.72    141.73  " /><text style="&st18;" transform="matrix(&st16;  1858.88  134.63 )">A</text><text style="&st18;" transform="matrix(&st16;  1859.0  143.7 )">B</text><text style="&st18;" transform="matrix(&st16;  1849.39  178.82 )">20</text><text style="&st18;" transform="matrix(&st16;  1849.39  169.76 )">17</text><path style="stroke-width: 1.42 ;&st7;   " d=" M  1865.72,   176.86  C  1865.72    174.35   1863.69    172.32   1861.19    172.32  " /><path style="stroke-width: 1.42 ;&st7;   " d=" M  1861.19,   172.32  C  1858.69    172.32   1856.66    174.35   1856.66    176.86  " /><path style="stroke-width: 1.42 ;&st7;   " d=" M  1856.66,   176.86  C  1856.66    179.36   1858.69    181.39   1861.19    181.39  " /><path style="stroke-width: 1.42 ;&st7;   " d=" M  1861.19,   181.39  C  1863.69    181.39   1865.72    179.36   1865.72    176.86  " /><path style="stroke-width: 1.42 ;&st7;   " d=" M  1865.72,   167.79  C  1865.72    165.29   1863.69    163.26   1861.19    163.26  " /><path style="stroke-width: 1.42 ;&st7;   " d=" M  1861.19,   163.26  C  1858.69    163.26   1856.66    165.29   1856.66    167.79  " /><path style="stroke-width: 1.42 ;&st7;   " d=" M  1856.66,   167.79  C  1856.66    170.29   1858.69    172.32   1861.19    172.32  " /><path style="stroke-width: 1.42 ;&st7;   " d=" M  1861.19,   172.32  C  1863.69    172.32   1865.72    170.29   1865.72    167.79  " /><text style="&st18;" transform="matrix(&st16;  1858.88  169.76 )">A</text><text style="&st18;" transform="matrix(&st16;  1859.0  178.82 )">B</text><g ewd:figtype="title"><text style="&st18;" transform="matrix(&st17;  1813.28  166.16 )">G64(A)</text><text style="&st18;" transform="matrix(&st17;  1820.1  166.16 )" ewd:textID="87">No. 23 <tspan x="0 " dy="6.0">Junction Connector</tspan></text><text style="&st18;" transform="matrix(&st17;  1833.39  166.16 )">G102(B)</text><text style="&st18;" transform="matrix(&st17;  1840.21  166.16 )" ewd:textID="93">No. 35 <tspan x="0 " dy="6.0">Junction Connector</tspan></text></g><g ewd:code="" ewd:figID="243" ewd:comment="" ewd:figtype="commref"><text style="&st18;" transform="matrix(&st16;  1866.28  169.76 )">(LHD)</text></g><g ewd:code="" ewd:figID="244" ewd:comment="" ewd:figtype="commref"><text style="&st18;" transform="matrix(&st16;  1866.28  178.82 )">(RHD)</text></g><g ewd:code="" ewd:figID="245" ewd:comment="" ewd:figtype="commref"><text style="&st18;" transform="matrix(&st16;  1866.28  134.63 )">(LHD)</text></g><g ewd:code="" ewd:figID="246" ewd:comment="" ewd:figtype="commref"><text style="&st18;" transform="matrix(&st16;  1866.28  143.7 )">(RHD)</text></g></g><g ewd:figtype="conn" ewd:figID="45" ewd:code="C45"><path style="stroke-width: 0.85 ;&st7;  " d=" M  1988.67,   379.97  L  1988.67,   396.97  " /><path style="stroke-width: 0.85 ;&st7;  " d=" M  1971.67,   379.97  L  1971.67,   396.97  " /><path style="stroke-width: 0.85 ;&st7;  " d=" M  1980.17,   379.97  L  1980.17,   367.22  " /><path style="stroke-width: 0.85 ;&st7;  " d=" M  1977.34,   395.55  L  1980.17,   396.97  " /><path style="stroke-width: 0.85 ;&st7;  " d=" M  1980.17,   379.97  L  1983.00,   381.39  " /><path style="stroke-width: 0.85 ;&st7;  " d=" M  1983.00,   381.39  L  1977.34,   384.22  " /><path style="stroke-width: 0.85 ;&st7;  " d=" M  1977.34,   384.22  L  1983.00,   387.05  " /><path style="stroke-width: 0.85 ;&st7;  " d=" M  1983.00,   387.05  L  1977.34,   389.89  " /><path style="stroke-width: 0.85 ;&st7;  " d=" M  1977.34,   389.89  L  1983.00,   392.72  " /><path style="stroke-width: 0.85 ;&st7;  " d=" M  1983.00,   392.72  L  1977.34,   395.55  " /><path style="stroke-width: 0.85 ;&st7;  " d=" M  1980.17,   409.72  L  1980.17,   396.97  " /><path style="stroke-width: 0.85 ;&st7;   " d=" M  1971.67,   396.97  C  1971.67    401.66   1975.48    405.47   1980.17    405.47  " /><path style="stroke-width: 0.85 ;&st7;   " d=" M  1980.17,   405.47  C  1984.86    405.47   1988.67    401.66   1988.67    396.97  " /><path style="stroke-width: 0.85 ;&st7;   " d=" M  1988.67,   379.97  C  1988.67    375.28   1984.86    371.47   1980.17    371.47  " /><path style="stroke-width: 0.85 ;&st7;   " d=" M  1980.17,   371.47  C  1975.48    371.47   1971.67    375.28   1971.67    379.97  " /><path style="stroke-width: 1.42 ;&st7;  " d=" M  1967.42,   409.72  L  1967.42,   367.22  L  1992.92,   367.22  L  1992.92,   409.72  L  1967.42,   409.72  " /><text style="&st18;" transform="matrix(&st16;  1973.98  417.91 )">1</text><text style="&st18;" transform="matrix(&st16;  1973.98  363.53 )">2</text><g ewd:figtype="title"><text style="&st18;" transform="matrix(&st17;  2007.63  412.62 )" ewd:textID="48">E.F.I. Engine Coolant <tspan x="0 " dy="6.0">Temperature Sensor</tspan></text><text style="&st18;" transform="matrix(&st17;  2000.53  412.62 )">C45</text></g></g><g ewd:figtype="conn" ewd:figID="47" ewd:code="A44"><path style="stroke-width: 0.85 ;&st7;  " d=" M  1895.18,   418.22  L  1895.18,   426.71  " /><path style="stroke-width: 0.85 ;&st7;  " d=" M  1895.18,   392.72  L  1895.18,   401.22  " /><path style="stroke-width: 0.85 ;&st7;   " d=" M  1895.18,   418.22  C  1897.14    418.22   1898.72    416.63   1898.72    414.67  " /><path style="stroke-width: 0.85 ;&st7;   " d=" M  1898.72,   414.67  C  1898.72    412.72   1897.14    411.13   1895.18    411.13  " /><path style="stroke-width: 0.85 ;&st7;   " d=" M  1895.18,   411.13  C  1894.19    411.13   1893.35    411.49   1892.65    412.20  " /><path style="stroke-width: 0.85 ;&st7;   " d=" M  1892.65,   407.24  C  1894.02    408.64   1896.26    408.66   1897.66    407.29  " /><path style="stroke-width: 0.85 ;&st7;   " d=" M  1897.66,   407.29  C  1899.06    405.92   1899.08    403.68   1897.71    402.28  " /><path style="stroke-width: 0.85 ;&st7;   " d=" M  1897.71,   402.28  C  1897.02    401.57   1896.17    401.22   1895.18    401.22  " /><path style="stroke-width: 0.85 ;&st7;   " d=" M  1892.65,   412.20  C  1894.02    413.59   1896.26    413.62   1897.66    412.25  " /><path style="stroke-width: 0.85 ;&st7;   " d=" M  1897.66,   412.25  C  1899.06    410.88   1899.08    408.64   1897.71    407.24  " /><path style="stroke-width: 0.85 ;&st7;   " d=" M  1897.71,   407.24  C  1896.34    405.84   1894.10    405.82   1892.70    407.19  " /><path style="stroke-width: 0.85 ;&st7;   " d=" M  1892.70,   407.19  C  1892.69    407.20   1892.67    407.22   1892.65    407.24  " /><path style="stroke-width: 1.42 ;&st7;  " d=" M  1903.68,   426.71  L  1903.68,   392.72  L  1886.68,   392.72  L  1886.68,   426.71  L  1903.68,   426.71  " /><text style="&st18;" transform="matrix(&st16;  1889.0  434.91 )">2</text><text style="&st18;" transform="matrix(&st16;  1889.0  389.03 )">1</text><g ewd:figtype="title"><text style="&st18;" transform="matrix(&st17;  1911.58  429.61 )">A44</text><text style="&st18;" transform="matrix(&st17;  1918.4  429.62 )" ewd:textID="70">No. 1 Vacuum Switching <tspan x="0 " dy="6.0">Valve Assembly (Ejector)</tspan></text></g></g><g ewd:figtype="conn" ewd:figID="50" ewd:code="C16"><path style="stroke-width: 0.85 ;&st7;  " d=" M  1657.22,   367.22  L  1657.22,   375.72  " /><path style="stroke-width: 0.85 ;&st7;  " d=" M  1657.22,   341.73  L  1657.22,   350.23  " /><path style="stroke-width: 0.85 ;&st7;   " d=" M  1657.22,   367.22  C  1659.18    367.22   1660.76    365.64   1660.76    363.68  " /><path style="stroke-width: 0.85 ;&st7;   " d=" M  1660.76,   363.68  C  1660.76    361.73   1659.18    360.14   1657.22    360.14  " /><path style="stroke-width: 0.85 ;&st7;   " d=" M  1657.22,   360.14  C  1656.23    360.14   1655.39    360.50   1654.69    361.20  " /><path style="stroke-width: 0.85 ;&st7;   " d=" M  1654.69,   361.20  C  1656.06    362.60   1658.30    362.62   1659.70    361.26  " /><path style="stroke-width: 0.85 ;&st7;   " d=" M  1659.70,   361.26  C  1661.10    359.89   1661.12    357.64   1659.75    356.25  " /><path style="stroke-width: 0.85 ;&st7;   " d=" M  1659.75,   356.25  C  1658.38    354.85   1656.14    354.83   1654.74    356.20  " /><path style="stroke-width: 0.85 ;&st7;   " d=" M  1654.74,   356.20  C  1654.73    356.21   1654.71    356.23   1654.69    356.25  " /><path style="stroke-width: 0.85 ;&st7;   " d=" M  1654.69,   356.25  C  1656.06    357.64   1658.30    357.67   1659.70    356.30  " /><path style="stroke-width: 0.85 ;&st7;   " d=" M  1659.70,   356.30  C  1661.10    354.93   1661.12    352.69   1659.75    351.29  " /><path style="stroke-width: 0.85 ;&st7;   " d=" M  1659.75,   351.29  C  1659.06    350.58   1658.21    350.23   1657.22    350.23  " /><path style="stroke-width: 1.42 ;&st7;  " d=" M  1665.72,   375.72  L  1665.72,   341.73  L  1648.72,   341.73  L  1648.72,   375.72  L  1665.72,   375.72  " /><text style="&st18;" transform="matrix(&st16;  1651.04  383.92 )">2</text><text style="&st18;" transform="matrix(&st16;  1651.04  338.04 )">1</text><g ewd:figtype="title"><text style="&st18;" transform="matrix(&st17;  1680.44  378.63 )" ewd:textID="109">Purge VSV</text><text style="&st18;" transform="matrix(&st17;  1673.62  378.62 )">C16</text></g></g><g ewd:figtype="conn" ewd:figID="71" ewd:code="C52,C53,C54,G45,G46"><path style="stroke-width: 1.42 ;&st7;  " d=" M  1597.73,   222.75  L  1597.73,   265.24  L  7648.72,   265.24  L  7648.72,   222.75  L  1597.73,   222.75  " /><g ewd:lineID="13"><text style="&st18;" transform="matrix(&st16;  1894.99  220.18 )">6</text><path style="stroke-width: 1.42 ;&st7;   " d=" M  1908.21,   218.22  C  1908.21    215.71   1906.19    213.68   1903.68    213.68  " /><path style="stroke-width: 1.42 ;&st7;   " d=" M  1903.68,   213.68  C  1901.18    213.68   1899.15    215.71   1899.15    218.22  " /><path style="stroke-width: 1.42 ;&st7;   " d=" M  1899.15,   218.22  C  1899.15    220.72   1901.18    222.75   1903.68    222.75  " /><path style="stroke-width: 1.42 ;&st7;   " d=" M  1903.68,   222.75  C  1906.19    222.75   1908.21    220.72   1908.21    218.22  " /><text style="&st18;" transform="matrix(&st16;  1901.3  220.18 )">D</text><text style="&st18;" transform="matrix(&st16;  1895.41  230.38 )">MREL</text></g><g ewd:lineID="39"><text style="&st18;" transform="matrix(&st16;  1606.04  220.18 )">4</text><text style="&st18;" transform="matrix(&st16;  1612.54  220.18 )">B</text><path style="stroke-width: 1.42 ;&st7;   " d=" M  1619.26,   218.22  C  1619.26    215.71   1617.23    213.68   1614.73    213.68  " /><path style="stroke-width: 1.42 ;&st7;   " d=" M  1614.73,   213.68  C  1612.23    213.68   1610.20    215.71   1610.20    218.22  " /><path style="stroke-width: 1.42 ;&st7;   " d=" M  1610.20,   218.22  C  1610.20    220.72   1612.23    222.75   1614.73    222.75  " /><path style="stroke-width: 1.42 ;&st7;   " d=" M  1614.73,   222.75  C  1617.23    222.75   1619.26    220.72   1619.26    218.22  " /><text style="&st18;" transform="matrix(&st16;  1609.83  230.38 )">#10</text></g><g ewd:lineID="42"><text style="&st18;" transform="matrix(&st16;  1645.43  271.74 )">13</text><text style="&st18;" transform="matrix(&st16;  1655.03  271.74 )">B</text><path style="stroke-width: 1.42 ;&st7;   " d=" M  1661.76,   269.77  C  1661.76    267.27   1659.73    265.24   1657.22    265.24  " /><path style="stroke-width: 1.42 ;&st7;   " d=" M  1657.22,   265.24  C  1654.72    265.24   1652.69    267.27   1652.69    269.77  " /><path style="stroke-width: 1.42 ;&st7;   " d=" M  1652.69,   269.77  C  1652.69    272.28   1654.72    274.31   1657.22    274.31  " /><path style="stroke-width: 1.42 ;&st7;   " d=" M  1657.22,   274.31  C  1659.73    274.31   1661.76    272.28   1661.76    269.77  " /><text style="&st18;" transform="matrix(&st16;  1651.16  261.54 )">PRG</text></g><g ewd:lineID="43"><text style="&st18;" transform="matrix(&st16;  1657.03  220.18 )">3</text><text style="&st18;" transform="matrix(&st16;  1663.53  220.18 )">B</text><path style="stroke-width: 1.42 ;&st7;   " d=" M  1670.25,   218.22  C  1670.25    215.71   1668.22    213.68   1665.72    213.68  " /><path style="stroke-width: 1.42 ;&st7;   " d=" M  1665.72,   213.68  C  1663.22    213.68   1661.19    215.71   1661.19    218.22  " /><path style="stroke-width: 1.42 ;&st7;   " d=" M  1661.19,   218.22  C  1661.19    220.72   1663.22    222.75   1665.72    222.75  " /><path style="stroke-width: 1.42 ;&st7;   " d=" M  1665.72,   222.75  C  1668.22    222.75   1670.25    220.72   1670.25    218.22  " /><text style="&st18;" transform="matrix(&st16;  1660.82  230.38 )">#20</text></g><g ewd:lineID="46"><text style="&st18;" transform="matrix(&st16;  1699.52  271.74 )">6</text><text style="&st18;" transform="matrix(&st16;  1706.1  271.74 )">E</text><path style="stroke-width: 1.42 ;&st7;   " d=" M  1712.75,   269.77  C  1712.75    267.27   1710.72    265.24   1708.21    265.24  " /><path style="stroke-width: 1.42 ;&st7;   " d=" M  1708.21,   265.24  C  1705.71    265.24   1703.68    267.27   1703.68    269.77  " /><path style="stroke-width: 1.42 ;&st7;   " d=" M  1703.68,   269.77  C  1703.68    272.28   1705.71    274.31   1708.21    274.31  " /><path style="stroke-width: 1.42 ;&st7;   " d=" M  1708.21,   274.31  C  1710.72    274.31   1712.75    272.28   1712.75    269.77  " /><text style="&st18;" transform="matrix(&st16;  1701.41  261.54 )">AIRP</text></g><g ewd:lineID="47"><text style="&st18;" transform="matrix(&st16;  1708.02  220.18 )">2</text><path style="stroke-width: 1.42 ;&st7;   " d=" M  1721.25,   218.22  C  1721.25    215.71   1719.22    213.68   1716.71    213.68  " /><path style="stroke-width: 1.42 ;&st7;   " d=" M  1716.71,   213.68  C  1714.21    213.68   1712.18    215.71   1712.18    218.22  " /><path style="stroke-width: 1.42 ;&st7;   " d=" M  1712.18,   218.22  C  1712.18    220.72   1714.21    222.75   1716.71    222.75  " /><path style="stroke-width: 1.42 ;&st7;   " d=" M  1716.71,   222.75  C  1719.22    222.75   1721.25    220.72   1721.25    218.22  " /><text style="&st18;" transform="matrix(&st16;  1714.52  220.18 )">B</text><text style="&st18;" transform="matrix(&st16;  1711.81  230.38 )">#30</text></g><g ewd:lineID="50"><text style="&st18;" transform="matrix(&st16;  1738.91  271.74 )">20</text><text style="&st18;" transform="matrix(&st16;  1748.33  271.74 )">D</text><path style="stroke-width: 1.42 ;&st7;   " d=" M  1755.24,   269.77  C  1755.24    267.27   1753.21    265.24   1750.71    265.24  " /><path style="stroke-width: 1.42 ;&st7;   " d=" M  1750.71,   265.24  C  1748.20    265.24   1746.17    267.27   1746.17    269.77  " /><path style="stroke-width: 1.42 ;&st7;   " d=" M  1746.17,   269.77  C  1746.17    272.28   1748.20    274.31   1750.71    274.31  " /><path style="stroke-width: 1.42 ;&st7;   " d=" M  1750.71,   274.31  C  1753.21    274.31   1755.24    272.28   1755.24    269.77  " /><text style="&st18;" transform="matrix(&st16;  1744.49  261.54 )">AIDI</text></g><g ewd:lineID="51"><text style="&st18;" transform="matrix(&st16;  1759.01  220.18 )">1</text><text style="&st18;" transform="matrix(&st16;  1765.52  220.18 )">B</text><path style="stroke-width: 1.42 ;&st7;   " d=" M  1772.24,   218.22  C  1772.24    215.71   1770.21    213.68   1767.70    213.68  " /><path style="stroke-width: 1.42 ;&st7;   " d=" M  1767.70,   213.68  C  1765.20    213.68   1763.17    215.71   1763.17    218.22  " /><path style="stroke-width: 1.42 ;&st7;   " d=" M  1763.17,   218.22  C  1763.17    220.72   1765.20    222.75   1767.70    222.75  " /><path style="stroke-width: 1.42 ;&st7;   " d=" M  1767.70,   222.75  C  1770.21    222.75   1772.24    220.72   1772.24    218.22  " /><text style="&st18;" transform="matrix(&st16;  1762.8  230.38 )">#40</text></g><g ewd:lineID="52"><text style="&st18;" transform="matrix(&st16;  1784.51  271.74 )">5</text><path style="stroke-width: 1.42 ;&st7;   " d=" M  1797.73,   269.77  C  1797.73    267.27   1795.70    265.24   1793.20    265.24  " /><path style="stroke-width: 1.42 ;&st7;   " d=" M  1793.20,   265.24  C  1790.70    265.24   1788.67    267.27   1788.67    269.77  " /><path style="stroke-width: 1.42 ;&st7;   " d=" M  1788.67,   269.77  C  1788.67    272.28   1790.70    274.31   1793.20    274.31  " /><path style="stroke-width: 1.42 ;&st7;   " d=" M  1793.20,   274.31  C  1795.70    274.31   1797.73    272.28   1797.73    269.77  " /><text style="&st18;" transform="matrix(&st16;  1791.09  271.74 )">E</text><text style="&st18;" transform="matrix(&st16;  1786.09  261.54 )">AIRV</text></g><g ewd:lineID="53"><text style="&st18;" transform="matrix(&st16;  1827.0  271.74 )">5</text><path style="stroke-width: 1.42 ;&st7;   " d=" M  1840.23,   269.77  C  1840.23    267.27   1838.20    265.24   1835.69    265.24  " /><path style="stroke-width: 1.42 ;&st7;   " d=" M  1835.69,   265.24  C  1833.19    265.24   1831.16    267.27   1831.16    269.77  " /><path style="stroke-width: 1.42 ;&st7;   " d=" M  1831.16,   269.77  C  1831.16    272.28   1833.19    274.31   1835.69    274.31  " /><path style="stroke-width: 1.42 ;&st7;   " d=" M  1835.69,   274.31  C  1838.20    274.31   1840.23    272.28   1840.23    269.77  " /><text style="&st18;" transform="matrix(&st16;  1833.31  271.74 )">D</text><text style="&st18;" transform="matrix(&st16;  1831.41  261.54 )">FC</text></g><g ewd:lineID="54"><text style="&st18;" transform="matrix(&st16;  1852.5  220.18 )">8</text><text style="&st18;" transform="matrix(&st16;  1859.08  220.18 )">E</text><path style="stroke-width: 1.42 ;&st7;   " d=" M  1865.72,   218.22  C  1865.72    215.71   1863.69    213.68   1861.19    213.68  " /><path style="stroke-width: 1.42 ;&st7;   " d=" M  1861.19,   213.68  C  1858.69    213.68   1856.66    215.71   1856.66    218.22  " /><path style="stroke-width: 1.42 ;&st7;   " d=" M  1856.66,   218.22  C  1856.66    220.72   1858.69    222.75   1861.19    222.75  " /><path style="stroke-width: 1.42 ;&st7;   " d=" M  1861.19,   222.75  C  1863.69    222.75   1865.72    220.72   1865.72    218.22  " /><text style="&st18;" transform="matrix(&st16;  1853.57  230.38 )">IGSW</text></g><g ewd:lineID="56"><text style="&st18;" transform="matrix(&st16;  1883.39  271.74 )">14</text><path style="stroke-width: 1.42 ;&st7;   " d=" M  1899.72,   269.77  C  1899.72    267.27   1897.69    265.24   1895.18    265.24  " /><path style="stroke-width: 1.42 ;&st7;   " d=" M  1895.18,   265.24  C  1892.68    265.24   1890.65    267.27   1890.65    269.77  " /><path style="stroke-width: 1.42 ;&st7;   " d=" M  1890.65,   269.77  C  1890.65    272.28   1892.68    274.31   1895.18    274.31  " /><path style="stroke-width: 1.42 ;&st7;   " d=" M  1895.18,   274.31  C  1897.69    274.31   1899.72    272.28   1899.72    269.77  " /><text style="&st18;" transform="matrix(&st16;  1893.0  271.74 )">B</text><text style="&st18;" transform="matrix(&st16;  1889.2  261.54 )">PBV</text></g><g ewd:lineID="57"><text style="&st18;" transform="matrix(&st16;  1937.48  220.18 )">1</text><path style="stroke-width: 1.42 ;&st7;   " d=" M  1950.71,   218.22  C  1950.71    215.71   1948.68    213.68   1946.17    213.68  " /><path style="stroke-width: 1.42 ;&st7;   " d=" M  1946.17,   213.68  C  1943.67    213.68   1941.64    215.71   1941.64    218.22  " /><path style="stroke-width: 1.42 ;&st7;   " d=" M  1941.64,   218.22  C  1941.64    220.72   1943.67    222.75   1946.17    222.75  " /><path style="stroke-width: 1.42 ;&st7;   " d=" M  1946.17,   222.75  C  1948.68    222.75   1950.71    220.72   1950.71    218.22  " /><text style="&st18;" transform="matrix(&st16;  1944.06  220.18 )">E</text><text style="&st18;" transform="matrix(&st16;  1942.44  230.38 )">+B</text></g><g ewd:lineID="60"><text style="&st18;" transform="matrix(&st16;  1968.37  271.74 )">22</text><path style="stroke-width: 1.42 ;&st7;   " d=" M  1984.70,   269.77  C  1984.70    267.27   1982.67    265.24   1980.17    265.24  " /><path style="stroke-width: 1.42 ;&st7;   " d=" M  1980.17,   265.24  C  1977.67    265.24   1975.64    267.27   1975.64    269.77  " /><path style="stroke-width: 1.42 ;&st7;   " d=" M  1975.64,   269.77  C  1975.64    272.28   1977.67    274.31   1980.17    274.31  " /><path style="stroke-width: 1.42 ;&st7;   " d=" M  1980.17,   274.31  C  1982.67    274.31   1984.70    272.28   1984.70    269.77  " /><text style="&st18;" transform="matrix(&st16;  1977.98  271.74 )">B</text><text style="&st18;" transform="matrix(&st16;  1973.02  261.54 )">THW</text></g><g ewd:lineID="61"><text style="&st18;" transform="matrix(&st16;  1979.97  220.18 )">2</text><text style="&st18;" transform="matrix(&st16;  1986.56  220.18 )">E</text><path style="stroke-width: 1.42 ;&st7;   " d=" M  1993.20,   218.22  C  1993.20    215.71   1991.17    213.68   1988.67    213.68  " /><path style="stroke-width: 1.42 ;&st7;   " d=" M  1988.67,   213.68  C  1986.16    213.68   1984.14    215.71   1984.14    218.22  " /><path style="stroke-width: 1.42 ;&st7;   " d=" M  1984.14,   218.22  C  1984.14    220.72   1986.16    222.75   1988.67    222.75  " /><path style="stroke-width: 1.42 ;&st7;   " d=" M  1988.67,   222.75  C  1991.17    222.75   1993.20    220.72   1993.20    218.22  " /><text style="&st18;" transform="matrix(&st16;  1983.38  230.38 )">+B2</text></g><g ewd:figtype="title"><text style="&st18;" transform="matrix(&st16;  1781.3  248.8 )">ECM</text><text style="&st18;" transform="matrix(&st16;  1781.29  241.97 )">C52(A),C53(B),C54(C),G45(D),G46(E)</text></g></g><g ewd:figtype="w2w" ewd:figID="131" ewd:code="CA2"><path style="stroke-width: 1.42 ;&st7;  " d=" M  1899.43,   342.29  L  1895.18,   338.05  L  1890.93,   342.29  " /><path style="stroke-width: 1.42 ;&st7;  " d=" M  1899.43,   338.90  L  1895.18,   334.65  L  1890.93,   338.90  " /><text style="&st18;" transform="matrix(&st16;  1879.45  330.95 )">17</text></g></svg>