﻿<?xml version="1.0" encoding="utf-8"?>
<!DOCTYPE svg PUBLIC "-//W3C//DTD SVG 1.0//EN" "http://www.w3.org/TR/2001/REC-SVG-20010904/DTD/svg10.dtd"[
	<!ENTITY ns_flows "http://ns.adobe.com/Flows/1.0/">
	<!ENTITY ns_svg "http://www.w3.org/2000/svg">
	<!ENTITY ns_xlink "http://www.w3.org/1999/xlink">
	<!ENTITY st0 "font-size:7px;font-family:'MS-PGothic';adobe-font-script:japanese;">
	<!ENTITY st1 "font-size:6px;font-family:'ArialMT';">
	<!-- White fill  -->
	<!ENTITY st2 "fill:#FFFFFF;stroke:#000000; stroke-width:1.41;stroke-linecap:round;stroke-linejoin:round;">
	<!-- Yellow fill  -->
	<!ENTITY st3 "fill:#FFFFCC;stroke:#FFFFCC; stroke-width:0.1;stroke-linecap:round;stroke-linejoin:round;">
	<!-- Gray fill  -->
	<!ENTITY st4 "fill:#CCCCCC;stroke:#CCCCCC; stroke-width:0.1;stroke-linecap:round;stroke-linejoin:round;">
	<!-- Light-blue fill -->
	<!ENTITY st5 "fill:#CCECF4;stroke:#000000; stroke-width:1.133;stroke-linecap:round;stroke-linejoin:round;">
	<!ENTITY st6 "fill:none;stroke-linecap:butt; stroke-linejoin:round;">
	<!ENTITY st7 "fill:none;stroke:#000000;stroke-linecap:round;stroke-linejoin:round;">
	<!ENTITY st8 "enable-background:new    ;">
	<!-- Black fill -->
	<!ENTITY st9 "fill:#000000;stroke:#000000; stroke-linecap:round;stroke-linejoin:round;">
	<!-- SRS note   -->
	<!ENTITY st10 "font-size:9px;font-family:'ArialMT';">
	<!ENTITY st11 "font-size:9px;font-family:'Svg Symbol';">
	<!ENTITY st12 "font-size:6px;font-family:'Svg Symbol';">
	<!ENTITY st13 "fill:none;stroke:#ff0000;stroke-linecap:round;stroke-linejoin:round;">
	<!-- Yellow fill  -->
	<!ENTITY st14 "fill:#FFFF00;stroke:#FFFF00; stroke-width:0.1;stroke-linecap:round;stroke-linejoin:round;">
	<!ENTITY st15 "font-size:6px;font-family:'MS-PGothic';adobe-font-script:japanese;">
	<!ENTITY st16 "1.00 0.00 0.00 1.00">
	<!ENTITY st17 "0.00 -1.00 1.00 0.00">
	<!ENTITY st18 "font-size:6px;font-family:'Arial';">
	<!ENTITY st19 "font-size:9px;font-family:'Arial';">
	<!ENTITY st20 "font-size:6px;font-family:'MS-PGothic','MS PGothic';adobe-font-script:japanese;">
	<!ENTITY st21 "font-size:7px;font-family:'MS-PGothic','MS PGothic';adobe-font-script:japanese;">
	<!ATTLIST svg
		xmlns:ewd CDATA #FIXED "http://shcl.co.jp/ewd"
		xmlns:a CDATA #FIXED "http://ns.adobe.com/AdobeSVGViewerExtensions/3.0/"
		ewd:ver CDATA #IMPLIED
	>
	<!ATTLIST a
		ewd:lineID CDATA #IMPLIED
		ewd:groupID CDATA #IMPLIED
		ewd:figtype CDATA #IMPLIED
		ewd:code CDATA #IMPLIED
		ewd:figID CDATA #IMPLIED
		ewd:pinNo CDATA #IMPLIED
		ewd:comment CDATA #IMPLIED >
	<!ATTLIST g
		ewd:lineID CDATA #IMPLIED
		ewd:groupID CDATA #IMPLIED
		ewd:figtype CDATA #IMPLIED
		ewd:code CDATA #IMPLIED
		ewd:figID CDATA #IMPLIED
		ewd:pinNo CDATA #IMPLIED
		ewd:comment CDATA #IMPLIED >
	<!ATTLIST text
		ewd:textID CDATA #IMPLIED >
	<!ATTLIST title
		ewd:textID CDATA #IMPLIED >
]>
<!-- Generator: Shintec Hozumi YS   -->
<svg onload="call_execInitLoadProc_svg('system')" style="overflow:visible;  enable-background:new 0 0 10283.990 710.000" viewBox="0 0 10283.990 710.000" height="710.000" width="10283.990" xml:space="preserve" ewd:ver="2.1.2.9" xmlns="&ns_svg;" xmlns:a="http://ns.adobe.com/AdobeSVGViewerExtensions/3.0/" xmlns:ewd="http://shcl.co.jp/ewd" xmlns:xlink="&ns_xlink;">
<text style="&st18;" transform="matrix(&st17;  3021.8  116.09 )">GR</text><path style="stroke-width: 1.42 ;&st7;  " d=" M  3467.42,   154.76  L  3475.92,   154.76  " /><text style="&st18;" transform="matrix(&st17;  3344.74  173.45 )">B</text><text style="&st18;" transform="matrix(&st17;  3483.56  193.47 )">(*3)</text><text style="&st18;" transform="matrix(&st17;  3483.56  133.98 )">(*3)</text><text style="&st18;" transform="matrix(&st17;  3021.8  199.21 )">G</text><text style="&st18;" transform="matrix(&st17;  3472.22  130.95 )">B</text><text style="&st18;" transform="matrix(&st17;  3208.77  317.81 )">L</text><text style="&st18;" transform="matrix(&st17;  3268.26  432.54 )">L</text><text style="&st18;" transform="matrix(&st17;  3319.25  432.65 )">B</text><text style="&st18;" transform="matrix(&st17;  3472.22  190.44 )">B</text><text style="&st18;" transform="matrix(&st16;  3082.87  626.98 )">R</text><text style="&st18;" transform="matrix(&st16;  3133.87  626.98 )">R</text><text style="&st18;" transform="matrix(&st17;  3497.72  318.7 )">W</text><text style="&st18;" transform="matrix(&st17;  3446.73  317.92 )">B</text><text style="&st18;" transform="matrix(&st17;  3497.72  432.57 )">R</text><text style="&st18;" transform="matrix(&st17;  3446.73  432.65 )">Y</text><text style="&st18;" transform="matrix(&st16;  3082.8  609.99 )">B</text><text style="&st18;" transform="matrix(&st16;  3133.79  609.99 )">B</text><text style="&st18;" transform="matrix(&st17;  3268.26  317.92 )">B</text><text style="&st18;" transform="matrix(&st17;  3319.25  318.7 )">W</text><text style="&st18;" transform="matrix(&st17;  3387.24  317.92 )">Y</text><text style="&st18;" transform="matrix(&st17;  3356.08  176.47 )">(*3)</text><text style="&st18;" transform="matrix(&st16;  3285.54  241.97 )">C52(A),C53(B),C54(C),G45(D),G46(E)</text><text style="&st18;" transform="matrix(&st16;  3285.54  248.8 )">ECM</text><text style="&st18;" transform="matrix(&st17;  3279.59  57.49 )">(*3)</text><text style="&st18;" transform="matrix(&st17;  3268.26  56.56 )">LG</text><text style="&st18;" transform="matrix(&st17;  3177.61  133.98 )">(*3)</text><text style="&st18;" transform="matrix(&st17;  3166.27  130.95 )">B</text><g ewd:figtype="conn" ewd:figID="18" ewd:code="C36"><path style="stroke-width: 1.42 ;&st7;  " d=" M  3008.50,   137.76  L  3008.50,   171.76  L  3042.49,   171.76  L  3042.49,   137.76  L  3008.50,   137.76  " /><g ewd:lineID="103"><text style="&st18;" transform="matrix(&st16;  3019.31  134.07 )">2</text><text style="&st18;" transform="matrix(&st16;  3020.28  145.4 )">IGF</text></g><g ewd:lineID="104"><text style="&st18;" transform="matrix(&st16;  3019.31  179.95 )">3</text><text style="&st18;" transform="matrix(&st16;  3018.65  168.06 )">IGT4</text></g><g ewd:figtype="title"><text style="&st18;" transform="matrix(&st17;  3057.21  174.66 )" ewd:textID="62">Ignition Coil Assembly No. 4</text><text style="&st18;" transform="matrix(&st17;  3050.39  174.66 )">C36</text></g></g><g ewd:figtype="conn" ewd:figID="19" ewd:code="N30"><path style="stroke-width: 0.85 ;&st7;  " d=" M  3416.43,   163.26  L  3416.43,   180.26  " /><path style="stroke-width: 1.42 ;&st7;  " d=" M  3407.93,   163.26  L  3424.93,   163.26  L  3424.93,   180.26  L  3407.93,   180.26  L  3407.93,   163.26  " /><text style="&st18;" transform="matrix(&st16;  3410.24  188.45 )">5</text><text style="&st18;" transform="matrix(&st16;  3410.24  159.57 )">7</text><g ewd:figtype="title"><text style="&st18;" transform="matrix(&st17;  3439.65  183.16 )" ewd:textID="104">No. 49 <tspan x="0 " dy="6.0">Junction Connector</tspan></text><text style="&st18;" transform="matrix(&st17;  3432.82  183.15 )">N30</text></g></g><g ewd:figtype="conn" ewd:figID="65" ewd:code="C31"><path style="stroke-width: 1.42 ;&st7;  " d=" M  3254.95,   375.72  L  3254.95,   409.72  L  3339.94,   409.72  L  3339.94,   375.72  L  3254.95,   375.72  " /><g ewd:lineID="106"><text style="&st18;" transform="matrix(&st16;  3265.77  417.91 )">1</text><text style="&st18;" transform="matrix(&st16;  3264.03  406.02 )">HT1B</text></g><g ewd:lineID="107"><text style="&st18;" transform="matrix(&st16;  3265.77  372.03 )">4</text><text style="&st18;" transform="matrix(&st16;  3268.29  383.36 )">E2</text></g><g ewd:lineID="108"><text style="&st18;" transform="matrix(&st16;  3316.76  372.03 )">3</text><text style="&st18;" transform="matrix(&st16;  3314.79  383.36 )">OX1B</text></g><g ewd:lineID="33"><text style="&st18;" transform="matrix(&st16;  3316.76  417.91 )">2</text><text style="&st18;" transform="matrix(&st16;  3319.21  406.02 )">+B</text></g><g ewd:figtype="title"><text style="&st18;" transform="matrix(&st17;  3238.2  412.62 )">C31</text><text style="&st18;" transform="matrix(&st17;  3245.31  412.62 )" ewd:textID="105">Oxygen Sensor <tspan x="0 " dy="6.0">(Bank 1 Sensor 2)</tspan></text></g></g><g ewd:figtype="conn" ewd:figID="68" ewd:code="C49"><path style="stroke-width: 1.42 ;&st7;  " d=" M  3433.42,   375.72  L  3433.42,   409.72  L  3518.41,   409.72  L  3518.41,   375.72  L  3433.42,   375.72  " /><g ewd:lineID="11"><text style="&st18;" transform="matrix(&st16;  3495.23  417.91 )">2</text><text style="&st18;" transform="matrix(&st16;  3497.68  406.02 )">+B</text></g><g ewd:lineID="111"><text style="&st18;" transform="matrix(&st16;  3444.24  417.91 )">1</text><text style="&st18;" transform="matrix(&st16;  3442.26  406.02 )">HA1A</text></g><g ewd:lineID="112"><text style="&st18;" transform="matrix(&st16;  3444.24  372.03 )">3</text><text style="&st18;" transform="matrix(&st16;  3442.96  383.36 )">A1A+</text></g><g ewd:lineID="115"><text style="&st18;" transform="matrix(&st16;  3495.23  372.03 )">4</text><text style="&st18;" transform="matrix(&st16;  3493.95  383.36 )">A1A-</text></g><g ewd:figtype="title"><text style="&st18;" transform="matrix(&st17;  3417.83  412.62 )" ewd:textID="25">Air Fuel <tspan x="0 " dy="6.0">Ratio Sensor </tspan><tspan x="0 " dy="6.0">(Bank 1 Sensor 1)</tspan></text><text style="&st18;" transform="matrix(&st17;  3411.01  412.62 )">C49</text></g></g><g ewd:figtype="conn" ewd:figID="71" ewd:code="C52,C53,C54,G45,G46"><g ewd:lineID="104"><text style="&st18;" transform="matrix(&st16;  3013.7  220.18 )">13</text><path style="stroke-width: 1.42 ;&st7;   " d=" M  3030.03,   218.22  C  3030.03    215.71   3028.00    213.68   3025.49    213.68  " /><path style="stroke-width: 1.42 ;&st7;   " d=" M  3025.49,   213.68  C  3022.99    213.68   3020.96    215.71   3020.96    218.22  " /><path style="stroke-width: 1.42 ;&st7;   " d=" M  3020.96,   218.22  C  3020.96    220.72   3022.99    222.75   3025.49    222.75  " /><path style="stroke-width: 1.42 ;&st7;   " d=" M  3025.49,   222.75  C  3028.00    222.75   3030.03    220.72   3030.03    218.22  " /><text style="&st18;" transform="matrix(&st16;  3023.19  220.18 )">A</text><text style="&st18;" transform="matrix(&st16;  3018.65  230.38 )">IGT4</text></g><g ewd:lineID="106"><text style="&st18;" transform="matrix(&st16;  3203.77  271.74 )">7</text><path style="stroke-width: 1.42 ;&st7;   " d=" M  3217.00,   269.77  C  3217.00    267.27   3214.97    265.24   3212.46    265.24  " /><path style="stroke-width: 1.42 ;&st7;   " d=" M  3212.46,   265.24  C  3209.96    265.24   3207.93    267.27   3207.93    269.77  " /><path style="stroke-width: 1.42 ;&st7;   " d=" M  3207.93,   269.77  C  3207.93    272.28   3209.96    274.31   3212.46    274.31  " /><path style="stroke-width: 1.42 ;&st7;   " d=" M  3212.46,   274.31  C  3214.97    274.31   3217.00    272.28   3217.00    269.77  " /><text style="&st18;" transform="matrix(&st16;  3210.28  271.74 )">B</text><text style="&st18;" transform="matrix(&st16;  3204.54  261.54 )">HT1B</text></g><g ewd:lineID="107"><text style="&st18;" transform="matrix(&st16;  3260.16  271.74 )">35</text><text style="&st18;" transform="matrix(&st16;  3269.77  271.74 )">B</text><path style="stroke-width: 1.42 ;&st7;   " d=" M  3276.49,   269.77  C  3276.49    267.27   3274.46    265.24   3271.95    265.24  " /><path style="stroke-width: 1.42 ;&st7;   " d=" M  3271.95,   265.24  C  3269.45    265.24   3267.42    267.27   3267.42    269.77  " /><path style="stroke-width: 1.42 ;&st7;   " d=" M  3267.42,   269.77  C  3267.42    272.28   3269.45    274.31   3271.95    274.31  " /><path style="stroke-width: 1.42 ;&st7;   " d=" M  3271.95,   274.31  C  3274.46    274.31   3276.49    272.28   3276.49    269.77  " /><text style="&st18;" transform="matrix(&st16;  3264.3  261.54 )">EX1B</text></g><g ewd:lineID="108"><text style="&st18;" transform="matrix(&st16;  3311.15  271.74 )">27</text><path style="stroke-width: 1.42 ;&st7;   " d=" M  3327.48,   269.77  C  3327.48    267.27   3325.45    265.24   3322.94    265.24  " /><path style="stroke-width: 1.42 ;&st7;   " d=" M  3322.94,   265.24  C  3320.44    265.24   3318.41    267.27   3318.41    269.77  " /><path style="stroke-width: 1.42 ;&st7;   " d=" M  3318.41,   269.77  C  3318.41    272.28   3320.44    274.31   3322.94    274.31  " /><path style="stroke-width: 1.42 ;&st7;   " d=" M  3322.94,   274.31  C  3325.45    274.31   3327.48    272.28   3327.48    269.77  " /><text style="&st18;" transform="matrix(&st16;  3320.76  271.74 )">B</text><text style="&st18;" transform="matrix(&st16;  3314.79  261.54 )">OX1B</text></g><g ewd:lineID="111"><text style="&st18;" transform="matrix(&st16;  3382.24  271.74 )">6</text><path style="stroke-width: 1.42 ;&st7;   " d=" M  3395.47,   269.77  C  3395.47    267.27   3393.44    265.24   3390.93    265.24  " /><path style="stroke-width: 1.42 ;&st7;   " d=" M  3390.93,   265.24  C  3388.43    265.24   3386.40    267.27   3386.40    269.77  " /><path style="stroke-width: 1.42 ;&st7;   " d=" M  3386.40,   269.77  C  3386.40    272.28   3388.43    274.31   3390.93    274.31  " /><path style="stroke-width: 1.42 ;&st7;   " d=" M  3390.93,   274.31  C  3393.44    274.31   3395.47    272.28   3395.47    269.77  " /><text style="&st18;" transform="matrix(&st16;  3388.75  271.74 )">B</text><text style="&st18;" transform="matrix(&st16;  3382.77  261.83 )">HA1A</text></g><g ewd:lineID="112"><text style="&st18;" transform="matrix(&st16;  3438.63  271.74 )">26</text><text style="&st18;" transform="matrix(&st16;  3448.24  271.74 )">B</text><path style="stroke-width: 1.42 ;&st7;   " d=" M  3454.96,   269.77  C  3454.96    267.27   3452.93    265.24   3450.42    265.24  " /><path style="stroke-width: 1.42 ;&st7;   " d=" M  3450.42,   265.24  C  3447.92    265.24   3445.89    267.27   3445.89    269.77  " /><path style="stroke-width: 1.42 ;&st7;   " d=" M  3445.89,   269.77  C  3445.89    272.28   3447.92    274.31   3450.42    274.31  " /><path style="stroke-width: 1.42 ;&st7;   " d=" M  3450.42,   274.31  C  3452.93    274.31   3454.96    272.28   3454.96    269.77  " /><text style="&st18;" transform="matrix(&st16;  3442.96  261.83 )">A1A+</text></g><g ewd:lineID="113"><text style="&st18;" transform="matrix(&st16;  3464.12  220.18 )">28</text><text style="&st18;" transform="matrix(&st16;  3473.54  220.18 )">D</text><path style="stroke-width: 1.42 ;&st7;   " d=" M  3480.45,   218.22  C  3480.45    215.71   3478.42    213.68   3475.92    213.68  " /><path style="stroke-width: 1.42 ;&st7;   " d=" M  3475.92,   213.68  C  3473.42    213.68   3471.39    215.71   3471.39    218.22  " /><path style="stroke-width: 1.42 ;&st7;   " d=" M  3471.39,   218.22  C  3471.39    220.72   3473.42    222.75   3475.92    222.75  " /><path style="stroke-width: 1.42 ;&st7;   " d=" M  3475.92,   222.75  C  3478.42    222.75   3480.45    220.72   3480.45    218.22  " /><text style="&st18;" transform="matrix(&st16;  3468.88  230.38 )">ELS2</text></g><g ewd:lineID="115"><text style="&st18;" transform="matrix(&st16;  3489.62  271.74 )">34</text><path style="stroke-width: 1.42 ;&st7;   " d=" M  3496.88,   269.77  C  3496.88    272.28   3498.91    274.31   3501.41    274.31  " /><text style="&st18;" transform="matrix(&st16;  3499.23  271.74 )">B</text><text style="&st18;" transform="matrix(&st16;  3493.95  261.54 )">A1A-</text></g><g ewd:lineID="303"><text style="&st18;" transform="matrix(&st16;  3005.2  271.74 )">17</text><text style="&st18;" transform="matrix(&st16;  3014.69  271.74 )">A</text><path style="stroke-width: 1.42 ;&st7;   " d=" M  3021.53,   269.77  C  3021.53    267.27   3019.50    265.24   3017.00    265.24  " /><path style="stroke-width: 1.42 ;&st7;   " d=" M  3017.00,   265.24  C  3014.49    265.24   3012.46    267.27   3012.46    269.77  " /><path style="stroke-width: 1.42 ;&st7;   " d=" M  3012.46,   269.77  C  3012.46    272.28   3014.49    274.31   3017.00    274.31  " /><path style="stroke-width: 1.42 ;&st7;   " d=" M  3017.00,   274.31  C  3019.50    274.31   3021.53    272.28   3021.53    269.77  " /><text style="&st18;" transform="matrix(&st16;  3009.57  261.54 )">GE01</text></g></g><g ewd:figtype="rb" ewd:figID="89" ewd:code="6"><path style="stroke-width: 1.42 ;&st7;  " d=" M  3274.08,    86.77  L  3269.83,    86.77  " /><path style="stroke-width: 1.42 ;&st7;  " d=" M  3274.08,    78.27  L  3269.83,    78.27  " /><path style="stroke-width: 1.42 ;&st7;  " d=" M  3274.08,   163.26  L  3269.83,   163.26  " /><path style="stroke-width: 1.42 ;&st7;  " d=" M  3274.08,   154.76  L  3269.83,   154.76  " /><path style="stroke-width: 1.42 ;&st7;   " d=" M  3297.45,   137.76  C  3295.24    135.94   3292.11    136.00   3289.96    137.90  " /><path style="stroke-width: 1.42 ;&st7;   " d=" M  3297.45,   137.76  C  3299.66    139.58   3302.79    139.53   3304.93    137.62  " /><path style="stroke-width: 1.42 ;&st7;   " d=" M  3246.46,   154.76  C  3248.67    156.58   3251.80    156.52   3253.94    154.62  " /><path style="stroke-width: 1.42 ;&st7;   " d=" M  3246.46,   154.76  C  3244.25    152.94   3241.11    153.00   3238.97    154.90  " /><path style="stroke-width: 1.42 ;&st7;   " d=" M  3246.46,    86.77  C  3248.67     88.59   3251.80     88.53   3253.94     86.63  " /><path style="stroke-width: 1.42 ;&st7;   " d=" M  3246.46,    86.77  C  3244.25     84.95   3241.11     85.01   3238.97     86.91  " /><path style="stroke-width: 1.42 ;&st7;   " d=" M  3269.83,   154.76  C  3267.48    154.76   3265.58    156.66   3265.58    159.01  " /><path style="stroke-width: 1.42 ;&st7;   " d=" M  3265.58,   159.01  C  3265.58    161.36   3267.48    163.26   3269.83    163.26  " /><path style="stroke-width: 1.42 ;&st7;   " d=" M  3274.08,   163.26  C  3276.42    163.26   3278.33    161.36   3278.33    159.01  " /><path style="stroke-width: 1.42 ;&st7;   " d=" M  3278.33,   159.01  C  3278.33    156.66   3276.42    154.76   3274.08    154.76  " /><path style="stroke-width: 1.42 ;&st7;   " d=" M  3269.83,    78.27  C  3267.48     78.27   3265.58     80.17   3265.58     82.52  " /><path style="stroke-width: 1.42 ;&st7;   " d=" M  3265.58,    82.52  C  3265.58     84.87   3267.48     86.77   3269.83     86.77  " /><path style="stroke-width: 1.42 ;&st7;   " d=" M  3274.08,    86.77  C  3276.42     86.77   3278.33     84.87   3278.33     82.52  " /><path style="stroke-width: 1.42 ;&st7;   " d=" M  3278.33,    82.52  C  3278.33     80.17   3276.42     78.27   3274.08     78.27  " /><path style="stroke-width: 0.85 ;&st7;  " d=" M  3246.46,   103.77  L  3246.46,    86.77  " /><path style="stroke-width: 0.85 ;&st7;  " d=" M  3246.46,   154.76  L  3246.46,   137.76  " /><path style="stroke-width: 0.85 ;&st7;  " d=" M  3280.45,   120.77  L  3297.45,   120.77  L  3297.45,   137.76  " /><path style="stroke-width: 0.85 ;&st7;  " d=" M  3271.95,   103.77  L  3271.95,    86.77  " /><path style="stroke-width: 0.85 ;&st7;  " d=" M  3271.95,   154.76  L  3271.95,   137.76  " /><path style="stroke-width: 0.28 ;&st9;  " d=" M  3271.95,   149.86  L  3269.12,   147.03  L  3269.12,   151.28  L  3271.95,   154.11  L  3274.78,   151.28  L  3274.78,   147.03  L  3271.95,   149.86  " /><path style="stroke-width: 0.28 ;&st9;  " d=" M  3271.95,    91.67  L  3274.78,    94.50  L  3274.78,    90.25  L  3271.95,    87.42  L  3269.12,    90.25  L  3269.12,    94.50  L  3271.95,    91.67  " /><text style="&st18;" transform="matrix(&st17;  3234.27  134.24 )" ewd:textID="46">DEF Relay</text><text style="&st18;" transform="matrix(&st16;  3270.15  160.98 )">6</text><text style="&st18;" transform="matrix(&st16;  3270.15  84.49 )">6</text><text style="&st18;" transform="matrix(&st16;  3283.04  117.07 )">4</text><text style="&st18;" transform="matrix(&st16;  3265.77  100.08 )">3</text><text style="&st18;" transform="matrix(&st16;  3240.27  100.08 )">2</text><text style="&st18;" transform="matrix(&st16;  3265.77  145.96 )">5</text><text style="&st18;" transform="matrix(&st16;  3240.27  145.96 )">1</text><path style="stroke-width: 1.42 ;&st7;  " d=" M  3271.95,   110.85  L  3277.62,   133.51  " /><path style="stroke-width: 0.85 ;&st7;  " d=" M  3271.95,   133.51  L  3271.95,   137.76  " /><path style="stroke-width: 0.85 ;&st7;  " d=" M  3280.45,   120.77  L  3277.62,   120.77  " /><path style="stroke-width: 0.85 ;&st7;  " d=" M  3271.95,   103.77  L  3271.95,   108.02  " /><path style="stroke-width: 0.85 ;&st7;  " d=" M  3246.46,   103.77  L  3246.46,   112.27  " /><path style="stroke-width: 0.85 ;&st7;  " d=" M  3246.46,   129.26  L  3246.46,   137.76  " /><path style="stroke-width: 0.85 ;&st7;   " d=" M  3246.46,   129.26  C  3248.41    129.26   3250.00    127.68   3250.00    125.72  " /><path style="stroke-width: 0.85 ;&st7;   " d=" M  3250.00,   125.72  C  3250.00    123.77   3248.41    122.18   3246.46    122.18  " /><path style="stroke-width: 0.85 ;&st7;   " d=" M  3246.46,   122.18  C  3245.47    122.18   3244.62    122.54   3243.93    123.24  " /><path style="stroke-width: 0.85 ;&st7;   " d=" M  3243.93,   123.24  C  3245.30    124.64   3247.54    124.66   3248.94    123.29  " /><path style="stroke-width: 0.85 ;&st7;   " d=" M  3248.94,   123.29  C  3250.33    121.93   3250.36    119.68   3248.99    118.29  " /><path style="stroke-width: 0.85 ;&st7;   " d=" M  3248.99,   118.29  C  3247.62    116.89   3245.38    116.87   3243.98    118.24  " /><path style="stroke-width: 0.85 ;&st7;   " d=" M  3243.98,   118.24  C  3243.96    118.25   3243.95    118.27   3243.93    118.29  " /><path style="stroke-width: 0.85 ;&st7;   " d=" M  3243.93,   118.29  C  3245.30    119.68   3247.54    119.71   3248.94    118.34  " /><path style="stroke-width: 0.85 ;&st7;   " d=" M  3248.94,   118.34  C  3250.33    116.97   3250.36    114.73   3248.99    113.33  " /><path style="stroke-width: 0.85 ;&st7;   " d=" M  3248.99,   113.33  C  3248.29    112.62   3247.45    112.27   3246.46    112.27  " /><path style="stroke-width: 0.85 ;&st7;   " d=" M  3273.37,   109.43  C  3273.37    108.65   3272.74    108.02   3271.95    108.02  " /><path style="stroke-width: 0.85 ;&st7;   " d=" M  3271.95,   108.02  C  3271.17    108.02   3270.54    108.65   3270.54    109.43  " /><path style="stroke-width: 0.85 ;&st7;   " d=" M  3270.54,   109.43  C  3270.54    110.22   3271.17    110.85   3271.95    110.85  " /><path style="stroke-width: 0.85 ;&st7;   " d=" M  3271.95,   110.85  C  3272.74    110.85   3273.37    110.22   3273.37    109.43  " /><path style="stroke-width: 0.85 ;&st7;   " d=" M  3273.37,   132.10  C  3273.37    131.31   3272.74    130.68   3271.95    130.68  " /><path style="stroke-width: 0.85 ;&st7;   " d=" M  3271.95,   130.68  C  3271.17    130.68   3270.54    131.31   3270.54    132.10  " /><path style="stroke-width: 0.85 ;&st7;   " d=" M  3270.54,   132.10  C  3270.54    132.88   3271.17    133.51   3271.95    133.51  " /><path style="stroke-width: 0.85 ;&st7;   " d=" M  3271.95,   133.51  C  3272.74    133.51   3273.37    132.88   3273.37    132.10  " /><path style="stroke-width: 0.85 ;&st7;   " d=" M  3277.62,   120.77  C  3277.62    119.98   3276.98    119.35   3276.20    119.35  " /><path style="stroke-width: 0.85 ;&st7;   " d=" M  3276.20,   119.35  C  3275.42    119.35   3274.79    119.98   3274.79    120.77  " /><path style="stroke-width: 0.85 ;&st7;   " d=" M  3274.79,   120.77  C  3274.79    121.55   3275.42    122.18   3276.20    122.18  " /><path style="stroke-width: 0.85 ;&st7;   " d=" M  3276.20,   122.18  C  3276.98    122.18   3277.62    121.55   3277.62    120.77  " /><path style="stroke-width: 1.42 ;&st7;  " d=" M  3280.45,   103.77  L  3237.96,   103.77  L  3237.96,   137.76  L  3280.45,   137.76  L  3280.45,   103.77  " /></g><g ewd:figtype="rb" ewd:figID="90" ewd:code="FUSE84"><path style="stroke-width: 1.42 ;&st7;  " d=" M  3350.57,   137.76  L  3346.32,   137.76  " /><path style="stroke-width: 1.42 ;&st7;  " d=" M  3350.57,   146.26  L  3346.32,   146.26  " /><path style="stroke-width: 0.85 ;&st7;  " d=" M  3348.44,   112.27  L  3348.44,   137.76  " /><path style="stroke-width: 1.42 ;&st7;  " d=" M  3350.57,    61.28  L  3346.32,    61.28  " /><path style="stroke-width: 1.42 ;&st7;  " d=" M  3350.57,    52.78  L  3346.32,    52.78  " /><path style="stroke-width: 1.42 ;&st7;   " d=" M  3350.57,   146.26  C  3352.91    146.26   3354.81    144.36   3354.81    142.01  " /><path style="stroke-width: 1.42 ;&st7;   " d=" M  3354.81,   142.01  C  3354.81    139.66   3352.91    137.76   3350.57    137.76  " /><path style="stroke-width: 1.42 ;&st7;   " d=" M  3346.32,   137.76  C  3343.97    137.76   3342.07    139.66   3342.07    142.01  " /><path style="stroke-width: 1.42 ;&st7;   " d=" M  3342.07,   142.01  C  3342.07    144.36   3343.97    146.26   3346.32    146.26  " /><path style="stroke-width: 1.42 ;&st7;   " d=" M  3346.32,    52.78  C  3343.97     52.78   3342.07     54.68   3342.07     57.03  " /><path style="stroke-width: 1.42 ;&st7;   " d=" M  3350.57,    61.28  C  3352.91     61.28   3354.81     59.37   3354.81     57.03  " /><path style="stroke-width: 1.42 ;&st7;   " d=" M  3354.81,    57.03  C  3354.81     54.68   3352.91     52.78   3350.57     52.78  " /><path style="stroke-width: 1.42 ;&st7;   " d=" M  3342.07,    57.03  C  3342.07     59.37   3343.97     61.28   3346.32     61.28  " /><path style="stroke-width: 0.85 ;&st7;  " d=" M  3348.44,    78.27  L  3348.44,    61.28  " /><path style="stroke-width: 0.28 ;&st9;  " d=" M  3348.44,   132.87  L  3345.61,   130.03  L  3345.61,   134.28  L  3348.44,   137.12  L  3351.27,   134.28  L  3351.27,   130.03  L  3348.44,   132.87  " /><path style="stroke-width: 0.28 ;&st9;  " d=" M  3348.44,    66.17  L  3351.27,    69.00  L  3351.27,    64.75  L  3348.44,    61.92  L  3345.61,    64.75  L  3345.61,    69.00  L  3348.44,    66.17  " /><text style="&st18;" transform="matrix(&st16;  3342.26  74.58 )">1</text><text style="&st18;" transform="matrix(&st16;  3346.64  58.99 )">6</text><text style="&st18;" transform="matrix(&st16;  3342.26  128.96 )">2</text><text style="&st18;" transform="matrix(&st16;  3346.64  143.98 )">6</text><text style="&st18;" transform="matrix(&st16;  3364.87  98.66 )">10A <tspan x="0 " dy="6.0">DEF-S</tspan></text><path style="stroke-width: 0.85 ;&st7;   " d=" M  3349.86,   110.85  C  3349.86    110.07   3349.22    109.43   3348.44    109.43  " /><path style="stroke-width: 0.85 ;&st7;   " d=" M  3348.44,   109.43  C  3347.66    109.43   3347.02    110.07   3347.02    110.85  " /><path style="stroke-width: 0.85 ;&st7;   " d=" M  3347.02,   110.85  C  3347.02    111.63   3347.66    112.27   3348.44    112.27  " /><path style="stroke-width: 0.85 ;&st7;   " d=" M  3348.44,   112.27  C  3349.22    112.27   3349.86    111.63   3349.86    110.85  " /><path style="stroke-width: 0.85 ;&st7;   " d=" M  3349.86,    88.19  C  3349.86     87.40   3349.22     86.77   3348.44     86.77  " /><path style="stroke-width: 0.85 ;&st7;   " d=" M  3348.44,    86.77  C  3347.66     86.77   3347.02     87.40   3347.02     88.19  " /><path style="stroke-width: 0.85 ;&st7;   " d=" M  3347.02,    88.19  C  3347.02     88.97   3347.66     89.60   3348.44     89.60  " /><path style="stroke-width: 0.85 ;&st7;   " d=" M  3348.44,    89.60  C  3349.22     89.60   3349.86     88.97   3349.86     88.19  " /><path style="stroke-width: 1.42 ;&st7;   " d=" M  3348.44,   109.43  C  3351.18    107.82   3352.09    104.29   3350.48    101.56  " /><path style="stroke-width: 1.42 ;&st7;   " d=" M  3350.48,   101.56  C  3349.96    100.67   3349.32    100.04   3348.44     99.52  " /><path style="stroke-width: 1.42 ;&st7;   " d=" M  3348.44,    89.60  C  3345.70     91.22   3344.79     94.74   3346.40     97.48  " /><path style="stroke-width: 1.42 ;&st7;   " d=" M  3346.40,    97.48  C  3346.92     98.36   3347.56     99.00   3348.44     99.52  " /><path style="stroke-width: 1.42 ;&st7;  " d=" M  3335.69,    78.27  L  3335.69,   120.77  L  3361.19,   120.77  L  3361.19,    78.27  L  3335.69,    78.27  " /><path style="stroke-width: 0.85 ;&st7;  " d=" M  3348.44,    86.77  L  3348.44,    78.27  " /></g><g ewd:figtype="rb" ewd:figID="91" ewd:code="FUSE89"><path style="stroke-width: 0.85 ;&st7;  " d=" M  3169.97,    69.77  L  3169.97,    95.27  " /><path style="stroke-width: 1.42 ;&st7;  " d=" M  3172.09,    95.27  L  3167.85,    95.27  " /><path style="stroke-width: 1.42 ;&st7;  " d=" M  3172.09,   103.77  L  3167.85,   103.77  " /><path style="stroke-width: 1.42 ;&st7;   " d=" M  3163.60,    99.52  C  3163.60    101.87   3165.50    103.77   3167.85    103.77  " /><path style="stroke-width: 1.42 ;&st7;   " d=" M  3167.85,    95.27  C  3165.50     95.27   3163.60     97.17   3163.60     99.52  " /><path style="stroke-width: 1.42 ;&st7;   " d=" M  3176.34,    99.52  C  3176.34     97.17   3174.44     95.27   3172.09     95.27  " /><path style="stroke-width: 1.42 ;&st7;   " d=" M  3172.09,   103.77  C  3174.44    103.77   3176.34    101.87   3176.34     99.52  " /><path style="stroke-width: 0.28 ;&st9;  " d=" M  3169.97,    90.37  L  3167.14,    87.54  L  3167.14,    91.79  L  3169.97,    94.62  L  3172.80,    91.79  L  3172.80,    87.54  L  3169.97,    90.37  " /><text style="&st18;" transform="matrix(&st16;  3186.39  56.17 )">25A <tspan x="0 " dy="6.0">DEF</tspan></text><text style="&st18;" transform="matrix(&st16;  3168.17  101.49 )">6</text><text style="&st18;" transform="matrix(&st16;  3163.79  86.47 )">2</text><text style="&st18;" transform="matrix(&st16;  3161.93  32.08 )">(BAT)</text><path style="stroke-width: 0.85 ;&st7;   " d=" M  3171.39,    68.36  C  3171.39     67.57   3170.75     66.94   3169.97     66.94  " /><path style="stroke-width: 0.85 ;&st7;   " d=" M  3169.97,    66.94  C  3169.19     66.94   3168.55     67.57   3168.55     68.36  " /><path style="stroke-width: 0.85 ;&st7;   " d=" M  3168.55,    68.36  C  3168.55     69.14   3169.19     69.77   3169.97     69.77  " /><path style="stroke-width: 0.85 ;&st7;   " d=" M  3169.97,    69.77  C  3170.75     69.77   3171.39     69.14   3171.39     68.36  " /><path style="stroke-width: 0.85 ;&st7;   " d=" M  3171.39,    45.69  C  3171.39     44.91   3170.75     44.28   3169.97     44.28  " /><path style="stroke-width: 0.85 ;&st7;   " d=" M  3169.97,    44.28  C  3169.19     44.28   3168.55     44.91   3168.55     45.69  " /><path style="stroke-width: 0.85 ;&st7;   " d=" M  3168.55,    45.69  C  3168.55     46.48   3169.19     47.11   3169.97     47.11  " /><path style="stroke-width: 0.85 ;&st7;   " d=" M  3169.97,    47.11  C  3170.75     47.11   3171.39     46.48   3171.39     45.69  " /><path style="stroke-width: 1.42 ;&st7;   " d=" M  3169.97,    66.94  C  3172.71     65.33   3173.62     61.80   3172.01     59.06  " /><path style="stroke-width: 1.42 ;&st7;   " d=" M  3172.01,    59.06  C  3171.49     58.18   3170.85     57.55   3169.97     57.03  " /><path style="stroke-width: 1.42 ;&st7;   " d=" M  3169.97,    47.11  C  3167.23     48.72   3166.32     52.25   3167.93     54.99  " /><path style="stroke-width: 1.42 ;&st7;   " d=" M  3167.93,    54.99  C  3168.45     55.87   3169.09     56.51   3169.97     57.03  " /><path style="stroke-width: 1.42 ;&st7;  " d=" M  3157.22,    35.78  L  3157.22,    78.27  L  3182.72,    78.27  L  3182.72,    35.78  L  3157.22,    35.78  " /></g><g ewd:figtype="w2w" ewd:figID="140" ewd:code="GN1"><path style="stroke-width: 1.42 ;&st7;  " d=" M  3480.17,   149.09  L  3475.92,   153.34  L  3471.67,   149.09  " /><path style="stroke-width: 1.42 ;&st7;  " d=" M  3471.67,   145.69  L  3475.92,   149.94  L  3480.17,   145.69  " /><text style="&st18;" transform="matrix(&st16;  3463.29  160.98 )">3</text></g><g ewd:code=" " ewd:figID="229" ewd:comment=" " ewd:figtype="sh"><path style="stroke-width: 0.85 ;&st7; stroke-dasharray:3, 1.5;" d=" M  3356.94,   333.23  L  3356.94,   299.24  L  3254.95,   299.24  L  3254.95,   333.23  L  3356.94,   333.23  " /><path style="stroke-width: 0.85 ;&st7;  " d=" M  3355.75,   332.23  L  3355.47,   332.70  L  3355.38,   333.23  L  3355.47,   333.76  L  3355.75,   334.23  L  3356.16,   334.58  L  3356.67,   334.77  L  3357.21,   334.77  L  3357.72,   334.58  L  3358.13,   334.23  L  3358.40,   333.76  L  3358.50,   333.23  L  3358.40,   332.70  L  3358.13,   332.23  L  3357.72,   331.88  L  3357.21,   331.69  L  3356.67,   331.69  L  3356.16,   331.88  L  3355.75,   332.23  L  3356.14,   332.94  L  3356.14,   333.52  L  3356.51,   333.97  L  3357.08,   334.07  L  3357.59,   333.78  L  3357.79,   333.23  L  3357.59,   332.68  L  3357.08,   332.39  L  3356.51,   332.49  L  3356.94,   333.23  " /><g ewd:code="" ewd:figID="247" ewd:comment=" " ewd:figtype="commref"><text style="&st18;" transform="matrix(&st17;  3251.26  328.47 )" ewd:textID="2">(Shielded)</text></g></g><g ewd:code=" " ewd:figID="227" ewd:comment=" " ewd:figtype="sh"><path style="stroke-width: 0.85 ;&st7; stroke-dasharray:3, 1.5;" d=" M  3535.41,   333.23  L  3535.41,   299.24  L  3433.42,   299.24  L  3433.42,   333.23  L  3535.41,   333.23  " /><path style="stroke-width: 0.85 ;&st7;  " d=" M  3534.22,   332.23  L  3533.94,   332.70  L  3533.85,   333.23  L  3533.94,   333.76  L  3534.22,   334.23  L  3534.63,   334.58  L  3535.14,   334.77  L  3535.68,   334.77  L  3536.19,   334.58  L  3536.60,   334.23  L  3536.87,   333.76  L  3536.97,   333.23  L  3536.87,   332.70  L  3536.60,   332.23  L  3536.19,   331.88  L  3535.68,   331.69  L  3535.14,   331.69  L  3534.63,   331.88  L  3534.22,   332.23  L  3534.61,   332.94  L  3534.61,   333.52  L  3534.98,   333.97  L  3535.56,   334.07  L  3536.06,   333.78  L  3536.26,   333.23  L  3536.06,   332.68  L  3535.56,   332.39  L  3534.98,   332.49  L  3535.41,   333.23  " /><g ewd:code="" ewd:figID="251" ewd:comment=" " ewd:figtype="commref"><text style="&st18;" transform="matrix(&st17;  3429.73  328.47 )" ewd:textID="2">(Shielded)</text></g></g><g ewd:code="3" ewd:figID="280" ewd:comment="" ewd:figtype="comment"><text style="&st18;" transform="matrix(&st16;  3379.03  29.25 )" ewd:textID="6">* 3 :w/ Rear Window Defogger</text></g></svg>