﻿<?xml version="1.0" encoding="utf-8"?>
<!DOCTYPE svg PUBLIC "-//W3C//DTD SVG 1.0//EN" "http://www.w3.org/TR/2001/REC-SVG-20010904/DTD/svg10.dtd"[
	<!ENTITY ns_flows "http://ns.adobe.com/Flows/1.0/">
	<!ENTITY ns_svg "http://www.w3.org/2000/svg">
	<!ENTITY ns_xlink "http://www.w3.org/1999/xlink">
	<!ENTITY st0 "font-size:7px;font-family:'MS-PGothic';adobe-font-script:japanese;">
	<!ENTITY st1 "font-size:6px;font-family:'ArialMT';">
	<!-- White fill  -->
	<!ENTITY st2 "fill:#FFFFFF;stroke:#000000; stroke-width:1.41;stroke-linecap:round;stroke-linejoin:round;">
	<!-- Yellow fill  -->
	<!ENTITY st3 "fill:#FFFFCC;stroke:#FFFFCC; stroke-width:0.1;stroke-linecap:round;stroke-linejoin:round;">
	<!-- Gray fill  -->
	<!ENTITY st4 "fill:#CCCCCC;stroke:#CCCCCC; stroke-width:0.1;stroke-linecap:round;stroke-linejoin:round;">
	<!-- Light-blue fill -->
	<!ENTITY st5 "fill:#CCECF4;stroke:#000000; stroke-width:1.133;stroke-linecap:round;stroke-linejoin:round;">
	<!ENTITY st6 "fill:none;stroke-linecap:butt; stroke-linejoin:round;">
	<!ENTITY st7 "fill:none;stroke:#000000;stroke-linecap:round;stroke-linejoin:round;">
	<!ENTITY st8 "enable-background:new    ;">
	<!-- Black fill -->
	<!ENTITY st9 "fill:#000000;stroke:#000000; stroke-linecap:round;stroke-linejoin:round;">
	<!-- SRS note   -->
	<!ENTITY st10 "font-size:9px;font-family:'ArialMT';">
	<!ENTITY st11 "font-size:9px;font-family:'Svg Symbol';">
	<!ENTITY st12 "font-size:6px;font-family:'Svg Symbol';">
	<!ENTITY st13 "fill:none;stroke:#ff0000;stroke-linecap:round;stroke-linejoin:round;">
	<!-- Yellow fill  -->
	<!ENTITY st14 "fill:#FFFF00;stroke:#FFFF00; stroke-width:0.1;stroke-linecap:round;stroke-linejoin:round;">
	<!ENTITY st15 "font-size:6px;font-family:'MS-PGothic';adobe-font-script:japanese;">
	<!ENTITY st16 "1.00 0.00 0.00 1.00">
	<!ENTITY st17 "0.00 -1.00 1.00 0.00">
	<!ENTITY st18 "font-size:6px;font-family:'Arial';">
	<!ENTITY st19 "font-size:9px;font-family:'Arial';">
	<!ENTITY st20 "font-size:6px;font-family:'MS-PGothic','MS PGothic';adobe-font-script:japanese;">
	<!ENTITY st21 "font-size:7px;font-family:'MS-PGothic','MS PGothic';adobe-font-script:japanese;">
	<!ATTLIST svg
		xmlns:ewd CDATA #FIXED "http://shcl.co.jp/ewd"
		xmlns:a CDATA #FIXED "http://ns.adobe.com/AdobeSVGViewerExtensions/3.0/"
		ewd:ver CDATA #IMPLIED
	>
	<!ATTLIST a
		ewd:lineID CDATA #IMPLIED
		ewd:groupID CDATA #IMPLIED
		ewd:figtype CDATA #IMPLIED
		ewd:code CDATA #IMPLIED
		ewd:figID CDATA #IMPLIED
		ewd:pinNo CDATA #IMPLIED
		ewd:comment CDATA #IMPLIED >
	<!ATTLIST g
		ewd:lineID CDATA #IMPLIED
		ewd:groupID CDATA #IMPLIED
		ewd:figtype CDATA #IMPLIED
		ewd:code CDATA #IMPLIED
		ewd:figID CDATA #IMPLIED
		ewd:pinNo CDATA #IMPLIED
		ewd:comment CDATA #IMPLIED >
	<!ATTLIST text
		ewd:textID CDATA #IMPLIED >
	<!ATTLIST title
		ewd:textID CDATA #IMPLIED >
]>
<!-- Generator: Shintec Hozumi YS   -->
<svg onload="call_execInitLoadProc_svg('system')" style="overflow:visible;  enable-background:new 0 0 11927.822 710.000" viewBox="0 0 11927.822 710.000" height="710.000" width="11927.822" xml:space="preserve" ewd:ver="2.1.2.9" xmlns="&ns_svg;" xmlns:a="http://ns.adobe.com/AdobeSVGViewerExtensions/3.0/" xmlns:ewd="http://shcl.co.jp/ewd" xmlns:xlink="&ns_xlink;">
<path style="stroke-width: 1.42 ;&st7;  " d=" M  7410.76,   265.24  L  7402.26,   265.24  " /><text style="&st18;" transform="matrix(&st16;  7466.84  25.26 )">G27(A),G28(B)</text><text style="&st18;" transform="matrix(&st16;  7466.85  32.08 )" ewd:textID="31">Body ECU</text><text style="&st18;" transform="matrix(&st16;  7280.32  618.48 )">W</text><text style="&st18;" transform="matrix(&st16;  7229.33  618.48 )">W</text><text style="&st18;" transform="matrix(&st16;  7228.55  635.48 )">SB</text><text style="&st18;" transform="matrix(&st16;  7279.54  635.48 )">SB</text><text style="&st18;" transform="matrix(&st16;  7281.09  601.49 )">Y</text><text style="&st18;" transform="matrix(&st16;  7230.1  601.49 )">Y</text><text style="&st18;" transform="matrix(&st16;  7281.21  567.49 )">L</text><text style="&st18;" transform="matrix(&st16;  7230.22  567.49 )">L</text><text style="&st18;" transform="matrix(&st16;  7280.98  584.49 )">V</text><text style="&st18;" transform="matrix(&st16;  7229.99  584.49 )">V</text><path style="stroke-width: 1.42 ;&st7;  " d=" M  7104.81,   239.75  L  7096.31,   239.75  " /><path style="stroke-width: 1.42 ;&st7;  " d=" M  7087.82,   477.71  L  7096.31,   477.71  " /><text style="&st18;" transform="matrix(&st17;  7092.62  216.21 )">G</text><text style="&st18;" transform="matrix(&st17;  7092.62  267.71 )">W</text><text style="&st18;" transform="matrix(&st17;  7092.62  453.9 )">B</text><text style="&st18;" transform="matrix(&st17;  7118.11  454.17 )">G</text><text style="&st18;" transform="matrix(&st17;  7186.1  216.21 )">G</text><text style="&st18;" transform="matrix(&st17;  7092.62  335.69 )">W</text><text style="&st18;" transform="matrix(&st17;  7118.11  335.69 )">W</text><text style="&st18;" transform="matrix(&st17;  7092.62  500.64 )">B</text><text style="&st18;" transform="matrix(&st17;  7103.95  220.51 )">(*24)</text><text style="&st18;" transform="matrix(&st17;  7103.95  271.51 )">(*24)</text><text style="&st18;" transform="matrix(&st17;  7103.95  339.49 )">(*24)</text><text style="&st18;" transform="matrix(&st17;  7129.45  339.49 )">(*24)</text><text style="&st18;" transform="matrix(&st17;  7129.45  458.47 )">(*24)</text><text style="&st18;" transform="matrix(&st17;  7103.95  458.47 )">(*24)</text><text style="&st18;" transform="matrix(&st17;  7103.95  505.22 )">(*24)</text><text style="&st18;" transform="matrix(&st17;  7197.44  220.51 )">(*24)</text><text style="&st18;" transform="matrix(&st17;  7432.56  398.67 )">W-B</text><text style="&st18;" transform="matrix(&st17;  7466.56  398.67 )">W-B</text><text style="&st18;" transform="matrix(&st17;  7313.58  207.71 )">G</text><text style="&st18;" transform="matrix(&st17;  7313.58  292.7 )">G</text><text style="&st18;" transform="matrix(&st17;  7313.58  394.68 )">G</text><text style="&st18;" transform="matrix(&st17;  7398.57  167.08 )">GR</text><text style="&st18;" transform="matrix(&st17;  7398.57  294.56 )">GR</text><text style="&st18;" transform="matrix(&st17;  7477.89  398.98 )">(*22)</text><text style="&st18;" transform="matrix(&st17;  7443.89  398.98 )">(*22)</text><text style="&st18;" transform="matrix(&st17;  7409.9  297.0 )">(*22)</text><text style="&st18;" transform="matrix(&st17;  7409.9  169.52 )">(*22)</text><text style="&st18;" transform="matrix(&st17;  7324.91  398.98 )">(*22)</text><text style="&st18;" transform="matrix(&st17;  7324.91  297.0 )">(*22)</text><text style="&st18;" transform="matrix(&st17;  7324.91  212.02 )">(*22)</text><g ewd:figtype="conn" ewd:figID="56" ewd:code="A42"><path style="stroke-width: 1.42 ;&st7;   " d=" M  7088.31,   531.56  C  7089.89    535.98   7094.75    538.28   7099.17    536.70  " /><path style="stroke-width: 1.42 ;&st7;   " d=" M  7099.17,   536.70  C  7103.59    535.12   7105.90    530.26   7104.32    525.84  " /><path style="stroke-width: 1.42 ;&st7;   " d=" M  7104.32,   525.84  C  7102.74    521.42   7097.88    519.12   7093.46    520.69  " /><path style="stroke-width: 1.42 ;&st7;   " d=" M  7093.46,   520.69  C  7092.05    521.19   7090.97    521.92   7089.98    523.03  " /><path style="stroke-width: 1.42 ;&st7;   " d=" M  7089.98,   523.03  C  7087.84    525.42   7087.23    528.54   7088.31    531.56  " /><path style="stroke-width: 1.42 ;&st7;  " d=" M  7089.98,   523.03  L  7079.31,   523.03  L  7079.31,   537.20  L  7088.31,   531.56  " /><text style="&st18;" transform="matrix(&st16;  7090.13  516.51 )">1</text><g ewd:figtype="title"><text style="&st18;" transform="matrix(&st17;  7112.42  540.09 )">A42</text><text style="&st18;" transform="matrix(&st17;  7119.53  540.1 )" ewd:textID="108">Security Horn <tspan x="0 " dy="6.0">Assembly</tspan></text></g></g><g ewd:figtype="rb" ewd:figID="57" ewd:code="FUSE12"><path style="stroke-width: 1.42 ;&st7;  " d=" M  7098.44,   180.26  L  7094.19,   180.26  " /><path style="stroke-width: 1.42 ;&st7;  " d=" M  7098.44,   188.75  L  7094.19,   188.75  " /><path style="stroke-width: 0.85 ;&st7;  " d=" M  7096.31,   163.26  L  7096.31,   180.26  " /><path style="stroke-width: 1.42 ;&st7;   " d=" M  7094.19,   180.26  C  7091.84    180.26   7089.94    182.16   7089.94    184.50  " /><path style="stroke-width: 1.42 ;&st7;   " d=" M  7089.94,   184.50  C  7089.94    186.85   7091.84    188.75   7094.19    188.75  " /><path style="stroke-width: 1.42 ;&st7;   " d=" M  7098.44,   188.75  C  7100.79    188.75   7102.69    186.85   7102.69    184.50  " /><path style="stroke-width: 1.42 ;&st7;   " d=" M  7102.69,   184.50  C  7102.69    182.16   7100.79    180.26   7098.44    180.26  " /><path style="stroke-width: 0.28 ;&st9;  " d=" M  7096.31,   175.36  L  7093.48,   172.53  L  7093.48,   176.78  L  7096.31,   179.61  L  7099.14,   176.78  L  7099.14,   172.53  L  7096.31,   175.36  " /><text style="&st18;" transform="matrix(&st16;  7112.74  138.33 )">10A <tspan x="0 " dy="6.0">ECU-B </tspan><tspan x="0 " dy="6.0">NO.3</tspan></text><text style="&st18;" transform="matrix(&st16;  7094.51  186.47 )">1</text><text style="&st18;" transform="matrix(&st16;  7090.13  171.45 )">2</text><text style="&st18;" transform="matrix(&st16;  7088.27  117.07 )">(BAT)</text><path style="stroke-width: 0.85 ;&st7;  " d=" M  7096.31,   154.76  L  7096.31,   163.26  " /><path style="stroke-width: 1.42 ;&st7;   " d=" M  7096.31,   132.10  C  7093.58    133.71   7092.66    137.24   7094.28    139.97  " /><path style="stroke-width: 1.42 ;&st7;   " d=" M  7094.28,   139.97  C  7094.80    140.86   7095.43    141.49   7096.31    142.01  " /><path style="stroke-width: 1.42 ;&st7;   " d=" M  7096.31,   151.93  C  7099.05    150.31   7099.96    146.79   7098.35    144.05  " /><path style="stroke-width: 1.42 ;&st7;   " d=" M  7098.35,   144.05  C  7097.83    143.17   7097.20    142.53   7096.31    142.01  " /><path style="stroke-width: 0.85 ;&st7;   " d=" M  7097.73,   130.68  C  7097.73    129.90   7097.10    129.26   7096.31    129.26  " /><path style="stroke-width: 0.85 ;&st7;   " d=" M  7096.31,   129.26  C  7095.53    129.26   7094.90    129.90   7094.90    130.68  " /><path style="stroke-width: 0.85 ;&st7;   " d=" M  7094.90,   130.68  C  7094.90    131.46   7095.53    132.10   7096.31    132.10  " /><path style="stroke-width: 0.85 ;&st7;   " d=" M  7096.31,   132.10  C  7097.10    132.10   7097.73    131.46   7097.73    130.68  " /><path style="stroke-width: 0.85 ;&st7;   " d=" M  7097.73,   153.34  C  7097.73    152.56   7097.10    151.93   7096.31    151.93  " /><path style="stroke-width: 0.85 ;&st7;   " d=" M  7096.31,   151.93  C  7095.53    151.93   7094.90    152.56   7094.90    153.34  " /><path style="stroke-width: 0.85 ;&st7;   " d=" M  7094.90,   153.34  C  7094.90    154.13   7095.53    154.76   7096.31    154.76  " /><path style="stroke-width: 0.85 ;&st7;   " d=" M  7096.31,   154.76  C  7097.10    154.76   7097.73    154.13   7097.73    153.34  " /><path style="stroke-width: 1.42 ;&st7;  " d=" M  7083.56,   120.77  L  7083.56,   163.26  L  7109.06,   163.26  L  7109.06,   120.77  L  7083.56,   120.77  " /></g><g ewd:figtype="conn" ewd:figID="58" ewd:code="G53"><path style="stroke-width: 1.42 ;&st7;  " d=" M  7087.81,   290.74  L  7130.31,   290.74  L  7130.31,   307.73  L  7087.81,   307.73  L  7087.81,   290.74  " /><path style="stroke-width: 0.85 ;&st7;  " d=" M  7096.31,   290.74  L  7096.31,   307.73  " /><path style="stroke-width: 0.85 ;&st7;  " d=" M  7121.81,   307.73  L  7121.81,   299.24  L  7096.31,   299.24  " /><path style="stroke-width: 0.85 ;&st7;  " d=" M  7095.12,   298.23  L  7094.85,   298.70  L  7094.75,   299.24  L  7094.85,   299.77  L  7095.12,   300.24  L  7095.53,   300.58  L  7096.04,   300.77  L  7096.58,   300.77  L  7097.09,   300.58  L  7097.50,   300.24  L  7097.78,   299.77  L  7097.87,   299.24  L  7097.78,   298.70  L  7097.50,   298.23  L  7097.09,   297.89  L  7096.58,   297.70  L  7096.04,   297.70  L  7095.53,   297.89  L  7095.12,   298.23  L  7095.51,   298.94  L  7095.51,   299.53  L  7095.89,   299.97  L  7096.46,   300.07  L  7096.96,   299.78  L  7097.16,   299.24  L  7096.96,   298.69  L  7096.46,   298.40  L  7095.89,   298.50  L  7096.31,   299.24  " /><text style="&st18;" transform="matrix(&st16;  7087.03  315.93 )">21</text><text style="&st18;" transform="matrix(&st16;  7087.03  287.05 )">20</text><text style="&st18;" transform="matrix(&st16;  7112.52  315.93 )">22</text><g ewd:figtype="title"><text style="&st18;" transform="matrix(&st17;  7145.03  310.64 )" ewd:textID="78">No. 13 Junction Connector</text><text style="&st18;" transform="matrix(&st17;  7138.2  310.63 )">G53</text></g></g><g ewd:figtype="rb" ewd:figID="59" ewd:code="3"><path style="stroke-width: 1.42 ;&st7;  " d=" M  7098.44,   350.23  L  7094.19,   350.23  " /><path style="stroke-width: 1.42 ;&st7;  " d=" M  7098.44,   358.73  L  7094.19,   358.73  " /><path style="stroke-width: 1.42 ;&st7;  " d=" M  7123.93,   350.23  L  7119.69,   350.23  " /><path style="stroke-width: 1.42 ;&st7;  " d=" M  7123.93,   358.73  L  7119.69,   358.73  " /><path style="stroke-width: 1.42 ;&st7;  " d=" M  7098.44,   426.71  L  7094.19,   426.71  " /><path style="stroke-width: 1.42 ;&st7;  " d=" M  7098.44,   435.21  L  7094.19,   435.21  " /><path style="stroke-width: 1.42 ;&st7;  " d=" M  7123.93,   426.71  L  7119.69,   426.71  " /><path style="stroke-width: 1.42 ;&st7;  " d=" M  7123.93,   435.21  L  7119.69,   435.21  " /><path style="stroke-width: 1.42 ;&st7;   " d=" M  7094.19,   350.23  C  7091.84    350.23   7089.94    352.13   7089.94    354.48  " /><path style="stroke-width: 1.42 ;&st7;   " d=" M  7089.94,   354.48  C  7089.94    356.82   7091.84    358.73   7094.19    358.73  " /><path style="stroke-width: 1.42 ;&st7;   " d=" M  7098.44,   358.73  C  7100.79    358.73   7102.69    356.82   7102.69    354.48  " /><path style="stroke-width: 1.42 ;&st7;   " d=" M  7102.69,   354.48  C  7102.69    352.13   7100.79    350.23   7098.44    350.23  " /><path style="stroke-width: 1.42 ;&st7;   " d=" M  7119.69,   350.23  C  7117.34    350.23   7115.44    352.13   7115.44    354.48  " /><path style="stroke-width: 1.42 ;&st7;   " d=" M  7115.44,   354.48  C  7115.44    356.82   7117.34    358.73   7119.69    358.73  " /><path style="stroke-width: 1.42 ;&st7;   " d=" M  7123.93,   358.73  C  7126.28    358.73   7128.18    356.82   7128.18    354.48  " /><path style="stroke-width: 1.42 ;&st7;   " d=" M  7128.18,   354.48  C  7128.18    352.13   7126.28    350.23   7123.93    350.23  " /><path style="stroke-width: 1.42 ;&st7;   " d=" M  7094.19,   426.71  C  7091.84    426.71   7089.94    428.62   7089.94    430.96  " /><path style="stroke-width: 1.42 ;&st7;   " d=" M  7089.94,   430.96  C  7089.94    433.31   7091.84    435.21   7094.19    435.21  " /><path style="stroke-width: 1.42 ;&st7;   " d=" M  7098.44,   435.21  C  7100.79    435.21   7102.69    433.31   7102.69    430.96  " /><path style="stroke-width: 1.42 ;&st7;   " d=" M  7102.69,   430.96  C  7102.69    428.62   7100.79    426.71   7098.44    426.71  " /><path style="stroke-width: 1.42 ;&st7;   " d=" M  7119.69,   426.71  C  7117.34    426.71   7115.44    428.62   7115.44    430.96  " /><path style="stroke-width: 1.42 ;&st7;   " d=" M  7115.44,   430.96  C  7115.44    433.31   7117.34    435.21   7119.69    435.21  " /><path style="stroke-width: 1.42 ;&st7;   " d=" M  7123.93,   435.21  C  7126.28    435.21   7128.18    433.31   7128.18    430.96  " /><path style="stroke-width: 1.42 ;&st7;   " d=" M  7128.18,   430.96  C  7128.18    428.62   7126.28    426.71   7123.93    426.71  " /><path style="stroke-width: 0.28 ;&st9;  " d=" M  7096.31,   363.62  L  7099.14,   366.45  L  7099.14,   362.20  L  7096.31,   359.37  L  7093.48,   362.20  L  7093.48,   366.45  L  7096.31,   363.62  " /><path style="stroke-width: 0.28 ;&st9;  " d=" M  7121.81,   363.62  L  7124.64,   366.45  L  7124.64,   362.20  L  7121.81,   359.37  L  7118.97,   362.20  L  7118.97,   366.45  L  7121.81,   363.62  " /><path style="stroke-width: 0.28 ;&st9;  " d=" M  7096.31,   421.82  L  7093.48,   418.99  L  7093.48,   423.24  L  7096.31,   426.07  L  7099.14,   423.24  L  7099.14,   418.99  L  7096.31,   421.82  " /><path style="stroke-width: 0.28 ;&st9;  " d=" M  7121.81,   421.82  L  7118.97,   418.99  L  7118.97,   423.24  L  7121.81,   426.07  L  7124.64,   423.24  L  7124.64,   418.99  L  7121.81,   421.82  " /><path style="stroke-width: 0.85 ;&st7;  " d=" M  7096.31,   375.72  L  7096.31,   358.73  " /><path style="stroke-width: 0.85 ;&st7;  " d=" M  7121.81,   375.72  L  7121.81,   358.73  " /><path style="stroke-width: 0.85 ;&st7;  " d=" M  7096.31,   426.71  L  7096.31,   409.72  " /><path style="stroke-width: 0.85 ;&st7;  " d=" M  7121.81,   426.71  L  7121.81,   409.72  " /><text style="&st18;" transform="matrix(&st16;  7094.51  356.45 )">3</text><text style="&st18;" transform="matrix(&st16;  7120.01  356.45 )">3</text><text style="&st18;" transform="matrix(&st16;  7094.51  432.93 )">3</text><text style="&st18;" transform="matrix(&st16;  7120.01  432.93 )">3</text><text style="&st18;" transform="matrix(&st16;  7090.13  417.91 )">3</text><text style="&st18;" transform="matrix(&st16;  7115.63  417.91 )">2</text><text style="&st18;" transform="matrix(&st16;  7090.13  372.03 )">5</text><text style="&st18;" transform="matrix(&st16;  7115.63  372.03 )">1</text><text style="&st18;" transform="matrix(&st16;  7132.57  391.86 )" ewd:textID="105">S-HORN <tspan x="0 " dy="6.0">Relay</tspan></text><path style="stroke-width: 1.42 ;&st7;  " d=" M  7096.31,   402.63  L  7090.65,   379.97  " /><path style="stroke-width: 0.85 ;&st7;  " d=" M  7096.31,   409.72  L  7096.31,   405.47  " /><path style="stroke-width: 0.85 ;&st7;  " d=" M  7096.31,   379.97  L  7096.31,   375.72  " /><path style="stroke-width: 0.85 ;&st7;  " d=" M  7121.81,   375.72  L  7121.81,   384.22  " /><path style="stroke-width: 0.85 ;&st7;  " d=" M  7121.81,   401.22  L  7121.81,   409.72  " /><path style="stroke-width: 0.85 ;&st7;   " d=" M  7097.73,   404.05  C  7097.73    403.27   7097.10    402.63   7096.31    402.63  " /><path style="stroke-width: 0.85 ;&st7;   " d=" M  7096.31,   402.63  C  7095.53    402.63   7094.90    403.27   7094.90    404.05  " /><path style="stroke-width: 0.85 ;&st7;   " d=" M  7094.90,   404.05  C  7094.90    404.83   7095.53    405.47   7096.31    405.47  " /><path style="stroke-width: 0.85 ;&st7;   " d=" M  7096.31,   405.47  C  7097.10    405.47   7097.73    404.83   7097.73    404.05  " /><path style="stroke-width: 0.85 ;&st7;   " d=" M  7097.73,   381.39  C  7097.73    380.61   7097.10    379.97   7096.31    379.97  " /><path style="stroke-width: 0.85 ;&st7;   " d=" M  7096.31,   379.97  C  7095.53    379.97   7094.90    380.61   7094.90    381.39  " /><path style="stroke-width: 0.85 ;&st7;   " d=" M  7094.90,   381.39  C  7094.90    382.17   7095.53    382.80   7096.31    382.80  " /><path style="stroke-width: 0.85 ;&st7;   " d=" M  7096.31,   382.80  C  7097.10    382.80   7097.73    382.17   7097.73    381.39  " /><path style="stroke-width: 0.85 ;&st7;   " d=" M  7119.28,   390.24  C  7120.65    391.64   7122.89    391.66   7124.29    390.29  " /><path style="stroke-width: 0.85 ;&st7;   " d=" M  7124.29,   390.29  C  7125.69    388.92   7125.71    386.68   7124.34    385.28  " /><path style="stroke-width: 0.85 ;&st7;   " d=" M  7124.34,   385.28  C  7123.65    384.58   7122.80    384.22   7121.81    384.22  " /><path style="stroke-width: 0.85 ;&st7;   " d=" M  7119.28,   395.20  C  7120.65    396.60   7122.89    396.62   7124.29    395.25  " /><path style="stroke-width: 0.85 ;&st7;   " d=" M  7124.29,   395.25  C  7125.69    393.88   7125.71    391.64   7124.34    390.24  " /><path style="stroke-width: 0.85 ;&st7;   " d=" M  7124.34,   390.24  C  7122.97    388.84   7120.73    388.82   7119.33    390.19  " /><path style="stroke-width: 0.85 ;&st7;   " d=" M  7119.33,   390.19  C  7119.31    390.21   7119.30    390.22   7119.28    390.24  " /><path style="stroke-width: 0.85 ;&st7;   " d=" M  7121.81,   401.22  C  7123.77    401.22   7125.35    399.63   7125.35    397.68  " /><path style="stroke-width: 0.85 ;&st7;   " d=" M  7125.35,   397.68  C  7125.35    395.72   7123.77    394.14   7121.81    394.14  " /><path style="stroke-width: 0.85 ;&st7;   " d=" M  7121.81,   394.14  C  7120.82    394.14   7119.97    394.49   7119.28    395.20  " /><path style="stroke-width: 1.42 ;&st7;  " d=" M  7130.31,   375.72  L  7087.81,   375.72  L  7087.81,   409.72  L  7130.31,   409.72  L  7130.31,   375.72  " /></g><g ewd:figtype="conn" ewd:figID="73" ewd:code="N25"><path style="stroke-width: 1.42 ;&st7;  " d=" M  7385.26,   324.73  L  7385.26,   367.22  L  7623.22,   367.22  L  7623.22,   324.73  L  7385.26,   324.73  " /><g ewd:lineID="182"><text style="&st18;" transform="matrix(&st16;  7396.08  375.42 )">8</text><text style="&st18;" transform="matrix(&st16;  7398.91  363.53 )">IG</text></g><g ewd:lineID="183"><text style="&st18;" transform="matrix(&st16;  7396.08  321.04 )">9</text><text style="&st18;" transform="matrix(&st16;  7393.64  332.37 )">ACTG</text></g><g ewd:lineID="185"><text style="&st18;" transform="matrix(&st16;  7430.07  375.42 )">2</text><text style="&st18;" transform="matrix(&st16;  7428.06  363.53 )">GND1</text></g><g ewd:lineID="186"><text style="&st18;" transform="matrix(&st16;  7460.97  375.42 )">10</text><text style="&st18;" transform="matrix(&st16;  7462.05  363.53 )">GND2</text></g><g ewd:figtype="title"><text style="&st18;" transform="matrix(&st16;  7483.84  314.21 )">N25</text><text style="&st18;" transform="matrix(&st16;  7483.84  321.03 )" ewd:textID="43">Door Control Battery</text></g></g><g ewd:figtype="conn" ewd:figID="74" ewd:code="N28"><path style="stroke-width: 0.85 ;&st7;  " d=" M  7317.27,   248.24  L  7317.27,   265.24  " /><path style="stroke-width: 1.42 ;&st7;  " d=" M  7308.78,   248.24  L  7325.77,   248.24  L  7325.77,   265.24  L  7308.78,   265.24  L  7308.78,   248.24  " /><text style="&st18;" transform="matrix(&st16;  7307.99  273.43 )">22</text><text style="&st18;" transform="matrix(&st16;  7307.99  244.55 )">19</text><g ewd:figtype="title"><text style="&st18;" transform="matrix(&st17;  7333.67  268.14 )">N28</text><text style="&st18;" transform="matrix(&st17;  7340.49  268.15 )" ewd:textID="92">No. 47 <tspan x="0 " dy="6.0">Junction Connector</tspan></text></g></g><g ewd:figtype="conn" ewd:figID="75" ewd:code="N29"><path style="stroke-width: 0.85 ;&st7;  " d=" M  7317.27,   350.23  L  7317.27,   367.22  " /><path style="stroke-width: 1.42 ;&st7;  " d=" M  7308.78,   350.23  L  7325.77,   350.23  L  7325.77,   367.22  L  7308.78,   367.22  L  7308.78,   350.23  " /><text style="&st18;" transform="matrix(&st16;  7307.99  346.54 )">22</text><text style="&st18;" transform="matrix(&st16;  7307.99  375.42 )">21</text><g ewd:figtype="title"><text style="&st18;" transform="matrix(&st17;  7333.67  370.12 )">N29</text><text style="&st18;" transform="matrix(&st17;  7340.49  370.13 )" ewd:textID="93">No. 48 <tspan x="0 " dy="6.0">Junction Connector</tspan></text></g></g><g ewd:figtype="conn" ewd:figID="110" ewd:code="G27,G28"><g ewd:lineID="184"><text style="&st18;" transform="matrix(&st16;  7393.57  93.27 )">1</text><text style="&st18;" transform="matrix(&st16;  7400.08  93.27 )">B</text><path style="stroke-width: 1.42 ;&st7;   " d=" M  7406.80,    91.30  C  7406.80     88.80   7404.77     86.77   7402.26     86.77  " /><path style="stroke-width: 1.42 ;&st7;   " d=" M  7402.26,    86.77  C  7399.76     86.77   7397.73     88.80   7397.73     91.30  " /><path style="stroke-width: 1.42 ;&st7;   " d=" M  7397.73,    91.30  C  7397.73     93.81   7399.76     95.84   7402.26     95.84  " /><path style="stroke-width: 1.42 ;&st7;   " d=" M  7402.26,    95.84  C  7404.77     95.84   7406.80     93.81   7406.80     91.30  " /><text style="&st18;" transform="matrix(&st16;  7393.64  83.07 )">ACTG</text></g><g ewd:lineID="328"><text style="&st18;" transform="matrix(&st16;  7185.75  83.07 )">SH</text></g></g><g ewd:figtype="jb" ewd:figID="148" ewd:code="2"><path style="stroke-width: 1.42 ;&st7;  " d=" M  7191.92,   120.77  L  7187.67,   120.77  " /><path style="stroke-width: 1.42 ;&st7;  " d=" M  7191.92,   129.26  L  7187.67,   129.26  " /><path style="stroke-width: 1.42 ;&st7;   " d=" M  7187.67,   120.77  C  7185.33    120.77   7183.42    122.67   7183.42    125.01  " /><path style="stroke-width: 1.42 ;&st7;   " d=" M  7183.42,   125.01  C  7183.42    127.36   7185.33    129.26   7187.67    129.26  " /><path style="stroke-width: 1.42 ;&st7;   " d=" M  7191.92,   129.26  C  7194.27    129.26   7196.17    127.36   7196.17    125.01  " /><path style="stroke-width: 1.42 ;&st7;   " d=" M  7196.17,   125.01  C  7196.17    122.67   7194.27    120.77   7191.92    120.77  " /><path style="stroke-width: 0.28 ;&st9;  " d=" M  7189.80,   115.87  L  7186.96,   113.04  L  7186.96,   117.29  L  7189.80,   120.12  L  7192.63,   117.29  L  7192.63,   113.04  L  7189.80,   115.87  " /><path style="stroke-width: 0.85 ;&st7;  " d=" M  7189.80,    86.77  L  7189.80,   120.77  " /><text style="&st18;" transform="matrix(&st16;  7186.25  126.98 )">2P</text><text style="&st18;" transform="matrix(&st16;  7176.19  126.98 )">14</text><text style="&st18;" transform="matrix(&st16;  7180.51  94.96 )">10</text></g><g ewd:figtype="jb" ewd:figID="149" ewd:code="2"><path style="stroke-width: 1.42 ;&st7;  " d=" M  7304.53,   112.27  L  7304.53,   154.76  L  7330.02,   154.76  L  7330.02,   112.27  L  7304.53,   112.27  " /><path style="stroke-width: 0.28 ;&st9;  " d=" M  7317.27,   166.86  L  7314.44,   164.03  L  7314.44,   168.28  L  7317.27,   171.11  L  7320.11,   168.28  L  7320.11,   164.03  L  7317.27,   166.86  " /><path style="stroke-width: 1.42 ;&st7;   " d=" M  7323.65,   176.01  C  7323.65    173.66   7321.75    171.76   7319.40    171.76  " /><path style="stroke-width: 1.42 ;&st7;   " d=" M  7319.40,   180.26  C  7321.75    180.26   7323.65    178.35   7323.65    176.01  " /><path style="stroke-width: 1.42 ;&st7;   " d=" M  7310.90,   176.01  C  7310.90    178.35   7312.81    180.26   7315.15    180.26  " /><path style="stroke-width: 1.42 ;&st7;   " d=" M  7315.15,   171.76  C  7312.81    171.76   7310.90    173.66   7310.90    176.01  " /><path style="stroke-width: 0.85 ;&st7;   " d=" M  7318.69,   144.84  C  7318.69    144.06   7318.06    143.43   7317.28    143.43  " /><path style="stroke-width: 0.85 ;&st7;   " d=" M  7317.28,   143.43  C  7316.50    143.43   7315.86    144.06   7315.86    144.84  " /><path style="stroke-width: 0.85 ;&st7;   " d=" M  7315.86,   144.84  C  7315.86    145.63   7316.50    146.26   7317.28    146.26  " /><path style="stroke-width: 0.85 ;&st7;   " d=" M  7317.28,   146.26  C  7318.06    146.26   7318.69    145.63   7318.69    144.84  " /><path style="stroke-width: 0.85 ;&st7;   " d=" M  7318.69,   122.18  C  7318.69    121.40   7318.06    120.77   7317.28    120.77  " /><path style="stroke-width: 0.85 ;&st7;   " d=" M  7317.28,   120.77  C  7316.50    120.77   7315.86    121.40   7315.86    122.18  " /><path style="stroke-width: 0.85 ;&st7;   " d=" M  7315.86,   122.18  C  7315.86    122.96   7316.50    123.60   7317.28    123.60  " /><path style="stroke-width: 0.85 ;&st7;   " d=" M  7317.28,   123.60  C  7318.06    123.60   7318.69    122.96   7318.69    122.18  " /><path style="stroke-width: 1.42 ;&st7;   " d=" M  7317.28,   143.43  C  7320.02    141.81   7320.93    138.29   7319.31    135.55  " /><path style="stroke-width: 1.42 ;&st7;   " d=" M  7319.31,   135.55  C  7318.79    134.67   7318.16    134.03   7317.28    133.51  " /><path style="stroke-width: 1.42 ;&st7;   " d=" M  7317.28,   123.60  C  7314.54    125.21   7313.63    128.74   7315.24    131.48  " /><path style="stroke-width: 1.42 ;&st7;   " d=" M  7315.24,   131.48  C  7315.76    132.36   7316.40    132.99   7317.28    133.51  " /><path style="stroke-width: 0.85 ;&st7;  " d=" M  7317.28,   154.76  L  7317.28,   171.76  " /><path style="stroke-width: 1.42 ;&st7;  " d=" M  7319.40,   180.26  L  7315.15,   180.26  " /><path style="stroke-width: 1.42 ;&st7;  " d=" M  7319.40,   171.76  L  7315.15,   171.76  " /><path style="stroke-width: 0.85 ;&st7;  " d=" M  7317.28,   146.26  L  7317.28,   154.76  " /><text style="&st18;" transform="matrix(&st16;  7333.7  129.83 )">10A <tspan x="0 " dy="6.0">IG1 </tspan><tspan x="0 " dy="6.0">NO.4</tspan></text><text style="&st18;" transform="matrix(&st16;  7313.65  177.98 )">2L</text><text style="&st18;" transform="matrix(&st16;  7306.77  177.98 )">5</text><text style="&st18;" transform="matrix(&st16;  7311.09  162.95 )">2</text><text style="&st18;" transform="matrix(&st16;  7312.06  108.57 )">(IG)</text></g><g ewd:figtype="w2w" ewd:figID="189" ewd:code="AG7"><path style="stroke-width: 1.42 ;&st7;  " d=" M  7092.06,   468.64  L  7096.31,   472.89  L  7100.56,   468.64  " /><path style="stroke-width: 1.42 ;&st7;  " d=" M  7100.56,   472.04  L  7096.31,   476.29  L  7092.06,   472.04  " /><text style="&st18;" transform="matrix(&st16;  7080.58  483.92 )">11</text></g><g ewd:figtype="w2w" ewd:figID="190" ewd:code="AG7"><path style="stroke-width: 1.42 ;&st7;  " d=" M  7100.56,   248.81  L  7096.31,   244.56  L  7092.06,   248.81  " /><path style="stroke-width: 1.42 ;&st7;  " d=" M  7100.56,   245.41  L  7096.31,   241.16  L  7092.06,   245.41  " /><text style="&st18;" transform="matrix(&st16;  7080.58  237.47 )">22</text></g><g ewd:figtype="w2w" ewd:figID="191" ewd:code="GN4"><path style="stroke-width: 1.42 ;&st7;  " d=" M  7406.51,   270.91  L  7402.26,   266.66  L  7398.01,   270.91  " /><path style="stroke-width: 1.42 ;&st7;  " d=" M  7406.51,   274.31  L  7402.26,   270.06  L  7398.01,   274.31  " /><text style="&st18;" transform="matrix(&st16;  7386.53  262.96 )">16</text></g><g ewd:figtype="w2w" ewd:figID="192" ewd:code="GN2"><path style="stroke-width: 1.42 ;&st7;  " d=" M  7508.49,   417.65  L  7512.74,   421.90  L  7516.99,   417.65  " /><path style="stroke-width: 1.42 ;&st7;  " d=" M  7516.99,   421.05  L  7512.74,   425.30  L  7508.49,   421.05  " /><text style="&st18;" transform="matrix(&st16;  7497.01  432.93 )">13</text></g><g ewd:figtype="gp" ewd:figID="238" ewd:code="NC"><path style="stroke-width: 0.85 ;&st7;  " d=" M  7436.25,   697.25  L  7436.25,   701.50  " /><path style="stroke-width: 0.85 ;&st7;  " d=" M  7427.76,   701.50  L  7444.75,   701.50  " /><path style="stroke-width: 0.85 ;&st7;  " d=" M  7432.01,   704.33  L  7440.50,   704.33  " /><path style="stroke-width: 0.85 ;&st7;  " d=" M  7433.42,   707.17  L  7439.09,   707.17  " /><path style="stroke-width: 0.85 ;&st7;  " d=" M  7434.84,   710.00  L  7437.67,   710.00  " /></g><g ewd:figtype="annex" ewd:figID="297" ewd:code=" "><path style="stroke-width: 0.85 ;&st7;  " d=" M  7096.31,   537.20  L  7096.31,   545.69  " /><path style="stroke-width: 0.85 ;&st7;  " d=" M  7087.81,   545.69  L  7104.81,   545.69  " /><path style="stroke-width: 0.85 ;&st7;  " d=" M  7094.89,   554.19  L  7097.73,   554.19  " /><path style="stroke-width: 0.85 ;&st7;  " d=" M  7093.48,   551.36  L  7099.14,   551.36  " /><path style="stroke-width: 0.85 ;&st7;  " d=" M  7092.06,   548.53  L  7100.56,   548.53  " /></g></svg>