﻿<?xml version="1.0" encoding="utf-8"?>
<!DOCTYPE svg PUBLIC "-//W3C//DTD SVG 1.0//EN" "http://www.w3.org/TR/2001/REC-SVG-20010904/DTD/svg10.dtd"[
	<!ENTITY ns_flows "http://ns.adobe.com/Flows/1.0/">
	<!ENTITY ns_svg "http://www.w3.org/2000/svg">
	<!ENTITY ns_xlink "http://www.w3.org/1999/xlink">
	<!ENTITY st0 "font-size:7px;font-family:'MS-PGothic';adobe-font-script:japanese;">
	<!ENTITY st1 "font-size:6px;font-family:'ArialMT';">
	<!-- White fill  -->
	<!ENTITY st2 "fill:#FFFFFF;stroke:#000000; stroke-width:1.41;stroke-linecap:round;stroke-linejoin:round;">
	<!-- Yellow fill  -->
	<!ENTITY st3 "fill:#FFFFCC;stroke:#FFFFCC; stroke-width:0.1;stroke-linecap:round;stroke-linejoin:round;">
	<!-- Gray fill  -->
	<!ENTITY st4 "fill:#CCCCCC;stroke:#CCCCCC; stroke-width:0.1;stroke-linecap:round;stroke-linejoin:round;">
	<!-- Light-blue fill -->
	<!ENTITY st5 "fill:#CCECF4;stroke:#000000; stroke-width:1.133;stroke-linecap:round;stroke-linejoin:round;">
	<!ENTITY st6 "fill:none;stroke-linecap:butt; stroke-linejoin:round;">
	<!ENTITY st7 "fill:none;stroke:#000000;stroke-linecap:round;stroke-linejoin:round;">
	<!ENTITY st8 "enable-background:new    ;">
	<!-- Black fill -->
	<!ENTITY st9 "fill:#000000;stroke:#000000; stroke-linecap:round;stroke-linejoin:round;">
	<!-- SRS note   -->
	<!ENTITY st10 "font-size:9px;font-family:'ArialMT';">
	<!ENTITY st11 "font-size:9px;font-family:'Svg Symbol';">
	<!ENTITY st12 "font-size:6px;font-family:'Svg Symbol';">
	<!ENTITY st13 "fill:none;stroke:#ff0000;stroke-linecap:round;stroke-linejoin:round;">
	<!-- Yellow fill  -->
	<!ENTITY st14 "fill:#FFFF00;stroke:#FFFF00; stroke-width:0.1;stroke-linecap:round;stroke-linejoin:round;">
	<!ENTITY st15 "font-size:6px;font-family:'MS-PGothic';adobe-font-script:japanese;">
	<!ENTITY st16 "1.00 0.00 0.00 1.00">
	<!ENTITY st17 "0.00 -1.00 1.00 0.00">
	<!ENTITY st18 "font-size:6px;font-family:'Arial';">
	<!ENTITY st19 "font-size:9px;font-family:'Arial';">
	<!ENTITY st20 "font-size:6px;font-family:'MS-PGothic','MS PGothic';adobe-font-script:japanese;">
	<!ENTITY st21 "font-size:7px;font-family:'MS-PGothic','MS PGothic';adobe-font-script:japanese;">
	<!ATTLIST svg
		xmlns:ewd CDATA #FIXED "http://shcl.co.jp/ewd"
		xmlns:a CDATA #FIXED "http://ns.adobe.com/AdobeSVGViewerExtensions/3.0/"
		ewd:ver CDATA #IMPLIED
	>
	<!ATTLIST a
		ewd:lineID CDATA #IMPLIED
		ewd:groupID CDATA #IMPLIED
		ewd:figtype CDATA #IMPLIED
		ewd:code CDATA #IMPLIED
		ewd:figID CDATA #IMPLIED
		ewd:pinNo CDATA #IMPLIED
		ewd:comment CDATA #IMPLIED >
	<!ATTLIST g
		ewd:lineID CDATA #IMPLIED
		ewd:groupID CDATA #IMPLIED
		ewd:figtype CDATA #IMPLIED
		ewd:code CDATA #IMPLIED
		ewd:figID CDATA #IMPLIED
		ewd:pinNo CDATA #IMPLIED
		ewd:comment CDATA #IMPLIED >
	<!ATTLIST text
		ewd:textID CDATA #IMPLIED >
	<!ATTLIST title
		ewd:textID CDATA #IMPLIED >
]>
<!-- Generator: Shintec Hozumi YS   -->
<svg onload="call_execInitLoadProc_svg('system')" style="overflow:visible;  enable-background:new 0 0 12406.433 710.000" viewBox="0 0 12406.433 710.000" height="710.000" width="12406.433" xml:space="preserve" ewd:ver="2.1.2.9" xmlns="&ns_svg;" xmlns:a="http://ns.adobe.com/AdobeSVGViewerExtensions/3.0/" xmlns:ewd="http://shcl.co.jp/ewd" xmlns:xlink="&ns_xlink;">
<text style="&st18;" transform="matrix(&st17;  7160.61  220.2 )">W-B</text><text style="&st18;" transform="matrix(&st16;  7017.64  227.55 )">B</text><text style="&st18;" transform="matrix(&st17;  7092.62  215.74 )">P</text><text style="&st18;" transform="matrix(&st16;  7280.32  618.48 )">W</text><text style="&st18;" transform="matrix(&st16;  7229.33  618.48 )">W</text><text style="&st18;" transform="matrix(&st16;  7228.55  635.48 )">SB</text><text style="&st18;" transform="matrix(&st16;  7279.54  635.48 )">SB</text><text style="&st18;" transform="matrix(&st16;  7281.09  601.49 )">Y</text><text style="&st18;" transform="matrix(&st16;  7230.1  601.49 )">Y</text><text style="&st18;" transform="matrix(&st16;  7281.21  567.49 )">L</text><text style="&st18;" transform="matrix(&st16;  7230.22  567.49 )">L</text><text style="&st18;" transform="matrix(&st16;  7280.98  584.49 )">V</text><text style="&st18;" transform="matrix(&st16;  7229.99  584.49 )">V</text><path style="stroke-width: 1.42 ;&st7;  " d=" M  7444.76,   248.24  L  7436.26,   248.24  " /><text style="&st18;" transform="matrix(&st17;  7466.56  381.68 )">W-B</text><text style="&st18;" transform="matrix(&st17;  7347.58  233.21 )">G</text><text style="&st18;" transform="matrix(&st17;  7347.58  318.19 )">G</text><text style="&st18;" transform="matrix(&st17;  7432.56  377.68 )">G</text><text style="&st18;" transform="matrix(&st17;  7432.56  196.82 )">GR</text><text style="&st18;" transform="matrix(&st17;  7432.56  277.56 )">GR</text><text style="&st18;" transform="matrix(&st17;  7477.89  381.99 )">(*22)</text><text style="&st18;" transform="matrix(&st17;  7443.89  280.0 )">(*22)</text><text style="&st18;" transform="matrix(&st17;  7443.89  199.27 )">(*22)</text><text style="&st18;" transform="matrix(&st17;  7443.89  381.99 )">(*22)</text><text style="&st18;" transform="matrix(&st17;  7358.91  322.5 )">(*22)</text><text style="&st18;" transform="matrix(&st17;  7358.91  237.51 )">(*22)</text><text style="&st18;" transform="matrix(&st16;  7483.84  32.08 )" ewd:textID="26">Body ECU</text><text style="&st18;" transform="matrix(&st16;  7483.84  25.26 )">G27(A),G28(B)</text><g ewd:figtype="conn" ewd:figID="72" ewd:code="N28"><path style="stroke-width: 1.42 ;&st7;  " d=" M  7342.77,   265.24  L  7359.77,   265.24  L  7359.77,   282.24  L  7342.77,   282.24  L  7342.77,   265.24  " /><path style="stroke-width: 0.85 ;&st7;  " d=" M  7351.27,   265.24  L  7351.27,   282.24  " /><text style="&st18;" transform="matrix(&st16;  7341.99  290.43 )">22</text><text style="&st18;" transform="matrix(&st16;  7341.99  261.55 )">19</text><g ewd:figtype="title"><text style="&st18;" transform="matrix(&st17;  7367.66  285.14 )">N28</text><text style="&st18;" transform="matrix(&st17;  7374.49  285.14 )" ewd:textID="88">No. 47 <tspan x="0 " dy="6.0">Junction Connector</tspan></text></g></g><g ewd:figtype="conn" ewd:figID="73" ewd:code="N29"><path style="stroke-width: 1.42 ;&st7;  " d=" M  7342.77,   358.73  L  7359.77,   358.73  L  7359.77,   375.72  L  7342.77,   375.72  L  7342.77,   358.73  " /><path style="stroke-width: 0.85 ;&st7;  " d=" M  7351.27,   358.73  L  7351.27,   375.72  " /><text style="&st18;" transform="matrix(&st16;  7341.99  355.04 )">22</text><text style="&st18;" transform="matrix(&st16;  7341.99  383.92 )">21</text><g ewd:figtype="title"><text style="&st18;" transform="matrix(&st17;  7367.66  378.62 )">N29</text><text style="&st18;" transform="matrix(&st17;  7374.49  378.63 )" ewd:textID="89">No. 48 <tspan x="0 " dy="6.0">Junction Connector</tspan></text></g></g><g ewd:figtype="conn" ewd:figID="85" ewd:code="N25"><path style="stroke-width: 1.42 ;&st7;  " d=" M  7419.26,   307.73  L  7419.26,   350.23  L  7648.72,   350.23  L  7648.72,   307.73  L  7419.26,   307.73  " /><g ewd:lineID="170"><text style="&st18;" transform="matrix(&st16;  7430.07  358.42 )">8</text><text style="&st18;" transform="matrix(&st16;  7432.91  346.53 )">IG</text></g><g ewd:lineID="171"><text style="&st18;" transform="matrix(&st16;  7430.07  304.04 )">9</text><text style="&st18;" transform="matrix(&st16;  7427.63  315.37 )">ACTG</text></g><g ewd:lineID="173"><text style="&st18;" transform="matrix(&st16;  7464.07  358.42 )">2</text><text style="&st18;" transform="matrix(&st16;  7462.05  346.53 )">GND1</text></g><g ewd:lineID="174"><text style="&st18;" transform="matrix(&st16;  7494.96  358.42 )">10</text><text style="&st18;" transform="matrix(&st16;  7496.05  346.53 )">GND2</text></g><g ewd:figtype="title"><text style="&st18;" transform="matrix(&st16;  7483.84  297.21 )">N25</text><text style="&st18;" transform="matrix(&st16;  7483.84  304.04 )" ewd:textID="39">Door Control Battery</text></g></g><g ewd:figtype="conn" ewd:figID="113" ewd:code="G27,G28"><g ewd:lineID="166"><text style="&st18;" transform="matrix(&st16;  7087.62  93.27 )">1</text><text style="&st18;" transform="matrix(&st16;  7094.01  93.27 )">A</text><path style="stroke-width: 1.42 ;&st7;   " d=" M  7100.85,    91.30  C  7100.85     88.80   7098.82     86.77   7096.31     86.77  " /><path style="stroke-width: 1.42 ;&st7;   " d=" M  7096.31,    86.77  C  7093.81     86.77   7091.78     88.80   7091.78     91.30  " /><path style="stroke-width: 1.42 ;&st7;   " d=" M  7091.78,    91.30  C  7091.78     93.81   7093.81     95.84   7096.31     95.84  " /><path style="stroke-width: 1.42 ;&st7;   " d=" M  7096.31,    95.84  C  7098.82     95.84   7100.85     93.81   7100.85     91.30  " /><text style="&st18;" transform="matrix(&st16;  7088.5  83.07 )">TRLY</text></g><g ewd:lineID="172"><text style="&st18;" transform="matrix(&st16;  7427.56  93.27 )">1</text><path style="stroke-width: 1.42 ;&st7;   " d=" M  7440.79,    91.30  C  7440.79     88.80   7438.76     86.77   7436.26     86.77  " /><path style="stroke-width: 1.42 ;&st7;   " d=" M  7436.26,    86.77  C  7433.75     86.77   7431.72     88.80   7431.72     91.30  " /><path style="stroke-width: 1.42 ;&st7;   " d=" M  7431.72,    91.30  C  7431.72     93.81   7433.75     95.84   7436.26     95.84  " /><path style="stroke-width: 1.42 ;&st7;   " d=" M  7436.26,    95.84  C  7438.76     95.84   7440.79     93.81   7440.79     91.30  " /><text style="&st18;" transform="matrix(&st16;  7434.07  93.27 )">B</text><text style="&st18;" transform="matrix(&st16;  7427.63  83.07 )">ACTG</text></g><g ewd:lineID="342"><text style="&st18;" transform="matrix(&st16;  7157.66  83.07 )">GND</text></g></g><g ewd:figtype="jb" ewd:figID="150" ewd:code="2"><path style="stroke-width: 0.85 ;&st7;  " d=" M  7351.27,   163.26  L  7351.27,   180.26  " /><path style="stroke-width: 1.42 ;&st7;  " d=" M  7353.40,   180.26  L  7349.15,   180.26  " /><path style="stroke-width: 1.42 ;&st7;  " d=" M  7353.40,   188.75  L  7349.15,   188.75  " /><path style="stroke-width: 1.42 ;&st7;   " d=" M  7349.15,   180.26  C  7346.80    180.26   7344.90    182.16   7344.90    184.50  " /><path style="stroke-width: 1.42 ;&st7;   " d=" M  7344.90,   184.50  C  7344.90    186.85   7346.80    188.75   7349.15    188.75  " /><path style="stroke-width: 1.42 ;&st7;   " d=" M  7353.40,   188.75  C  7355.74    188.75   7357.65    186.85   7357.65    184.50  " /><path style="stroke-width: 1.42 ;&st7;   " d=" M  7357.65,   184.50  C  7357.65    182.16   7355.74    180.26   7353.40    180.26  " /><path style="stroke-width: 0.28 ;&st9;  " d=" M  7351.27,   175.36  L  7348.44,   172.53  L  7348.44,   176.78  L  7351.27,   179.61  L  7354.10,   176.78  L  7354.10,   172.53  L  7351.27,   175.36  " /><text style="&st18;" transform="matrix(&st16;  7347.65  186.47 )">2L</text><text style="&st18;" transform="matrix(&st16;  7340.76  186.47 )">5</text><path style="stroke-width: 0.85 ;&st7;  " d=" M  7351.27,   154.76  L  7351.27,   163.26  " /><path style="stroke-width: 1.42 ;&st7;   " d=" M  7351.27,   132.10  C  7348.53    133.71   7347.62    137.24   7349.23    139.97  " /><path style="stroke-width: 1.42 ;&st7;   " d=" M  7349.23,   139.97  C  7349.75    140.86   7350.39    141.49   7351.27    142.01  " /><path style="stroke-width: 1.42 ;&st7;   " d=" M  7351.27,   151.93  C  7354.01    150.31   7354.92    146.79   7353.31    144.05  " /><path style="stroke-width: 1.42 ;&st7;   " d=" M  7353.31,   144.05  C  7352.79    143.17   7352.15    142.53   7351.27    142.01  " /><path style="stroke-width: 0.85 ;&st7;   " d=" M  7352.69,   130.68  C  7352.69    129.90   7352.05    129.26   7351.27    129.26  " /><path style="stroke-width: 0.85 ;&st7;   " d=" M  7351.27,   129.26  C  7350.49    129.26   7349.86    129.90   7349.86    130.68  " /><path style="stroke-width: 0.85 ;&st7;   " d=" M  7349.86,   130.68  C  7349.86    131.46   7350.49    132.10   7351.27    132.10  " /><path style="stroke-width: 0.85 ;&st7;   " d=" M  7351.27,   132.10  C  7352.05    132.10   7352.69    131.46   7352.69    130.68  " /><path style="stroke-width: 0.85 ;&st7;   " d=" M  7352.69,   153.34  C  7352.69    152.56   7352.05    151.93   7351.27    151.93  " /><path style="stroke-width: 0.85 ;&st7;   " d=" M  7351.27,   151.93  C  7350.49    151.93   7349.86    152.56   7349.86    153.34  " /><path style="stroke-width: 0.85 ;&st7;   " d=" M  7349.86,   153.34  C  7349.86    154.13   7350.49    154.76   7351.27    154.76  " /><path style="stroke-width: 0.85 ;&st7;   " d=" M  7351.27,   154.76  C  7352.05    154.76   7352.69    154.13   7352.69    153.34  " /><path style="stroke-width: 1.42 ;&st7;  " d=" M  7338.52,   120.77  L  7338.52,   163.26  L  7364.02,   163.26  L  7364.02,   120.77  L  7338.52,   120.77  " /><text style="&st18;" transform="matrix(&st16;  7367.7  138.33 )">10A <tspan x="0 " dy="6.0">IG1 </tspan><tspan x="0 " dy="6.0">NO.4</tspan></text><text style="&st18;" transform="matrix(&st16;  7345.09  171.45 )">2</text><text style="&st18;" transform="matrix(&st16;  7346.06  117.07 )">(IG)</text></g><g ewd:figtype="jb" ewd:figID="154" ewd:code="2"><path style="stroke-width: 1.42 ;&st7;  " d=" M  7166.43,   120.77  L  7162.18,   120.77  " /><path style="stroke-width: 1.42 ;&st7;  " d=" M  7166.43,   129.26  L  7162.18,   129.26  " /><path style="stroke-width: 1.42 ;&st7;   " d=" M  7162.18,   120.77  C  7159.83    120.77   7157.93    122.67   7157.93    125.01  " /><path style="stroke-width: 1.42 ;&st7;   " d=" M  7157.93,   125.01  C  7157.93    127.36   7159.83    129.26   7162.18    129.26  " /><path style="stroke-width: 1.42 ;&st7;   " d=" M  7166.43,   129.26  C  7168.77    129.26   7170.68    127.36   7170.68    125.01  " /><path style="stroke-width: 1.42 ;&st7;   " d=" M  7170.68,   125.01  C  7170.68    122.67   7168.77    120.77   7166.43    120.77  " /><path style="stroke-width: 0.28 ;&st9;  " d=" M  7164.30,   115.87  L  7161.47,   113.04  L  7161.47,   117.29  L  7164.30,   120.12  L  7167.13,   117.29  L  7167.13,   113.04  L  7164.30,   115.87  " /><path style="stroke-width: 0.85 ;&st7;  " d=" M  7164.30,    86.77  L  7164.30,   120.77  " /><text style="&st18;" transform="matrix(&st16;  7161.3  126.98 )">2J</text><text style="&st18;" transform="matrix(&st16;  7153.8  126.98 )">5</text><text style="&st18;" transform="matrix(&st16;  7158.12  94.96 )">1</text></g><g ewd:figtype="w2w" ewd:figID="193" ewd:code="GN4"><path style="stroke-width: 1.42 ;&st7;  " d=" M  7440.50,   257.31  L  7436.25,   253.06  L  7432.01,   257.31  " /><path style="stroke-width: 1.42 ;&st7;  " d=" M  7440.50,   253.91  L  7436.25,   249.66  L  7432.01,   253.91  " /><text style="&st18;" transform="matrix(&st16;  7420.52  245.96 )">16</text></g><g ewd:figtype="gp" ewd:figID="245" ewd:code="GC"><path style="stroke-width: 0.85 ;&st7;  " d=" M  7164.30,   697.25  L  7164.30,   701.50  " /><path style="stroke-width: 0.85 ;&st7;  " d=" M  7155.80,   701.50  L  7172.80,   701.50  " /><path style="stroke-width: 0.85 ;&st7;  " d=" M  7160.05,   704.33  L  7168.55,   704.33  " /><path style="stroke-width: 0.85 ;&st7;  " d=" M  7161.47,   707.17  L  7167.13,   707.17  " /><path style="stroke-width: 0.85 ;&st7;  " d=" M  7162.88,   710.00  L  7165.72,   710.00  " /></g><g ewd:figtype="gp" ewd:figID="246" ewd:code="NC"><path style="stroke-width: 0.85 ;&st7;  " d=" M  7468.83,   710.00  L  7471.67,   710.00  " /><path style="stroke-width: 0.85 ;&st7;  " d=" M  7467.42,   707.17  L  7473.08,   707.17  " /><path style="stroke-width: 0.85 ;&st7;  " d=" M  7466.00,   704.33  L  7474.50,   704.33  " /><path style="stroke-width: 0.85 ;&st7;  " d=" M  7461.75,   701.50  L  7478.75,   701.50  " /><path style="stroke-width: 0.85 ;&st7;  " d=" M  7470.25,   697.25  L  7470.25,   701.50  " /></g><g ewd:code="22" ewd:figID="304" ewd:comment="" ewd:figtype="comment"><text style="&st18;" transform="matrix(&st16;  7296.87  462.68 )" ewd:textID="13">*22 :w/ Door Control Battery</text></g><g ewd:code="7" ewd:figID="338" ewd:comment="" ewd:figtype="comment"><text style="&st18;" transform="matrix(&st16;  7296.87  454.18 )">* 7 :1KD-FTV, 2KD-FTV, 1GR-FE</text></g><g ewd:code="30" ewd:figID="356" ewd:comment="" ewd:figtype="comment"><text style="&st18;" transform="matrix(&st16;  7296.87  479.67 )" ewd:textID="21">*30 :w/ Double Locking</text></g><g ewd:code="23" ewd:figID="305" ewd:comment="" ewd:figtype="comment"><text style="&st18;" transform="matrix(&st16;  7296.87  471.18 )" ewd:textID="14">*23 :w/o Door Control Battery</text></g><g ewd:code="6" ewd:figID="337" ewd:comment="" ewd:figtype="comment"><text style="&st18;" transform="matrix(&st16;  7296.87  445.68 )">* 6 :1GD-FTV, 2GD-FTV</text></g></svg>