﻿<?xml version="1.0" encoding="utf-8"?>
<!DOCTYPE svg PUBLIC "-//W3C//DTD SVG 1.0//EN" "http://www.w3.org/TR/2001/REC-SVG-20010904/DTD/svg10.dtd"[
	<!ENTITY ns_flows "http://ns.adobe.com/Flows/1.0/">
	<!ENTITY ns_svg "http://www.w3.org/2000/svg">
	<!ENTITY ns_xlink "http://www.w3.org/1999/xlink">
	<!ENTITY st0 "font-size:7px;font-family:'MS-PGothic';adobe-font-script:japanese;">
	<!ENTITY st1 "font-size:6px;font-family:'ArialMT';">
	<!-- White fill  -->
	<!ENTITY st2 "fill:#FFFFFF;stroke:#000000; stroke-width:1.41;stroke-linecap:round;stroke-linejoin:round;">
	<!-- Yellow fill  -->
	<!ENTITY st3 "fill:#FFFFCC;stroke:#FFFFCC; stroke-width:0.1;stroke-linecap:round;stroke-linejoin:round;">
	<!-- Gray fill  -->
	<!ENTITY st4 "fill:#CCCCCC;stroke:#CCCCCC; stroke-width:0.1;stroke-linecap:round;stroke-linejoin:round;">
	<!-- Light-blue fill -->
	<!ENTITY st5 "fill:#CCECF4;stroke:#000000; stroke-width:1.133;stroke-linecap:round;stroke-linejoin:round;">
	<!ENTITY st6 "fill:none;stroke-linecap:butt; stroke-linejoin:round;">
	<!ENTITY st7 "fill:none;stroke:#000000;stroke-linecap:round;stroke-linejoin:round;">
	<!ENTITY st8 "enable-background:new    ;">
	<!-- Black fill -->
	<!ENTITY st9 "fill:#000000;stroke:#000000; stroke-linecap:round;stroke-linejoin:round;">
	<!-- SRS note   -->
	<!ENTITY st10 "font-size:9px;font-family:'ArialMT';">
	<!ENTITY st11 "font-size:9px;font-family:'Svg Symbol';">
	<!ENTITY st12 "font-size:6px;font-family:'Svg Symbol';">
	<!ENTITY st13 "fill:none;stroke:#ff0000;stroke-linecap:round;stroke-linejoin:round;">
	<!-- Yellow fill  -->
	<!ENTITY st14 "fill:#FFFF00;stroke:#FFFF00; stroke-width:0.1;stroke-linecap:round;stroke-linejoin:round;">
	<!ENTITY st15 "font-size:6px;font-family:'MS-PGothic';adobe-font-script:japanese;">
	<!ENTITY st16 "1.00 0.00 0.00 1.00">
	<!ENTITY st17 "0.00 -1.00 1.00 0.00">
	<!ENTITY st18 "font-size:6px;font-family:'Arial';">
	<!ENTITY st19 "font-size:9px;font-family:'Arial';">
	<!ENTITY st20 "font-size:6px;font-family:'MS-PGothic','MS PGothic';adobe-font-script:japanese;">
	<!ENTITY st21 "font-size:7px;font-family:'MS-PGothic','MS PGothic';adobe-font-script:japanese;">
	<!ATTLIST svg
		xmlns:ewd CDATA #FIXED "http://shcl.co.jp/ewd"
		xmlns:a CDATA #FIXED "http://ns.adobe.com/AdobeSVGViewerExtensions/3.0/"
		ewd:ver CDATA #IMPLIED
	>
	<!ATTLIST a
		ewd:lineID CDATA #IMPLIED
		ewd:groupID CDATA #IMPLIED
		ewd:figtype CDATA #IMPLIED
		ewd:code CDATA #IMPLIED
		ewd:figID CDATA #IMPLIED
		ewd:pinNo CDATA #IMPLIED
		ewd:comment CDATA #IMPLIED >
	<!ATTLIST g
		ewd:lineID CDATA #IMPLIED
		ewd:groupID CDATA #IMPLIED
		ewd:figtype CDATA #IMPLIED
		ewd:code CDATA #IMPLIED
		ewd:figID CDATA #IMPLIED
		ewd:pinNo CDATA #IMPLIED
		ewd:comment CDATA #IMPLIED >
	<!ATTLIST text
		ewd:textID CDATA #IMPLIED >
	<!ATTLIST title
		ewd:textID CDATA #IMPLIED >
]>
<!-- Generator: Shintec Hozumi YS   -->
<svg onload="call_execInitLoadProc_svg('system')" style="overflow:visible;  enable-background:new 0 0 1029.809 710.000" viewBox="0 0 1029.809 710.000" height="710.000" width="1029.809" xml:space="preserve" ewd:ver="2.1.2.9" xmlns="&ns_svg;" xmlns:a="http://ns.adobe.com/AdobeSVGViewerExtensions/3.0/" xmlns:ewd="http://shcl.co.jp/ewd" xmlns:xlink="&ns_xlink;">
<text style="&st18;" transform="matrix(&st17;  438.23  640.88 )">W-B</text><text style="&st18;" transform="matrix(&st16;  490.85  389.02 )">L</text><text style="&st18;" transform="matrix(&st16;  490.92  312.54 )">P</text><text style="&st18;" transform="matrix(&st16;  489.95  287.04 )">W</text><text style="&st18;" transform="matrix(&st16;  490.46  338.03 )">G</text><text style="&st18;" transform="matrix(&st17;  449.56  642.74 )">(LHD)</text><text style="&st18;" transform="matrix(&st17;  480.72  640.88 )">W-B</text><text style="&st18;" transform="matrix(&st17;  492.06  642.78 )">(RHD)</text><text style="&st18;" transform="matrix(&st16;  490.73  40.58 )">B</text><text style="&st18;" transform="matrix(&st16;  490.85  414.52 )">L</text><text style="&st18;" transform="matrix(&st16;  487.71  400.35 )">(*4)</text><text style="&st18;" transform="matrix(&st16;  483.67  425.85 )">(*3,*9)</text><text style="&st18;" transform="matrix(&st16;  487.71  349.36 )">(*2)</text><text style="&st18;" transform="matrix(&st16;  490.46  363.53 )">G</text><text style="&st18;" transform="matrix(&st16;  487.71  374.86 )">(*1)</text><g ewd:code="G18,G19" ewd:figID="7" ewd:comment="10,6,5,11" ewd:figtype="conn"><path style="stroke-width: 0.85 ;&st7; stroke-dasharray:3, 1.5;" d=" M   403.97,   401.22  L   403.97,   541.44  " /><path style="stroke-width: 0.85 ;&st7; stroke-dasharray:3, 1.5;" d=" M   403.97,    52.78  L   403.97,   277.99  " /><path style="stroke-width: 0.85 ;&st7; stroke-dasharray:3, 1.5;" d=" M   403.97,   324.73  L   403.97,   328.98  " /><path style="stroke-width: 0.85 ;&st7; stroke-dasharray:3, 1.5;" d=" M   403.97,   350.23  L   403.97,   379.97  " /><path style="stroke-width: 0.85 ;&st7; stroke-dasharray:3, 1.5;" d=" M   403.97,   299.24  L   403.97,   303.48  " /><path style="stroke-width: 0.85 ;&st7; stroke-dasharray:3, 1.5;" d=" M   413.03,   401.22  L   413.03,   541.44  " /><path style="stroke-width: 0.85 ;&st7; stroke-dasharray:3, 1.5;" d=" M   413.03,    52.78  L   413.03,   277.99  " /><path style="stroke-width: 0.85 ;&st7; stroke-dasharray:3, 1.5;" d=" M   413.03,   324.73  L   413.03,   328.98  " /><path style="stroke-width: 0.85 ;&st7; stroke-dasharray:3, 1.5;" d=" M   413.03,   350.23  L   413.03,   379.97  " /><path style="stroke-width: 0.85 ;&st7; stroke-dasharray:3, 1.5;" d=" M   413.03,   299.24  L   413.03,   303.48  " /><path style="stroke-width: 0.85 ;&st7;  " d=" M   254.96,   116.52  L   254.96,   125.01  " /><path style="stroke-width: 0.85 ;&st7;  " d=" M   271.95,   137.76  L   288.95,   137.76  " /><path style="stroke-width: 0.85 ;&st7;  " d=" M   322.95,    40.03  L   322.95,    48.53  " /><path style="stroke-width: 1.42 ;&st7;  " d=" M   314.45,    74.02  L   314.45,    82.52  " /><path style="stroke-width: 0.85 ;&st7;  " d=" M   288.95,   137.76  L   294.62,   129.26  " /><path style="stroke-width: 1.42 ;&st7;  " d=" M   305.95,   129.26  L   288.95,   129.26  " /><path style="stroke-width: 0.85 ;&st7;  " d=" M   271.95,    69.77  L   266.29,    61.28  " /><path style="stroke-width: 0.85 ;&st7;  " d=" M   260.25,    61.84  L   254.96,    69.77  " /><path style="stroke-width: 0.85 ;&st7;  " d=" M   263.46,    61.28  L   263.46,    44.28  " /><path style="stroke-width: 1.42 ;&st7;  " d=" M   271.95,    61.28  L   254.96,    61.28  " /><path style="stroke-width: 0.85 ;&st7;  " d=" M   229.46,   137.76  L   254.96,   137.76  " /><path style="stroke-width: 1.42 ;&st7;  " d=" M   318.70,    74.02  L   318.70,    82.52  " /><path style="stroke-width: 1.42 ;&st7;  " d=" M   352.69,   267.37  L   344.19,   267.37  " /><path style="stroke-width: 1.42 ;&st7;  " d=" M   352.69,   271.61  L   344.19,   271.61  " /><path style="stroke-width: 0.85 ;&st7;   " d=" M    86.40,   367.22  C    86.40    366.44     85.77    365.81     84.99    365.81  " /><path style="stroke-width: 0.85 ;&st7;   " d=" M    84.99,   365.81  C    84.20    365.81     83.57    366.44     83.57    367.22  " /><path style="stroke-width: 0.85 ;&st7;   " d=" M    83.57,   367.22  C    83.57    368.01     84.20    368.64     84.99    368.64  " /><path style="stroke-width: 0.85 ;&st7;   " d=" M    84.99,   368.64  C    85.77    368.64     86.40    368.01     86.40    367.22  " /><path style="stroke-width: 0.85 ;&st7;   " d=" M    86.40,   418.22  C    86.40    417.43     85.77    416.80     84.99    416.80  " /><path style="stroke-width: 0.85 ;&st7;   " d=" M    84.99,   416.80  C    84.20    416.80     83.57    417.43     83.57    418.22  " /><path style="stroke-width: 0.85 ;&st7;   " d=" M    83.57,   418.22  C    83.57    419.00     84.20    419.63     84.99    419.63  " /><path style="stroke-width: 0.85 ;&st7;   " d=" M    84.99,   419.63  C    85.77    419.63     86.40    419.00     86.40    418.22  " /><path style="stroke-width: 0.85 ;&st7;   " d=" M    69.41,   367.22  C    69.41    366.44     68.77    365.81     67.99    365.81  " /><path style="stroke-width: 0.85 ;&st7;   " d=" M    67.99,   365.81  C    67.21    365.81     66.57    366.44     66.57    367.22  " /><path style="stroke-width: 0.85 ;&st7;   " d=" M    66.57,   367.22  C    66.57    368.01     67.21    368.64     67.99    368.64  " /><path style="stroke-width: 0.85 ;&st7;   " d=" M    67.99,   368.64  C    68.77    368.64     69.41    368.01     69.41    367.22  " /><path style="stroke-width: 0.85 ;&st7;   " d=" M    69.41,   443.71  C    69.41    442.93     68.77    442.29     67.99    442.29  " /><path style="stroke-width: 0.85 ;&st7;   " d=" M    67.99,   442.29  C    67.21    442.29     66.57    442.93     66.57    443.71  " /><path style="stroke-width: 0.85 ;&st7;   " d=" M    66.57,   443.71  C    66.57    444.49     67.21    445.13     67.99    445.13  " /><path style="stroke-width: 0.85 ;&st7;   " d=" M    67.99,   445.13  C    68.77    445.13     69.41    444.49     69.41    443.71  " /><path style="stroke-width: 0.85 ;&st7;   " d=" M   103.40,   392.72  C   103.40    391.94    102.77    391.30    101.98    391.30  " /><path style="stroke-width: 0.85 ;&st7;   " d=" M   101.98,   391.30  C   101.20    391.30    100.57    391.94    100.57    392.72  " /><path style="stroke-width: 0.85 ;&st7;   " d=" M   100.57,   392.72  C   100.57    393.50    101.20    394.14    101.98    394.14  " /><path style="stroke-width: 0.85 ;&st7;   " d=" M   101.98,   394.14  C   102.77    394.14    103.40    393.50    103.40    392.72  " /><path style="stroke-width: 0.85 ;&st7;   " d=" M   103.40,   367.22  C   103.40    366.44    102.77    365.81    101.98    365.81  " /><path style="stroke-width: 0.85 ;&st7;   " d=" M   101.98,   365.81  C   101.20    365.81    100.57    366.44    100.57    367.22  " /><path style="stroke-width: 0.85 ;&st7;   " d=" M   100.57,   367.22  C   100.57    368.01    101.20    368.64    101.98    368.64  " /><path style="stroke-width: 0.85 ;&st7;   " d=" M   101.98,   368.64  C   102.77    368.64    103.40    368.01    103.40    367.22  " /><path style="stroke-width: 0.85 ;&st7;   " d=" M   120.40,   282.24  C   120.40    281.46    119.76    280.82    118.98    280.82  " /><path style="stroke-width: 0.85 ;&st7;   " d=" M   118.98,   280.82  C   118.20    280.82    117.56    281.46    117.56    282.24  " /><path style="stroke-width: 0.85 ;&st7;   " d=" M   117.56,   282.24  C   117.56    283.02    118.20    283.65    118.98    283.65  " /><path style="stroke-width: 0.85 ;&st7;   " d=" M   118.98,   283.65  C   119.76    283.65    120.40    283.02    120.40    282.24  " /><path style="stroke-width: 0.85 ;&st7;   " d=" M   103.40,   282.24  C   103.40    281.46    102.77    280.82    101.98    280.82  " /><path style="stroke-width: 0.85 ;&st7;   " d=" M   101.98,   280.82  C   101.20    280.82    100.57    281.46    100.57    282.24  " /><path style="stroke-width: 0.85 ;&st7;   " d=" M   100.57,   282.24  C   100.57    283.02    101.20    283.65    101.98    283.65  " /><path style="stroke-width: 0.85 ;&st7;   " d=" M   101.98,   283.65  C   102.77    283.65    103.40    283.02    103.40    282.24  " /><path style="stroke-width: 0.85 ;&st7;   " d=" M   120.40,   256.74  C   120.40    255.96    119.76    255.33    118.98    255.33  " /><path style="stroke-width: 0.85 ;&st7;   " d=" M   118.98,   255.33  C   118.20    255.33    117.56    255.96    117.56    256.74  " /><path style="stroke-width: 0.85 ;&st7;   " d=" M   117.56,   256.74  C   117.56    257.52    118.20    258.16    118.98    258.16  " /><path style="stroke-width: 0.85 ;&st7;   " d=" M   118.98,   258.16  C   119.76    258.16    120.40    257.52    120.40    256.74  " /><path style="stroke-width: 0.85 ;&st7;   " d=" M   103.40,   231.25  C   103.40    230.46    102.77    229.83    101.98    229.83  " /><path style="stroke-width: 0.85 ;&st7;   " d=" M   101.98,   229.83  C   101.20    229.83    100.57    230.46    100.57    231.25  " /><path style="stroke-width: 0.85 ;&st7;   " d=" M   100.57,   231.25  C   100.57    232.03    101.20    232.66    101.98    232.66  " /><path style="stroke-width: 0.85 ;&st7;   " d=" M   101.98,   232.66  C   102.77    232.66    103.40    232.03    103.40    231.25  " /><path style="stroke-width: 0.85 ;&st7;   " d=" M    86.40,   231.25  C    86.40    230.46     85.77    229.83     84.99    229.83  " /><path style="stroke-width: 0.85 ;&st7;   " d=" M    84.99,   229.83  C    84.20    229.83     83.57    230.46     83.57    231.25  " /><path style="stroke-width: 0.85 ;&st7;   " d=" M    83.57,   231.25  C    83.57    232.03     84.20    232.66     84.99    232.66  " /><path style="stroke-width: 0.85 ;&st7;   " d=" M    84.99,   232.66  C    85.77    232.66     86.40    232.03     86.40    231.25  " /><path style="stroke-width: 0.85 ;&st7;   " d=" M    69.41,   231.25  C    69.41    230.46     68.77    229.83     67.99    229.83  " /><path style="stroke-width: 0.85 ;&st7;   " d=" M    67.99,   229.83  C    67.21    229.83     66.57    230.46     66.57    231.25  " /><path style="stroke-width: 0.85 ;&st7;   " d=" M    66.57,   231.25  C    66.57    232.03     67.21    232.66     67.99    232.66  " /><path style="stroke-width: 0.85 ;&st7;   " d=" M    67.99,   232.66  C    68.77    232.66     69.41    232.03     69.41    231.25  " /><path style="stroke-width: 0.85 ;&st7;   " d=" M    69.41,   205.75  C    69.41    204.97     68.77    204.33     67.99    204.33  " /><path style="stroke-width: 0.85 ;&st7;   " d=" M    67.99,   204.33  C    67.21    204.33     66.57    204.97     66.57    205.75  " /><path style="stroke-width: 0.85 ;&st7;   " d=" M    66.57,   205.75  C    66.57    206.53     67.21    207.17     67.99    207.17  " /><path style="stroke-width: 0.85 ;&st7;   " d=" M    67.99,   207.17  C    68.77    207.17     69.41    206.53     69.41    205.75  " /><path style="stroke-width: 0.85 ;&st7;   " d=" M    86.40,   205.75  C    86.40    204.97     85.77    204.33     84.99    204.33  " /><path style="stroke-width: 0.85 ;&st7;   " d=" M    84.99,   204.33  C    84.20    204.33     83.57    204.97     83.57    205.75  " /><path style="stroke-width: 0.85 ;&st7;   " d=" M    83.57,   205.75  C    83.57    206.53     84.20    207.17     84.99    207.17  " /><path style="stroke-width: 0.85 ;&st7;   " d=" M    84.99,   207.17  C    85.77    207.17     86.40    206.53     86.40    205.75  " /><path style="stroke-width: 0.85 ;&st7;   " d=" M    86.40,   154.76  C    86.40    153.98     85.77    153.34     84.99    153.34  " /><path style="stroke-width: 0.85 ;&st7;   " d=" M    84.99,   153.34  C    84.20    153.34     83.57    153.98     83.57    154.76  " /><path style="stroke-width: 0.85 ;&st7;   " d=" M    83.57,   154.76  C    83.57    155.54     84.20    156.18     84.99    156.18  " /><path style="stroke-width: 0.85 ;&st7;   " d=" M    84.99,   156.18  C    85.77    156.18     86.40    155.54     86.40    154.76  " /><path style="stroke-width: 0.85 ;&st7;   " d=" M    86.40,   180.26  C    86.40    179.47     85.77    178.84     84.99    178.84  " /><path style="stroke-width: 0.85 ;&st7;   " d=" M    84.99,   178.84  C    84.20    178.84     83.57    179.47     83.57    180.26  " /><path style="stroke-width: 0.85 ;&st7;   " d=" M    83.57,   180.26  C    83.57    181.04     84.20    181.67     84.99    181.67  " /><path style="stroke-width: 0.85 ;&st7;   " d=" M    84.99,   181.67  C    85.77    181.67     86.40    181.04     86.40    180.26  " /><path style="stroke-width: 0.85 ;&st7;   " d=" M   256.37,   299.24  C   256.37    298.45    255.74    297.82    254.96    297.82  " /><path style="stroke-width: 0.85 ;&st7;   " d=" M   254.96,   297.82  C   254.18    297.82    253.54    298.45    253.54    299.24  " /><path style="stroke-width: 0.85 ;&st7;   " d=" M   253.54,   299.24  C   253.54    300.02    254.18    300.65    254.96    300.65  " /><path style="stroke-width: 0.85 ;&st7;   " d=" M   254.96,   300.65  C   255.74    300.65    256.37    300.02    256.37    299.24  " /><path style="stroke-width: 0.85 ;&st7;   " d=" M   273.37,   307.73  C   273.37    306.95    272.74    306.32    271.95    306.32  " /><path style="stroke-width: 0.85 ;&st7;   " d=" M   271.95,   306.32  C   271.17    306.32    270.54    306.95    270.54    307.73  " /><path style="stroke-width: 0.85 ;&st7;   " d=" M   270.54,   307.73  C   270.54    308.52    271.17    309.15    271.95    309.15  " /><path style="stroke-width: 0.85 ;&st7;   " d=" M   271.95,   309.15  C   272.74    309.15    273.37    308.52    273.37    307.73  " /><path style="stroke-width: 0.85 ;&st7;   " d=" M   260.98,   140.29  C   262.37    138.92    262.40    136.68    261.03    135.28  " /><path style="stroke-width: 0.85 ;&st7;   " d=" M   261.03,   135.28  C   259.66    133.89    257.42    133.86    256.02    135.23  " /><path style="stroke-width: 0.85 ;&st7;   " d=" M   256.02,   135.23  C   255.31    135.93    254.96    136.77    254.96    137.76  " /><path style="stroke-width: 0.85 ;&st7;   " d=" M   265.93,   140.29  C   267.33    138.92    267.35    136.68    265.99    135.28  " /><path style="stroke-width: 0.85 ;&st7;   " d=" M   265.99,   135.28  C   264.62    133.89    262.37    133.86    260.98    135.23  " /><path style="stroke-width: 0.85 ;&st7;   " d=" M   260.98,   135.23  C   259.58    136.60    259.56    138.84    260.93    140.24  " /><path style="stroke-width: 0.85 ;&st7;   " d=" M   260.93,   140.24  C   260.94    140.26    260.96    140.27    260.98    140.29  " /><path style="stroke-width: 0.85 ;&st7;   " d=" M   271.95,   137.76  C   271.95    135.81    270.37    134.22    268.41    134.22  " /><path style="stroke-width: 0.85 ;&st7;   " d=" M   268.41,   134.22  C   266.46    134.22    264.87    135.81    264.87    137.76  " /><path style="stroke-width: 0.85 ;&st7;   " d=" M   264.87,   137.76  C   264.87    138.75    265.23    139.60    265.94    140.29  " /><path style="stroke-width: 0.85 ;&st7;   " d=" M    69.41,   180.26  C    69.41    179.47     68.77    178.84     67.99    178.84  " /><path style="stroke-width: 0.85 ;&st7;   " d=" M    67.99,   178.84  C    67.21    178.84     66.57    179.47     66.57    180.26  " /><path style="stroke-width: 0.85 ;&st7;   " d=" M    66.57,   180.26  C    66.57    181.04     67.21    181.67     67.99    181.67  " /><path style="stroke-width: 0.85 ;&st7;   " d=" M    67.99,   181.67  C    68.77    181.67     69.41    181.04     69.41    180.26  " /><path style="stroke-width: 0.85 ;&st7;   " d=" M    52.41,   282.24  C    52.41    281.46     51.77    280.82     50.99    280.82  " /><path style="stroke-width: 0.85 ;&st7;   " d=" M    50.99,   280.82  C    50.21    280.82     49.58    281.46     49.58    282.24  " /><path style="stroke-width: 0.85 ;&st7;   " d=" M    49.58,   282.24  C    49.58    283.02     50.21    283.65     50.99    283.65  " /><path style="stroke-width: 0.85 ;&st7;   " d=" M    50.99,   283.65  C    51.77    283.65     52.41    283.02     52.41    282.24  " /><path style="stroke-width: 0.85 ;&st7;   " d=" M    52.41,   231.25  C    52.41    230.46     51.77    229.83     50.99    229.83  " /><path style="stroke-width: 0.85 ;&st7;   " d=" M    50.99,   229.83  C    50.21    229.83     49.58    230.46     49.58    231.25  " /><path style="stroke-width: 0.85 ;&st7;   " d=" M    49.58,   231.25  C    49.58    232.03     50.21    232.66     50.99    232.66  " /><path style="stroke-width: 0.85 ;&st7;   " d=" M    50.99,   232.66  C    51.77    232.66     52.41    232.03     52.41    231.25  " /><path style="stroke-width: 0.85 ;&st7;   " d=" M   273.37,   286.49  C   273.37    285.71    272.74    285.07    271.95    285.07  " /><path style="stroke-width: 0.85 ;&st7;   " d=" M   271.95,   285.07  C   271.17    285.07    270.54    285.71    270.54    286.49  " /><path style="stroke-width: 0.85 ;&st7;   " d=" M   270.54,   286.49  C   270.54    287.27    271.17    287.90    271.95    287.90  " /><path style="stroke-width: 0.85 ;&st7;   " d=" M   271.95,   287.90  C   272.74    287.90    273.37    287.27    273.37    286.49  " /><path style="stroke-width: 0.85 ;&st7;   " d=" M   120.40,   579.69  C   120.40    578.91    119.76    578.27    118.98    578.27  " /><path style="stroke-width: 0.85 ;&st7;   " d=" M   118.98,   578.27  C   118.20    578.27    117.56    578.91    117.56    579.69  " /><path style="stroke-width: 0.85 ;&st7;   " d=" M   117.56,   579.69  C   117.56    580.47    118.20    581.10    118.98    581.10  " /><path style="stroke-width: 0.85 ;&st7;   " d=" M   118.98,   581.10  C   119.76    581.10    120.40    580.47    120.40    579.69  " /><path style="stroke-width: 0.85 ;&st7;   " d=" M   120.40,   554.19  C   120.40    553.41    119.76    552.78    118.98    552.78  " /><path style="stroke-width: 0.85 ;&st7;   " d=" M   118.98,   552.78  C   118.20    552.78    117.56    553.41    117.56    554.19  " /><path style="stroke-width: 0.85 ;&st7;   " d=" M   117.56,   554.19  C   117.56    554.97    118.20    555.61    118.98    555.61  " /><path style="stroke-width: 0.85 ;&st7;   " d=" M   118.98,   555.61  C   119.76    555.61    120.40    554.97    120.40    554.19  " /><path style="stroke-width: 0.85 ;&st7;   " d=" M    69.41,   129.26  C    69.41    128.48     68.77    127.85     67.99    127.85  " /><path style="stroke-width: 0.85 ;&st7;   " d=" M    67.99,   127.85  C    67.21    127.85     66.57    128.48     66.57    129.26  " /><path style="stroke-width: 0.85 ;&st7;   " d=" M    66.57,   129.26  C    66.57    130.05     67.21    130.68     67.99    130.68  " /><path style="stroke-width: 0.85 ;&st7;   " d=" M    67.99,   130.68  C    68.77    130.68     69.41    130.05     69.41    129.26  " /><path style="stroke-width: 0.85 ;&st7;  " d=" M   313.25,   285.48  L   312.98,   285.96  L   312.89,   286.49  L   312.98,   287.02  L   313.25,   287.49  L   313.67,   287.84  L   314.18,   288.02  L   314.72,   288.02  L   315.23,   287.84  L   315.64,   287.49  L   315.91,   287.02  L   316.01,   286.49  L   315.91,   285.96  L   315.64,   285.48  L   315.23,   285.14  L   314.72,   284.95  L   314.18,   284.95  L   313.67,   285.14  L   313.25,   285.48  L   313.65,   286.20  L   313.65,   286.78  L   314.02,   287.22  L   314.59,   287.32  L   315.10,   287.03  L   315.30,   286.49  L   315.10,   285.94  L   314.59,   285.65  L   314.02,   285.75  L   314.45,   286.49  " /><path style="stroke-width: 0.85 ;&st7;  " d=" M   330.25,   162.26  L   329.98,   162.73  L   329.89,   163.26  L   329.98,   163.79  L   330.25,   164.26  L   330.67,   164.61  L   331.17,   164.79  L   331.72,   164.79  L   332.22,   164.61  L   332.64,   164.26  L   332.91,   163.79  L   333.00,   163.26  L   332.91,   162.73  L   332.64,   162.26  L   332.22,   161.91  L   331.72,   161.72  L   331.17,   161.72  L   330.67,   161.91  L   330.25,   162.26  L   330.65,   162.97  L   330.65,   163.55  L   331.02,   163.99  L   331.59,   164.09  L   332.10,   163.80  L   332.29,   163.26  L   332.10,   162.71  L   331.59,   162.42  L   331.02,   162.52  L   331.44,   163.26  " /><path style="stroke-width: 0.85 ;&st7;  " d=" M   331.44,   163.26  L   331.44,   286.49  L   314.45,   286.49  " /><path style="stroke-width: 0.85 ;&st7;  " d=" M   229.46,   392.72  L   399.43,   392.72  " /><path style="stroke-width: 0.85 ;&st7;  " d=" M   127.48,   129.26  L   169.97,   129.26  L   169.97,    95.27  " /><path style="stroke-width: 0.28 ;&st9;  " d=" M   322.95,    44.28  L   314.45,    49.94  L   314.45,    38.61  L   322.95,    44.28  " /><path style="stroke-width: 0.85 ;&st7;  " d=" M   313.25,   264.24  L   312.98,   264.71  L   312.89,   265.24  L   312.98,   265.77  L   313.25,   266.24  L   313.67,   266.59  L   314.18,   266.78  L   314.72,   266.78  L   315.23,   266.59  L   315.64,   266.24  L   315.91,   265.77  L   316.01,   265.24  L   315.91,   264.71  L   315.64,   264.24  L   315.23,   263.89  L   314.72,   263.71  L   314.18,   263.71  L   313.67,   263.89  L   313.25,   264.24  L   313.65,   264.95  L   313.65,   265.53  L   314.02,   265.98  L   314.59,   266.08  L   315.10,   265.79  L   315.30,   265.24  L   315.10,   264.69  L   314.59,   264.41  L   314.02,   264.50  L   314.45,   265.24  " /><path style="stroke-width: 0.85 ;&st7;  " d=" M   313.25,   230.24  L   312.98,   230.71  L   312.89,   231.25  L   312.98,   231.78  L   313.25,   232.25  L   313.67,   232.60  L   314.18,   232.78  L   314.72,   232.78  L   315.23,   232.60  L   315.64,   232.25  L   315.91,   231.78  L   316.01,   231.25  L   315.91,   230.71  L   315.64,   230.24  L   315.23,   229.90  L   314.72,   229.71  L   314.18,   229.71  L   313.67,   229.90  L   313.25,   230.24  L   313.65,   230.96  L   313.65,   231.54  L   314.02,   231.98  L   314.59,   232.08  L   315.10,   231.79  L   315.30,   231.25  L   315.10,   230.70  L   314.59,   230.41  L   314.02,   230.51  L   314.45,   231.25  " /><path style="stroke-width: 0.85 ;&st7;  " d=" M   313.25,   196.25  L   312.98,   196.72  L   312.89,   197.25  L   312.98,   197.79  L   313.25,   198.26  L   313.67,   198.60  L   314.18,   198.79  L   314.72,   198.79  L   315.23,   198.60  L   315.64,   198.26  L   315.91,   197.79  L   316.01,   197.25  L   315.91,   196.72  L   315.64,   196.25  L   315.23,   195.90  L   314.72,   195.72  L   314.18,   195.72  L   313.67,   195.90  L   313.25,   196.25  L   313.65,   196.96  L   313.65,   197.54  L   314.02,   197.99  L   314.59,   198.09  L   315.10,   197.80  L   315.30,   197.25  L   315.10,   196.71  L   314.59,   196.42  L   314.02,   196.52  L   314.45,   197.25  " /><path style="stroke-width: 0.85 ;&st7;  " d=" M   313.25,   162.26  L   312.98,   162.73  L   312.89,   163.26  L   312.98,   163.79  L   313.25,   164.26  L   313.67,   164.61  L   314.18,   164.79  L   314.72,   164.79  L   315.23,   164.61  L   315.64,   164.26  L   315.91,   163.79  L   316.01,   163.26  L   315.91,   162.73  L   315.64,   162.26  L   315.23,   161.91  L   314.72,   161.72  L   314.18,   161.72  L   313.67,   161.91  L   313.25,   162.26  L   313.65,   162.97  L   313.65,   163.55  L   314.02,   163.99  L   314.59,   164.09  L   315.10,   163.80  L   315.30,   163.26  L   315.10,   162.71  L   314.59,   162.42  L   314.02,   162.52  L   314.45,   163.26  " /><path style="stroke-width: 0.85 ;&st7;  " d=" M   314.45,   265.24  L   314.45,   256.74  L   311.61,   255.33  L   317.28,   252.49  L   311.61,   249.66  L   317.28,   246.83  L   311.61,   243.99  L   317.28,   241.16  L   314.45,   239.75  L   314.45,   231.25  " /><path style="stroke-width: 0.85 ;&st7;  " d=" M   314.45,   231.25  L   314.45,   222.75  L   311.61,   221.33  L   317.28,   218.50  L   311.61,   215.67  L   317.28,   212.83  L   311.61,   210.00  L   317.28,   207.17  L   314.45,   205.75  L   314.45,   197.25  " /><path style="stroke-width: 0.85 ;&st7;  " d=" M   314.45,   197.25  L   314.45,   188.75  L   311.61,   187.34  L   317.28,   184.50  L   311.61,   181.67  L   317.28,   178.84  L   311.61,   176.01  L   317.28,   173.17  L   314.45,   171.76  L   314.45,   163.26  " /><path style="stroke-width: 0.85 ;&st7;  " d=" M   127.48,   367.22  L   186.97,   367.22  L   186.97,   180.26  " /><path style="stroke-width: 0.85 ;&st7;  " d=" M   101.98,   391.30  L   101.98,   368.64  " /><path style="stroke-width: 0.85 ;&st7;  " d=" M   399.43,   554.19  L   365.44,   554.19  " /><path style="stroke-width: 0.85 ;&st7;  " d=" M    76.49,   456.46  L    76.49,   324.73  " /><path style="stroke-width: 0.85 ;&st7;  " d=" M    93.48,   456.46  L    93.48,   324.73  " /><path style="stroke-width: 0.85 ;&st7;  " d=" M   110.48,   456.46  L   110.48,   324.73  " /><path style="stroke-width: 0.85 ;&st7;  " d=" M   127.48,   354.48  L    42.49,   354.48  " /><path style="stroke-width: 0.85 ;&st7;  " d=" M   127.48,   379.97  L    42.49,   379.97  " /><path style="stroke-width: 0.85 ;&st7;  " d=" M   127.48,   430.96  L    42.49,   430.96  " /><path style="stroke-width: 1.42 ;&st7;  " d=" M    42.49,   307.73  L    42.49,   456.46  L   127.48,   456.46  L   127.48,   307.73  L    42.49,   307.73  " /><path style="stroke-width: 0.85 ;&st7;  " d=" M   127.48,   405.47  L    42.49,   405.47  " /><path style="stroke-width: 0.85 ;&st7;  " d=" M    84.99,   416.80  L    84.99,   368.64  " /><path style="stroke-width: 0.85 ;&st7;  " d=" M    67.99,   442.29  L    67.99,   368.64  " /><path style="stroke-width: 0.85 ;&st7;  " d=" M    59.49,   324.73  L    59.49,   456.46  " /><path style="stroke-width: 0.85 ;&st7;  " d=" M   127.48,    52.78  L    25.50,    52.78  " /><path style="stroke-width: 0.85 ;&st7;  " d=" M   127.48,   154.76  L   178.47,   154.76  L   178.47,   120.77  L   263.46,   120.77  " /><path style="stroke-width: 0.28 ;&st9;  " d=" M   254.96,   120.77  L   246.46,   126.43  L   246.46,   115.10  L   254.96,   120.77  " /><path style="stroke-width: 0.85 ;&st7;  " d=" M   228.27,   285.48  L   228.00,   285.96  L   227.90,   286.49  L   228.00,   287.02  L   228.27,   287.49  L   228.68,   287.84  L   229.19,   288.02  L   229.73,   288.02  L   230.24,   287.84  L   230.65,   287.49  L   230.93,   287.02  L   231.02,   286.49  L   230.93,   285.96  L   230.65,   285.48  L   230.24,   285.14  L   229.73,   284.95  L   229.19,   284.95  L   228.68,   285.14  L   228.27,   285.48  L   228.66,   286.20  L   228.66,   286.78  L   229.04,   287.22  L   229.61,   287.32  L   230.11,   287.03  L   230.31,   286.49  L   230.11,   285.94  L   229.61,   285.65  L   229.04,   285.75  L   229.46,   286.49  " /><path style="stroke-width: 0.85 ;&st7;  " d=" M   317.06,   140.60  L   314.45,   142.34  L   314.45,   150.18  L   311.83,   151.92  " /><path style="stroke-width: 0.28 ;&st9;  " d=" M   314.45,   146.26  L   322.95,   140.60  L   322.95,   151.93  L   314.45,   146.26  " /><path style="stroke-width: 0.85 ;&st7;  " d=" M   228.27,   357.72  L   228.00,   358.19  L   227.90,   358.73  L   228.00,   359.26  L   228.27,   359.73  L   228.68,   360.07  L   229.19,   360.26  L   229.73,   360.26  L   230.24,   360.07  L   230.65,   359.73  L   230.93,   359.26  L   231.02,   358.73  L   230.93,   358.19  L   230.65,   357.72  L   230.24,   357.38  L   229.73,   357.19  L   229.19,   357.19  L   228.68,   357.38  L   228.27,   357.72  L   228.66,   358.43  L   228.66,   359.02  L   229.04,   359.46  L   229.61,   359.56  L   230.11,   359.27  L   230.31,   358.73  L   230.11,   358.18  L   229.61,   357.89  L   229.04,   357.99  L   229.46,   358.73  " /><path style="stroke-width: 0.85 ;&st7;  " d=" M   127.48,   282.24  L   152.97,   282.24  L   152.97,   358.73  L   229.46,   358.73  " /><path style="stroke-width: 0.85 ;&st7;  " d=" M   288.95,   137.76  L   288.53,   137.03  L   289.10,   136.93  L   289.60,   137.22  L   289.80,   137.76  L   289.60,   138.31  L   289.10,   138.60  L   288.53,   138.50  L   288.15,   138.05  L   288.15,   137.47  L   287.76,   136.76  L   288.17,   136.41  L   288.68,   136.23  L   289.22,   136.23  L   289.73,   136.41  L   290.14,   136.76  L   290.42,   137.23  L   290.51,   137.76  L   290.42,   138.30  L   290.14,   138.77  L   289.73,   139.11  L   289.22,   139.30  L   288.68,   139.30  L   288.17,   139.11  L   287.76,   138.77  L   287.49,   138.30  L   287.39,   137.76  L   287.49,   137.23  L   287.76,   136.76  " /><path style="stroke-width: 0.85 ;&st7;  " d=" M   305.95,    78.27  L   305.52,    77.54  L   306.10,    77.44  L   306.60,    77.73  L   306.80,    78.27  L   306.60,    78.82  L   306.10,    79.11  L   305.52,    79.01  L   305.15,    78.56  L   305.15,    77.98  L   304.76,    77.27  L   305.17,    76.92  L   305.68,    76.74  L   306.22,    76.74  L   306.73,    76.92  L   307.14,    77.27  L   307.41,    77.74  L   307.51,    78.27  L   307.41,    78.81  L   307.14,    79.28  L   306.73,    79.62  L   306.22,    79.81  L   305.68,    79.81  L   305.17,    79.62  L   304.76,    79.28  L   304.48,    78.81  L   304.39,    78.27  L   304.48,    77.74  L   304.76,    77.27  " /><path style="stroke-width: 0.85 ;&st7;  " d=" M   331.44,   137.76  L   331.02,   137.03  L   331.59,   136.93  L   332.10,   137.22  L   332.29,   137.76  L   332.10,   138.31  L   331.59,   138.60  L   331.02,   138.50  L   330.65,   138.05  L   330.65,   137.47  L   330.25,   136.76  L   330.67,   136.41  L   331.17,   136.23  L   331.72,   136.23  L   332.22,   136.41  L   332.64,   136.76  L   332.91,   137.23  L   333.00,   137.76  L   332.91,   138.30  L   332.64,   138.77  L   332.22,   139.11  L   331.72,   139.30  L   331.17,   139.30  L   330.67,   139.11  L   330.25,   138.77  L   329.98,   138.30  L   329.89,   137.76  L   329.98,   137.23  L   330.25,   136.76  " /><path style="stroke-width: 0.85 ;&st7;  " d=" M   229.46,    69.77  L   229.04,    69.04  L   229.61,    68.94  L   230.11,    69.23  L   230.31,    69.77  L   230.11,    70.32  L   229.61,    70.61  L   229.04,    70.51  L   228.66,    70.07  L   228.66,    69.48  L   228.27,    68.77  L   228.68,    68.43  L   229.19,    68.24  L   229.73,    68.24  L   230.24,    68.43  L   230.65,    68.77  L   230.93,    69.24  L   231.02,    69.77  L   230.93,    70.31  L   230.65,    70.78  L   230.24,    71.12  L   229.73,    71.31  L   229.19,    71.31  L   228.68,    71.12  L   228.27,    70.78  L   228.00,    70.31  L   227.90,    69.77  L   228.00,    69.24  L   228.27,    68.77  " /><path style="stroke-width: 0.85 ;&st7;  " d=" M   229.46,   137.76  L   229.04,   137.03  L   229.61,   136.93  L   230.11,   137.22  L   230.31,   137.76  L   230.11,   138.31  L   229.61,   138.60  L   229.04,   138.50  L   228.66,   138.05  L   228.66,   137.47  L   228.27,   136.76  L   228.68,   136.41  L   229.19,   136.23  L   229.73,   136.23  L   230.24,   136.41  L   230.65,   136.76  L   230.93,   137.23  L   231.02,   137.76  L   230.93,   138.30  L   230.65,   138.77  L   230.24,   139.11  L   229.73,   139.30  L   229.19,   139.30  L   228.68,   139.11  L   228.27,   138.77  L   228.00,   138.30  L   227.90,   137.76  L   228.00,   137.23  L   228.27,   136.76  " /><path style="stroke-width: 1.42 ;&st7;  " d=" M    17.00,    27.28  L    17.00,   605.18  L   399.43,   605.18  L   399.43,    27.28  L    17.00,    27.28  " /><path style="stroke-width: 0.85 ;&st7;  " d=" M    59.49,   294.99  L    59.49,    52.78  " /><path style="stroke-width: 0.85 ;&st7;  " d=" M    76.49,   294.99  L    76.49,    52.78  " /><path style="stroke-width: 0.85 ;&st7;  " d=" M    93.48,   294.99  L    93.48,    52.78  " /><path style="stroke-width: 0.85 ;&st7;  " d=" M   110.48,   294.99  L   110.48,    52.78  " /><path style="stroke-width: 0.85 ;&st7;  " d=" M   127.48,   116.52  L    25.50,   116.52  " /><path style="stroke-width: 0.85 ;&st7;  " d=" M   127.48,   142.01  L    25.50,   142.01  " /><path style="stroke-width: 0.85 ;&st7;  " d=" M   127.48,   193.00  L    25.50,   193.00  " /><path style="stroke-width: 0.85 ;&st7;  " d=" M   127.48,   218.50  L    25.50,   218.50  " /><path style="stroke-width: 0.85 ;&st7;  " d=" M   127.48,   243.99  L    25.50,   243.99  " /><path style="stroke-width: 0.85 ;&st7;  " d=" M   127.48,   269.49  L    25.50,   269.49  " /><path style="stroke-width: 1.42 ;&st7;  " d=" M    25.50,    35.78  L    25.50,   294.99  L   127.48,   294.99  L   127.48,    35.78  L    25.50,    35.78  " /><path style="stroke-width: 0.85 ;&st7;  " d=" M    67.99,   229.83  L    67.99,   207.17  " /><path style="stroke-width: 0.85 ;&st7;  " d=" M   118.98,   280.82  L   118.98,   258.16  " /><path style="stroke-width: 0.85 ;&st7;  " d=" M   101.98,   280.82  L   101.98,   232.66  " /><path style="stroke-width: 0.85 ;&st7;  " d=" M    84.99,   229.83  L    84.99,   207.17  " /><path style="stroke-width: 0.85 ;&st7;  " d=" M   127.48,   167.51  L    25.50,   167.51  " /><path style="stroke-width: 0.85 ;&st7;  " d=" M    84.99,   178.84  L    84.99,   156.18  " /><path style="stroke-width: 0.85 ;&st7;  " d=" M   263.46,   120.77  L   271.95,   120.77  L   273.37,   117.93  L   276.20,   123.60  L   279.04,   117.93  L   281.87,   123.60  L   284.70,   117.93  L   287.54,   123.60  L   288.95,   120.77  L   297.45,   120.77  " /><path style="stroke-width: 0.85 ;&st7;  " d=" M   229.46,    69.77  L   254.96,    69.77  " /><path style="stroke-width: 0.85 ;&st7;  " d=" M   229.46,   392.72  L   229.46,    44.28  " /><path style="stroke-width: 0.85 ;&st7;  " d=" M   314.45,    78.27  L   297.45,    78.27  " /><path style="stroke-width: 0.85 ;&st7;  " d=" M   297.45,    44.28  L   399.43,    44.28  " /><path style="stroke-width: 1.42 ;&st7;  " d=" M   274.90,   307.49  L   256.37,   299.24  " /><path style="stroke-width: 0.85 ;&st7;  " d=" M   127.48,   180.26  L   186.97,   180.26  L   186.97,   163.26  " /><path style="stroke-width: 0.85 ;&st7;  " d=" M   331.44,   120.77  L   331.02,   120.03  L   331.59,   119.93  L   332.10,   120.22  L   332.29,   120.77  L   332.10,   121.31  L   331.59,   121.60  L   331.02,   121.50  L   330.65,   121.06  L   330.65,   120.47  L   330.25,   119.76  L   330.67,   119.42  L   331.17,   119.23  L   331.72,   119.23  L   332.22,   119.42  L   332.64,   119.76  L   332.91,   120.23  L   333.00,   120.77  L   332.91,   121.30  L   332.64,   121.77  L   332.22,   122.11  L   331.72,   122.30  L   331.17,   122.30  L   330.67,   122.11  L   330.25,   121.77  L   329.98,   121.30  L   329.89,   120.77  L   329.98,   120.23  L   330.25,   119.76  " /><path style="stroke-width: 0.85 ;&st7;  " d=" M   305.95,   137.76  L   331.44,   137.76  " /><path style="stroke-width: 0.85 ;&st7;  " d=" M   237.96,   265.24  L   212.46,   265.24  L   212.46,   443.71  L   127.48,   443.71  " /><path style="stroke-width: 0.85 ;&st7;  " d=" M   365.44,    78.27  L   331.44,    78.27  " /><path style="stroke-width: 0.85 ;&st7;  " d=" M   288.95,   137.76  L   288.95,   146.26  L   331.44,   146.26  L   331.44,    78.27  L   318.70,    78.27  " /><path style="stroke-width: 0.85 ;&st7;  " d=" M   297.45,   120.77  L   297.45,   108.02  L   294.62,   106.60  L   300.28,   103.77  L   294.62,   100.94  L   300.28,    98.10  L   294.62,    95.27  L   300.28,    92.44  L   297.45,    91.02  L   297.45,    78.27  " /><path style="stroke-width: 0.85 ;&st7; stroke-dasharray:3, 1.5;" d=" M   263.46,   143.43  L   263.46,   297.82  " /><path style="stroke-width: 0.85 ;&st7;  " d=" M   260.25,    61.84  L   257.06,    63.98  L   259.50,    65.60  L   260.25,    61.84  L   259.42,    63.07  L   258.08,    63.97  L   259.11,    64.66  L   259.42,    63.07  L   259.01,    63.69  L   258.59,    63.97  L   258.91,    64.19  L   259.01,    63.69  " /><path style="stroke-width: 0.85 ;&st7;  " d=" M   305.95,   137.76  L   300.28,   129.26  " /><path style="stroke-width: 0.85 ;&st7;  " d=" M   305.95,   137.76  L   302.76,   135.63  L   305.21,   134.00  L   305.95,   137.76  L   305.13,   136.53  L   303.78,   135.63  L   304.81,   134.94  L   305.13,   136.53  L   304.72,   135.92  L   304.29,   135.63  L   304.62,   135.41  L   304.72,   135.92  " /><path style="stroke-width: 0.85 ;&st7;  " d=" M    67.99,   178.84  L    67.99,   130.68  " /><path style="stroke-width: 0.85 ;&st7;  " d=" M    42.49,    52.78  L    42.49,   294.99  " /><path style="stroke-width: 0.85 ;&st7;  " d=" M    50.99,   280.82  L    50.99,   232.66  " /><path style="stroke-width: 0.85 ;&st7;  " d=" M   330.25,    77.27  L   329.98,    77.74  L   329.89,    78.27  L   329.98,    78.81  L   330.25,    79.28  L   330.67,    79.62  L   331.17,    79.81  L   331.72,    79.81  L   332.22,    79.62  L   332.64,    79.28  L   332.91,    78.81  L   333.00,    78.27  L   332.91,    77.74  L   332.64,    77.27  L   332.22,    76.92  L   331.72,    76.74  L   331.17,    76.74  L   330.67,    76.92  L   330.25,    77.27  L   330.65,    77.98  L   330.65,    78.56  L   331.02,    79.01  L   331.59,    79.11  L   332.10,    78.82  L   332.29,    78.27  L   332.10,    77.73  L   331.59,    77.44  L   331.02,    77.54  L   331.44,    78.27  " /><path style="stroke-width: 0.85 ;&st7;  " d=" M   296.26,   119.76  L   295.99,   120.23  L   295.89,   120.77  L   295.99,   121.30  L   296.26,   121.77  L   296.67,   122.11  L   297.18,   122.30  L   297.72,   122.30  L   298.23,   122.11  L   298.64,   121.77  L   298.91,   121.30  L   299.01,   120.77  L   298.91,   120.23  L   298.64,   119.76  L   298.23,   119.42  L   297.72,   119.23  L   297.18,   119.23  L   296.67,   119.42  L   296.26,   119.76  L   296.65,   120.47  L   296.65,   121.06  L   297.03,   121.50  L   297.60,   121.60  L   298.10,   121.31  L   298.30,   120.77  L   298.10,   120.22  L   297.60,   119.93  L   297.03,   120.03  L   297.45,   120.77  " /><path style="stroke-width: 1.42 ;&st7;  " d=" M    76.49,   469.21  L    76.49,   592.44  L   127.48,   592.44  L   127.48,   469.21  L    76.49,   469.21  " /><path style="stroke-width: 0.85 ;&st7;  " d=" M   127.48,   256.74  L   161.47,   256.74  L   161.47,   341.73  L   399.43,   341.73  " /><path style="stroke-width: 0.85 ;&st7;  " d=" M   169.97,    95.27  L   254.96,    95.27  L   256.37,    92.44  L   259.21,    98.10  L   262.04,    92.44  L   264.87,    98.10  L   267.71,    92.44  L   270.54,    98.10  L   271.95,    95.27  L   280.45,    95.27  " /><path style="stroke-width: 0.85 ;&st7;  " d=" M   280.45,    95.27  L   280.45,   112.27  L   229.46,   112.27  " /><path style="stroke-width: 0.85 ;&st7;  " d=" M   262.26,    43.28  L   261.99,    43.75  L   261.90,    44.28  L   261.99,    44.81  L   262.26,    45.28  L   262.68,    45.63  L   263.18,    45.81  L   263.73,    45.81  L   264.23,    45.63  L   264.65,    45.28  L   264.92,    44.81  L   265.01,    44.28  L   264.92,    43.75  L   264.65,    43.28  L   264.23,    42.93  L   263.73,    42.74  L   263.18,    42.74  L   262.68,    42.93  L   262.26,    43.28  L   262.66,    43.99  L   262.66,    44.57  L   263.03,    45.01  L   263.60,    45.11  L   264.11,    44.82  L   264.31,    44.28  L   264.11,    43.73  L   263.60,    43.44  L   263.03,    43.54  L   263.46,    44.28  " /><path style="stroke-width: 0.85 ;&st7;  " d=" M   228.27,   111.26  L   228.00,   111.73  L   227.90,   112.27  L   228.00,   112.80  L   228.27,   113.27  L   228.68,   113.62  L   229.19,   113.80  L   229.73,   113.80  L   230.24,   113.62  L   230.65,   113.27  L   230.93,   112.80  L   231.02,   112.27  L   230.93,   111.73  L   230.65,   111.26  L   230.24,   110.92  L   229.73,   110.73  L   229.19,   110.73  L   228.68,   110.92  L   228.27,   111.26  L   228.66,   111.98  L   228.66,   112.56  L   229.04,   113.00  L   229.61,   113.10  L   230.11,   112.81  L   230.31,   112.27  L   230.11,   111.72  L   229.61,   111.43  L   229.04,   111.53  L   229.46,   112.27  " /><path style="stroke-width: 0.85 ;&st7;  " d=" M   253.54,   299.24  L   178.47,   299.24  L   178.47,   205.75  L   127.48,   205.75  " /><path style="stroke-width: 0.85 ;&st7;  " d=" M   229.46,   286.49  L   270.54,   286.49  " /><path style="stroke-width: 0.85 ;&st7;  " d=" M   237.96,   265.24  L   314.45,   265.24  L   314.45,   286.49  " /><path style="stroke-width: 0.85 ;&st7;  " d=" M   348.44,   267.37  L   348.44,   163.26  L   186.97,   163.26  L   186.97,   180.26  " /><path style="stroke-width: 0.85 ;&st7;  " d=" M   348.44,   271.62  L   348.44,   307.73  L   273.37,   307.73  " /><path style="stroke-width: 0.85 ;&st7;  " d=" M   347.25,   289.73  L   346.98,   290.20  L   346.88,   290.74  L   346.98,   291.27  L   347.25,   291.74  L   347.66,   292.09  L   348.17,   292.27  L   348.71,   292.27  L   349.22,   292.09  L   349.63,   291.74  L   349.91,   291.27  L   350.00,   290.74  L   349.91,   290.20  L   349.63,   289.73  L   349.22,   289.39  L   348.71,   289.20  L   348.17,   289.20  L   347.66,   289.39  L   347.25,   289.73  L   347.64,   290.45  L   347.64,   291.03  L   348.02,   291.47  L   348.59,   291.57  L   349.09,   291.28  L   349.29,   290.74  L   349.09,   290.19  L   348.59,   289.90  L   348.02,   290.00  L   348.44,   290.74  " /><path style="stroke-width: 0.85 ;&st7;  " d=" M   348.44,   290.74  L   399.43,   290.74  " /><path style="stroke-width: 0.85 ;&st7;  " d=" M   185.78,   179.25  L   185.50,   179.72  L   185.41,   180.26  L   185.50,   180.79  L   185.78,   181.26  L   186.19,   181.60  L   186.70,   181.79  L   187.24,   181.79  L   187.75,   181.60  L   188.16,   181.26  L   188.43,   180.79  L   188.53,   180.26  L   188.43,   179.72  L   188.16,   179.25  L   187.75,   178.91  L   187.24,   178.72  L   186.70,   178.72  L   186.19,   178.91  L   185.78,   179.25  L   186.17,   179.96  L   186.17,   180.55  L   186.54,   180.99  L   187.12,   181.09  L   187.62,   180.80  L   187.82,   180.26  L   187.62,   179.71  L   187.12,   179.42  L   186.54,   179.52  L   186.97,   180.26  " /><path style="stroke-width: 0.85 ;&st7;  " d=" M   273.37,   286.49  L   288.95,   286.49  L   290.37,   283.65  L   293.20,   289.32  L   296.03,   283.65  L   298.87,   289.32  L   301.70,   283.65  L   304.53,   289.32  L   305.95,   286.49  L   314.45,   286.49  " /><path style="stroke-width: 0.85 ;&st7;  " d=" M   314.45,   231.25  L   203.97,   231.25  L   203.97,   418.22  L   127.48,   418.22  " /><path style="stroke-width: 0.85 ;&st7;  " d=" M   127.48,   231.25  L   169.97,   231.25  L   169.97,   316.23  L   399.43,   316.23  " /><path style="stroke-width: 0.85 ;&st7;  " d=" M   365.44,    78.27  L   365.44,   554.19  L   127.48,   554.19  " /><path style="stroke-width: 0.85 ;&st7;  " d=" M   373.94,    44.28  L   373.94,   579.69  L   127.48,   579.69  " /><path style="stroke-width: 0.85 ;&st7;  " d=" M   372.74,    43.28  L   372.47,    43.75  L   372.38,    44.28  L   372.47,    44.81  L   372.74,    45.28  L   373.16,    45.63  L   373.67,    45.81  L   374.21,    45.81  L   374.72,    45.63  L   375.13,    45.28  L   375.40,    44.81  L   375.50,    44.28  L   375.40,    43.75  L   375.13,    43.28  L   374.72,    42.93  L   374.21,    42.74  L   373.67,    42.74  L   373.16,    42.93  L   372.74,    43.28  L   373.14,    43.99  L   373.14,    44.57  L   373.51,    45.01  L   374.08,    45.11  L   374.59,    44.82  L   374.79,    44.28  L   374.59,    43.73  L   374.08,    43.44  L   373.51,    43.54  L   373.94,    44.28  " /><path style="stroke-width: 0.85 ;&st7;  " d=" M   364.25,   553.19  L   363.97,   553.66  L   363.88,   554.19  L   363.97,   554.73  L   364.25,   555.20  L   364.66,   555.54  L   365.17,   555.73  L   365.71,   555.73  L   366.22,   555.54  L   366.63,   555.20  L   366.90,   554.73  L   367.00,   554.19  L   366.90,   553.66  L   366.63,   553.19  L   366.22,   552.84  L   365.71,   552.66  L   365.17,   552.66  L   364.66,   552.84  L   364.25,   553.19  L   364.64,   553.90  L   364.64,   554.48  L   365.01,   554.93  L   365.59,   555.03  L   366.09,   554.74  L   366.29,   554.19  L   366.09,   553.65  L   365.59,   553.36  L   365.01,   553.46  L   365.44,   554.19  " /><path style="stroke-width: 0.85 ;&st7;  " d=" M   127.48,   324.73  L    42.49,   324.73  " /><path style="stroke-width: 0.85 ;&st7;  " d=" M    76.49,   494.70  L   127.48,   494.70  " /><path style="stroke-width: 0.85 ;&st7;  " d=" M    76.49,   541.44  L   127.48,   541.44  " /><path style="stroke-width: 0.85 ;&st7;  " d=" M    76.49,   566.94  L   127.48,   566.94  " /><path style="stroke-width: 0.85 ;&st7;  " d=" M    93.48,   494.70  L    93.48,   592.44  " /><path style="stroke-width: 0.85 ;&st7;  " d=" M   110.48,   494.70  L   110.48,   592.44  " /><path style="stroke-width: 0.85 ;&st7;  " d=" M   118.98,   578.27  L   118.98,   555.61  " /><path style="stroke-width: 0.85 ;&st7;  " d=" M   297.45,   120.77  L   297.45,   129.26  " /><path style="stroke-width: 0.85 ;&st7;  " d=" M   271.95,    69.77  L   280.45,    69.77  L   281.87,    66.94  L   284.70,    72.61  L   287.54,    66.94  L   290.37,    72.61  L   293.20,    66.94  L   296.03,    72.61  L   297.45,    69.77  L   305.95,    69.77  " /><path style="stroke-width: 0.85 ;&st7;  " d=" M   305.95,    69.77  L   305.95,    78.27  " /><path style="stroke-width: 0.85 ;&st7;  " d=" M   297.45,   120.77  L   305.95,   120.77  L   307.37,   117.93  L   310.20,   123.60  L   313.03,   117.93  L   315.86,   123.60  L   318.70,   117.93  L   321.53,   123.60  L   322.95,   120.77  L   331.44,   120.77  " /><path style="stroke-width: 0.85 ;&st7;  " d=" M   229.46,    44.28  L   237.96,    44.28  L   239.38,    41.45  L   242.21,    47.11  L   245.04,    41.45  L   247.88,    47.11  L   250.71,    41.45  L   253.54,    47.11  L   254.96,    44.28  L   263.46,    44.28  " /><path style="stroke-width: 0.85 ;&st7;  " d=" M   263.46,    44.28  L   271.95,    44.28  L   273.37,    41.45  L   276.20,    47.11  L   279.04,    41.45  L   281.87,    47.11  L   284.70,    41.45  L   287.54,    47.11  L   288.95,    44.28  L   297.45,    44.28  " /><path style="stroke-width: 0.85 ;&st7;  " d=" M   314.45,   197.25  L   195.47,   197.25  L   195.47,   392.72  L   127.48,   392.72  " /><text style="&st18;" transform="matrix(&st17;  67.13  348.62 )">P4 <tspan x="0 " dy="6.0">(FAST)</tspan></text><text style="&st18;" transform="matrix(&st17;  86.96  342.65 )">P3</text><text style="&st18;" transform="matrix(&st17;  118.13  349.67 )">P1 <tspan x="0 " dy="6.0">(SLOW)</tspan></text><text style="&st18;" transform="matrix(&st17;  52.96  420.02 )">A</text><text style="&st18;" transform="matrix(&st17;  52.96  394.41 )">B</text><text style="&st18;" transform="matrix(&st17;  52.96  445.32 )">F</text><text style="&st18;" transform="matrix(&st16;  66.98  315.38 )" ewd:textID="10">Intermittent <tspan x="0 " dy="6.0">Timing Switch</tspan></text><text style="&st18;" transform="matrix(&st17;  35.96  132.5 )">B1</text><text style="&st18;" transform="matrix(&st17;  103.95  89.63 )" ewd:textID="11">Low</text><text style="&st18;" transform="matrix(&st17;  52.96  89.98 )" ewd:textID="12">Mist</text><text style="&st18;" transform="matrix(&st17;  69.96  88.31 )" ewd:textID="21">Off</text><text style="&st18;" transform="matrix(&st17;  86.96  99.71 )" ewd:textID="9">Intermittent</text><text style="&st18;" transform="matrix(&st17;  120.95  90.41 )" ewd:textID="8">High</text><text style="&st18;" transform="matrix(&st16;  387.2  550.5 )">EW</text><text style="&st18;" transform="matrix(&st16;  387.2  40.59 )">WF</text><text style="&st18;" transform="matrix(&st16;  390.15  287.05 )">+S</text><text style="&st18;" transform="matrix(&st16;  390.15  312.54 )">+1</text><text style="&st18;" transform="matrix(&st16;  389.37  389.03 )">+B</text><text style="&st18;" transform="matrix(&st16;  390.15  338.04 )">+2</text><text style="&st18;" transform="matrix(&st17;  35.96  186.44 )">INT1</text><text style="&st18;" transform="matrix(&st17;  35.96  160.95 )">INT2</text><text style="&st18;" transform="matrix(&st17;  35.96  208.6 )">+S</text><text style="&st18;" transform="matrix(&st17;  35.96  234.1 )">+1</text><text style="&st18;" transform="matrix(&st17;  35.96  259.59 )">+2</text><text style="&st18;" transform="matrix(&st17;  35.96  287.03 )">+B1</text><text style="&st18;" transform="matrix(&st16;  59.49  46.25 )" ewd:textID="27">Wiper Switch</text><text style="&st18;" transform="matrix(&st17;  86.96  558.52 )">EW</text><text style="&st18;" transform="matrix(&st17;  120.95  521.74 )" ewd:textID="22">On</text><text style="&st18;" transform="matrix(&st17;  103.95  521.74 )" ewd:textID="21">Off</text><text style="&st18;" transform="matrix(&st17;  86.96  584.01 )">WF</text><text style="&st18;" transform="matrix(&st16;  92.19  481.1 )" ewd:textID="23">Washer <tspan x="0 " dy="6.0">Switch</tspan></text><text style="&st18;" transform="matrix(&st17;  103.95  342.65 )">P2</text><text style="&st18;" transform="matrix(&st17;  52.96  373.99 )">COM</text><g ewd:code="" ewd:figID="43" ewd:comment="5" ewd:figtype="commref"><text style="&st18;" transform="matrix(&st16;  283.74  204.89 )">(*5)</text></g><g ewd:code="" ewd:figID="45" ewd:comment="5" ewd:figtype="commref"><text style="&st18;" transform="matrix(&st16;  283.74  238.88 )">(*5)</text></g><g ewd:code="" ewd:figID="44" ewd:comment="5" ewd:figtype="commref"><text style="&st18;" transform="matrix(&st16;  283.74  272.88 )">(*5)</text></g><g ewd:code="" ewd:figID="49" ewd:comment="5" ewd:figtype="commref"><text style="&st18;" transform="matrix(&st16;  147.76  374.86 )">(*5)</text></g><g ewd:code="" ewd:figID="50" ewd:comment="5" ewd:figtype="commref"><text style="&st18;" transform="matrix(&st16;  147.76  400.35 )">(*5)</text></g><g ewd:code="" ewd:figID="48" ewd:comment="5" ewd:figtype="commref"><text style="&st18;" transform="matrix(&st16;  147.76  425.85 )">(*5)</text></g><g ewd:code="" ewd:figID="47" ewd:comment="5" ewd:figtype="commref"><text style="&st18;" transform="matrix(&st16;  147.76  451.35 )">(*5)</text></g><g ewd:code="" ewd:figID="46" ewd:comment="6" ewd:figtype="commref"><text style="&st18;" transform="matrix(&st17;  339.08  227.46 )">(*6)</text></g><text style="&st18;" transform="matrix(&st16;  411.23  547.66 )">7</text><text style="&st18;" transform="matrix(&st16;  402.17  547.66 )">4</text><text style="&st18;" transform="matrix(&st16;  401.66  556.16 )">A</text><path style="stroke-width: 1.42 ;&st7;   " d=" M   417.56,   554.19  C   417.56    551.69    415.53    549.66    413.03    549.66  " /><path style="stroke-width: 1.42 ;&st7;   " d=" M   413.03,   549.66  C   410.53    549.66    408.50    551.69    408.50    554.19  " /><path style="stroke-width: 1.42 ;&st7;   " d=" M   408.50,   554.19  C   408.50    556.70    410.53    558.73    413.03    558.73  " /><path style="stroke-width: 1.42 ;&st7;   " d=" M   413.03,   558.73  C   415.53    558.73    417.56    556.70    417.56    554.19  " /><path style="stroke-width: 1.42 ;&st7;   " d=" M   408.50,   554.19  C   408.50    551.69    406.47    549.66    403.97    549.66  " /><path style="stroke-width: 1.42 ;&st7;   " d=" M   403.97,   549.66  C   401.46    549.66    399.43    551.69    399.43    554.19  " /><path style="stroke-width: 1.42 ;&st7;   " d=" M   399.43,   554.19  C   399.43    556.70    401.46    558.73    403.97    558.73  " /><path style="stroke-width: 1.42 ;&st7;   " d=" M   403.97,   558.73  C   406.47    558.73    408.50    556.70    408.50    554.19  " /><text style="&st18;" transform="matrix(&st16;  410.73  556.16 )">A</text><text style="&st18;" transform="matrix(&st16;  402.17  386.19 )">2</text><text style="&st18;" transform="matrix(&st16;  411.23  386.19 )">3</text><path style="stroke-width: 1.42 ;&st7;   " d=" M   417.56,   392.72  C   417.56    390.22    415.53    388.19    413.03    388.19  " /><path style="stroke-width: 1.42 ;&st7;   " d=" M   413.03,   388.19  C   410.53    388.19    408.50    390.22    408.50    392.72  " /><path style="stroke-width: 1.42 ;&st7;   " d=" M   408.50,   392.72  C   408.50    395.22    410.53    397.25    413.03    397.25  " /><path style="stroke-width: 1.42 ;&st7;   " d=" M   413.03,   397.25  C   415.53    397.25    417.56    395.22    417.56    392.72  " /><text style="&st18;" transform="matrix(&st16;  410.84  394.69 )">B</text><text style="&st18;" transform="matrix(&st16;  401.78  394.69 )">B</text><path style="stroke-width: 1.42 ;&st7;   " d=" M   408.50,   392.72  C   408.50    390.22    406.47    388.19    403.97    388.19  " /><path style="stroke-width: 1.42 ;&st7;   " d=" M   403.97,   388.19  C   401.46    388.19    399.43    390.22    399.43    392.72  " /><path style="stroke-width: 1.42 ;&st7;   " d=" M   399.43,   392.72  C   399.43    395.22    401.46    397.25    403.97    397.25  " /><path style="stroke-width: 1.42 ;&st7;   " d=" M   403.97,   397.25  C   406.47    397.25    408.50    395.22    408.50    392.72  " /><text style="&st18;" transform="matrix(&st16;  411.23  335.2 )">1</text><text style="&st18;" transform="matrix(&st16;  402.17  335.2 )">4</text><text style="&st18;" transform="matrix(&st16;  401.78  343.7 )">B</text><path style="stroke-width: 1.42 ;&st7;   " d=" M   417.56,   341.73  C   417.56    339.22    415.53    337.20    413.03    337.20  " /><path style="stroke-width: 1.42 ;&st7;   " d=" M   413.03,   337.20  C   410.53    337.20    408.50    339.22    408.50    341.73  " /><path style="stroke-width: 1.42 ;&st7;   " d=" M   408.50,   341.73  C   408.50    344.23    410.53    346.26    413.03    346.26  " /><path style="stroke-width: 1.42 ;&st7;   " d=" M   413.03,   346.26  C   415.53    346.26    417.56    344.23    417.56    341.73  " /><text style="&st18;" transform="matrix(&st16;  410.84  343.7 )">B</text><path style="stroke-width: 1.42 ;&st7;   " d=" M   408.50,   341.73  C   408.50    339.22    406.47    337.20    403.97    337.20  " /><path style="stroke-width: 1.42 ;&st7;   " d=" M   403.97,   337.20  C   401.46    337.20    399.43    339.22    399.43    341.73  " /><path style="stroke-width: 1.42 ;&st7;   " d=" M   399.43,   341.73  C   399.43    344.23    401.46    346.26    403.97    346.26  " /><path style="stroke-width: 1.42 ;&st7;   " d=" M   403.97,   346.26  C   406.47    346.26    408.50    344.23    408.50    341.73  " /><text style="&st18;" transform="matrix(&st16;  411.23  309.7 )">2</text><text style="&st18;" transform="matrix(&st16;  402.17  309.7 )">3</text><text style="&st18;" transform="matrix(&st16;  410.84  318.2 )">B</text><path style="stroke-width: 1.42 ;&st7;   " d=" M   408.50,   316.23  C   408.50    313.73    406.47    311.70    403.97    311.70  " /><path style="stroke-width: 1.42 ;&st7;   " d=" M   403.97,   311.70  C   401.46    311.70    399.43    313.73    399.43    316.23  " /><path style="stroke-width: 1.42 ;&st7;   " d=" M   399.43,   316.23  C   399.43    318.74    401.46    320.77    403.97    320.77  " /><path style="stroke-width: 1.42 ;&st7;   " d=" M   403.97,   320.77  C   406.47    320.77    408.50    318.74    408.50    316.23  " /><path style="stroke-width: 1.42 ;&st7;   " d=" M   417.56,   316.23  C   417.56    313.73    415.53    311.70    413.03    311.70  " /><path style="stroke-width: 1.42 ;&st7;   " d=" M   413.03,   311.70  C   410.53    311.70    408.50    313.73    408.50    316.23  " /><path style="stroke-width: 1.42 ;&st7;   " d=" M   408.50,   316.23  C   408.50    318.74    410.53    320.77    413.03    320.77  " /><path style="stroke-width: 1.42 ;&st7;   " d=" M   413.03,   320.77  C   415.53    320.77    417.56    318.74    417.56    316.23  " /><text style="&st18;" transform="matrix(&st16;  401.78  318.2 )">B</text><text style="&st18;" transform="matrix(&st16;  402.17  284.21 )">1</text><text style="&st18;" transform="matrix(&st16;  411.23  284.21 )">4</text><path style="stroke-width: 1.42 ;&st7;   " d=" M   417.56,   290.74  C   417.56    288.23    415.53    286.20    413.03    286.20  " /><path style="stroke-width: 1.42 ;&st7;   " d=" M   413.03,   286.20  C   410.53    286.20    408.50    288.23    408.50    290.74  " /><path style="stroke-width: 1.42 ;&st7;   " d=" M   408.50,   290.74  C   408.50    293.24    410.53    295.27    413.03    295.27  " /><path style="stroke-width: 1.42 ;&st7;   " d=" M   413.03,   295.27  C   415.53    295.27    417.56    293.24    417.56    290.74  " /><text style="&st18;" transform="matrix(&st16;  401.78  292.71 )">B</text><path style="stroke-width: 1.42 ;&st7;   " d=" M   408.50,   290.74  C   408.50    288.23    406.47    286.20    403.97    286.20  " /><path style="stroke-width: 1.42 ;&st7;   " d=" M   403.97,   286.20  C   401.46    286.20    399.43    288.23    399.43    290.74  " /><path style="stroke-width: 1.42 ;&st7;   " d=" M   399.43,   290.74  C   399.43    293.24    401.46    295.27    403.97    295.27  " /><path style="stroke-width: 1.42 ;&st7;   " d=" M   403.97,   295.27  C   406.47    295.27    408.50    293.24    408.50    290.74  " /><text style="&st18;" transform="matrix(&st16;  410.84  292.71 )">B</text><text style="&st18;" transform="matrix(&st16;  402.17  37.75 )">7</text><text style="&st18;" transform="matrix(&st16;  411.23  37.75 )">4</text><text style="&st18;" transform="matrix(&st16;  401.66  46.25 )">A</text><path style="stroke-width: 1.42 ;&st7;   " d=" M   417.56,    44.28  C   417.56     41.77    415.53     39.75    413.03     39.75  " /><path style="stroke-width: 1.42 ;&st7;   " d=" M   413.03,    39.75  C   410.53     39.75    408.50     41.77    408.50     44.28  " /><path style="stroke-width: 1.42 ;&st7;   " d=" M   408.50,    44.28  C   408.50     46.78    410.53     48.81    413.03     48.81  " /><path style="stroke-width: 1.42 ;&st7;   " d=" M   413.03,    48.81  C   415.53     48.81    417.56     46.78    417.56     44.28  " /><text style="&st18;" transform="matrix(&st16;  410.73  46.25 )">A</text><path style="stroke-width: 1.42 ;&st7;   " d=" M   408.50,    44.28  C   408.50     41.77    406.47     39.75    403.97     39.75  " /><path style="stroke-width: 1.42 ;&st7;   " d=" M   403.97,    39.75  C   401.46     39.75    399.43     41.77    399.43     44.28  " /><path style="stroke-width: 1.42 ;&st7;   " d=" M   399.43,    44.28  C   399.43     46.78    401.46     48.81    403.97     48.81  " /><path style="stroke-width: 1.42 ;&st7;   " d=" M   403.97,    48.81  C   406.47     48.81    408.50     46.78    408.50     44.28  " /><g ewd:figtype="title"><text style="&st18;" transform="matrix(&st16;  149.56  612.79 )">G18(A),G19(B)</text><text style="&st18;" transform="matrix(&st16;  149.57  619.9 )" ewd:textID="26">Windshield Wiper Switch Assembly</text></g><g ewd:code="" ewd:figID="23" ewd:comment="10" ewd:figtype="commref"><text style="&st18;" transform="matrix(&st17;  415.01  586.66 )">(RHD *10)</text></g><g ewd:code="" ewd:figID="24" ewd:comment="11" ewd:figtype="commref"><text style="&st18;" transform="matrix(&st17;  405.94  600.93 )">(LHD,RHD *11)</text></g></g><g ewd:figtype="gp" ewd:figID="14" ewd:code="GB"><path style="stroke-width: 0.85 ;&st7;  " d=" M   440.51,   710.00  L   443.34,   710.00  " /><path style="stroke-width: 0.85 ;&st7;  " d=" M   439.09,   707.17  L   444.76,   707.17  " /><path style="stroke-width: 0.85 ;&st7;  " d=" M   437.68,   704.33  L   446.18,   704.33  " /><path style="stroke-width: 0.85 ;&st7;  " d=" M   433.43,   701.50  L   450.42,   701.50  " /><path style="stroke-width: 0.85 ;&st7;  " d=" M   441.93,   697.25  L   441.93,   701.50  " /></g><g ewd:figtype="gp" ewd:figID="15" ewd:code="GD"><path style="stroke-width: 0.85 ;&st7;  " d=" M   483.00,   710.00  L   485.84,   710.00  " /><path style="stroke-width: 0.85 ;&st7;  " d=" M   481.59,   707.17  L   487.25,   707.17  " /><path style="stroke-width: 0.85 ;&st7;  " d=" M   480.17,   704.33  L   488.67,   704.33  " /><path style="stroke-width: 0.85 ;&st7;  " d=" M   475.92,   701.50  L   492.92,   701.50  " /><path style="stroke-width: 0.85 ;&st7;  " d=" M   484.42,   697.25  L   484.42,   701.50  " /></g></svg>