﻿<?xml version="1.0" encoding="utf-8"?>
<!DOCTYPE svg PUBLIC "-//W3C//DTD SVG 1.0//EN" "http://www.w3.org/TR/2001/REC-SVG-20010904/DTD/svg10.dtd"[
	<!ENTITY ns_flows "http://ns.adobe.com/Flows/1.0/">
	<!ENTITY ns_svg "http://www.w3.org/2000/svg">
	<!ENTITY ns_xlink "http://www.w3.org/1999/xlink">
	<!ENTITY st0 "font-size:7px;font-family:'MS-PGothic';adobe-font-script:japanese;">
	<!ENTITY st1 "font-size:6px;font-family:'ArialMT';">
	<!-- White fill  -->
	<!ENTITY st2 "fill:#FFFFFF;stroke:#000000; stroke-width:1.41;stroke-linecap:round;stroke-linejoin:round;">
	<!-- Yellow fill  -->
	<!ENTITY st3 "fill:#FFFFCC;stroke:#FFFFCC; stroke-width:0.1;stroke-linecap:round;stroke-linejoin:round;">
	<!-- Gray fill  -->
	<!ENTITY st4 "fill:#CCCCCC;stroke:#CCCCCC; stroke-width:0.1;stroke-linecap:round;stroke-linejoin:round;">
	<!-- Light-blue fill -->
	<!ENTITY st5 "fill:#CCECF4;stroke:#000000; stroke-width:1.133;stroke-linecap:round;stroke-linejoin:round;">
	<!ENTITY st6 "fill:none;stroke-linecap:butt; stroke-linejoin:round;">
	<!ENTITY st7 "fill:none;stroke:#000000;stroke-linecap:round;stroke-linejoin:round;">
	<!ENTITY st8 "enable-background:new    ;">
	<!-- Black fill -->
	<!ENTITY st9 "fill:#000000;stroke:#000000; stroke-linecap:round;stroke-linejoin:round;">
	<!-- SRS note   -->
	<!ENTITY st10 "font-size:9px;font-family:'ArialMT';">
	<!ENTITY st11 "font-size:9px;font-family:'Svg Symbol';">
	<!ENTITY st12 "font-size:6px;font-family:'Svg Symbol';">
	<!ENTITY st13 "fill:none;stroke:#ff0000;stroke-linecap:round;stroke-linejoin:round;">
	<!-- Yellow fill  -->
	<!ENTITY st14 "fill:#FFFF00;stroke:#FFFF00; stroke-width:0.1;stroke-linecap:round;stroke-linejoin:round;">
	<!ENTITY st15 "font-size:6px;font-family:'MS-PGothic';adobe-font-script:japanese;">
	<!ENTITY st16 "1.00 0.00 0.00 1.00">
	<!ENTITY st17 "0.00 -1.00 1.00 0.00">
	<!ENTITY st18 "font-size:6px;font-family:'Arial';">
	<!ENTITY st19 "font-size:9px;font-family:'Arial';">
	<!ENTITY st20 "font-size:6px;font-family:'MS-PGothic','MS PGothic';adobe-font-script:japanese;">
	<!ENTITY st21 "font-size:7px;font-family:'MS-PGothic','MS PGothic';adobe-font-script:japanese;">
	<!ATTLIST svg
		xmlns:ewd CDATA #FIXED "http://shcl.co.jp/ewd"
		xmlns:a CDATA #FIXED "http://ns.adobe.com/AdobeSVGViewerExtensions/3.0/"
		ewd:ver CDATA #IMPLIED
	>
	<!ATTLIST a
		ewd:lineID CDATA #IMPLIED
		ewd:groupID CDATA #IMPLIED
		ewd:figtype CDATA #IMPLIED
		ewd:code CDATA #IMPLIED
		ewd:figID CDATA #IMPLIED
		ewd:pinNo CDATA #IMPLIED
		ewd:comment CDATA #IMPLIED >
	<!ATTLIST g
		ewd:lineID CDATA #IMPLIED
		ewd:groupID CDATA #IMPLIED
		ewd:figtype CDATA #IMPLIED
		ewd:code CDATA #IMPLIED
		ewd:figID CDATA #IMPLIED
		ewd:pinNo CDATA #IMPLIED
		ewd:comment CDATA #IMPLIED >
	<!ATTLIST text
		ewd:textID CDATA #IMPLIED >
	<!ATTLIST title
		ewd:textID CDATA #IMPLIED >
]>
<!-- Generator: Shintec Hozumi YS   -->
<svg onload="call_execInitLoadProc_svg('system')" style="overflow:visible;  enable-background:new 0 0 1029.809 710.000" viewBox="0 0 1029.809 710.000" height="710.000" width="1029.809" xml:space="preserve" ewd:ver="2.1.2.9" xmlns="&ns_svg;" xmlns:a="http://ns.adobe.com/AdobeSVGViewerExtensions/3.0/" xmlns:ewd="http://shcl.co.jp/ewd" xmlns:xlink="&ns_xlink;"><script type="text/javascript" xlink:href="../../../../../system/js/ewd/fig/svgfig.js" xmlns:xlink="http://www.w3.org/1999/xlink" />
<g id="ewd_top"><a ewd:figtype="conn" style="cursor:pointer;" ewd:code="A2" ewd:figID="1"><path style="fill:#CCECF4;stroke:#000000; stroke-width:1.133; stroke-linecap:round;stroke-linejoin:round; " d=" M   599.15,   223.89  L   599.15,   223.89  L   599.15,   219.92  L   607.65,   219.92  L   607.65,   223.89  C   609.00    224.67    609.98    225.64    610.76    226.99  L   610.76,   226.99  C   613.11    231.06    611.72    236.26    607.65    238.61  L   607.65,   238.61  L   607.65,   242.58  L   599.15,   242.58  L   599.15,   238.61  C   597.80    237.82    596.82    236.85    596.04    235.49  L   596.04,   235.49  C   593.69    231.43    595.09    226.23    599.15    223.88 " /><title ewd:textID="24">Windshield Washer Motor and Pump Assembly</title></a><a ewd:figtype="conn" style="cursor:pointer;" ewd:code="A1" ewd:figID="2"><path style="fill:#CCECF4;stroke:#000000; stroke-width:1.133; stroke-linecap:round;stroke-linejoin:round; " d=" M   764.87,   180.26  L   951.84,   180.26  L   951.84,   214.25  L   764.87,   214.25  L   764.87,   180.26 " /><title ewd:textID="25">Windshield Wiper Motor Assembly</title></a><a ewd:figtype="conn" style="cursor:pointer;" ewd:code="G57,G93" ewd:figID="3"><path style="fill:#CCECF4;stroke:#000000; stroke-width:1.133; stroke-linecap:round;stroke-linejoin:round; " d=" M   594.90,    95.27  L   611.90,    95.27  L   611.90,   112.27  L   594.90,   112.27  L   594.90,    95.27 " /><title ewd:textID="16">No. 17 Junction Connector , No. 26 Junction Connector</title></a><a ewd:figtype="conn" style="cursor:pointer;" ewd:code="A50" ewd:figID="4"><path style="fill:#CCECF4;stroke:#000000; stroke-width:1.133; stroke-linecap:round;stroke-linejoin:round; " d=" M   926.35,   656.18  L   943.34,   656.18  L   943.34,   673.17  L   926.35,   673.17  L   926.35,   656.18 " /><title ewd:textID="13">No. 2 Ground Junction Connector</title></a><a ewd:figtype="conn" style="cursor:pointer;" ewd:code="A52" ewd:figID="5"><path style="fill:#CCECF4;stroke:#000000; stroke-width:1.133; stroke-linecap:round;stroke-linejoin:round; " d=" M   977.34,   656.18  L   994.33,   656.18  L   994.33,   673.17  L   977.34,   673.17  L   977.34,   656.18 " /><title ewd:textID="14">No. 4 Ground Junction Connector</title></a><a ewd:figtype="conn" style="cursor:pointer;" ewd:code="G59,G103" ewd:figID="6"><path style="fill:#CCECF4;stroke:#000000; stroke-width:1.133; stroke-linecap:round;stroke-linejoin:round; " d=" M   875.35,   562.69  L   892.35,   562.69  L   892.35,   579.69  L   875.35,   579.69  L   875.35,   562.69 " /><title ewd:textID="20">No. 36 Junction Connector , No. 19 Junction Connector</title></a><a ewd:figtype="conn" style="cursor:pointer;" ewd:code="G18,G19" ewd:figID="7"><path style="fill:#CCECF4;stroke:#000000; stroke-width:1.133; stroke-linecap:round;stroke-linejoin:round; " d=" M    17.00,    27.28  L    17.00,   605.18  L   399.43,   605.18  L   399.43,    27.28  L    17.00,    27.28 " /><title ewd:textID="26">Windshield Wiper Switch Assembly</title></a><a ewd:figtype="jb" style="cursor:pointer;" ewd:code="2" ewd:figID="8"><path style="&st4; " d=" M   654.39,    35.78  L   790.37,    35.78  L   790.37,   120.77  L   654.39,   120.77  L   654.39,    35.78  " /></a><a ewd:figtype="fuse" style="cursor:pointer;" ewd:code="FUSE65" ewd:figID="18"><path style="&st7; stroke-width:0;" d=" M   658.64,    35.78  L   658.64,    78.27  L   684.14,    78.27  L   684.14,    35.78  L   658.64,    35.78 " /></a><a ewd:figtype="fuse" style="cursor:pointer;" ewd:code="FUSE71" ewd:figID="19"><path style="&st7; stroke-width:0;" d=" M   726.63,    35.78  L   726.63,    78.27  L   752.12,    78.27  L   752.12,    35.78  L   726.63,    35.78 " /></a><a style="cursor:pointer;" ewd:lineID="1"><path style="stroke:#000000;stroke-width: 5.10 ;&st6;" d=" M   417.56,   554.19  L   484.42,   554.19  L   484.42,   681.67  " /><path style="stroke:#FFFFFF;stroke-width: 4.53 ;&st6;" d=" M   417.56,   554.19  L   484.42,   554.19  L   484.42,   681.67  " /><path style="stroke:#000000;stroke-width: 1.13 ;&st6;" d=" M   417.56,   554.19  L   484.42,   554.19  L   484.42,   681.67  " /></a><a ewd:comment="3,9" style="cursor:pointer;" ewd:lineID="2"><path style="stroke:#00A0C6;stroke-width: 5.10 ;&st6;" d=" M   417.56,   392.72  L   424.93,   392.72  L   433.43,   401.22  L   433.43,   418.22  L   739.38,   418.22  L   739.38,   120.77  " /></a><a ewd:comment="1" style="cursor:pointer;" ewd:lineID="3"><path style="stroke:#008837;stroke-width: 5.10 ;&st6;" d=" M   417.56,   341.73  L   424.93,   341.73  L   433.43,   350.23  L   433.43,   367.22  L   594.90,   367.22  L   594.90,   622.18  L   883.85,   622.18  L   883.85,   597.82  " /></a><a style="cursor:pointer;" ewd:lineID="4"><path style="stroke:#F668B2;stroke-width: 5.10 ;&st6;" d=" M   417.56,   316.23  L   645.89,   316.23  L   645.89,   469.21  L   832.86,   469.21  L   832.86,   322.46  " /></a><a style="cursor:pointer;" ewd:lineID="5"> d=" M   417.56,   290.74  L   671.39,   290.74  L   671.39,   443.71  L   781.87,   443.71  L   781.87,   322.75 
	
		<path style="stroke:#000000;stroke-width: 5.10 ;&st6;" d=" M   417.56,   290.74  L   671.39,   290.74  L   671.39,   443.71  L   781.87,   443.71  L   781.87,   322.75  " /><path style="stroke:#FFFFFF;stroke-width: 4.53 ;&st6;" d=" M   417.56,   290.74  L   671.39,   290.74  L   671.39,   443.71  L   781.87,   443.71  L   781.87,   322.75  " /></a><a style="cursor:pointer;" ewd:lineID="6"><path style="stroke:#000000;stroke-width: 5.10 ;&st6;" d=" M   441.93,   681.67  L   441.93,   571.19  L   424.93,   554.19  L   417.56,   554.19  " /><path style="stroke:#FFFFFF;stroke-width: 4.53 ;&st6;" d=" M   441.93,   681.67  L   441.93,   571.19  L   424.93,   554.19  L   417.56,   554.19  " /><path style="stroke:#000000;stroke-width: 1.13 ;&st6;" d=" M   441.93,   681.67  L   441.93,   571.19  L   424.93,   554.19  L   417.56,   554.19  " /></a><a style="cursor:pointer;" ewd:lineID="7"><path style="stroke:#000000;stroke-width: 5.10 ;&st6;" d=" M   603.40,   180.26  L   603.40,   219.92  " /></a><a style="cursor:pointer;" ewd:lineID="8"><path style="stroke:#000000;stroke-width: 5.10 ;&st6;" d=" M   603.40,   130.40  L   603.40,   165.52  " /></a><a style="cursor:pointer;" ewd:lineID="9"><path style="stroke:#000000;stroke-width: 5.10 ;&st6;" d=" M   603.40,    77.14  L   603.40,    44.28  L   417.56,    44.28  " /></a><a style="cursor:pointer;" ewd:lineID="10"><path style="stroke:#FF0000;stroke-width: 5.10 ;&st6;" d=" M   671.39,   180.26  L   671.39,   265.24  L   603.40,   265.24  L   603.40,   242.58  " /></a><a style="cursor:pointer;" ewd:lineID="11"><path style="stroke:#FF0000;stroke-width: 5.10 ;&st6;" d=" M   671.39,   120.77  L   671.39,   165.52  " /></a><a ewd:comment="4" style="cursor:pointer;" ewd:lineID="12"><path style="stroke:#00A0C6;stroke-width: 5.10 ;&st6;" d=" M   705.38,   120.77  L   705.38,   392.72  L   417.56,   392.72  " /></a><a style="cursor:pointer;" ewd:lineID="13"> d=" M   781.87,   232.38  L   781.87,   307.73 
	
		<path style="stroke:#000000;stroke-width: 5.10 ;&st6;" d=" M   781.87,   232.38  L   781.87,   307.73  " /><path style="stroke:#FFFFFF;stroke-width: 4.53 ;&st6;" d=" M   781.87,   232.38  L   781.87,   307.73  " /></a><a style="cursor:pointer;" ewd:lineID="14"><path style="stroke:#00A0C6;stroke-width: 5.10 ;&st6;" d=" M   781.87,   120.77  L   781.87,   171.19  " /></a><a ewd:comment="7" style="cursor:pointer;" ewd:lineID="15"><path style="stroke:#00A0C6;stroke-width: 5.10 ;&st6;" d=" M   832.86,   232.38  L   832.86,   239.75  L   841.36,   248.24  L   858.36,   248.24  L   858.36,   290.74  L   841.36,   290.74  L   832.86,   299.24  L   832.86,   307.73  " /></a><a ewd:comment="8" style="cursor:pointer;" ewd:lineID="16"><path style="stroke:#F668B2;stroke-width: 5.10 ;&st6;" d=" M   832.86,   232.38  L   832.86,   307.73  " /></a><a ewd:comment="2" style="cursor:pointer;" ewd:lineID="17"><path style="stroke:#008837;stroke-width: 5.10 ;&st6;" d=" M   883.85,   322.46  L   883.85,   324.73  L   875.35,   333.23  L   858.36,   333.23  L   858.36,   494.70  L   620.40,   494.70  L   620.40,   341.73  L   417.56,   341.73  " /></a><a ewd:comment="1" style="cursor:pointer;" ewd:lineID="18"><path style="stroke:#008837;stroke-width: 5.10 ;&st6;" d=" M   883.85,   322.46  L   883.85,   544.56  " /></a><a style="cursor:pointer;" ewd:lineID="19"><path style="stroke:#008837;stroke-width: 5.10 ;&st6;" d=" M   883.85,   232.38  L   883.85,   307.73  " /></a><a style="cursor:pointer;" ewd:lineID="20"><path style="stroke:#000000;stroke-width: 5.10 ;&st6;" d=" M   934.84,   232.38  L   934.84,   656.18  " /><path style="stroke:#FFFFFF;stroke-width: 4.53 ;&st6;" d=" M   934.84,   232.38  L   934.84,   656.18  " /><path style="stroke:#000000;stroke-width: 1.13 ;&st6;" d=" M   934.84,   232.38  L   934.84,   656.18  " /></a><a style="cursor:pointer;" ewd:lineID="21"><path style="stroke:#000000;stroke-width: 5.10 ;&st6;" d=" M   934.84,   232.38  L   934.84,   239.75  L   943.34,   248.24  L   985.84,   248.24  L   985.84,   656.18  " /><path style="stroke:#FFFFFF;stroke-width: 4.53 ;&st6;" d=" M   934.84,   232.38  L   934.84,   239.75  L   943.34,   248.24  L   985.84,   248.24  L   985.84,   656.18  " /><path style="stroke:#000000;stroke-width: 1.13 ;&st6;" d=" M   934.84,   232.38  L   934.84,   239.75  L   943.34,   248.24  L   985.84,   248.24  L   985.84,   656.18  " /></a><a ewd:figtype="w2w" style="cursor:pointer;" ewd:pinNo="1" ewd:code="AG2" ewd:figID="9"><path style="&st2;" d=" M   611.90,   171.76  L   594.90,   171.76  L   594.90,   180.26  L   611.90,   180.26  L   611.90,   171.76 " /><text style="&st8;" transform="matrix(&st16;  597.76  178.13 )"><tspan x="0" style="&st18;" y="0">AG2</tspan></text></a><a ewd:figtype="w2w" style="cursor:pointer;" ewd:pinNo="17" ewd:code="AG2" ewd:figID="10"><path style="&st2;" d=" M   679.89,   171.76  L   662.89,   171.76  L   662.89,   180.26  L   679.89,   180.26  L   679.89,   171.76 " /><text style="&st8;" transform="matrix(&st16;  665.74  178.13 )"><tspan x="0" style="&st18;" y="0">AG2</tspan></text></a><a ewd:figtype="w2w" style="cursor:pointer;" ewd:pinNo="18" ewd:code="AG2" ewd:figID="11"><path style="&st2;" d=" M   790.37,   307.73  L   773.37,   307.73  L   773.37,   316.23  L   790.37,   316.23  L   790.37,   307.73 " /><text style="&st8;" transform="matrix(&st16;  776.23  314.1 )"><tspan x="0" style="&st18;" y="0">AG2</tspan></text></a><a ewd:figtype="w2w" style="cursor:pointer;" ewd:pinNo="9" ewd:code="AG2" ewd:figID="12"><path style="&st2;" d=" M   841.36,   307.73  L   824.36,   307.73  L   824.36,   316.23  L   841.36,   316.23  L   841.36,   307.73 " /><text style="&st8;" transform="matrix(&st16;  827.22  314.1 )"><tspan x="0" style="&st18;" y="0">AG2</tspan></text></a><a ewd:figtype="w2w" style="cursor:pointer;" ewd:pinNo="10" ewd:code="AG2" ewd:figID="13"><path style="&st2;" d=" M   892.35,   307.73  L   875.35,   307.73  L   875.35,   316.23  L   892.35,   316.23  L   892.35,   307.73 " /><text style="&st8;" transform="matrix(&st16;  878.21  314.1 )"><tspan x="0" style="&st18;" y="0">AG2</tspan></text></a><a ewd:figtype="gp" style="cursor:pointer;" ewd:code="GB" ewd:figID="14"><path style="&st2;" d=" M   431.30,   681.67  L   452.55,   681.67  L   441.93,   697.25  L   431.30,   681.67 " /><text style="&st8;" transform="matrix(&st16;  437.9  689.46 )"><tspan x="0" style="&st18;" y="0">GB</tspan></text></a><a ewd:figtype="gp" style="cursor:pointer;" ewd:code="GD" ewd:figID="15"><path style="&st2;" d=" M   473.80,   681.67  L   495.04,   681.67  L   484.42,   697.25  L   473.80,   681.67 " /><text style="&st8;" transform="matrix(&st16;  480.21  689.46 )"><tspan x="0" style="&st18;" y="0">GD</tspan></text></a><a ewd:figtype="gp" style="cursor:pointer;" ewd:code="AD" ewd:figID="16"><path style="&st2;" d=" M   924.22,   681.67  L   945.47,   681.67  L   934.84,   697.25  L   924.22,   681.67 " /><text style="&st8;" transform="matrix(&st16;  930.78  689.46 )"><tspan x="0" style="&st18;" y="0">AD</tspan></text></a><a ewd:figtype="gp" style="cursor:pointer;" ewd:code="AF" ewd:figID="17"><path style="&st2;" d=" M   975.21,   681.67  L   996.46,   681.67  L   985.84,   697.25  L   975.21,   681.67 " /><text style="&st8;" transform="matrix(&st16;  982.04  689.46 )"><tspan x="0" style="&st18;" y="0">AF</tspan></text></a></g></svg>