﻿<?xml version="1.0" encoding="utf-8"?>
<!DOCTYPE svg PUBLIC "-//W3C//DTD SVG 1.0//EN" "http://www.w3.org/TR/2001/REC-SVG-20010904/DTD/svg10.dtd"[
	<!ENTITY ns_flows "http://ns.adobe.com/Flows/1.0/">
	<!ENTITY ns_svg "http://www.w3.org/2000/svg">
	<!ENTITY ns_xlink "http://www.w3.org/1999/xlink">
	<!ENTITY st0 "font-size:7px;font-family:'MS-PGothic';adobe-font-script:japanese;">
	<!ENTITY st1 "font-size:6px;font-family:'ArialMT';">
	<!-- White fill  -->
	<!ENTITY st2 "fill:#FFFFFF;stroke:#000000; stroke-width:1.41;stroke-linecap:round;stroke-linejoin:round;">
	<!-- Yellow fill  -->
	<!ENTITY st3 "fill:#FFFFCC;stroke:#FFFFCC; stroke-width:0.1;stroke-linecap:round;stroke-linejoin:round;">
	<!-- Gray fill  -->
	<!ENTITY st4 "fill:#CCCCCC;stroke:#CCCCCC; stroke-width:0.1;stroke-linecap:round;stroke-linejoin:round;">
	<!-- Light-blue fill -->
	<!ENTITY st5 "fill:#CCECF4;stroke:#000000; stroke-width:1.133;stroke-linecap:round;stroke-linejoin:round;">
	<!ENTITY st6 "fill:none;stroke-linecap:butt; stroke-linejoin:round;">
	<!ENTITY st7 "fill:none;stroke:#000000;stroke-linecap:round;stroke-linejoin:round;">
	<!ENTITY st8 "enable-background:new    ;">
	<!-- Black fill -->
	<!ENTITY st9 "fill:#000000;stroke:#000000; stroke-linecap:round;stroke-linejoin:round;">
	<!-- SRS note   -->
	<!ENTITY st10 "font-size:9px;font-family:'ArialMT';">
	<!ENTITY st11 "font-size:9px;font-family:'Svg Symbol';">
	<!ENTITY st12 "font-size:6px;font-family:'Svg Symbol';">
	<!ENTITY st13 "fill:none;stroke:#ff0000;stroke-linecap:round;stroke-linejoin:round;">
	<!-- Yellow fill  -->
	<!ENTITY st14 "fill:#FFFF00;stroke:#FFFF00; stroke-width:0.1;stroke-linecap:round;stroke-linejoin:round;">
	<!ENTITY st15 "font-size:6px;font-family:'MS-PGothic';adobe-font-script:japanese;">
	<!ENTITY st16 "1.00 0.00 0.00 1.00">
	<!ENTITY st17 "0.00 -1.00 1.00 0.00">
	<!ENTITY st18 "font-size:6px;font-family:'Arial';">
	<!ENTITY st19 "font-size:9px;font-family:'Arial';">
	<!ENTITY st20 "font-size:6px;font-family:'MS-PGothic','MS PGothic';adobe-font-script:japanese;">
	<!ENTITY st21 "font-size:7px;font-family:'MS-PGothic','MS PGothic';adobe-font-script:japanese;">
	<!ATTLIST svg
		xmlns:ewd CDATA #FIXED "http://shcl.co.jp/ewd"
		xmlns:a CDATA #FIXED "http://ns.adobe.com/AdobeSVGViewerExtensions/3.0/"
		ewd:ver CDATA #IMPLIED
	>
	<!ATTLIST a
		ewd:lineID CDATA #IMPLIED
		ewd:groupID CDATA #IMPLIED
		ewd:figtype CDATA #IMPLIED
		ewd:code CDATA #IMPLIED
		ewd:figID CDATA #IMPLIED
		ewd:pinNo CDATA #IMPLIED
		ewd:comment CDATA #IMPLIED >
	<!ATTLIST g
		ewd:lineID CDATA #IMPLIED
		ewd:groupID CDATA #IMPLIED
		ewd:figtype CDATA #IMPLIED
		ewd:code CDATA #IMPLIED
		ewd:figID CDATA #IMPLIED
		ewd:pinNo CDATA #IMPLIED
		ewd:comment CDATA #IMPLIED >
	<!ATTLIST text
		ewd:textID CDATA #IMPLIED >
	<!ATTLIST title
		ewd:textID CDATA #IMPLIED >
]>
<!-- Generator: Shintec Hozumi YS   -->
<svg onload="call_execInitLoadProc_svg('system')" style="overflow:visible;  enable-background:new 0 0 11402.751 710.000" viewBox="0 0 11402.751 710.000" height="710.000" width="11402.751" xml:space="preserve" ewd:ver="2.1.2.9" xmlns="&ns_svg;" xmlns:a="http://ns.adobe.com/AdobeSVGViewerExtensions/3.0/" xmlns:ewd="http://shcl.co.jp/ewd" xmlns:xlink="&ns_xlink;">
<path d=" M  1699.72,    44.28  L  1699.72,    48.53  " style="stroke-width: 1.42 ;&st7;  " /><path d=" M  1725.21,   664.67  L  1725.21,   668.92  " style="stroke-width: 1.42 ;&st7;  " /><path d=" M  1750.71,   397.69  L  1745.74,   392.72  " style="stroke-width: 1.42 ;&st7;  " /><path d=" M  1733.71,   404.75  L  1738.68,   409.72  " style="stroke-width: 1.42 ;&st7;  " /><path d=" M  1745.74,   409.72  L  1750.71,   404.75  " style="stroke-width: 1.42 ;&st7;  " /><path d=" M  1738.68,   392.72  L  1733.71,   397.69  " style="stroke-width: 1.42 ;&st7;  " /><text style="&st18;" transform="matrix(&st16;  1684.76  363.53 )">W-B</text><text style="&st18;" transform="matrix(&st16;  1683.56  374.86 )">(A/T)</text><text style="&st18;" transform="matrix(&st16;  1684.76  329.53 )">W-B</text><text style="&st18;" transform="matrix(&st16;  1672.23  40.58 )">P</text><text style="&st18;" transform="matrix(&st16;  1738.16  40.58 )">BR</text><path d=" M  1844.19,   593.16  L  1839.22,   588.19  " style="stroke-width: 1.42 ;&st7;  " /><path d=" M  1827.19,   600.22  L  1832.16,   605.18  " style="stroke-width: 1.42 ;&st7;  " /><path d=" M  1839.22,   605.18  L  1844.19,   600.22  " style="stroke-width: 1.42 ;&st7;  " /><path d=" M  1832.17,   588.19  L  1827.19,   593.16  " style="stroke-width: 1.42 ;&st7;  " /><text style="&st18;" transform="matrix(&st16;  1931.22  626.98 )">W-B</text><text style="&st18;" transform="matrix(&st16;  1931.22  592.99 )">W-B</text><text style="&st18;" transform="matrix(&st16;  1931.22  550.5 )">W-B</text><text style="&st18;" transform="matrix(&st16;  1931.22  516.5 )">W-B</text><text style="&st18;" transform="matrix(&st16;  1689.22  660.98 )">P</text><text style="&st18;" transform="matrix(&st16;  1772.15  660.98 )">BR</text><text style="&st18;" transform="matrix(&st17;  1832.0  645.13 )">W-B</text><text style="&st18;" transform="matrix(&st16;  1684.76  397.52 )">W-B</text><text style="&st18;" transform="matrix(&st16;  1683.56  408.85 )">(A/T)</text><text style="&st18;" transform="matrix(&st17;  1738.51  432.67 )">W-B</text><path d=" M  1852.83,   130.28  C  1850.93    132.42   1850.87    135.55   1852.69    137.76  " style="stroke-width: 1.42 ;&st7;   " /><text ewd:textID="6" style="&st18;" transform="matrix(&st16;  1814.46  134.07 )">(Shielded)</text><path d=" M  1708.36,   249.26  C  1706.45    251.40   1706.39    254.53   1708.22    256.74  " style="stroke-width: 1.42 ;&st7;   " /><text ewd:textID="6" style="&st18;" transform="matrix(&st16;  1720.98  253.05 )">(Shielded)</text><path d=" M  1708.36,   283.25  C  1706.45    285.39   1706.39    288.52   1708.22    290.74  " style="stroke-width: 1.42 ;&st7;   " /><text ewd:textID="6" style="&st18;" transform="matrix(&st16;  1720.98  287.04 )">(Shielded)</text><text style="&st18;" transform="matrix(&st16;  1811.94  145.4 )">(1KD-FTV)</text><text style="&st18;" transform="matrix(&st16;  1913.92  51.91 )">(1KD-FTV)</text><text style="&st18;" transform="matrix(&st16;  1922.72  40.58 )">W-B</text><text style="&st18;" transform="matrix(&st17;  1832.0  381.68 )">W-B</text><text style="&st18;" transform="matrix(&st17;  1843.33  383.73 )">(4WD)</text><text style="&st18;" transform="matrix(&st17;  1806.5  381.68 )">W-B</text><text style="&st18;" transform="matrix(&st17;  1772.51  379.27 )">BR</text><text style="&st18;" transform="matrix(&st16;  1835.68  196.39 )">(4WD)</text><text style="&st18;" transform="matrix(&st16;  1837.74  185.06 )">W-B</text><text style="&st18;" transform="matrix(&st16;  1906.59  264.38 )">(2WD 2KD-FTV)</text><text style="&st18;" transform="matrix(&st16;  1922.72  253.05 )">W-B</text><text style="&st18;" transform="matrix(&st16;  1920.67  230.38 )">(4WD)</text><text style="&st18;" transform="matrix(&st16;  1922.72  219.05 )">W-B</text><text ewd:textID="6" style="&st18;" transform="matrix(&st16;  1602.0  261.54 )">(Shielded)</text><path d=" M  1589.38,   257.76  C  1587.47    259.90   1587.41    263.03   1589.24    265.24  " style="stroke-width: 1.42 ;&st7;   " /><path d=" M  1589.38,   232.26  C  1587.47    234.40   1587.41    237.53   1589.24    239.74  " style="stroke-width: 1.42 ;&st7;   " /><text ewd:textID="6" style="&st18;" transform="matrix(&st16;  1602.0  236.05 )">(Shielded)</text><text ewd:textID="6" style="&st18;" transform="matrix(&st16;  1602.0  210.55 )">(Shielded)</text><path d=" M  1589.38,   206.77  C  1587.47    208.91   1587.41    212.04   1589.24    214.25  " style="stroke-width: 1.42 ;&st7;   " /><path d=" M  1589.38,   130.28  C  1587.47    132.42   1587.41    135.55   1589.24    137.76  " style="stroke-width: 1.42 ;&st7;   " /><text ewd:textID="6" style="&st18;" transform="matrix(&st16;  1602.0  134.07 )">(Shielded)</text><text ewd:textID="6" style="&st18;" transform="matrix(&st16;  1602.0  159.56 )">(Shielded)</text><path d=" M  1589.38,   155.77  C  1587.47    157.91   1587.41    161.05   1589.24    163.26  " style="stroke-width: 1.42 ;&st7;   " /><text style="&st18;" transform="matrix(&st16;  1729.66  185.06 )">BR</text><text style="&st18;" transform="matrix(&st16;  1922.72  117.07 )">W-B</text><text style="&st18;" transform="matrix(&st16;  1920.67  128.4 )">(4WD)</text><text style="&st18;" transform="matrix(&st16;  1922.72  151.06 )">W-B</text><text style="&st18;" transform="matrix(&st16;  1920.67  162.39 )">(4WD)</text><text style="&st18;" transform="matrix(&st16;  1922.72  185.06 )">W-B</text><text style="&st18;" transform="matrix(&st16;  1915.09  196.39 )">(4WD *68)</text><path d=" M  1895.18,   185.23  L  1890.21,   180.26  " style="stroke-width: 1.42 ;&st7;  " /><path d=" M  1878.19,   192.28  L  1883.16,   197.25  " style="stroke-width: 1.42 ;&st7;  " /><path d=" M  1890.21,   197.25  L  1895.18,   192.28  " style="stroke-width: 1.42 ;&st7;  " /><path d=" M  1883.16,   180.26  L  1878.19,   185.23  " style="stroke-width: 1.42 ;&st7;  " /><path d=" M  1682.72,   185.23  L  1677.75,   180.26  " style="stroke-width: 1.42 ;&st7;  " /><path d=" M  1665.72,   192.28  L  1670.69,   197.25  " style="stroke-width: 1.42 ;&st7;  " /><path d=" M  1677.75,   197.25  L  1682.72,   192.28  " style="stroke-width: 1.42 ;&st7;  " /><path d=" M  1670.69,   180.26  L  1665.72,   185.23  " style="stroke-width: 1.42 ;&st7;  " /><path d=" M  1589.38,   181.27  C  1587.47    183.41   1587.41    186.54   1589.24    188.75  " style="stroke-width: 1.42 ;&st7;   " /><text ewd:textID="6" style="&st18;" transform="matrix(&st16;  1602.0  185.06 )">(Shielded)</text><text style="&st18;" transform="matrix(&st16;  1922.72  295.54 )">W-B</text><text style="&st18;" transform="matrix(&st16;  1922.72  329.53 )">W-B</text><text style="&st18;" transform="matrix(&st16;  1922.72  363.53 )">W-B</text><path d=" M  1895.18,   329.70  L  1890.21,   324.73  " style="stroke-width: 1.42 ;&st7;  " /><path d=" M  1878.19,   336.76  L  1883.16,   341.73  " style="stroke-width: 1.42 ;&st7;  " /><path d=" M  1890.21,   341.73  L  1895.18,   336.76  " style="stroke-width: 1.42 ;&st7;  " /><path d=" M  1883.16,   324.73  L  1878.19,   329.70  " style="stroke-width: 1.42 ;&st7;  " /><text style="&st18;" transform="matrix(&st17;  1882.99  381.68 )">W-B</text><path d=" M  1699.72,    78.27  L  1699.72,    82.52  " style="stroke-width: 1.42 ;&st7;  " /><text style="&st18;" transform="matrix(&st16;  1670.17  74.58 )">BR</text><text style="&st18;" transform="matrix(&st16;  1738.16  74.58 )">BR</text><text style="&st18;" transform="matrix(&st16;  1667.46  85.91 )">(*25)</text><text style="&st18;" transform="matrix(&st16;  1735.45  85.91 )">(*25)</text><path d=" M  1844.19,   516.67  L  1839.22,   511.70  " style="stroke-width: 1.42 ;&st7;  " /><path d=" M  1827.19,   523.73  L  1832.16,   528.70  " style="stroke-width: 1.42 ;&st7;  " /><path d=" M  1839.22,   528.70  L  1844.19,   523.73  " style="stroke-width: 1.42 ;&st7;  " /><path d=" M  1832.17,   511.70  L  1827.19,   516.67  " style="stroke-width: 1.42 ;&st7;  " /><text style="&st18;" transform="matrix(&st16;  1931.22  660.98 )">W-B</text><text style="&st18;" transform="matrix(&st16;  1684.76  550.5 )">W-B</text><text style="&st18;" transform="matrix(&st16;  1684.76  516.5 )">W-B</text><text style="&st18;" transform="matrix(&st16;  1684.76  592.99 )">W-B</text><text style="&st18;" transform="matrix(&st16;  1666.14  604.32 )">(4WD *68 2TR-FE)</text><text style="&st18;" transform="matrix(&st16;  1671.72  561.83 )">(4WD 2TR-FE)</text><text style="&st18;" transform="matrix(&st16;  1671.72  527.83 )">(4WD 2TR-FE)</text><text style="&st18;" transform="matrix(&st17;  1832.0  560.15 )">W-B</text><text style="&st18;" transform="matrix(&st16;  1684.76  626.98 )">W-B</text><text style="&st18;" transform="matrix(&st16;  1685.02  638.31 )">(*18)</text><text style="&st18;" transform="matrix(&st16;  1931.48  672.31 )">(*18)</text><text ewd:textID="8" style="&st18;" transform="matrix(&st16;  1915.63  85.91 )">(w/o ABS)</text><text style="&st18;" transform="matrix(&st16;  1925.13  74.58 )">BR</text><text style="&st18;" transform="matrix(&st16;  1789.09  474.01 )">(*2)</text><text style="&st18;" transform="matrix(&st16;  1848.58  686.47 )">(*45)</text><g ewd:code="G8" ewd:figID="36" ewd:figtype="conn"><g ewd:lineID="85"><text style="&st18;" transform="matrix(&st16;  1651.31  40.59 )">5</text></g><text style="&st18;" transform="matrix(&st16;  1638.97  46.25 )">SG</text><path d=" M  1563.74,    35.78  L  1563.74,    61.28  L  1648.72,    61.28  L  1648.72,    35.78  L  1563.74,    35.78  " style="stroke-width: 1.42 ;&st7;  " /><g ewd:figtype="title"><text style="&st18;" transform="matrix(&st16;  1564.58  44.81 )">G8</text><text style="&st18;" transform="matrix(&st16;  1564.58  51.91 )">DLC3</text></g></g><g ewd:code="C82" ewd:figID="37" ewd:figtype="conn"><g ewd:lineID="88"><text style="&st18;" transform="matrix(&st16;  1651.46  326.7 )">3</text><path d=" M  1657.79,   333.23  C  1657.79    330.73   1655.76    328.70   1653.26    328.70  " style="stroke-width: 1.42 ;&st7;   " /><path d=" M  1653.26,   328.70  C  1650.75    328.70   1648.72    330.73   1648.72    333.23  " style="stroke-width: 1.42 ;&st7;   " /><path d=" M  1648.72,   333.23  C  1648.72    335.73   1650.75    337.76   1653.26    337.76  " style="stroke-width: 1.42 ;&st7;   " /><path d=" M  1653.26,   337.76  C  1655.76    337.76   1657.79    335.73   1657.79    333.23  " style="stroke-width: 1.42 ;&st7;   " /><text style="&st18;" transform="matrix(&st16;  1651.07  335.2 )">B</text></g><text style="&st18;" transform="matrix(&st16;  1633.7  335.2 )">GND</text><path d=" M  1563.74,   324.73  L  1563.74,   350.23  L  1648.72,   350.23  L  1648.72,   324.73  L  1563.74,   324.73  " style="stroke-width: 1.42 ;&st7;  " /><g ewd:figtype="title"><text style="&st18;" transform="matrix(&st16;  1564.58  333.76 )">C82(B)</text><text ewd:textID="185" style="&st18;" transform="matrix(&st16;  1564.58  340.86 )">Injector Driver</text></g></g><g ewd:code="G8" ewd:figID="38" ewd:figtype="conn"><g ewd:lineID="80"><text style="&st18;" transform="matrix(&st16;  1651.31  660.98 )">5</text></g><text style="&st18;" transform="matrix(&st16;  1638.97  666.64 )">SG</text><path d=" M  1563.74,   656.18  L  1563.74,   681.67  L  1648.72,   681.67  L  1648.72,   656.18  L  1563.74,   656.18  " style="stroke-width: 1.42 ;&st7;  " /><g ewd:figtype="title"><text style="&st18;" transform="matrix(&st16;  1564.58  665.2 )">G8</text><text style="&st18;" transform="matrix(&st16;  1564.58  672.31 )">DLC3</text></g></g><g ewd:code="C33" ewd:figID="39" ewd:figtype="conn"><g ewd:lineID="112"><text style="&st18;" transform="matrix(&st16;  1973.98  516.51 )">4</text></g><path d=" M  1980.17,   511.70  L  1980.17,   537.20  L  2065.15,   537.20  L  2065.15,   511.70  L  1980.17,   511.70  " style="stroke-width: 1.42 ;&st7;  " /><text style="&st18;" transform="matrix(&st16;  1981.9  522.17 )">GND</text><g ewd:figtype="title"><text style="&st18;" transform="matrix(&st16;  2006.5  520.73 )">C33</text><text ewd:textID="178" style="&st18;" transform="matrix(&st16;  2006.51  527.83 )">Ignition Coil <tspan dy="6.0" x="0 ">Assembly No. 1</tspan></text></g></g><g ewd:code="C34" ewd:figID="40" ewd:figtype="conn"><g ewd:lineID="111"><text style="&st18;" transform="matrix(&st16;  1973.98  550.5 )">4</text></g><text style="&st18;" transform="matrix(&st16;  1981.9  556.16 )">GND</text><path d=" M  1980.17,   545.69  L  1980.17,   571.19  L  2065.15,   571.19  L  2065.15,   545.69  L  1980.17,   545.69  " style="stroke-width: 1.42 ;&st7;  " /><g ewd:figtype="title"><text style="&st18;" transform="matrix(&st16;  2006.5  554.72 )">C34</text><text ewd:textID="179" style="&st18;" transform="matrix(&st16;  2006.51  561.83 )">Ignition Coil <tspan dy="6.0" x="0 ">Assembly No. 2</tspan></text></g></g><g ewd:code="C35" ewd:figID="41" ewd:figtype="conn"><g ewd:lineID="100"><text style="&st18;" transform="matrix(&st16;  1973.98  593.0 )">4</text></g><path d=" M  1980.17,   588.19  L  1980.17,   613.68  L  2065.15,   613.68  L  2065.15,   588.19  L  1980.17,   588.19  " style="stroke-width: 1.42 ;&st7;  " /><text style="&st18;" transform="matrix(&st16;  1981.9  598.65 )">GND</text><g ewd:figtype="title"><text ewd:textID="180" style="&st18;" transform="matrix(&st16;  2006.51  604.32 )">Ignition Coil <tspan dy="6.0" x="0 ">Assembly No. 3</tspan></text><text style="&st18;" transform="matrix(&st16;  2006.5  597.21 )">C35</text></g></g><g ewd:code="C36" ewd:figID="92" ewd:figtype="conn"><g ewd:lineID="99"><text style="&st18;" transform="matrix(&st16;  1973.98  626.99 )">4</text></g><text style="&st18;" transform="matrix(&st16;  1981.9  632.65 )">GND</text><path d=" M  1980.17,   622.18  L  1980.17,   647.68  L  2065.15,   647.68  L  2065.15,   622.18  L  1980.17,   622.18  " style="stroke-width: 1.42 ;&st7;  " /><g ewd:figtype="title"><text style="&st18;" transform="matrix(&st16;  2006.5  631.21 )">C36</text><text ewd:textID="181" style="&st18;" transform="matrix(&st16;  2006.51  638.31 )">Ignition Coil <tspan dy="6.0" x="0 ">Assembly No. 4</tspan></text></g></g><g ewd:code="C90" ewd:figID="138" ewd:figtype="conn"><g ewd:lineID="116"><text style="&st18;" transform="matrix(&st16;  1973.98  40.59 )">4</text></g><text style="&st18;" transform="matrix(&st16;  1981.9  46.25 )">GND</text><path d=" M  1980.17,    35.78  L  1980.17,    61.28  L  2065.15,    61.28  L  2065.15,    35.78  L  1980.17,    35.78  " style="stroke-width: 1.42 ;&st7;  " /><g ewd:figtype="title"><text ewd:textID="272" style="&st18;" transform="matrix(&st16;  2006.51  51.91 )">Turbo Motor <tspan dy="6.0" x="0 ">Driver</tspan></text><text style="&st18;" transform="matrix(&st16;  2006.5  44.81 )">C90</text></g></g><g ewd:code="C41" ewd:figID="139" ewd:figtype="conn"><g ewd:lineID="113"><text style="&st18;" transform="matrix(&st16;  1973.98  151.07 )">6</text></g><g ewd:lineID="114"><text style="&st18;" transform="matrix(&st16;  1970.88  117.08 )">10</text></g><path d=" M  1980.17,   112.27  L  1980.17,   171.76  L  2065.15,   171.76  L  2065.15,   112.27  L  1980.17,   112.27  " style="stroke-width: 1.42 ;&st7;  " /><text style="&st18;" transform="matrix(&st16;  1981.9  122.73 )">GND</text><text style="&st18;" transform="matrix(&st16;  1981.9  156.73 )">GND1</text><g ewd:figtype="title"><text style="&st18;" transform="matrix(&st16;  2006.5  121.29 )">C41</text><text ewd:textID="268" style="&st18;" transform="matrix(&st16;  2006.51  128.4 )">Transfer Shift <tspan dy="6.0" x="0 ">Actuator Assembly</tspan></text></g></g><g ewd:code="C7" ewd:figID="140" ewd:figtype="conn"><g ewd:lineID="104"><text style="&st18;" transform="matrix(&st16;  1973.98  185.06 )">4</text></g><text style="&st18;" transform="matrix(&st16;  1981.9  190.72 )">GND</text><path d=" M  1980.17,   180.26  L  1980.17,   214.25  L  2065.15,   214.25  L  2065.15,   180.26  L  1980.17,   180.26  " style="stroke-width: 1.42 ;&st7;  " /><g ewd:figtype="title"><text style="&st18;" transform="matrix(&st16;  2006.5  189.28 )">C7</text><text ewd:textID="130" style="&st18;" transform="matrix(&st16;  2006.51  196.39 )">Differential <tspan dy="6.0" x="0 ">Motor Actuator </tspan><tspan dy="6.0" x="0 ">Assembly</tspan></text></g></g><g ewd:code="C77" ewd:figID="168" ewd:figtype="conn"><g ewd:lineID="86"><text style="&st18;" transform="matrix(&st16;  1649.91  394.69 )">10</text><path d=" M  1657.79,   401.22  C  1657.79    398.72   1655.76    396.69   1653.26    396.69  " style="stroke-width: 1.42 ;&st7;   " /><path d=" M  1653.26,   396.69  C  1650.75    396.69   1648.72    398.72   1648.72    401.22  " style="stroke-width: 1.42 ;&st7;   " /><path d=" M  1648.72,   401.22  C  1648.72    403.72   1650.75    405.75   1653.26    405.75  " style="stroke-width: 1.42 ;&st7;   " /><path d=" M  1653.26,   405.75  C  1655.76    405.75   1657.79    403.72   1657.79    401.22  " style="stroke-width: 1.42 ;&st7;   " /><text style="&st18;" transform="matrix(&st16;  1650.95  403.19 )">A</text></g><g ewd:lineID="87"><text style="&st18;" transform="matrix(&st16;  1651.46  360.69 )">1</text><path d=" M  1657.79,   367.22  C  1657.79    364.72   1655.76    362.69   1653.26    362.69  " style="stroke-width: 1.42 ;&st7;   " /><path d=" M  1653.26,   362.69  C  1650.75    362.69   1648.72    364.72   1648.72    367.22  " style="stroke-width: 1.42 ;&st7;   " /><path d=" M  1648.72,   367.22  C  1648.72    369.73   1650.75    371.76   1653.26    371.76  " style="stroke-width: 1.42 ;&st7;   " /><path d=" M  1653.26,   371.76  C  1655.76    371.76   1657.79    369.73   1657.79    367.22  " style="stroke-width: 1.42 ;&st7;   " /><text style="&st18;" transform="matrix(&st16;  1650.95  369.19 )">A</text></g><text style="&st18;" transform="matrix(&st16;  1639.67  369.19 )">E1</text><path d=" M  1563.74,   358.73  L  1563.74,   418.22  L  1648.72,   418.22  L  1648.72,   358.73  L  1563.74,   358.73  " style="stroke-width: 1.42 ;&st7;  " /><text style="&st18;" transform="matrix(&st16;  1636.57  403.19 )">E01</text><g ewd:figtype="title"><text style="&st18;" transform="matrix(&st16;  1564.58  367.75 )">C77(A)</text><text ewd:textID="269" style="&st18;" transform="matrix(&st16;  1564.58  374.86 )">Transmission Control <tspan dy="6.0" x="0 ">ECU Assembly</tspan></text></g></g><g ewd:code="C56" ewd:figID="181" ewd:figtype="conn"><g ewd:lineID="108"><text style="&st18;" transform="matrix(&st16;  1973.84  292.71 )">7</text><path d=" M  1980.17,   299.24  C  1980.17    296.73   1978.14    294.70   1975.64    294.70  " style="stroke-width: 1.42 ;&st7;   " /><path d=" M  1975.64,   294.70  C  1973.13    294.70   1971.10    296.73   1971.10    299.24  " style="stroke-width: 1.42 ;&st7;   " /><path d=" M  1971.10,   299.24  C  1971.10    301.74   1973.13    303.77   1975.64    303.77  " style="stroke-width: 1.42 ;&st7;   " /><path d=" M  1975.64,   303.77  C  1978.14    303.77   1980.17    301.74   1980.17    299.24  " style="stroke-width: 1.42 ;&st7;   " /><text style="&st18;" transform="matrix(&st16;  1973.45  301.2 )">B</text></g><text style="&st18;" transform="matrix(&st16;  1981.9  301.2 )">E1</text><path d=" M  1980.17,   290.74  L  1980.17,   316.23  L  2065.15,   316.23  L  2065.15,   290.74  L  1980.17,   290.74  " style="stroke-width: 1.42 ;&st7;  " /><path d=" M  1980.17,   299.24  C  1980.17    296.73   1978.14    294.70   1975.64    294.70  " style="stroke-width: 1.42 ;&st7;   " /><path d=" M  1975.64,   294.70  C  1973.13    294.70   1971.10    296.73   1971.10    299.24  " style="stroke-width: 1.42 ;&st7;   " /><path d=" M  1971.10,   299.24  C  1971.10    301.74   1973.13    303.77   1975.64    303.77  " style="stroke-width: 1.42 ;&st7;   " /><path d=" M  1975.64,   303.77  C  1978.14    303.77   1980.17    301.74   1980.17    299.24  " style="stroke-width: 1.42 ;&st7;   " /><g ewd:figtype="title"><text style="&st18;" transform="matrix(&st16;  2006.51  306.87 )">ECM</text><text style="&st18;" transform="matrix(&st16;  2006.5  299.76 )">C56(B)</text></g></g><g ewd:code="C55" ewd:figID="182" ewd:figtype="conn"><g ewd:lineID="106"><text style="&st18;" transform="matrix(&st16;  1973.84  360.69 )">6</text><path d=" M  1980.17,   367.22  C  1980.17    364.72   1978.14    362.69   1975.64    362.69  " style="stroke-width: 1.42 ;&st7;   " /><path d=" M  1975.64,   362.69  C  1973.13    362.69   1971.10    364.72   1971.10    367.22  " style="stroke-width: 1.42 ;&st7;   " /><path d=" M  1971.10,   367.22  C  1971.10    369.73   1973.13    371.76   1975.64    371.76  " style="stroke-width: 1.42 ;&st7;   " /><path d=" M  1975.64,   371.76  C  1978.14    371.76   1980.17    369.73   1980.17    367.22  " style="stroke-width: 1.42 ;&st7;   " /><text style="&st18;" transform="matrix(&st16;  1973.33  369.19 )">A</text></g><g ewd:lineID="107"><text style="&st18;" transform="matrix(&st16;  1973.84  326.7 )">7</text><path d=" M  1980.17,   333.23  C  1980.17    330.73   1978.14    328.70   1975.64    328.70  " style="stroke-width: 1.42 ;&st7;   " /><path d=" M  1975.64,   328.70  C  1973.13    328.70   1971.10    330.73   1971.10    333.23  " style="stroke-width: 1.42 ;&st7;   " /><path d=" M  1971.10,   333.23  C  1971.10    335.73   1973.13    337.76   1975.64    337.76  " style="stroke-width: 1.42 ;&st7;   " /><path d=" M  1975.64,   337.76  C  1978.14    337.76   1980.17    335.73   1980.17    333.23  " style="stroke-width: 1.42 ;&st7;   " /><text style="&st18;" transform="matrix(&st16;  1973.33  335.2 )">A</text></g><path d=" M  1980.17,   324.73  L  1980.17,   384.22  L  2065.15,   384.22  L  2065.15,   324.73  L  1980.17,   324.73  " style="stroke-width: 1.42 ;&st7;  " /><text style="&st18;" transform="matrix(&st16;  1981.9  335.2 )">E01</text><text style="&st18;" transform="matrix(&st16;  1981.9  369.19 )">E02</text><path d=" M  1980.17,   333.23  C  1980.17    330.73   1978.14    328.70   1975.64    328.70  " style="stroke-width: 1.42 ;&st7;   " /><path d=" M  1975.64,   328.70  C  1973.13    328.70   1971.10    330.73   1971.10    333.23  " style="stroke-width: 1.42 ;&st7;   " /><path d=" M  1971.10,   333.23  C  1971.10    335.73   1973.13    337.76   1975.64    337.76  " style="stroke-width: 1.42 ;&st7;   " /><path d=" M  1975.64,   337.76  C  1978.14    337.76   1980.17    335.73   1980.17    333.23  " style="stroke-width: 1.42 ;&st7;   " /><path d=" M  1980.17,   367.22  C  1980.17    364.72   1978.14    362.69   1975.64    362.69  " style="stroke-width: 1.42 ;&st7;   " /><path d=" M  1975.64,   362.69  C  1973.13    362.69   1971.10    364.72   1971.10    367.22  " style="stroke-width: 1.42 ;&st7;   " /><path d=" M  1971.10,   367.22  C  1971.10    369.73   1973.13    371.76   1975.64    371.76  " style="stroke-width: 1.42 ;&st7;   " /><path d=" M  1975.64,   371.76  C  1978.14    371.76   1980.17    369.73   1980.17    367.22  " style="stroke-width: 1.42 ;&st7;   " /><g ewd:figtype="title"><text style="&st18;" transform="matrix(&st16;  2006.5  333.76 )">C55(A)</text><text style="&st18;" transform="matrix(&st16;  2006.51  340.86 )">ECM</text></g></g><g ewd:code="C75" ewd:figID="183" ewd:figtype="conn"><g ewd:lineID="109,110"><text style="&st18;" transform="matrix(&st16;  1973.84  250.21 )">3</text><path d=" M  1980.17,   256.74  C  1980.17    254.24   1978.14    252.21   1975.64    252.21  " style="stroke-width: 1.42 ;&st7;   " /><path d=" M  1975.64,   252.21  C  1973.13    252.21   1971.10    254.24   1971.10    256.74  " style="stroke-width: 1.42 ;&st7;   " /><path d=" M  1971.10,   256.74  C  1971.10    259.25   1973.13    261.27   1975.64    261.27  " style="stroke-width: 1.42 ;&st7;   " /><path d=" M  1975.64,   261.27  C  1978.14    261.27   1980.17    259.25   1980.17    256.74  " style="stroke-width: 1.42 ;&st7;   " /><text style="&st18;" transform="matrix(&st16;  1973.33  258.71 )">A</text></g><path d=" M  1980.17,   256.74  C  1980.17    254.24   1978.14    252.21   1975.64    252.21  " style="stroke-width: 1.42 ;&st7;   " /><path d=" M  1975.64,   252.21  C  1973.13    252.21   1971.10    254.24   1971.10    256.74  " style="stroke-width: 1.42 ;&st7;   " /><path d=" M  1971.10,   256.74  C  1971.10    259.25   1973.13    261.27   1975.64    261.27  " style="stroke-width: 1.42 ;&st7;   " /><path d=" M  1975.64,   261.27  C  1978.14    261.27   1980.17    259.25   1980.17    256.74  " style="stroke-width: 1.42 ;&st7;   " /><text style="&st18;" transform="matrix(&st16;  1981.9  258.71 )">RSC</text><path d=" M  1980.17,   248.24  L  1980.17,   282.24  L  2065.15,   282.24  L  2065.15,   248.24  L  1980.17,   248.24  " style="stroke-width: 1.42 ;&st7;  " /><g ewd:figtype="title"><text ewd:textID="128" style="&st18;" transform="matrix(&st16;  2006.51  264.38 )">Diesel <tspan dy="6.0" x="0 ">Throttle Body </tspan><tspan dy="6.0" x="0 ">Assembly</tspan></text><text style="&st18;" transform="matrix(&st16;  2006.5  257.27 )">C75(A)</text></g></g><g ewd:code="G4" ewd:figID="191" ewd:figtype="conn"><g ewd:lineID="89"><text style="&st18;" transform="matrix(&st16;  1651.46  71.74 )">2</text><path d=" M  1657.79,    78.27  C  1657.79     75.77   1655.76     73.74   1653.26     73.74  " style="stroke-width: 1.42 ;&st7;   " /><path d=" M  1653.26,    73.74  C  1650.75     73.74   1648.72     75.77   1648.72     78.27  " style="stroke-width: 1.42 ;&st7;   " /><path d=" M  1648.72,    78.27  C  1648.72     80.78   1650.75     82.80   1653.26     82.80  " style="stroke-width: 1.42 ;&st7;   " /><path d=" M  1653.26,    82.80  C  1655.76     82.80   1657.79     80.78   1657.79     78.27  " style="stroke-width: 1.42 ;&st7;   " /><text style="&st18;" transform="matrix(&st16;  1650.95  80.24 )">A</text></g><text style="&st18;" transform="matrix(&st16;  1634.08  80.24 )">ECC</text><path d=" M  1563.74,    69.77  L  1563.74,    95.27  L  1648.72,    95.27  L  1648.72,    69.77  L  1563.74,    69.77  " style="stroke-width: 1.42 ;&st7;  " /><g ewd:figtype="title"><text style="&st18;" transform="matrix(&st16;  1564.58  78.8 )">G4(A)</text><text ewd:textID="256" style="&st18;" transform="matrix(&st16;  1564.58  85.91 )">Spiral Cable <tspan dy="6.0" x="0 ">Sub-Assembly</tspan></text></g></g><g ewd:code="C115" ewd:figID="192" ewd:figtype="conn"><g ewd:lineID="101"><text style="&st18;" transform="matrix(&st16;  1795.78  185.06 )">21</text></g><g ewd:lineID="115"><text style="&st18;" transform="matrix(&st16;  1795.78  74.58 )">1</text></g><g ewd:lineID="116"><text style="&st18;" transform="matrix(&st16;  1795.78  40.59 )">19</text></g><g ewd:lineID="546"><text style="&st18;" transform="matrix(&st16;  1761.52  253.05 )">4</text></g><g ewd:lineID="547"><text style="&st18;" transform="matrix(&st16;  1761.52  287.05 )">3</text></g><g ewd:lineID="553"><text style="&st18;" transform="matrix(&st16;  1795.78  134.07 )">20</text></g><g ewd:lineID="90"><text style="&st18;" transform="matrix(&st16;  1761.52  185.06 )">2</text></g><g ewd:lineID="91"><text style="&st18;" transform="matrix(&st16;  1761.52  74.58 )">6</text></g><g ewd:lineID="92"><text style="&st18;" transform="matrix(&st16;  1761.52  40.59 )">5</text></g><g ewd:lineID="95"><text style="&st18;" transform="matrix(&st16;  1770.02  307.43 )">7</text></g><g ewd:lineID="96"><text style="&st18;" transform="matrix(&st16;  1795.78  287.05 )">22</text></g><path d=" M  1793.20,    44.28  L  1784.70,    44.28  L  1784.70,   290.74  L  1793.20,   290.74  " style="stroke-width: 0.85 ;&st7;  " /><path d=" M  1775.01,   187.75  L  1774.74,   188.22  L  1774.64,   188.75  L  1774.74,   189.29  L  1775.01,   189.76  L  1775.42,   190.10  L  1775.93,   190.29  L  1776.47,   190.29  L  1776.98,   190.10  L  1777.40,   189.76  L  1777.67,   189.29  L  1777.76,   188.75  L  1777.67,   188.22  L  1777.40,   187.75  L  1776.98,   187.41  L  1776.47,   187.22  L  1775.93,   187.22  L  1775.42,   187.41  L  1775.01,   187.75  L  1775.40,   188.46  L  1775.40,   189.05  L  1775.78,   189.49  L  1776.35,   189.59  L  1776.85,   189.30  L  1777.05,   188.75  L  1776.85,   188.21  L  1776.35,   187.92  L  1775.78,   188.02  L  1776.20,   188.75  " style="stroke-width: 0.85 ;&st7;  " /><path d=" M  1767.70,    35.78  L  1793.20,    35.78  L  1793.20,   299.24  L  1767.70,   299.24  L  1767.70,    35.78  " style="stroke-width: 1.42 ;&st7;  " /><path d=" M  1793.20,   188.75  L  1784.70,   188.75  " style="stroke-width: 0.85 ;&st7;  " /><path d=" M  1783.51,   187.75  L  1783.24,   188.22  L  1783.14,   188.75  L  1783.24,   189.29  L  1783.51,   189.76  L  1783.92,   190.10  L  1784.43,   190.29  L  1784.97,   190.29  L  1785.48,   190.10  L  1785.89,   189.76  L  1786.17,   189.29  L  1786.26,   188.75  L  1786.17,   188.22  L  1785.89,   187.75  L  1785.48,   187.41  L  1784.97,   187.22  L  1784.43,   187.22  L  1783.92,   187.41  L  1783.51,   187.75  L  1783.90,   188.46  L  1783.90,   189.05  L  1784.28,   189.49  L  1784.85,   189.59  L  1785.35,   189.30  L  1785.55,   188.75  L  1785.35,   188.21  L  1784.85,   187.92  L  1784.28,   188.02  L  1784.70,   188.75  " style="stroke-width: 0.85 ;&st7;  " /><path d=" M  1783.51,   136.76  L  1783.24,   137.23  L  1783.14,   137.76  L  1783.24,   138.30  L  1783.51,   138.77  L  1783.92,   139.11  L  1784.43,   139.30  L  1784.97,   139.30  L  1785.48,   139.11  L  1785.89,   138.77  L  1786.17,   138.30  L  1786.26,   137.76  L  1786.17,   137.23  L  1785.89,   136.76  L  1785.48,   136.41  L  1784.97,   136.23  L  1784.43,   136.23  L  1783.92,   136.41  L  1783.51,   136.76  L  1783.90,   137.47  L  1783.90,   138.05  L  1784.28,   138.50  L  1784.85,   138.60  L  1785.35,   138.31  L  1785.55,   137.76  L  1785.35,   137.22  L  1784.85,   136.93  L  1784.28,   137.03  L  1784.70,   137.76  " style="stroke-width: 0.85 ;&st7;  " /><path d=" M  1776.20,   256.74  L  1767.70,   256.74  " style="stroke-width: 0.85 ;&st7;  " /><path d=" M  1776.20,   188.75  L  1767.70,   188.75  " style="stroke-width: 0.85 ;&st7;  " /><path d=" M  1775.01,   255.74  L  1774.74,   256.21  L  1774.64,   256.74  L  1774.74,   257.28  L  1775.01,   257.75  L  1775.42,   258.09  L  1775.93,   258.28  L  1776.47,   258.28  L  1776.98,   258.09  L  1777.40,   257.75  L  1777.67,   257.28  L  1777.76,   256.74  L  1777.67,   256.21  L  1777.40,   255.74  L  1776.98,   255.39  L  1776.47,   255.21  L  1775.93,   255.21  L  1775.42,   255.39  L  1775.01,   255.74  L  1775.40,   256.45  L  1775.40,   257.03  L  1775.78,   257.48  L  1776.35,   257.58  L  1776.85,   257.29  L  1777.05,   256.74  L  1776.85,   256.20  L  1776.35,   255.91  L  1775.78,   256.01  L  1776.20,   256.74  " style="stroke-width: 0.85 ;&st7;  " /><path d=" M  1767.70,    44.28  L  1776.20,    44.28  L  1776.20,   299.24  " style="stroke-width: 0.85 ;&st7;  " /><path d=" M  1767.70,   290.74  L  1776.20,   290.74  " style="stroke-width: 0.85 ;&st7;  " /><path d=" M  1775.01,   289.73  L  1774.74,   290.20  L  1774.64,   290.74  L  1774.74,   291.27  L  1775.01,   291.74  L  1775.42,   292.09  L  1775.93,   292.27  L  1776.47,   292.27  L  1776.98,   292.09  L  1777.40,   291.74  L  1777.67,   291.27  L  1777.76,   290.74  L  1777.67,   290.20  L  1777.40,   289.73  L  1776.98,   289.39  L  1776.47,   289.20  L  1775.93,   289.20  L  1775.42,   289.39  L  1775.01,   289.73  L  1775.40,   290.45  L  1775.40,   291.03  L  1775.78,   291.47  L  1776.35,   291.57  L  1776.85,   291.28  L  1777.05,   290.74  L  1776.85,   290.19  L  1776.35,   289.90  L  1775.78,   290.00  L  1776.20,   290.74  " style="stroke-width: 0.85 ;&st7;  " /><path d=" M  1793.20,   137.76  L  1784.70,   137.76  " style="stroke-width: 0.85 ;&st7;  " /><path d=" M  1776.20,    78.27  L  1767.70,    78.27  " style="stroke-width: 0.85 ;&st7;  " /><path d=" M  1775.01,    77.27  L  1774.74,    77.74  L  1774.64,    78.27  L  1774.74,    78.81  L  1775.01,    79.28  L  1775.42,    79.62  L  1775.93,    79.81  L  1776.47,    79.81  L  1776.98,    79.62  L  1777.40,    79.28  L  1777.67,    78.81  L  1777.76,    78.27  L  1777.67,    77.74  L  1777.40,    77.27  L  1776.98,    76.92  L  1776.47,    76.74  L  1775.93,    76.74  L  1775.42,    76.92  L  1775.01,    77.27  L  1775.40,    77.98  L  1775.40,    78.56  L  1775.78,    79.01  L  1776.35,    79.11  L  1776.85,    78.82  L  1777.05,    78.27  L  1776.85,    77.73  L  1776.35,    77.44  L  1775.78,    77.54  L  1776.20,    78.27  " style="stroke-width: 0.85 ;&st7;  " /><path d=" M  1776.20,    78.27  L  1793.20,    78.27  " style="stroke-width: 0.85 ;&st7;  " /><g ewd:figtype="title"><text style="&st18;" transform="matrix(&st17;  1751.24  166.16 )">C115</text><text ewd:textID="209" style="&st18;" transform="matrix(&st17;  1758.06  166.16 )">No. 7 <tspan dy="6.0" x="0 ">Junction Connector</tspan></text></g></g><g ewd:code="C69" ewd:figID="193" ewd:figtype="conn"><g ewd:lineID="105"><text style="&st18;" transform="matrix(&st16;  1973.84  658.14 )">1</text><path d=" M  1980.17,   664.67  C  1980.17    662.17   1978.14    660.14   1975.64    660.14  " style="stroke-width: 1.42 ;&st7;   " /><path d=" M  1975.64,   660.14  C  1973.13    660.14   1971.10    662.17   1971.10    664.67  " style="stroke-width: 1.42 ;&st7;   " /><path d=" M  1971.10,   664.67  C  1971.10    667.18   1973.13    669.21   1975.64    669.21  " style="stroke-width: 1.42 ;&st7;   " /><path d=" M  1975.64,   669.21  C  1978.14    669.21   1980.17    667.18   1980.17    664.67  " style="stroke-width: 1.42 ;&st7;   " /><text style="&st18;" transform="matrix(&st16;  1973.45  666.64 )">B</text></g><text style="&st18;" transform="matrix(&st16;  1981.9  666.64 )">E</text><path d=" M  1980.17,   656.18  L  1980.17,   681.67  L  2065.15,   681.67  L  2065.15,   656.18  L  1980.17,   656.18  " style="stroke-width: 1.42 ;&st7;  " /><path d=" M  1980.17,   664.67  C  1980.17    662.17   1978.14    660.14   1975.64    660.14  " style="stroke-width: 1.42 ;&st7;   " /><path d=" M  1975.64,   660.14  C  1973.13    660.14   1971.10    662.17   1971.10    664.67  " style="stroke-width: 1.42 ;&st7;   " /><path d=" M  1971.10,   664.67  C  1971.10    667.18   1973.13    669.21   1975.64    669.21  " style="stroke-width: 1.42 ;&st7;   " /><path d=" M  1975.64,   669.21  C  1978.14    669.21   1980.17    667.18   1980.17    664.67  " style="stroke-width: 1.42 ;&st7;   " /><g ewd:figtype="title"><text style="&st18;" transform="matrix(&st16;  2006.5  665.2 )">C69(B)</text><text ewd:textID="107" style="&st18;" transform="matrix(&st16;  2006.51  672.31 )">Air Injection <tspan dy="6.0" x="0 ">Control Driver</tspan></text></g></g><g ewd:code="C7" ewd:figID="194" ewd:figtype="conn"><g ewd:lineID="82"><text style="&st18;" transform="matrix(&st16;  1651.31  593.0 )">4</text></g><text style="&st18;" transform="matrix(&st16;  1633.7  598.65 )">GND</text><path d=" M  1563.74,   588.19  L  1563.74,   613.68  L  1648.72,   613.68  L  1648.72,   588.19  L  1563.74,   588.19  " style="stroke-width: 1.42 ;&st7;  " /><g ewd:figtype="title"><text style="&st18;" transform="matrix(&st16;  1564.58  597.21 )">C7</text><text ewd:textID="130" style="&st18;" transform="matrix(&st16;  1564.58  604.32 )">Differential Motor <tspan dy="6.0" x="0 ">Actuator Assembly</tspan></text></g></g><g ewd:code="C41" ewd:figID="195" ewd:figtype="conn"><g ewd:lineID="83"><text style="&st18;" transform="matrix(&st16;  1651.31  550.5 )">10</text></g><g ewd:lineID="84"><text style="&st18;" transform="matrix(&st16;  1651.31  516.51 )">6</text></g><text style="&st18;" transform="matrix(&st16;  1633.7  556.16 )">GND</text><text style="&st18;" transform="matrix(&st16;  1630.59  522.17 )">GND1</text><path d=" M  1563.74,   511.70  L  1563.74,   571.19  L  1648.72,   571.19  L  1648.72,   511.70  L  1563.74,   511.70  " style="stroke-width: 1.42 ;&st7;  " /><g ewd:figtype="title"><text style="&st18;" transform="matrix(&st16;  1564.58  520.73 )">C41</text><text ewd:textID="268" style="&st18;" transform="matrix(&st16;  1564.58  527.83 )">Transfer Shift <tspan dy="6.0" x="0 ">Actuator Assembly</tspan></text></g></g><g ewd:code="C71" ewd:figID="196" ewd:figtype="conn"><g ewd:lineID="81"><text style="&st18;" transform="matrix(&st16;  1651.31  626.99 )">1</text></g><path d=" M  1563.74,   622.18  L  1563.74,   647.68  L  1648.72,   647.68  L  1648.72,   622.18  L  1563.74,   622.18  " style="stroke-width: 1.42 ;&st7;  " /><text style="&st18;" transform="matrix(&st16;  1633.7  632.65 )">GND</text><g ewd:figtype="title"><text style="&st18;" transform="matrix(&st16;  1564.58  631.21 )">C71</text><text ewd:textID="109" style="&st18;" transform="matrix(&st16;  1564.58  638.31 )">Air Switching <tspan dy="6.0" x="0 ">Valve Assembly</tspan></text></g></g><g ewd:code="C62" ewd:figID="283" ewd:figtype="conn"><g ewd:lineID="115"><text style="&st18;" transform="matrix(&st16;  1973.98  74.58 )">2</text></g><text style="&st18;" transform="matrix(&st16;  1981.9  80.24 )">SE</text><path d=" M  1980.17,    69.77  L  1980.17,    95.27  L  2065.15,    95.27  L  2065.15,    69.77  L  1980.17,    69.77  " style="stroke-width: 1.42 ;&st7;  " /><g ewd:figtype="title"><text ewd:textID="255" style="&st18;" transform="matrix(&st16;  2006.51  85.91 )">Speedometer <tspan dy="6.0" x="0 ">Sensor</tspan></text><text style="&st18;" transform="matrix(&st16;  2006.5  78.8 )">C62</text></g></g><g ewd:code="CG2" ewd:figID="352" ewd:figtype="w2w"><path d=" M  1694.05,    74.02  L  1698.30,    78.27  L  1694.05,    82.52  " style="stroke-width: 1.42 ;&st7;  " /><path d=" M  1690.65,    74.02  L  1694.90,    78.27  L  1690.65,    82.52  " style="stroke-width: 1.42 ;&st7;  " /><text style="&st18;" transform="matrix(&st16;  1704.86  71.03 )">14</text></g><g ewd:code="CG2" ewd:figID="353" ewd:figtype="w2w"><text style="&st18;" transform="matrix(&st16;  1706.41  37.04 )">4</text><path d=" M  1690.65,    40.03  L  1694.90,    44.28  L  1690.65,    48.53  " style="stroke-width: 1.42 ;&st7;  " /><path d=" M  1694.05,    40.03  L  1698.30,    44.28  L  1694.05,    48.53  " style="stroke-width: 1.42 ;&st7;  " /></g><g ewd:code="CG2" ewd:figID="354" ewd:figtype="w2w"><path d=" M  1719.55,   660.42  L  1723.79,   664.67  L  1719.55,   668.92  " style="stroke-width: 1.42 ;&st7;  " /><path d=" M  1716.15,   660.42  L  1720.40,   664.67  L  1716.15,   668.92  " style="stroke-width: 1.42 ;&st7;  " /><text style="&st18;" transform="matrix(&st16;  1731.91  657.44 )">4</text></g><g ewd:code="CB" ewd:figID="455" ewd:figtype="gp"><path d=" M  1776.20,   484.79  L  1776.20,   489.04  " style="stroke-width: 0.85 ;&st7;  " /><path d=" M  1767.70,   489.04  L  1784.70,   489.04  " style="stroke-width: 0.85 ;&st7;  " /><path d=" M  1771.95,   491.87  L  1780.45,   491.87  " style="stroke-width: 0.85 ;&st7;  " /><path d=" M  1773.37,   494.70  L  1779.04,   494.70  " style="stroke-width: 0.85 ;&st7;  " /><path d=" M  1774.79,   497.54  L  1777.62,   497.54  " style="stroke-width: 0.85 ;&st7;  " /></g><g ewd:code="CB" ewd:figID="456" ewd:figtype="gp"><path d=" M  1835.69,   697.25  L  1835.69,   701.50  " style="stroke-width: 0.85 ;&st7;  " /><path d=" M  1827.19,   701.50  L  1844.19,   701.50  " style="stroke-width: 0.85 ;&st7;  " /><path d=" M  1831.44,   704.33  L  1839.94,   704.33  " style="stroke-width: 0.85 ;&st7;  " /><path d=" M  1832.86,   707.17  L  1838.53,   707.17  " style="stroke-width: 0.85 ;&st7;  " /><path d=" M  1834.28,   710.00  L  1837.11,   710.00  " style="stroke-width: 0.85 ;&st7;  " /></g><g ewd:code=" " ewd:figID="524" ewd:figtype="annex"><path d=" M  1852.83,   130.28  C  1850.93    132.42   1850.87    135.55   1852.69    137.76  " style="stroke-width: 1.42 ;&st7;   " /><path d=" M  1852.55,   145.25  C  1854.45    143.11   1854.51    139.97   1852.69    137.76  " style="stroke-width: 1.42 ;&st7;   " /></g><g ewd:code=" " ewd:figID="525" ewd:figtype="annex"><path d=" M  1708.36,   249.26  C  1706.45    251.40   1706.39    254.53   1708.22    256.74  " style="stroke-width: 1.42 ;&st7;   " /><path d=" M  1708.07,   264.23  C  1709.98    262.09   1710.04    258.95   1708.21    256.74  " style="stroke-width: 1.42 ;&st7;   " /></g><g ewd:code=" " ewd:figID="526" ewd:figtype="annex"><path d=" M  1708.36,   283.25  C  1706.45    285.39   1706.39    288.52   1708.22    290.74  " style="stroke-width: 1.42 ;&st7;   " /><path d=" M  1708.07,   298.22  C  1709.98    296.08   1710.04    292.95   1708.21    290.74  " style="stroke-width: 1.42 ;&st7;   " /></g><g ewd:code=" " ewd:figID="527" ewd:figtype="annex"><path d=" M  1589.38,   257.76  C  1587.47    259.90   1587.41    263.03   1589.24    265.24  " style="stroke-width: 1.42 ;&st7;   " /><path d=" M  1589.09,   272.73  C  1591.00    270.58   1591.06    267.45   1589.23    265.24  " style="stroke-width: 1.42 ;&st7;   " /></g><g ewd:code=" " ewd:figID="528" ewd:figtype="annex"><path d=" M  1589.38,   232.26  C  1587.47    234.40   1587.41    237.53   1589.24    239.74  " style="stroke-width: 1.42 ;&st7;   " /><path d=" M  1589.09,   247.23  C  1591.00    245.09   1591.06    241.96   1589.23    239.75  " style="stroke-width: 1.42 ;&st7;   " /></g><g ewd:code=" " ewd:figID="529" ewd:figtype="annex"><path d=" M  1589.38,   206.77  C  1587.47    208.91   1587.41    212.04   1589.24    214.25  " style="stroke-width: 1.42 ;&st7;   " /><path d=" M  1589.09,   221.73  C  1591.00    219.59   1591.06    216.46   1589.23    214.25  " style="stroke-width: 1.42 ;&st7;   " /></g><g ewd:code=" " ewd:figID="530" ewd:figtype="annex"><path d=" M  1589.38,   130.28  C  1587.47    132.42   1587.41    135.55   1589.24    137.76  " style="stroke-width: 1.42 ;&st7;   " /><path d=" M  1589.09,   145.25  C  1591.00    143.11   1591.06    139.97   1589.23    137.76  " style="stroke-width: 1.42 ;&st7;   " /></g><g ewd:code=" " ewd:figID="531" ewd:figtype="annex"><path d=" M  1589.38,   155.77  C  1587.47    157.91   1587.41    161.05   1589.24    163.26  " style="stroke-width: 1.42 ;&st7;   " /><path d=" M  1589.09,   170.74  C  1591.00    168.60   1591.06    165.47   1589.23    163.26  " style="stroke-width: 1.42 ;&st7;   " /></g><g ewd:code=" " ewd:figID="532" ewd:figtype="annex"><path d=" M  1589.38,   181.27  C  1587.47    183.41   1587.41    186.54   1589.24    188.75  " style="stroke-width: 1.42 ;&st7;   " /><path d=" M  1589.09,   196.24  C  1591.00    194.10   1591.06    190.97   1589.23    188.75  " style="stroke-width: 1.42 ;&st7;   " /></g></svg>