﻿<?xml version="1.0" encoding="utf-8"?>
<!DOCTYPE svg PUBLIC "-//W3C//DTD SVG 1.0//EN" "http://www.w3.org/TR/2001/REC-SVG-20010904/DTD/svg10.dtd"[
	<!ENTITY ns_flows "http://ns.adobe.com/Flows/1.0/">
	<!ENTITY ns_svg "http://www.w3.org/2000/svg">
	<!ENTITY ns_xlink "http://www.w3.org/1999/xlink">
	<!ENTITY st0 "font-size:7px;font-family:'MS-PGothic';adobe-font-script:japanese;">
	<!ENTITY st1 "font-size:6px;font-family:'ArialMT';">
	<!-- White fill  -->
	<!ENTITY st2 "fill:#FFFFFF;stroke:#000000; stroke-width:1.41;stroke-linecap:round;stroke-linejoin:round;">
	<!-- Yellow fill  -->
	<!ENTITY st3 "fill:#FFFFCC;stroke:#FFFFCC; stroke-width:0.1;stroke-linecap:round;stroke-linejoin:round;">
	<!-- Gray fill  -->
	<!ENTITY st4 "fill:#CCCCCC;stroke:#CCCCCC; stroke-width:0.1;stroke-linecap:round;stroke-linejoin:round;">
	<!-- Light-blue fill -->
	<!ENTITY st5 "fill:#CCECF4;stroke:#000000; stroke-width:1.133;stroke-linecap:round;stroke-linejoin:round;">
	<!ENTITY st6 "fill:none;stroke-linecap:butt; stroke-linejoin:round;">
	<!ENTITY st7 "fill:none;stroke:#000000;stroke-linecap:round;stroke-linejoin:round;">
	<!ENTITY st8 "enable-background:new    ;">
	<!-- Black fill -->
	<!ENTITY st9 "fill:#000000;stroke:#000000; stroke-linecap:round;stroke-linejoin:round;">
	<!-- SRS note   -->
	<!ENTITY st10 "font-size:9px;font-family:'ArialMT';">
	<!ENTITY st11 "font-size:9px;font-family:'Svg Symbol';">
	<!ENTITY st12 "font-size:6px;font-family:'Svg Symbol';">
	<!ENTITY st13 "fill:none;stroke:#ff0000;stroke-linecap:round;stroke-linejoin:round;">
	<!-- Yellow fill  -->
	<!ENTITY st14 "fill:#FFFF00;stroke:#FFFF00; stroke-width:0.1;stroke-linecap:round;stroke-linejoin:round;">
	<!ENTITY st15 "font-size:6px;font-family:'MS-PGothic';adobe-font-script:japanese;">
	<!ENTITY st16 "1.00 0.00 0.00 1.00">
	<!ENTITY st17 "0.00 -1.00 1.00 0.00">
	<!ENTITY st18 "font-size:6px;font-family:'Arial';">
	<!ENTITY st19 "font-size:9px;font-family:'Arial';">
	<!ENTITY st20 "font-size:6px;font-family:'MS-PGothic','MS PGothic';adobe-font-script:japanese;">
	<!ENTITY st21 "font-size:7px;font-family:'MS-PGothic','MS PGothic';adobe-font-script:japanese;">
	<!ATTLIST svg
		xmlns:ewd CDATA #FIXED "http://shcl.co.jp/ewd"
		xmlns:a CDATA #FIXED "http://ns.adobe.com/AdobeSVGViewerExtensions/3.0/"
		ewd:ver CDATA #IMPLIED
	>
	<!ATTLIST a
		ewd:lineID CDATA #IMPLIED
		ewd:groupID CDATA #IMPLIED
		ewd:figtype CDATA #IMPLIED
		ewd:code CDATA #IMPLIED
		ewd:figID CDATA #IMPLIED
		ewd:pinNo CDATA #IMPLIED
		ewd:comment CDATA #IMPLIED >
	<!ATTLIST g
		ewd:lineID CDATA #IMPLIED
		ewd:groupID CDATA #IMPLIED
		ewd:figtype CDATA #IMPLIED
		ewd:code CDATA #IMPLIED
		ewd:figID CDATA #IMPLIED
		ewd:pinNo CDATA #IMPLIED
		ewd:comment CDATA #IMPLIED >
	<!ATTLIST text
		ewd:textID CDATA #IMPLIED >
	<!ATTLIST title
		ewd:textID CDATA #IMPLIED >
]>
<!-- Generator: Shintec Hozumi YS   -->
<svg onload="call_execInitLoadProc_svg('system')" style="overflow:visible;  enable-background:new 0 0 5172.194 710.000" viewBox="0 0 5172.194 710.000" height="710.000" width="5172.194" xml:space="preserve" ewd:ver="2.1.2.9" xmlns="&ns_svg;" xmlns:a="http://ns.adobe.com/AdobeSVGViewerExtensions/3.0/" xmlns:ewd="http://shcl.co.jp/ewd" xmlns:xlink="&ns_xlink;">
<text style="&st18;" transform="matrix(&st16;  4398.86  32.08 )" ewd:textID="20">Body ECU</text><text style="&st18;" transform="matrix(&st17;  4010.47  186.52 )">(*19)</text><text style="&st18;" transform="matrix(&st17;  4024.63  186.21 )">W-B</text><text style="&st18;" transform="matrix(&st17;  4492.05  662.13 )">W-B</text><text style="&st18;" transform="matrix(&st17;  4330.58  139.57 )">V</text><text style="&st18;" transform="matrix(&st17;  4296.59  141.0 )">SB</text><text style="&st18;" transform="matrix(&st17;  4035.96  186.52 )">(*12)</text><text style="&st18;" transform="matrix(&st17;  4307.92  144.03 )">(*12)</text><text style="&st18;" transform="matrix(&st17;  4341.91  144.03 )">(*12)</text><text style="&st18;" transform="matrix(&st16;  4088.98  253.05 )">SB(*20 *13)</text><text style="&st18;" transform="matrix(&st16;  4173.96  253.05 )">SB(*20 *13)</text><text style="&st18;" transform="matrix(&st16;  4271.05  253.05 )">SB</text><text style="&st18;" transform="matrix(&st16;  4262.44  264.38 )">(*20 *13)</text><text style="&st18;" transform="matrix(&st16;  4364.42  238.88 )">(*20 *13)</text><text style="&st18;" transform="matrix(&st16;  4374.46  227.55 )">V</text><text style="&st18;" transform="matrix(&st16;  4374.46  253.05 )">V</text><text style="&st18;" transform="matrix(&st16;  4364.42  264.38 )">(*20 *13)</text><text style="&st18;" transform="matrix(&st16;  4175.4  227.55 )">V(*20 *13)</text><text style="&st18;" transform="matrix(&st16;  4090.41  227.55 )">V(*20 *13)</text><text style="&st18;" transform="matrix(&st16;  4164.42  533.5 )">R(*20 *10,*20 *44)</text><text style="&st18;" transform="matrix(&st16;  4096.23  584.49 )">L(*19)</text><text style="&st18;" transform="matrix(&st16;  4181.21  584.49 )">L(*19)</text><text style="&st18;" transform="matrix(&st16;  4096.23  567.49 )">L(*20)</text><text style="&st18;" transform="matrix(&st16;  4181.21  567.49 )">L(*20)</text><text style="&st18;" transform="matrix(&st16;  4096.19  550.5 )">R(*19)</text><text style="&st18;" transform="matrix(&st16;  4181.18  550.5 )">R(*19)</text><text style="&st18;" transform="matrix(&st16;  4079.44  533.5 )">R(*20 *10,*20 *44)</text><text style="&st18;" transform="matrix(&st16;  4180.32  618.48 )">W(*19)</text><text style="&st18;" transform="matrix(&st16;  4095.34  618.48 )">W(*19)</text><text style="&st18;" transform="matrix(&st16;  4096.0  601.49 )">V(*19)</text><text style="&st18;" transform="matrix(&st16;  4180.98  601.49 )">V(*19)</text><text style="&st18;" transform="matrix(&st16;  4175.24  635.48 )">G(*19,*40)</text><text style="&st18;" transform="matrix(&st16;  4090.26  635.48 )">G(*19,*40)</text><text style="&st18;" transform="matrix(&st16;  4164.42  516.5 )">R(*20 *11,*20 *45)</text><text style="&st18;" transform="matrix(&st16;  4079.44  516.5 )">R(*20 *11,*20 *45)</text><text style="&st18;" transform="matrix(&st16;  4398.85  25.26 )">G28(B)</text><g ewd:code="G3" ewd:figID="41" ewd:comment="3,41,4,12" ewd:figtype="conn"><path style="stroke-width: 0.85 ;&st7; stroke-dasharray:3, 1.5;" d=" M  4308.78,   277.14  L  4317.28,   277.14  " /><path style="stroke-width: 0.85 ;&st7; stroke-dasharray:3, 1.5;" d=" M  4308.78,   286.20  L  4317.28,   286.20  " /><path style="stroke-width: 0.85 ;&st7; stroke-dasharray:3, 1.5;" d=" M  4342.77,   277.14  L  4546.74,   277.14  " /><path style="stroke-width: 0.85 ;&st7; stroke-dasharray:3, 1.5;" d=" M  4342.77,   286.20  L  4546.74,   286.20  " /><path style="stroke-width: 0.85 ;&st7; stroke-dasharray:3, 1.5;" d=" M  4572.23,   277.14  L  4580.73,   277.14  " /><path style="stroke-width: 0.85 ;&st7; stroke-dasharray:3, 1.5;" d=" M  4572.23,   286.20  L  4580.73,   286.20  " /><path style="stroke-width: 0.85 ;&st7;   " d=" M  4267.70,   367.22  C  4267.70    366.44   4267.07    365.81   4266.29    365.81  " /><path style="stroke-width: 0.85 ;&st7;   " d=" M  4266.29,   365.81  C  4265.50    365.81   4264.87    366.44   4264.87    367.22  " /><path style="stroke-width: 0.85 ;&st7;   " d=" M  4264.87,   367.22  C  4264.87    368.01   4265.50    368.64   4266.29    368.64  " /><path style="stroke-width: 0.85 ;&st7;   " d=" M  4266.29,   368.64  C  4267.07    368.64   4267.70    368.01   4267.70    367.22  " /><path style="stroke-width: 0.85 ;&st7;   " d=" M  4369.69,   350.23  C  4369.69    349.44   4369.05    348.81   4368.27    348.81  " /><path style="stroke-width: 0.85 ;&st7;   " d=" M  4368.27,   348.81  C  4367.49    348.81   4366.85    349.44   4366.85    350.23  " /><path style="stroke-width: 0.85 ;&st7;   " d=" M  4366.85,   350.23  C  4366.85    351.01   4367.49    351.64   4368.27    351.64  " /><path style="stroke-width: 0.85 ;&st7;   " d=" M  4368.27,   351.64  C  4369.05    351.64   4369.69    351.01   4369.69    350.23  " /><path style="stroke-width: 0.85 ;&st7;   " d=" M  4267.70,   333.23  C  4267.70    332.45   4267.07    331.81   4266.29    331.81  " /><path style="stroke-width: 0.85 ;&st7;   " d=" M  4266.29,   331.81  C  4265.50    331.81   4264.87    332.45   4264.87    333.23  " /><path style="stroke-width: 0.85 ;&st7;   " d=" M  4264.87,   333.23  C  4264.87    334.01   4265.50    334.65   4266.29    334.65  " /><path style="stroke-width: 0.85 ;&st7;   " d=" M  4266.29,   334.65  C  4267.07    334.65   4267.70    334.01   4267.70    333.23  " /><path style="stroke-width: 0.85 ;&st7;   " d=" M  4267.70,   350.23  C  4267.70    349.44   4267.07    348.81   4266.29    348.81  " /><path style="stroke-width: 0.85 ;&st7;   " d=" M  4266.29,   348.81  C  4265.50    348.81   4264.87    349.44   4264.87    350.23  " /><path style="stroke-width: 0.85 ;&st7;   " d=" M  4264.87,   350.23  C  4264.87    351.01   4265.50    351.64   4266.29    351.64  " /><path style="stroke-width: 0.85 ;&st7;   " d=" M  4266.29,   351.64  C  4267.07    351.64   4267.70    351.01   4267.70    350.23  " /><path style="stroke-width: 0.85 ;&st7;   " d=" M  4335.69,   333.23  C  4335.69    332.45   4335.06    331.81   4334.28    331.81  " /><path style="stroke-width: 0.85 ;&st7;   " d=" M  4334.28,   331.81  C  4333.49    331.81   4332.86    332.45   4332.86    333.23  " /><path style="stroke-width: 0.85 ;&st7;   " d=" M  4332.86,   333.23  C  4332.86    334.01   4333.49    334.65   4334.28    334.65  " /><path style="stroke-width: 0.85 ;&st7;   " d=" M  4334.28,   334.65  C  4335.06    334.65   4335.69    334.01   4335.69    333.23  " /><path style="stroke-width: 0.85 ;&st7;   " d=" M  4301.70,   367.22  C  4301.70    366.44   4301.06    365.81   4300.28    365.81  " /><path style="stroke-width: 0.85 ;&st7;   " d=" M  4300.28,   365.81  C  4299.50    365.81   4298.87    366.44   4298.87    367.22  " /><path style="stroke-width: 0.85 ;&st7;   " d=" M  4298.87,   367.22  C  4298.87    368.01   4299.50    368.64   4300.28    368.64  " /><path style="stroke-width: 0.85 ;&st7;   " d=" M  4300.28,   368.64  C  4301.06    368.64   4301.70    368.01   4301.70    367.22  " /><path style="stroke-width: 0.85 ;&st7;   " d=" M  4301.70,   333.23  C  4301.70    332.45   4301.06    331.81   4300.28    331.81  " /><path style="stroke-width: 0.85 ;&st7;   " d=" M  4300.28,   331.81  C  4299.50    331.81   4298.87    332.45   4298.87    333.23  " /><path style="stroke-width: 0.85 ;&st7;   " d=" M  4298.87,   333.23  C  4298.87    334.01   4299.50    334.65   4300.28    334.65  " /><path style="stroke-width: 0.85 ;&st7;   " d=" M  4300.28,   334.65  C  4301.06    334.65   4301.70    334.01   4301.70    333.23  " /><path style="stroke-width: 0.85 ;&st7;   " d=" M  4497.17,   384.22  C  4497.17    383.44   4496.53    382.80   4495.75    382.80  " /><path style="stroke-width: 0.85 ;&st7;   " d=" M  4495.75,   382.80  C  4494.97    382.80   4494.33    383.44   4494.33    384.22  " /><path style="stroke-width: 0.85 ;&st7;   " d=" M  4494.33,   384.22  C  4494.33    385.00   4494.97    385.64   4495.75    385.64  " /><path style="stroke-width: 0.85 ;&st7;   " d=" M  4495.75,   385.64  C  4496.53    385.64   4497.17    385.00   4497.17    384.22  " /><path style="stroke-width: 0.85 ;&st7;   " d=" M  4497.17,   367.22  C  4497.17    366.44   4496.53    365.81   4495.75    365.81  " /><path style="stroke-width: 0.85 ;&st7;   " d=" M  4495.75,   365.81  C  4494.97    365.81   4494.33    366.44   4494.33    367.22  " /><path style="stroke-width: 0.85 ;&st7;   " d=" M  4494.33,   367.22  C  4494.33    368.01   4494.97    368.64   4495.75    368.64  " /><path style="stroke-width: 0.85 ;&st7;   " d=" M  4495.75,   368.64  C  4496.53    368.64   4497.17    368.01   4497.17    367.22  " /><path style="stroke-width: 0.85 ;&st7;   " d=" M  4531.16,   367.22  C  4531.16    366.44   4530.53    365.81   4529.74    365.81  " /><path style="stroke-width: 0.85 ;&st7;   " d=" M  4529.74,   365.81  C  4528.96    365.81   4528.33    366.44   4528.33    367.22  " /><path style="stroke-width: 0.85 ;&st7;   " d=" M  4528.33,   367.22  C  4528.33    368.01   4528.96    368.64   4529.74    368.64  " /><path style="stroke-width: 0.85 ;&st7;   " d=" M  4529.74,   368.64  C  4530.53    368.64   4531.16    368.01   4531.16    367.22  " /><path style="stroke-width: 0.85 ;&st7;   " d=" M  4497.17,   350.23  C  4497.17    349.44   4496.53    348.81   4495.75    348.81  " /><path style="stroke-width: 0.85 ;&st7;   " d=" M  4495.75,   348.81  C  4494.97    348.81   4494.33    349.44   4494.33    350.23  " /><path style="stroke-width: 0.85 ;&st7;   " d=" M  4494.33,   350.23  C  4494.33    351.01   4494.97    351.64   4495.75    351.64  " /><path style="stroke-width: 0.85 ;&st7;   " d=" M  4495.75,   351.64  C  4496.53    351.64   4497.17    351.01   4497.17    350.23  " /><path style="stroke-width: 0.85 ;&st7;   " d=" M  4531.16,   384.22  C  4531.16    383.44   4530.53    382.80   4529.74    382.80  " /><path style="stroke-width: 0.85 ;&st7;   " d=" M  4529.74,   382.80  C  4528.96    382.80   4528.33    383.44   4528.33    384.22  " /><path style="stroke-width: 0.85 ;&st7;   " d=" M  4528.33,   384.22  C  4528.33    385.00   4528.96    385.64   4529.74    385.64  " /><path style="stroke-width: 0.85 ;&st7;   " d=" M  4529.74,   385.64  C  4530.53    385.64   4531.16    385.00   4531.16    384.22  " /><path style="stroke-width: 0.85 ;&st7;   " d=" M  4565.15,   384.22  C  4565.15    383.44   4564.52    382.80   4563.74    382.80  " /><path style="stroke-width: 0.85 ;&st7;   " d=" M  4563.74,   382.80  C  4562.96    382.80   4562.32    383.44   4562.32    384.22  " /><path style="stroke-width: 0.85 ;&st7;   " d=" M  4562.32,   384.22  C  4562.32    385.00   4562.96    385.64   4563.74    385.64  " /><path style="stroke-width: 0.85 ;&st7;   " d=" M  4563.74,   385.64  C  4564.52    385.64   4565.15    385.00   4565.15    384.22  " /><path style="stroke-width: 0.85 ;&st7;   " d=" M  4599.15,   350.23  C  4599.15    349.44   4598.51    348.81   4597.73    348.81  " /><path style="stroke-width: 0.85 ;&st7;   " d=" M  4597.73,   348.81  C  4596.95    348.81   4596.32    349.44   4596.32    350.23  " /><path style="stroke-width: 0.85 ;&st7;   " d=" M  4596.32,   350.23  C  4596.32    351.01   4596.95    351.64   4597.73    351.64  " /><path style="stroke-width: 0.85 ;&st7;   " d=" M  4597.73,   351.64  C  4598.51    351.64   4599.15    351.01   4599.15    350.23  " /><path style="stroke-width: 0.85 ;&st7;  " d=" M  4494.55,   408.71  L  4494.28,   409.18  L  4494.19,   409.72  L  4494.28,   410.25  L  4494.55,   410.72  L  4494.97,   411.07  L  4495.48,   411.25  L  4496.02,   411.25  L  4496.53,   411.07  L  4496.94,   410.72  L  4497.21,   410.25  L  4497.31,   409.72  L  4497.21,   409.18  L  4496.94,   408.71  L  4496.53,   408.37  L  4496.02,   408.18  L  4495.48,   408.18  L  4494.97,   408.37  L  4494.55,   408.71  L  4494.95,   409.43  L  4494.95,   410.01  L  4495.32,   410.45  L  4495.89,   410.55  L  4496.40,   410.26  L  4496.60,   409.72  L  4496.40,   409.17  L  4495.89,   408.88  L  4495.32,   408.98  L  4495.75,   409.72  " /><path style="stroke-width: 0.85 ;&st7;  " d=" M  4300.28,   290.74  L  4300.28,   307.73  " /><path style="stroke-width: 0.85 ;&st7;  " d=" M  4266.29,   375.72  L  4266.29,   409.72  L  4495.75,   409.72  " /><path style="stroke-width: 0.85 ;&st7;  " d=" M  4215.29,   307.73  L  4215.29,   375.72  " /><path style="stroke-width: 0.85 ;&st7;  " d=" M  4298.86,   367.22  L  4267.70,   367.22  " /><path style="stroke-width: 0.85 ;&st7;  " d=" M  4249.29,   307.73  L  4249.29,   375.72  " /><path style="stroke-width: 0.85 ;&st7;  " d=" M  4215.29,   324.73  L  4385.27,   324.73  " /><path style="stroke-width: 0.85 ;&st7;  " d=" M  4283.28,   307.73  L  4283.28,   375.72  " /><path style="stroke-width: 0.85 ;&st7;  " d=" M  4366.85,   350.23  L  4267.70,   350.23  " /><path style="stroke-width: 0.85 ;&st7;  " d=" M  4215.29,   341.73  L  4385.27,   341.73  " /><path style="stroke-width: 0.85 ;&st7;  " d=" M  4317.28,   307.73  L  4317.28,   375.72  " /><path style="stroke-width: 0.85 ;&st7;  " d=" M  4334.27,   307.73  L  4334.27,   290.74  " /><path style="stroke-width: 0.85 ;&st7;  " d=" M  4215.29,   358.73  L  4385.27,   358.73  " /><path style="stroke-width: 0.85 ;&st7;  " d=" M  4301.70,   333.23  L  4332.86,   333.23  " /><path style="stroke-width: 0.85 ;&st7;  " d=" M  4351.27,   307.73  L  4351.27,   375.72  " /><path style="stroke-width: 0.85 ;&st7;  " d=" M  4298.86,   333.23  L  4267.70,   333.23  " /><path style="stroke-width: 0.85 ;&st7;  " d=" M  4528.32,   384.22  L  4497.16,   384.22  " /><path style="stroke-width: 0.85 ;&st7;  " d=" M  4528.32,   367.22  L  4497.16,   367.22  " /><path style="stroke-width: 0.85 ;&st7;  " d=" M  4436.26,   307.73  L  4436.26,   392.72  " /><path style="stroke-width: 0.85 ;&st7;  " d=" M  4563.74,   307.73  L  4563.74,   290.74  " /><path style="stroke-width: 0.85 ;&st7;  " d=" M  4597.73,   307.73  L  4597.73,   290.74  " /><path style="stroke-width: 0.85 ;&st7;  " d=" M  4546.74,   307.73  L  4546.74,   392.72  " /><path style="stroke-width: 0.85 ;&st7;  " d=" M  4436.26,   375.72  L  4614.73,   375.72  " /><path style="stroke-width: 0.85 ;&st7;  " d=" M  4436.26,   341.73  L  4614.73,   341.73  " /><path style="stroke-width: 0.85 ;&st7;  " d=" M  4531.16,   384.22  L  4562.32,   384.22  " /><path style="stroke-width: 0.85 ;&st7;  " d=" M  4596.31,   350.23  L  4497.16,   350.23  " /><path style="stroke-width: 0.85 ;&st7;  " d=" M  4512.74,   307.73  L  4512.74,   392.72  " /><path style="stroke-width: 0.85 ;&st7;  " d=" M  4478.75,   307.73  L  4478.75,   392.72  " /><path style="stroke-width: 0.85 ;&st7;  " d=" M  4436.26,   358.73  L  4614.73,   358.73  " /><path style="stroke-width: 1.42 ;&st7;  " d=" M  4402.26,   307.73  L  4614.73,   307.73  L  4614.73,   392.72  L  4402.26,   392.72  L  4402.26,   307.73  " /><path style="stroke-width: 0.85 ;&st7;  " d=" M  4580.73,   307.73  L  4580.73,   392.72  " /><path style="stroke-width: 1.42 ;&st7;  " d=" M  4181.30,   307.73  L  4385.27,   307.73  L  4385.27,   375.72  L  4181.30,   375.72  L  4181.30,   307.73  " /><path style="stroke-width: 1.42 ;&st7;  " d=" M  4164.30,   290.74  L  4164.30,   426.71  L  4640.22,   426.71  L  4640.22,   290.74  L  4164.30,   290.74  " /><text style="&st18;" transform="matrix(&st16;  4336.86  298.93 )">HF</text><text style="&st18;" transform="matrix(&st16;  4302.86  298.93 )">HU</text><text style="&st18;" transform="matrix(&st16;  4262.35  318.2 )">EL</text><text style="&st18;" transform="matrix(&st16;  4362.09  318.2 )">(HL)</text><text style="&st18;" transform="matrix(&st16;  4295.65  318.2 )">HU</text><text style="&st18;" transform="matrix(&st16;  4226.81  352.2 )" ewd:textID="41">Low</text><text style="&st18;" transform="matrix(&st16;  4225.22  335.2 )" ewd:textID="31">Flash</text><text style="&st18;" transform="matrix(&st17;  4200.27  360.44 )" ewd:textID="27">Dimmer Switch</text><text style="&st18;" transform="matrix(&st16;  4329.92  318.2 )">HF</text><text style="&st18;" transform="matrix(&st16;  4226.03  369.19 )" ewd:textID="38">High</text><text style="&st18;" transform="matrix(&st16;  4600.32  298.93 )">A</text><text style="&st18;" transform="matrix(&st16;  4566.32  298.93 )">H</text><text style="&st18;" transform="matrix(&st16;  4498.33  423.02 )">EL</text><text style="&st18;" transform="matrix(&st16;  4561.24  318.2 )">H</text><text style="&st18;" transform="matrix(&st17;  4418.41  367.35 )" ewd:textID="40">Light Control <tspan x="0 " dy="6.0">Switch</tspan></text><text style="&st18;" transform="matrix(&st16;  4527.55  318.2 )">T</text><text style="&st18;" transform="matrix(&st16;  4491.82  318.2 )">EL</text><text style="&st18;" transform="matrix(&st16;  4595.43  318.2 )">A</text><text style="&st18;" transform="matrix(&st16;  4450.59  386.19 )" ewd:textID="33">Head</text><text style="&st18;" transform="matrix(&st16;  4452.45  369.19 )" ewd:textID="69">Tail</text><g ewd:code="" ewd:figID="200" ewd:comment="12" ewd:figtype="commref"><text style="&st18;" transform="matrix(&st16;  4448.76  349.37 )">AUTO <tspan x="0 " dy="6.0">(*12)</tspan></text></g><g ewd:code="" ewd:figID="199" ewd:comment="41" ewd:figtype="commref"><text style="&st18;" transform="matrix(&st16;  4450.74  332.37 )" ewd:textID="68">Off <tspan x="0 " dy="6.0">(*41)</tspan></text></g><path style="stroke-width: 0.85 ;&st7;  " d=" M  4436.26,   324.73  L  4614.73,   324.73  " /><path style="stroke-width: 0.85 ;&st7;  " d=" M  4495.75,   392.72  L  4495.75,   426.71  " /><text style="&st18;" transform="matrix(&st16;  4288.49  279.11 )">14</text><text style="&st18;" transform="matrix(&st16;  4288.49  288.17 )">17</text><path style="stroke-width: 1.42 ;&st7;   " d=" M  4304.81,   277.14  C  4304.81    274.64   4302.78    272.61   4300.28    272.61  " /><path style="stroke-width: 1.42 ;&st7;   " d=" M  4300.28,   272.61  C  4297.78    272.61   4295.75    274.64   4295.75    277.14  " /><path style="stroke-width: 1.42 ;&st7;   " d=" M  4295.75,   277.14  C  4295.75    279.64   4297.78    281.67   4300.28    281.67  " /><path style="stroke-width: 1.42 ;&st7;   " d=" M  4300.28,   281.67  C  4302.78    281.67   4304.81    279.64   4304.81    277.14  " /><path style="stroke-width: 1.42 ;&st7;   " d=" M  4304.81,   286.20  C  4304.81    283.70   4302.78    281.67   4300.28    281.67  " /><path style="stroke-width: 1.42 ;&st7;   " d=" M  4300.28,   281.67  C  4297.78    281.67   4295.75    283.70   4295.75    286.20  " /><path style="stroke-width: 1.42 ;&st7;   " d=" M  4295.75,   286.20  C  4295.75    288.71   4297.78    290.74   4300.28    290.74  " /><path style="stroke-width: 1.42 ;&st7;   " d=" M  4300.28,   290.74  C  4302.78    290.74   4304.81    288.71   4304.81    286.20  " /><text style="&st18;" transform="matrix(&st16;  4297.98  288.17 )">A</text><text style="&st18;" transform="matrix(&st16;  4297.98  279.11 )">A</text><text style="&st18;" transform="matrix(&st16;  4322.48  279.11 )">17</text><text style="&st18;" transform="matrix(&st16;  4322.48  288.17 )">14</text><path style="stroke-width: 1.42 ;&st7;   " d=" M  4338.81,   277.14  C  4338.81    274.64   4336.78    272.61   4334.28    272.61  " /><path style="stroke-width: 1.42 ;&st7;   " d=" M  4334.28,   272.61  C  4331.77    272.61   4329.74    274.64   4329.74    277.14  " /><path style="stroke-width: 1.42 ;&st7;   " d=" M  4329.74,   277.14  C  4329.74    279.64   4331.77    281.67   4334.28    281.67  " /><path style="stroke-width: 1.42 ;&st7;   " d=" M  4334.28,   281.67  C  4336.78    281.67   4338.81    279.64   4338.81    277.14  " /><text style="&st18;" transform="matrix(&st16;  4331.97  288.17 )">A</text><path style="stroke-width: 1.42 ;&st7;   " d=" M  4338.81,   286.20  C  4338.81    283.70   4336.78    281.67   4334.28    281.67  " /><path style="stroke-width: 1.42 ;&st7;   " d=" M  4334.28,   281.67  C  4331.77    281.67   4329.74    283.70   4329.74    286.20  " /><path style="stroke-width: 1.42 ;&st7;   " d=" M  4329.74,   286.20  C  4329.74    288.71   4331.77    290.74   4334.28    290.74  " /><path style="stroke-width: 1.42 ;&st7;   " d=" M  4334.28,   290.74  C  4336.78    290.74   4338.81    288.71   4338.81    286.20  " /><text style="&st18;" transform="matrix(&st16;  4331.97  279.11 )">A</text><text style="&st18;" transform="matrix(&st16;  4551.94  288.17 )">12</text><text style="&st18;" transform="matrix(&st16;  4551.94  279.11 )">19</text><text style="&st18;" transform="matrix(&st16;  4561.43  288.17 )">A</text><path style="stroke-width: 1.42 ;&st7;   " d=" M  4568.27,   277.14  C  4568.27    274.64   4566.24    272.61   4563.74    272.61  " /><path style="stroke-width: 1.42 ;&st7;   " d=" M  4563.74,   272.61  C  4561.23    272.61   4559.20    274.64   4559.20    277.14  " /><path style="stroke-width: 1.42 ;&st7;   " d=" M  4559.20,   277.14  C  4559.20    279.64   4561.23    281.67   4563.74    281.67  " /><path style="stroke-width: 1.42 ;&st7;   " d=" M  4563.74,   281.67  C  4566.24    281.67   4568.27    279.64   4568.27    277.14  " /><path style="stroke-width: 1.42 ;&st7;   " d=" M  4568.27,   286.20  C  4568.27    283.70   4566.24    281.67   4563.74    281.67  " /><path style="stroke-width: 1.42 ;&st7;   " d=" M  4563.74,   281.67  C  4561.23    281.67   4559.20    283.70   4559.20    286.20  " /><path style="stroke-width: 1.42 ;&st7;   " d=" M  4559.20,   286.20  C  4559.20    288.71   4561.23    290.74   4563.74    290.74  " /><path style="stroke-width: 1.42 ;&st7;   " d=" M  4563.74,   290.74  C  4566.24    290.74   4568.27    288.71   4568.27    286.20  " /><text style="&st18;" transform="matrix(&st16;  4561.43  279.11 )">A</text><text style="&st18;" transform="matrix(&st16;  4483.95  433.22 )">15</text><text style="&st18;" transform="matrix(&st16;  4483.95  442.28 )">16</text><path style="stroke-width: 1.42 ;&st7;   " d=" M  4500.28,   440.31  C  4500.28    437.81   4498.25    435.78   4495.75    435.78  " /><path style="stroke-width: 1.42 ;&st7;   " d=" M  4495.75,   435.78  C  4493.25    435.78   4491.22    437.81   4491.22    440.31  " /><path style="stroke-width: 1.42 ;&st7;   " d=" M  4491.22,   440.31  C  4491.22    442.81   4493.25    444.84   4495.75    444.84  " /><path style="stroke-width: 1.42 ;&st7;   " d=" M  4495.75,   444.84  C  4498.25    444.84   4500.28    442.81   4500.28    440.31  " /><text style="&st18;" transform="matrix(&st16;  4493.44  433.22 )">A</text><text style="&st18;" transform="matrix(&st16;  4493.44  442.28 )">A</text><path style="stroke-width: 1.42 ;&st7;   " d=" M  4500.28,   431.25  C  4500.28    428.74   4498.25    426.71   4495.75    426.71  " /><path style="stroke-width: 1.42 ;&st7;   " d=" M  4495.75,   426.71  C  4493.25    426.71   4491.22    428.74   4491.22    431.25  " /><path style="stroke-width: 1.42 ;&st7;   " d=" M  4491.22,   431.25  C  4491.22    433.75   4493.25    435.78   4495.75    435.78  " /><path style="stroke-width: 1.42 ;&st7;   " d=" M  4495.75,   435.78  C  4498.25    435.78   4500.28    433.75   4500.28    431.25  " /><text style="&st18;" transform="matrix(&st16;  4585.94  279.11 )">20</text><text style="&st18;" transform="matrix(&st16;  4585.94  288.17 )">11</text><text style="&st18;" transform="matrix(&st16;  4595.43  279.11 )">A</text><text style="&st18;" transform="matrix(&st16;  4595.43  288.17 )">A</text><path style="stroke-width: 1.42 ;&st7;   " d=" M  4602.26,   286.20  C  4602.26    283.70   4600.24    281.67   4597.73    281.67  " /><path style="stroke-width: 1.42 ;&st7;   " d=" M  4597.73,   281.67  C  4595.23    281.67   4593.20    283.70   4593.20    286.20  " /><path style="stroke-width: 1.42 ;&st7;   " d=" M  4593.20,   286.20  C  4593.20    288.71   4595.23    290.74   4597.73    290.74  " /><path style="stroke-width: 1.42 ;&st7;   " d=" M  4597.73,   290.74  C  4600.24    290.74   4602.26    288.71   4602.26    286.20  " /><path style="stroke-width: 1.42 ;&st7;   " d=" M  4602.26,   277.14  C  4602.26    274.64   4600.24    272.61   4597.73    272.61  " /><path style="stroke-width: 1.42 ;&st7;   " d=" M  4597.73,   272.61  C  4595.23    272.61   4593.20    274.64   4593.20    277.14  " /><path style="stroke-width: 1.42 ;&st7;   " d=" M  4593.20,   277.14  C  4593.20    279.64   4595.23    281.67   4597.73    281.67  " /><path style="stroke-width: 1.42 ;&st7;   " d=" M  4597.73,   281.67  C  4600.24    281.67   4602.26    279.64   4602.26    277.14  " /><g ewd:figtype="title"><text style="&st18;" transform="matrix(&st16;  4228.89  441.43 )" ewd:textID="36">Headlight Dimmer Switch Assembly</text><text style="&st18;" transform="matrix(&st16;  4228.88  434.61 )">G3(A)</text></g><g ewd:code="" ewd:figID="137" ewd:comment="4" ewd:figtype="commref"><text style="&st18;" transform="matrix(&st16;  4602.82  279.11 )">(LHD,RHD *4)</text></g><g ewd:code="" ewd:figID="138" ewd:comment="3" ewd:figtype="commref"><text style="&st18;" transform="matrix(&st16;  4602.82  288.17 )">(RHD *3)</text></g><g ewd:code="" ewd:figID="139" ewd:comment="4" ewd:figtype="commref"><text style="&st18;" transform="matrix(&st16;  4500.84  433.22 )">(LHD,RHD *4)</text></g><g ewd:code="" ewd:figID="140" ewd:comment="3" ewd:figtype="commref"><text style="&st18;" transform="matrix(&st16;  4500.84  442.28 )">(RHD *3)</text></g></g><g ewd:figtype="conn" ewd:figID="46" ewd:code="G62,G96"><path style="stroke-width: 0.85 ;&st7; stroke-dasharray:3, 1.5;" d=" M  4410.76,   201.79  L  4432.01,   201.79  " /><path style="stroke-width: 0.85 ;&st7; stroke-dasharray:3, 1.5;" d=" M  4410.76,   210.85  L  4427.76,   210.85  " /><path style="stroke-width: 0.85 ;&st7; stroke-dasharray:3, 1.5;" d=" M  4453.25,   201.79  L  4474.50,   201.79  " /><path style="stroke-width: 0.85 ;&st7; stroke-dasharray:3, 1.5;" d=" M  4453.25,   210.85  L  4470.25,   210.85  " /><path style="stroke-width: 1.42 ;&st7;  " d=" M  4393.76,   180.26  L  4393.76,   197.25  L  4495.75,   197.25  L  4495.75,   180.26  L  4393.76,   180.26  " /><path style="stroke-width: 0.85 ;&st7;  " d=" M  4444.76,   197.25  L  4444.76,   188.75  L  4402.26,   188.75  L  4402.26,   197.25  " /><path style="stroke-width: 0.85 ;&st7;  " d=" M  4487.25,   197.25  L  4487.25,   188.75  L  4444.76,   188.75  " /><path style="stroke-width: 0.85 ;&st7;  " d=" M  4443.56,   187.75  L  4443.29,   188.22  L  4443.20,   188.75  L  4443.29,   189.29  L  4443.56,   189.76  L  4443.98,   190.10  L  4444.49,   190.29  L  4445.02,   190.29  L  4445.53,   190.10  L  4445.95,   189.76  L  4446.22,   189.29  L  4446.31,   188.75  L  4446.22,   188.22  L  4445.95,   187.75  L  4445.53,   187.41  L  4445.02,   187.22  L  4444.49,   187.22  L  4443.98,   187.41  L  4443.56,   187.75  L  4443.96,   188.46  L  4443.96,   189.05  L  4444.33,   189.49  L  4444.90,   189.59  L  4445.41,   189.30  L  4445.61,   188.75  L  4445.41,   188.21  L  4444.90,   187.92  L  4444.33,   188.02  L  4444.76,   188.75  " /><text style="&st18;" transform="matrix(&st16;  4390.47  212.82 )">19</text><text style="&st18;" transform="matrix(&st16;  4393.57  203.75 )">4</text><text style="&st18;" transform="matrix(&st16;  4400.08  212.82 )">B</text><path style="stroke-width: 1.42 ;&st7;   " d=" M  4406.80,   210.85  C  4406.80    208.35   4404.77    206.32   4402.26    206.32  " /><path style="stroke-width: 1.42 ;&st7;   " d=" M  4402.26,   206.32  C  4399.76    206.32   4397.73    208.35   4397.73    210.85  " /><path style="stroke-width: 1.42 ;&st7;   " d=" M  4397.73,   210.85  C  4397.73    213.35   4399.76    215.38   4402.26    215.38  " /><path style="stroke-width: 1.42 ;&st7;   " d=" M  4402.26,   215.38  C  4404.77    215.38   4406.80    213.35   4406.80    210.85  " /><text style="&st18;" transform="matrix(&st16;  4399.96  203.75 )">A</text><path style="stroke-width: 1.42 ;&st7;   " d=" M  4406.80,   201.78  C  4406.80    199.28   4404.77    197.25   4402.26    197.25  " /><path style="stroke-width: 1.42 ;&st7;   " d=" M  4402.26,   197.25  C  4399.76    197.25   4397.73    199.28   4397.73    201.78  " /><path style="stroke-width: 1.42 ;&st7;   " d=" M  4397.73,   201.78  C  4397.73    204.29   4399.76    206.32   4402.26    206.32  " /><path style="stroke-width: 1.42 ;&st7;   " d=" M  4402.26,   206.32  C  4404.77    206.32   4406.80    204.29   4406.80    201.78  " /><text style="&st18;" transform="matrix(&st16;  4432.96  212.82 )">20</text><text style="&st18;" transform="matrix(&st16;  4436.06  203.75 )">5</text><path style="stroke-width: 1.42 ;&st7;   " d=" M  4449.29,   201.78  C  4449.29    199.28   4447.26    197.25   4444.76    197.25  " /><path style="stroke-width: 1.42 ;&st7;   " d=" M  4444.76,   197.25  C  4442.25    197.25   4440.22    199.28   4440.22    201.78  " /><path style="stroke-width: 1.42 ;&st7;   " d=" M  4440.22,   201.78  C  4440.22    204.29   4442.25    206.32   4444.76    206.32  " /><path style="stroke-width: 1.42 ;&st7;   " d=" M  4444.76,   206.32  C  4447.26    206.32   4449.29    204.29   4449.29    201.78  " /><text style="&st18;" transform="matrix(&st16;  4442.45  203.75 )">A</text><text style="&st18;" transform="matrix(&st16;  4442.57  212.82 )">B</text><path style="stroke-width: 1.42 ;&st7;   " d=" M  4449.29,   210.85  C  4449.29    208.35   4447.26    206.32   4444.76    206.32  " /><path style="stroke-width: 1.42 ;&st7;   " d=" M  4444.76,   206.32  C  4442.25    206.32   4440.22    208.35   4440.22    210.85  " /><path style="stroke-width: 1.42 ;&st7;   " d=" M  4440.22,   210.85  C  4440.22    213.35   4442.25    215.38   4444.76    215.38  " /><path style="stroke-width: 1.42 ;&st7;   " d=" M  4444.76,   215.38  C  4447.26    215.38   4449.29    213.35   4449.29    210.85  " /><text style="&st18;" transform="matrix(&st16;  4478.56  203.75 )">6</text><text style="&st18;" transform="matrix(&st16;  4475.45  212.82 )">21</text><path style="stroke-width: 1.42 ;&st7;   " d=" M  4491.78,   210.85  C  4491.78    208.35   4489.75    206.32   4487.25    206.32  " /><path style="stroke-width: 1.42 ;&st7;   " d=" M  4487.25,   206.32  C  4484.75    206.32   4482.72    208.35   4482.72    210.85  " /><path style="stroke-width: 1.42 ;&st7;   " d=" M  4482.72,   210.85  C  4482.72    213.35   4484.75    215.38   4487.25    215.38  " /><path style="stroke-width: 1.42 ;&st7;   " d=" M  4487.25,   215.38  C  4489.75    215.38   4491.78    213.35   4491.78    210.85  " /><path style="stroke-width: 1.42 ;&st7;   " d=" M  4491.78,   201.78  C  4491.78    199.28   4489.75    197.25   4487.25    197.25  " /><path style="stroke-width: 1.42 ;&st7;   " d=" M  4487.25,   197.25  C  4484.75    197.25   4482.72    199.28   4482.72    201.78  " /><path style="stroke-width: 1.42 ;&st7;   " d=" M  4482.72,   201.78  C  4482.72    204.29   4484.75    206.32   4487.25    206.32  " /><path style="stroke-width: 1.42 ;&st7;   " d=" M  4487.25,   206.32  C  4489.75    206.32   4491.78    204.29   4491.78    201.78  " /><text style="&st18;" transform="matrix(&st16;  4485.06  212.82 )">B</text><text style="&st18;" transform="matrix(&st16;  4484.95  203.75 )">A</text><g ewd:figtype="title"><text style="&st18;" transform="matrix(&st16;  4390.36  170.61 )" ewd:textID="60">No. 29 <tspan x="0 " dy="6.0">Junction Connector</tspan></text><text style="&st18;" transform="matrix(&st16;  4390.35  163.79 )">G96(B)</text><text style="&st18;" transform="matrix(&st16;  4390.36  150.5 )" ewd:textID="54">No. 21 <tspan x="0 " dy="6.0">Junction Connector</tspan></text><text style="&st18;" transform="matrix(&st16;  4390.35  143.67 )">G62(A)</text></g><g ewd:code="" ewd:figID="158" ewd:comment="" ewd:figtype="commref"><text style="&st18;" transform="matrix(&st16;  4492.34  203.75 )">(LHD)</text></g><g ewd:code="" ewd:figID="159" ewd:comment="" ewd:figtype="commref"><text style="&st18;" transform="matrix(&st16;  4492.34  212.82 )">(RHD)</text></g></g><g ewd:figtype="conn" ewd:figID="55" ewd:code="G28"><g ewd:lineID="86"><text style="&st18;" transform="matrix(&st16;  4288.49  93.27 )">14</text><text style="&st18;" transform="matrix(&st16;  4298.09  93.27 )">B</text><path style="stroke-width: 1.42 ;&st7;   " d=" M  4304.81,    91.30  C  4304.81     88.80   4302.78     86.77   4300.28     86.77  " /><path style="stroke-width: 1.42 ;&st7;   " d=" M  4300.28,    86.77  C  4297.78     86.77   4295.75     88.80   4295.75     91.30  " /><path style="stroke-width: 1.42 ;&st7;   " d=" M  4295.75,    91.30  C  4295.75     93.81   4297.78     95.84   4300.28     95.84  " /><path style="stroke-width: 1.42 ;&st7;   " d=" M  4300.28,    95.84  C  4302.78     95.84   4304.81     93.81   4304.81     91.30  " /><text style="&st18;" transform="matrix(&st16;  4295.65  83.07 )">HU</text></g><g ewd:lineID="88"><text style="&st18;" transform="matrix(&st16;  4322.48  93.27 )">13</text><path style="stroke-width: 1.42 ;&st7;   " d=" M  4338.81,    91.30  C  4338.81     88.80   4336.78     86.77   4334.28     86.77  " /><path style="stroke-width: 1.42 ;&st7;   " d=" M  4334.28,    86.77  C  4331.77     86.77   4329.74     88.80   4329.74     91.30  " /><path style="stroke-width: 1.42 ;&st7;   " d=" M  4329.74,    91.30  C  4329.74     93.81   4331.77     95.84   4334.28     95.84  " /><path style="stroke-width: 1.42 ;&st7;   " d=" M  4334.28,    95.84  C  4336.78     95.84   4338.81     93.81   4338.81     91.30  " /><text style="&st18;" transform="matrix(&st16;  4332.09  93.27 )">B</text><text style="&st18;" transform="matrix(&st16;  4329.92  83.07 )">HF</text></g><g ewd:lineID="121"><text style="&st18;" transform="matrix(&st16;  4021.68  83.07 )">GND</text></g></g><g ewd:figtype="gp" ewd:figID="104" ewd:code="GC"><path style="stroke-width: 0.85 ;&st7;  " d=" M  4026.91,   710.00  L  4029.74,   710.00  " /><path style="stroke-width: 0.85 ;&st7;  " d=" M  4025.49,   707.17  L  4031.16,   707.17  " /><path style="stroke-width: 0.85 ;&st7;  " d=" M  4024.08,   704.33  L  4032.57,   704.33  " /><path style="stroke-width: 0.85 ;&st7;  " d=" M  4019.83,   701.50  L  4036.82,   701.50  " /><path style="stroke-width: 0.85 ;&st7;  " d=" M  4028.33,   697.25  L  4028.33,   701.50  " /></g><g ewd:figtype="gp" ewd:figID="105" ewd:code="GE"><path style="stroke-width: 0.85 ;&st7;  " d=" M  4495.75,   697.25  L  4495.75,   701.50  " /><path style="stroke-width: 0.85 ;&st7;  " d=" M  4487.25,   701.50  L  4504.25,   701.50  " /><path style="stroke-width: 0.85 ;&st7;  " d=" M  4491.50,   704.33  L  4500.00,   704.33  " /><path style="stroke-width: 0.85 ;&st7;  " d=" M  4492.91,   707.17  L  4498.58,   707.17  " /><path style="stroke-width: 0.85 ;&st7;  " d=" M  4494.33,   710.00  L  4497.16,   710.00  " /></g></svg>