﻿<?xml version="1.0" encoding="utf-8"?>
<!DOCTYPE svg PUBLIC "-//W3C//DTD SVG 1.0//EN" "http://www.w3.org/TR/2001/REC-SVG-20010904/DTD/svg10.dtd"[
	<!ENTITY ns_flows "http://ns.adobe.com/Flows/1.0/">
	<!ENTITY ns_svg "http://www.w3.org/2000/svg">
	<!ENTITY ns_xlink "http://www.w3.org/1999/xlink">
	<!ENTITY st0 "font-size:7px;font-family:'MS-PGothic';adobe-font-script:japanese;">
	<!ENTITY st1 "font-size:6px;font-family:'ArialMT';">
	<!-- White fill  -->
	<!ENTITY st2 "fill:#FFFFFF;stroke:#000000; stroke-width:1.41;stroke-linecap:round;stroke-linejoin:round;">
	<!-- Yellow fill  -->
	<!ENTITY st3 "fill:#FFFFCC;stroke:#FFFFCC; stroke-width:0.1;stroke-linecap:round;stroke-linejoin:round;">
	<!-- Gray fill  -->
	<!ENTITY st4 "fill:#CCCCCC;stroke:#CCCCCC; stroke-width:0.1;stroke-linecap:round;stroke-linejoin:round;">
	<!-- Light-blue fill -->
	<!ENTITY st5 "fill:#CCECF4;stroke:#000000; stroke-width:1.133;stroke-linecap:round;stroke-linejoin:round;">
	<!ENTITY st6 "fill:none;stroke-linecap:butt; stroke-linejoin:round;">
	<!ENTITY st7 "fill:none;stroke:#000000;stroke-linecap:round;stroke-linejoin:round;">
	<!ENTITY st8 "enable-background:new    ;">
	<!-- Black fill -->
	<!ENTITY st9 "fill:#000000;stroke:#000000; stroke-linecap:round;stroke-linejoin:round;">
	<!-- SRS note   -->
	<!ENTITY st10 "font-size:9px;font-family:'ArialMT';">
	<!ENTITY st11 "font-size:9px;font-family:'Svg Symbol';">
	<!ENTITY st12 "font-size:6px;font-family:'Svg Symbol';">
	<!ENTITY st13 "fill:none;stroke:#ff0000;stroke-linecap:round;stroke-linejoin:round;">
	<!-- Yellow fill  -->
	<!ENTITY st14 "fill:#FFFF00;stroke:#FFFF00; stroke-width:0.1;stroke-linecap:round;stroke-linejoin:round;">
	<!ENTITY st15 "font-size:6px;font-family:'MS-PGothic';adobe-font-script:japanese;">
	<!ENTITY st16 "1.00 0.00 0.00 1.00">
	<!ENTITY st17 "0.00 -1.00 1.00 0.00">
	<!ENTITY st18 "font-size:6px;font-family:'Arial';">
	<!ENTITY st19 "font-size:9px;font-family:'Arial';">
	<!ENTITY st20 "font-size:6px;font-family:'MS-PGothic','MS PGothic';adobe-font-script:japanese;">
	<!ENTITY st21 "font-size:7px;font-family:'MS-PGothic','MS PGothic';adobe-font-script:japanese;">
	<!ATTLIST svg
		xmlns:ewd CDATA #FIXED "http://shcl.co.jp/ewd"
		xmlns:a CDATA #FIXED "http://ns.adobe.com/AdobeSVGViewerExtensions/3.0/"
		ewd:ver CDATA #IMPLIED
	>
	<!ATTLIST a
		ewd:lineID CDATA #IMPLIED
		ewd:groupID CDATA #IMPLIED
		ewd:figtype CDATA #IMPLIED
		ewd:code CDATA #IMPLIED
		ewd:figID CDATA #IMPLIED
		ewd:pinNo CDATA #IMPLIED
		ewd:comment CDATA #IMPLIED >
	<!ATTLIST g
		ewd:lineID CDATA #IMPLIED
		ewd:groupID CDATA #IMPLIED
		ewd:figtype CDATA #IMPLIED
		ewd:code CDATA #IMPLIED
		ewd:figID CDATA #IMPLIED
		ewd:pinNo CDATA #IMPLIED
		ewd:comment CDATA #IMPLIED >
	<!ATTLIST text
		ewd:textID CDATA #IMPLIED >
	<!ATTLIST title
		ewd:textID CDATA #IMPLIED >
]>
<!-- Generator: Shintec Hozumi YS   -->
<svg onload="call_execInitLoadProc_svg('system')" style="overflow:visible;  enable-background:new 0 0 6181.840 710.000" viewBox="0 0 6181.840 710.000" height="710.000" width="6181.840" xml:space="preserve" ewd:ver="2.1.2.9" xmlns="&ns_svg;" xmlns:a="http://ns.adobe.com/AdobeSVGViewerExtensions/3.0/" xmlns:ewd="http://shcl.co.jp/ewd" xmlns:xlink="&ns_xlink;">
<text style="&st18;" transform="matrix(&st16;  4688.25  575.99 )">W</text><text style="&st18;" transform="matrix(&st16;  4637.26  575.99 )">W</text><text style="&st18;" transform="matrix(&st16;  4678.25  592.99 )">W-B(*32)</text><text style="&st18;" transform="matrix(&st16;  4627.26  592.99 )">W-B(*32)</text><text style="&st18;" transform="matrix(&st17;  4500.55  347.68 )">W-B</text><text style="&st18;" transform="matrix(&st17;  4979.31  178.02 )">(*27)</text><text style="&st18;" transform="matrix(&st16;  4678.25  558.99 )">W-B(*35)</text><text style="&st18;" transform="matrix(&st16;  4627.26  558.99 )">W-B(*35)</text><text style="&st18;" transform="matrix(&st16;  4678.25  609.99 )">W-B(*16)</text><text style="&st18;" transform="matrix(&st16;  4627.26  609.99 )">W-B(*16)</text><text style="&st18;" transform="matrix(&st16;  4944.1  74.58 )">L</text><text style="&st18;" transform="matrix(&st17;  4967.97  173.33 )">L</text><text style="&st18;" transform="matrix(&st17;  4511.88  347.99 )">(*34)</text><text style="&st18;" transform="matrix(&st17;  4622.37  517.96 )">(*27)</text><text style="&st18;" transform="matrix(&st17;  4611.03  517.65 )">W-B</text><text style="&st18;" transform="matrix(&st17;  4577.04  309.54 )">V</text><text style="&st18;" transform="matrix(&st17;  4588.37  314.0 )">(*27)</text><text style="&st18;" transform="matrix(&st17;  4622.37  314.0 )">(*27)</text><text style="&st18;" transform="matrix(&st17;  4611.03  309.54 )">V</text><text style="&st18;" transform="matrix(&st16;  4676.66  57.58 )">G(*19,*20)</text><text style="&st18;" transform="matrix(&st16;  4681.74  40.58 )">W(*28)</text><text style="&st18;" transform="matrix(&st16;  4630.75  40.58 )">W(*28)</text><text style="&st18;" transform="matrix(&st16;  4625.67  57.58 )">G(*19,*20)</text><text style="&st18;" transform="matrix(&st16;  4689.14  74.58 )">L</text><text style="&st18;" transform="matrix(&st16;  4638.15  74.58 )">L</text><text style="&st18;" transform="matrix(&st16;  4678.25  626.98 )">W-B(*37)</text><text style="&st18;" transform="matrix(&st16;  4684.45  264.38 )">(*27)</text><text style="&st18;" transform="matrix(&st16;  4627.26  643.98 )">W-B(*36)</text><text style="&st18;" transform="matrix(&st16;  4678.25  643.98 )">W-B(*36)</text><text style="&st18;" transform="matrix(&st16;  4627.26  626.98 )">W-B(*37)</text><text style="&st18;" transform="matrix(&st16;  4633.46  264.38 )">(*27)</text><text style="&st18;" transform="matrix(&st16;  4688.91  253.05 )">V</text><text style="&st18;" transform="matrix(&st16;  4637.92  253.05 )">V</text><text style="&st18;" transform="matrix(&st16;  4678.25  660.98 )">W-B(*48)</text><text style="&st18;" transform="matrix(&st16;  4627.26  660.98 )">W-B(*48)</text><g ewd:figtype="conn" ewd:figID="35" ewd:code="G4,z2"><text style="&st18;" transform="matrix(&st16;  4727.79  315.93 )">EAU</text><text style="&st18;" transform="matrix(&st16;  4974.25  315.93 )">IL+2</text><path style="stroke-width: 1.42 ;&st7;  " d=" M  4699.71,   307.73  L  4699.71,   324.16  L  5082.15,   324.16  L  5082.15,   307.73  L  4699.71,   307.73  " /><path style="stroke-width: 0.85 ;&st7;  " d=" M  4971.67,   307.73  L  4971.67,   324.16  " /><path style="stroke-width: 0.85 ;&st7;  " d=" M  4725.21,   307.73  L  4725.21,   324.16  " /><text style="&st18;" transform="matrix(&st16;  4716.52  305.17 )">3</text><path style="stroke-width: 1.42 ;&st7;   " d=" M  4729.74,   303.20  C  4729.74    300.70   4727.71    298.67   4725.21    298.67  " /><path style="stroke-width: 1.42 ;&st7;   " d=" M  4725.21,   298.67  C  4722.71    298.67   4720.68    300.70   4720.68    303.20  " /><path style="stroke-width: 1.42 ;&st7;   " d=" M  4720.68,   303.20  C  4720.68    305.70   4722.71    307.73   4725.21    307.73  " /><path style="stroke-width: 1.42 ;&st7;   " d=" M  4725.21,   307.73  C  4727.71    307.73   4729.74    305.70   4729.74    303.20  " /><text style="&st18;" transform="matrix(&st16;  4722.91  305.17 )">A</text><text style="&st18;" transform="matrix(&st16;  4959.87  305.17 )">13</text><path style="stroke-width: 1.42 ;&st7;   " d=" M  4976.20,   303.20  C  4976.20    300.70   4974.17    298.67   4971.67    298.67  " /><path style="stroke-width: 1.42 ;&st7;   " d=" M  4971.67,   298.67  C  4969.17    298.67   4967.14    300.70   4967.14    303.20  " /><path style="stroke-width: 1.42 ;&st7;   " d=" M  4967.14,   303.20  C  4967.14    305.70   4969.17    307.73   4971.67    307.73  " /><path style="stroke-width: 1.42 ;&st7;   " d=" M  4971.67,   307.73  C  4974.17    307.73   4976.20    305.70   4976.20    303.20  " /><text style="&st18;" transform="matrix(&st16;  4969.36  305.17 )">A</text><path style="stroke-width: 1.42 ;&st7;   " d=" M  4976.20,   328.70  C  4976.20    326.19   4974.17    324.16   4971.67    324.16  " /><path style="stroke-width: 1.42 ;&st7;   " d=" M  4971.67,   324.16  C  4969.17    324.16   4967.14    326.19   4967.14    328.70  " /><path style="stroke-width: 1.42 ;&st7;   " d=" M  4967.14,   328.70  C  4967.14    331.20   4969.17    333.23   4971.67    333.23  " /><path style="stroke-width: 1.42 ;&st7;   " d=" M  4971.67,   333.23  C  4974.17    333.23   4976.20    331.20   4976.20    328.70  " /><text style="&st18;" transform="matrix(&st16;  4962.98  330.67 )">5</text><text style="&st18;" transform="matrix(&st16;  4969.29  330.67 )">D</text><path style="stroke-width: 1.42 ;&st7;   " d=" M  4729.74,   328.70  C  4729.74    326.19   4727.71    324.16   4725.21    324.16  " /><path style="stroke-width: 1.42 ;&st7;   " d=" M  4725.21,   324.16  C  4722.71    324.16   4720.68    326.19   4720.68    328.70  " /><path style="stroke-width: 1.42 ;&st7;   " d=" M  4720.68,   328.70  C  4720.68    331.20   4722.71    333.23   4725.21    333.23  " /><path style="stroke-width: 1.42 ;&st7;   " d=" M  4725.21,   333.23  C  4727.71    333.23   4729.74    331.20   4729.74    328.70  " /><text style="&st18;" transform="matrix(&st16;  4722.83  330.67 )">D</text><text style="&st18;" transform="matrix(&st16;  4713.41  330.67 )">10</text><g ewd:figtype="title"><text style="&st18;" transform="matrix(&st16;  4772.79  296.93 )">G4(A),z2(D)</text><text style="&st18;" transform="matrix(&st16;  4772.8  304.04 )" ewd:textID="105">Spiral Cable Sub-Assembly</text></g></g><g ewd:figtype="conn" ewd:figID="38" ewd:code="G62"><path style="stroke-width: 0.85 ;&st7;  " d=" M  4613.53,   383.22  L  4613.26,   383.69  L  4613.17,   384.22  L  4613.26,   384.75  L  4613.53,   385.22  L  4613.95,   385.57  L  4614.46,   385.76  L  4615.00,   385.76  L  4615.51,   385.57  L  4615.92,   385.22  L  4616.19,   384.75  L  4616.29,   384.22  L  4616.19,   383.69  L  4615.92,   383.22  L  4615.51,   382.87  L  4615.00,   382.69  L  4614.46,   382.69  L  4613.95,   382.87  L  4613.53,   383.22  L  4613.93,   383.93  L  4613.93,   384.51  L  4614.30,   384.96  L  4614.87,   385.06  L  4615.38,   384.77  L  4615.58,   384.22  L  4615.38,   383.67  L  4614.87,   383.39  L  4614.30,   383.48  L  4614.73,   384.22  " /><path style="stroke-width: 0.85 ;&st7;  " d=" M  4614.73,   375.72  L  4614.73,   392.72  " /><path style="stroke-width: 1.42 ;&st7;  " d=" M  4572.23,   392.72  L  4623.23,   392.72  L  4623.23,   375.72  L  4572.23,   375.72  L  4572.23,   392.72  " /><path style="stroke-width: 0.85 ;&st7;  " d=" M  4580.73,   375.72  L  4580.73,   384.22  L  4614.73,   384.22  " /><text style="&st18;" transform="matrix(&st16;  4568.94  373.16 )">16</text><path style="stroke-width: 1.42 ;&st7;   " d=" M  4585.27,   371.19  C  4585.27    368.69   4583.24    366.66   4580.73    366.66  " /><path style="stroke-width: 1.42 ;&st7;   " d=" M  4580.73,   366.66  C  4578.23    366.66   4576.20    368.69   4576.20    371.19  " /><path style="stroke-width: 1.42 ;&st7;   " d=" M  4576.20,   371.19  C  4576.20    373.69   4578.23    375.72   4580.73    375.72  " /><path style="stroke-width: 1.42 ;&st7;   " d=" M  4580.73,   375.72  C  4583.24    375.72   4585.27    373.69   4585.27    371.19  " /><text style="&st18;" transform="matrix(&st16;  4578.43  373.16 )">A</text><text style="&st18;" transform="matrix(&st16;  4602.93  399.22 )">18</text><text style="&st18;" transform="matrix(&st16;  4612.42  399.22 )">A</text><path style="stroke-width: 1.42 ;&st7;   " d=" M  4619.26,   397.25  C  4619.26    394.75   4617.23    392.72   4614.73    392.72  " /><path style="stroke-width: 1.42 ;&st7;   " d=" M  4614.73,   392.72  C  4612.23    392.72   4610.20    394.75   4610.20    397.25  " /><path style="stroke-width: 1.42 ;&st7;   " d=" M  4610.20,   397.25  C  4610.20    399.76   4612.23    401.78   4614.73    401.78  " /><path style="stroke-width: 1.42 ;&st7;   " d=" M  4614.73,   401.78  C  4617.23    401.78   4619.26    399.76   4619.26    397.25  " /><text style="&st18;" transform="matrix(&st16;  4602.93  373.16 )">15</text><path style="stroke-width: 1.42 ;&st7;   " d=" M  4619.26,   371.19  C  4619.26    368.69   4617.23    366.66   4614.73    366.66  " /><path style="stroke-width: 1.42 ;&st7;   " d=" M  4614.73,   366.66  C  4612.23    366.66   4610.20    368.69   4610.20    371.19  " /><path style="stroke-width: 1.42 ;&st7;   " d=" M  4610.20,   371.19  C  4610.20    373.69   4612.23    375.72   4614.73    375.72  " /><path style="stroke-width: 1.42 ;&st7;   " d=" M  4614.73,   375.72  C  4617.23    375.72   4619.26    373.69   4619.26    371.19  " /><text style="&st18;" transform="matrix(&st16;  4612.42  373.16 )">A</text><g ewd:figtype="title"><text style="&st18;" transform="matrix(&st17;  4558.88  395.62 )">G62(A)</text><text style="&st18;" transform="matrix(&st17;  4565.71  395.63 )" ewd:textID="87">No. 21 Junction Connector</text></g></g><g ewd:figtype="conn" ewd:figID="51" ewd:code="G24"><g ewd:figtype="title"><text style="&st18;" transform="matrix(&st17;  4529.14  310.63 )">G24</text><text style="&st18;" transform="matrix(&st17;  4535.96  310.64 )" ewd:textID="114">Telltale Light Assembly</text></g></g><g ewd:code="z2" ewd:figID="55" ewd:comment="42,41" ewd:figtype="conn"><text style="&st18;" transform="matrix(&st17;  5072.79  439.75 )" ewd:textID="109">Steering Pad Switch RH</text><text style="&st18;" transform="matrix(&st17;  4713.02  439.71 )" ewd:textID="108">Steering Pad Switch LH</text><path style="stroke-width: 0.85 ;&st7;  " d=" M  4984.40,   425.55  L  4977.04,   429.80  " /><path style="stroke-width: 0.85 ;&st7;  " d=" M  4792.00,   357.72  L  4791.73,   358.19  L  4791.64,   358.73  L  4791.73,   359.26  L  4792.00,   359.73  L  4792.42,   360.07  L  4792.93,   360.26  L  4793.47,   360.26  L  4793.98,   360.07  L  4794.39,   359.73  L  4794.66,   359.26  L  4794.76,   358.73  L  4794.66,   358.19  L  4794.39,   357.72  L  4793.98,   357.38  L  4793.47,   357.19  L  4792.93,   357.19  L  4792.42,   357.38  L  4792.00,   357.72  L  4792.40,   358.43  L  4792.40,   359.02  L  4792.77,   359.46  L  4793.34,   359.56  L  4793.85,   359.27  L  4794.05,   358.73  L  4793.85,   358.18  L  4793.34,   357.89  L  4792.77,   357.99  L  4793.20,   358.73  " /><path style="stroke-width: 0.85 ;&st7;  " d=" M  4742.21,   418.22  L  4739.37,   416.80  L  4745.04,   413.97  L  4739.37,   411.13  L  4745.04,   408.30  L  4739.37,   405.47  L  4745.04,   402.63  L  4742.21,   401.22  L  4742.21,   358.73  " /><path style="stroke-width: 0.85 ;&st7;  " d=" M  4766.51,   476.70  L  4766.24,   477.17  L  4766.14,   477.71  L  4766.24,   478.24  L  4766.51,   478.71  L  4766.92,   479.05  L  4767.43,   479.24  L  4767.97,   479.24  L  4768.48,   479.05  L  4768.89,   478.71  L  4769.17,   478.24  L  4769.26,   477.71  L  4769.17,   477.17  L  4768.89,   476.70  L  4768.48,   476.36  L  4767.97,   476.17  L  4767.43,   476.17  L  4766.92,   476.36  L  4766.51,   476.70  L  4766.90,   477.41  L  4766.90,   478.00  L  4767.28,   478.44  L  4767.85,   478.54  L  4768.35,   478.25  L  4768.55,   477.71  L  4768.35,   477.16  L  4767.85,   476.87  L  4767.28,   476.97  L  4767.70,   477.71  " /><path style="stroke-width: 0.85 ;&st7;  " d=" M  4780.44,   425.55  L  4778.10,   428.59  L  4776.63,   426.05  L  4780.44,   425.55  L  4779.15,   426.29  L  4778.17,   427.57  L  4777.55,   426.50  L  4779.15,   426.29  L  4778.51,   426.66  L  4778.20,   427.06  L  4778.00,   426.73  L  4778.51,   426.66  " /><path style="stroke-width: 0.85 ;&st7;  " d=" M  4843.00,   476.70  L  4842.72,   477.17  L  4842.63,   477.71  L  4842.72,   478.24  L  4843.00,   478.71  L  4843.41,   479.05  L  4843.92,   479.24  L  4844.46,   479.24  L  4844.97,   479.05  L  4845.38,   478.71  L  4845.65,   478.24  L  4845.75,   477.71  L  4845.65,   477.17  L  4845.38,   476.70  L  4844.97,   476.36  L  4844.46,   476.17  L  4843.92,   476.17  L  4843.41,   476.36  L  4843.00,   476.70  L  4843.39,   477.41  L  4843.39,   478.00  L  4843.76,   478.44  L  4844.34,   478.54  L  4844.84,   478.25  L  4845.04,   477.71  L  4844.84,   477.16  L  4844.34,   476.87  L  4843.76,   476.97  L  4844.19,   477.71  " /><path style="stroke-width: 1.42 ;&st7;  " d=" M  4699.71,   333.23  L  5082.15,   333.23  L  5082.15,   503.20  L  4699.71,   503.20  L  4699.71,   333.23  " /><path style="stroke-width: 0.85 ;&st7;  " d=" M  4817.50,   476.70  L  4817.23,   477.17  L  4817.13,   477.71  L  4817.23,   478.24  L  4817.50,   478.71  L  4817.91,   479.05  L  4818.42,   479.24  L  4818.96,   479.24  L  4819.47,   479.05  L  4819.89,   478.71  L  4820.16,   478.24  L  4820.25,   477.71  L  4820.16,   477.17  L  4819.89,   476.70  L  4819.47,   476.36  L  4818.96,   476.17  L  4818.42,   476.17  L  4817.91,   476.36  L  4817.50,   476.70  L  4817.89,   477.41  L  4817.89,   478.00  L  4818.27,   478.44  L  4818.84,   478.54  L  4819.34,   478.25  L  4819.54,   477.71  L  4819.34,   477.16  L  4818.84,   476.87  L  4818.27,   476.97  L  4818.69,   477.71  " /><path style="stroke-width: 0.85 ;&st7;  " d=" M  4844.19,   418.22  L  4844.19,   477.71  " /><path style="stroke-width: 0.85 ;&st7;  " d=" M  4833.43,   429.02  L  4831.10,   432.06  L  4829.63,   429.52  L  4833.43,   429.02  L  4832.15,   429.76  L  4831.16,   431.04  L  4830.54,   429.97  L  4832.15,   429.76  L  4831.51,   430.13  L  4831.19,   430.53  L  4831.00,   430.20  L  4831.51,   430.13  " /><path style="stroke-width: 0.85 ;&st7;  " d=" M  4831.43,   425.55  L  4829.09,   428.59  L  4827.62,   426.05  L  4831.43,   425.55  L  4830.14,   426.29  L  4829.16,   427.57  L  4828.54,   426.50  L  4830.14,   426.29  L  4829.50,   426.66  L  4829.19,   427.06  L  4829.00,   426.73  L  4829.50,   426.66  " /><path style="stroke-width: 0.28 ;&st9;  " d=" M  4818.69,   435.21  L  4813.03,   426.71  L  4824.36,   426.71  L  4818.69,   435.21  " /><path style="stroke-width: 0.85 ;&st7;  " d=" M  4986.40,   429.02  L  4984.07,   432.06  L  4982.60,   429.52  L  4986.40,   429.02  L  4985.12,   429.76  L  4984.14,   431.04  L  4983.52,   429.97  L  4985.12,   429.76  L  4984.48,   430.13  L  4984.17,   430.53  L  4983.97,   430.20  L  4984.48,   430.13  " /><path style="stroke-width: 0.28 ;&st9;  " d=" M  4844.19,   435.21  L  4838.52,   426.71  L  4849.85,   426.71  L  4844.19,   435.21  " /><path style="stroke-width: 0.85 ;&st7;  " d=" M  5048.15,   418.22  L  5048.15,   477.71  " /><path style="stroke-width: 1.42 ;&st7;  " d=" M  4929.17,   350.23  L  4929.17,   486.20  L  5065.15,   486.20  L  5065.15,   350.23  L  4929.17,   350.23  " /><path style="stroke-width: 1.42 ;&st7;  " d=" M  4716.71,   350.23  L  4716.71,   486.20  L  4912.18,   486.20  L  4912.18,   350.23  L  4716.71,   350.23  " /><path style="stroke-width: 0.85 ;&st7;  " d=" M  4856.92,   425.55  L  4854.59,   428.59  L  4853.12,   426.05  L  4856.92,   425.55  L  4855.64,   426.29  L  4854.65,   427.57  L  4854.04,   426.50  L  4855.64,   426.29  L  4855.00,   426.66  L  4854.69,   427.06  L  4854.49,   426.73  L  4855.00,   426.66  " /><path style="stroke-width: 0.85 ;&st7;  " d=" M  4858.93,   429.02  L  4856.59,   432.06  L  4855.12,   429.52  L  4858.93,   429.02  L  4857.64,   429.76  L  4856.66,   431.04  L  4856.04,   429.97  L  4857.64,   429.76  L  4857.00,   430.13  L  4856.69,   430.53  L  4856.49,   430.20  L  4857.00,   430.13  " /><path style="stroke-width: 0.85 ;&st7;  " d=" M  4818.69,   418.22  L  4815.86,   416.80  L  4821.53,   413.97  L  4815.86,   411.13  L  4821.53,   408.30  L  4815.86,   405.47  L  4821.53,   402.63  L  4818.69,   401.22  L  4818.69,   358.73  " /><path style="stroke-width: 0.85 ;&st7;  " d=" M  5062.89,   429.02  L  5060.56,   432.06  L  5059.09,   429.52  L  5062.89,   429.02  L  5061.61,   429.76  L  5060.62,   431.04  L  5060.00,   429.97  L  5061.61,   429.76  L  5060.97,   430.13  L  5060.66,   430.53  L  5060.46,   430.20  L  5060.97,   430.13  " /><path style="stroke-width: 0.85 ;&st7;  " d=" M  5060.89,   425.55  L  5058.55,   428.59  L  5057.09,   426.05  L  5060.89,   425.55  L  5059.60,   426.29  L  5058.62,   427.57  L  5058.00,   426.50  L  5059.60,   426.29  L  5058.96,   426.66  L  5058.65,   427.06  L  5058.46,   426.73  L  5058.96,   426.66  " /><path style="stroke-width: 0.28 ;&st9;  " d=" M  5048.15,   435.21  L  5042.49,   426.71  L  5053.82,   426.71  L  5048.15,   435.21  " /><path style="stroke-width: 0.85 ;&st7;  " d=" M  4869.68,   418.22  L  4866.85,   416.80  L  4872.52,   413.97  L  4866.85,   411.13  L  4872.52,   408.30  L  4866.85,   405.47  L  4872.52,   402.63  L  4869.68,   401.22  L  4869.68,   358.73  " /><path style="stroke-width: 0.85 ;&st7;  " d=" M  4971.67,   333.23  L  4971.67,   341.73  L  4818.69,   341.73  L  4818.69,   358.73  " /><path style="stroke-width: 0.85 ;&st7;  " d=" M  4895.18,   418.22  L  4892.35,   416.80  L  4898.01,   413.97  L  4892.35,   411.13  L  4898.01,   408.30  L  4892.35,   405.47  L  4898.01,   402.63  L  4895.18,   401.22  L  4895.18,   358.73  " /><path style="stroke-width: 0.85 ;&st7;  " d=" M  4909.92,   429.02  L  4907.58,   432.06  L  4906.11,   429.52  L  4909.92,   429.02  L  4908.63,   429.76  L  4907.65,   431.04  L  4907.03,   429.97  L  4908.63,   429.76  L  4907.99,   430.13  L  4907.68,   430.53  L  4907.49,   430.20  L  4907.99,   430.13  " /><path style="stroke-width: 0.85 ;&st7;  " d=" M  4907.91,   425.55  L  4905.58,   428.59  L  4904.11,   426.05  L  4907.91,   425.55  L  4906.63,   426.29  L  4905.64,   427.57  L  4905.03,   426.50  L  4906.63,   426.29  L  4905.99,   426.66  L  4905.68,   427.06  L  4905.48,   426.73  L  4905.99,   426.66  " /><path style="stroke-width: 0.28 ;&st9;  " d=" M  4895.18,   435.21  L  4889.51,   426.71  L  4900.85,   426.71  L  4895.18,   435.21  " /><path style="stroke-width: 0.85 ;&st7;  " d=" M  4844.19,   418.22  L  4841.36,   416.80  L  4847.02,   413.97  L  4841.36,   411.13  L  4847.02,   408.30  L  4841.36,   405.47  L  4847.02,   402.63  L  4844.19,   401.22  L  4844.19,   358.73  " /><path style="stroke-width: 0.85 ;&st7;  " d=" M  4895.18,   418.22  L  4895.18,   477.71  " /><path style="stroke-width: 0.85 ;&st7;  " d=" M  4893.99,   476.70  L  4893.72,   477.17  L  4893.62,   477.71  L  4893.72,   478.24  L  4893.99,   478.71  L  4894.40,   479.05  L  4894.91,   479.24  L  4895.45,   479.24  L  4895.96,   479.05  L  4896.37,   478.71  L  4896.64,   478.24  L  4896.74,   477.71  L  4896.64,   477.17  L  4896.37,   476.70  L  4895.96,   476.36  L  4895.45,   476.17  L  4894.91,   476.17  L  4894.40,   476.36  L  4893.99,   476.70  L  4894.38,   477.41  L  4894.38,   478.00  L  4894.76,   478.44  L  4895.33,   478.54  L  4895.83,   478.25  L  4896.03,   477.71  L  4895.83,   477.16  L  4895.33,   476.87  L  4894.76,   476.97  L  4895.18,   477.71  " /><path style="stroke-width: 0.85 ;&st7;  " d=" M  4884.42,   429.02  L  4882.09,   432.06  L  4880.62,   429.52  L  4884.42,   429.02  L  4883.14,   429.76  L  4882.15,   431.04  L  4881.53,   429.97  L  4883.14,   429.76  L  4882.50,   430.13  L  4882.19,   430.53  L  4881.99,   430.20  L  4882.50,   430.13  " /><path style="stroke-width: 0.85 ;&st7;  " d=" M  4882.42,   425.55  L  4880.08,   428.59  L  4878.62,   426.05  L  4882.42,   425.55  L  4881.13,   426.29  L  4880.15,   427.57  L  4879.53,   426.50  L  4881.13,   426.29  L  4880.49,   426.66  L  4880.18,   427.06  L  4879.99,   426.73  L  4880.49,   426.66  " /><path style="stroke-width: 0.28 ;&st9;  " d=" M  4869.68,   435.21  L  4864.02,   426.71  L  4875.35,   426.71  L  4869.68,   435.21  " /><path style="stroke-width: 0.85 ;&st7;  " d=" M  4869.68,   418.22  L  4869.68,   477.71  " /><path style="stroke-width: 0.85 ;&st7;  " d=" M  4742.21,   358.73  L  4946.17,   358.73  " /><path style="stroke-width: 0.85 ;&st7;  " d=" M  4818.69,   418.22  L  4818.69,   477.71  " /><path style="stroke-width: 0.85 ;&st7;  " d=" M  4893.99,   357.72  L  4893.72,   358.19  L  4893.62,   358.73  L  4893.72,   359.26  L  4893.99,   359.73  L  4894.40,   360.07  L  4894.91,   360.26  L  4895.45,   360.26  L  4895.96,   360.07  L  4896.37,   359.73  L  4896.64,   359.26  L  4896.74,   358.73  L  4896.64,   358.19  L  4896.37,   357.72  L  4895.96,   357.38  L  4895.45,   357.19  L  4894.91,   357.19  L  4894.40,   357.38  L  4893.99,   357.72  L  4894.38,   358.43  L  4894.38,   359.02  L  4894.76,   359.46  L  4895.33,   359.56  L  4895.83,   359.27  L  4896.03,   358.73  L  4895.83,   358.18  L  4895.33,   357.89  L  4894.76,   357.99  L  4895.18,   358.73  " /><path style="stroke-width: 0.85 ;&st7;  " d=" M  4868.49,   476.70  L  4868.22,   477.17  L  4868.13,   477.71  L  4868.22,   478.24  L  4868.49,   478.71  L  4868.91,   479.05  L  4869.42,   479.24  L  4869.95,   479.24  L  4870.46,   479.05  L  4870.88,   478.71  L  4871.15,   478.24  L  4871.24,   477.71  L  4871.15,   477.17  L  4870.88,   476.70  L  4870.46,   476.36  L  4869.95,   476.17  L  4869.42,   476.17  L  4868.91,   476.36  L  4868.49,   476.70  L  4868.89,   477.41  L  4868.89,   478.00  L  4869.26,   478.44  L  4869.83,   478.54  L  4870.34,   478.25  L  4870.53,   477.71  L  4870.34,   477.16  L  4869.83,   476.87  L  4869.26,   476.97  L  4869.68,   477.71  " /><path style="stroke-width: 0.85 ;&st7;  " d=" M  4817.50,   357.72  L  4817.23,   358.19  L  4817.13,   358.73  L  4817.23,   359.26  L  4817.50,   359.73  L  4817.91,   360.07  L  4818.42,   360.26  L  4818.96,   360.26  L  4819.47,   360.07  L  4819.89,   359.73  L  4820.16,   359.26  L  4820.25,   358.73  L  4820.16,   358.19  L  4819.89,   357.72  L  4819.47,   357.38  L  4818.96,   357.19  L  4818.42,   357.19  L  4817.91,   357.38  L  4817.50,   357.72  L  4817.89,   358.43  L  4817.89,   359.02  L  4818.27,   359.46  L  4818.84,   359.56  L  4819.34,   359.27  L  4819.54,   358.73  L  4819.34,   358.18  L  4818.84,   357.89  L  4818.27,   357.99  L  4818.69,   358.73  " /><path style="stroke-width: 0.85 ;&st7;  " d=" M  4843.00,   357.72  L  4842.72,   358.19  L  4842.63,   358.73  L  4842.72,   359.26  L  4843.00,   359.73  L  4843.41,   360.07  L  4843.92,   360.26  L  4844.46,   360.26  L  4844.97,   360.07  L  4845.38,   359.73  L  4845.65,   359.26  L  4845.75,   358.73  L  4845.65,   358.19  L  4845.38,   357.72  L  4844.97,   357.38  L  4844.46,   357.19  L  4843.92,   357.19  L  4843.41,   357.38  L  4843.00,   357.72  L  4843.39,   358.43  L  4843.39,   359.02  L  4843.76,   359.46  L  4844.34,   359.56  L  4844.84,   359.27  L  4845.04,   358.73  L  4844.84,   358.18  L  4844.34,   357.89  L  4843.76,   357.99  L  4844.19,   358.73  " /><path style="stroke-width: 0.28 ;&st9;  " d=" M  4946.17,   435.21  L  4940.51,   426.71  L  4951.84,   426.71  L  4946.17,   435.21  " /><path style="stroke-width: 0.85 ;&st7;  " d=" M  4958.91,   425.55  L  4956.57,   428.59  L  4955.10,   426.05  L  4958.91,   425.55  L  4957.62,   426.29  L  4956.64,   427.57  L  4956.02,   426.50  L  4957.62,   426.29  L  4956.98,   426.66  L  4956.67,   427.06  L  4956.47,   426.73  L  4956.98,   426.66  " /><path style="stroke-width: 0.85 ;&st7;  " d=" M  4960.91,   429.02  L  4958.57,   432.06  L  4957.11,   429.52  L  4960.91,   429.02  L  4959.62,   429.76  L  4958.64,   431.04  L  4958.02,   429.97  L  4959.62,   429.76  L  4958.98,   430.13  L  4958.67,   430.53  L  4958.48,   430.20  L  4958.98,   430.13  " /><path style="stroke-width: 0.85 ;&st7;  " d=" M  4946.17,   418.22  L  4943.34,   416.80  L  4949.00,   413.97  L  4943.34,   411.13  L  4949.00,   408.30  L  4943.34,   405.47  L  4949.00,   402.63  L  4946.17,   401.22  L  4946.17,   358.73  L  4971.67,   358.73  " /><path style="stroke-width: 0.85 ;&st7;  " d=" M  4971.67,   418.22  L  4968.83,   416.80  L  4974.50,   413.97  L  4968.83,   411.13  L  4974.50,   408.30  L  4968.83,   405.47  L  4974.50,   402.63  L  4971.67,   401.22  L  4971.67,   358.73  " /><path style="stroke-width: 0.85 ;&st7;  " d=" M  4970.47,   357.72  L  4970.20,   358.19  L  4970.11,   358.73  L  4970.20,   359.26  L  4970.47,   359.73  L  4970.89,   360.07  L  4971.40,   360.26  L  4971.94,   360.26  L  4972.45,   360.07  L  4972.86,   359.73  L  4973.13,   359.26  L  4973.23,   358.73  L  4973.13,   358.19  L  4972.86,   357.72  L  4972.45,   357.38  L  4971.94,   357.19  L  4971.40,   357.19  L  4970.89,   357.38  L  4970.47,   357.72  L  4970.87,   358.43  L  4970.87,   359.02  L  4971.24,   359.46  L  4971.81,   359.56  L  4972.32,   359.27  L  4972.52,   358.73  L  4972.32,   358.18  L  4971.81,   357.89  L  4971.24,   357.99  L  4971.67,   358.73  " /><path style="stroke-width: 0.85 ;&st7;  " d=" M  4984.40,   425.55  L  4982.07,   428.59  L  4980.60,   426.05  L  4984.40,   425.55  L  4983.12,   426.29  L  4982.13,   427.57  L  4981.51,   426.50  L  4983.12,   426.29  L  4982.48,   426.66  L  4982.17,   427.06  L  4981.97,   426.73  L  4982.48,   426.66  " /><path style="stroke-width: 0.85 ;&st7;  " d=" M  4946.17,   418.22  L  4946.17,   477.71  L  4971.67,   477.71  " /><path style="stroke-width: 0.28 ;&st9;  " d=" M  4971.67,   435.21  L  4966.00,   426.71  L  4977.33,   426.71  L  4971.67,   435.21  " /><path style="stroke-width: 0.85 ;&st7;  " d=" M  4756.94,   429.02  L  4754.61,   432.06  L  4753.14,   429.52  L  4756.94,   429.02  L  4755.66,   429.76  L  4754.68,   431.04  L  4754.06,   429.97  L  4755.66,   429.76  L  4755.02,   430.13  L  4754.71,   430.53  L  4754.51,   430.20  L  4755.02,   430.13  " /><path style="stroke-width: 0.85 ;&st7;  " d=" M  4818.69,   477.71  L  4929.17,   477.71  " /><path style="stroke-width: 0.85 ;&st7;  " d=" M  4868.49,   357.72  L  4868.22,   358.19  L  4868.13,   358.73  L  4868.22,   359.26  L  4868.49,   359.73  L  4868.91,   360.07  L  4869.42,   360.26  L  4869.95,   360.26  L  4870.46,   360.07  L  4870.88,   359.73  L  4871.15,   359.26  L  4871.24,   358.73  L  4871.15,   358.19  L  4870.88,   357.72  L  4870.46,   357.38  L  4869.95,   357.19  L  4869.42,   357.19  L  4868.91,   357.38  L  4868.49,   357.72  L  4868.89,   358.43  L  4868.89,   359.02  L  4869.26,   359.46  L  4869.83,   359.56  L  4870.34,   359.27  L  4870.53,   358.73  L  4870.34,   358.18  L  4869.83,   357.89  L  4869.26,   357.99  L  4869.68,   358.73  " /><path style="stroke-width: 0.85 ;&st7;  " d=" M  4970.47,   476.70  L  4970.20,   477.17  L  4970.11,   477.71  L  4970.20,   478.24  L  4970.47,   478.71  L  4970.89,   479.05  L  4971.40,   479.24  L  4971.94,   479.24  L  4972.45,   479.05  L  4972.86,   478.71  L  4973.13,   478.24  L  4973.23,   477.71  L  4973.13,   477.17  L  4972.86,   476.70  L  4972.45,   476.36  L  4971.94,   476.17  L  4971.40,   476.17  L  4970.89,   476.36  L  4970.47,   476.70  L  4970.87,   477.41  L  4970.87,   478.00  L  4971.24,   478.44  L  4971.81,   478.54  L  4972.32,   478.25  L  4972.52,   477.71  L  4972.32,   477.16  L  4971.81,   476.87  L  4971.24,   476.97  L  4971.67,   477.71  " /><path style="stroke-width: 0.85 ;&st7;  " d=" M  4971.67,   418.22  L  4971.67,   477.71  " /><path style="stroke-width: 0.85 ;&st7;  " d=" M  4793.20,   477.71  L  4725.21,   477.71  L  4725.21,   333.23  " /><path style="stroke-width: 0.85 ;&st7;  " d=" M  4929.17,   477.71  L  4946.17,   477.71  " /><path style="stroke-width: 0.85 ;&st7;  " d=" M  4793.20,   418.22  L  4790.36,   416.80  L  4796.03,   413.97  L  4790.36,   411.13  L  4796.03,   408.30  L  4790.36,   405.47  L  4796.03,   402.63  L  4793.20,   401.22  L  4793.20,   358.73  " /><path style="stroke-width: 0.85 ;&st7;  " d=" M  4793.20,   418.22  L  4793.20,   477.71  L  4818.69,   477.71  " /><path style="stroke-width: 0.28 ;&st9;  " d=" M  4793.20,   435.21  L  4787.53,   426.71  L  4798.86,   426.71  L  4793.20,   435.21  " /><path style="stroke-width: 0.85 ;&st7;  " d=" M  4805.93,   425.55  L  4803.60,   428.59  L  4802.13,   426.05  L  4805.93,   425.55  L  4804.65,   426.29  L  4803.66,   427.57  L  4803.04,   426.50  L  4804.65,   426.29  L  4804.01,   426.66  L  4803.70,   427.06  L  4803.50,   426.73  L  4804.01,   426.66  " /><path style="stroke-width: 0.85 ;&st7;  " d=" M  4807.93,   429.02  L  4805.60,   432.06  L  4804.13,   429.52  L  4807.93,   429.02  L  4806.65,   429.76  L  4805.67,   431.04  L  4805.05,   429.97  L  4806.65,   429.76  L  4806.01,   430.13  L  4805.70,   430.53  L  4805.50,   430.20  L  4806.01,   430.13  " /><path style="stroke-width: 0.85 ;&st7;  " d=" M  4944.98,   476.70  L  4944.71,   477.17  L  4944.61,   477.71  L  4944.71,   478.24  L  4944.98,   478.71  L  4945.39,   479.05  L  4945.90,   479.24  L  4946.44,   479.24  L  4946.95,   479.05  L  4947.36,   478.71  L  4947.64,   478.24  L  4947.73,   477.71  L  4947.64,   477.17  L  4947.36,   476.70  L  4946.95,   476.36  L  4946.44,   476.17  L  4945.90,   476.17  L  4945.39,   476.36  L  4944.98,   476.70  L  4945.37,   477.41  L  4945.37,   478.00  L  4945.75,   478.44  L  4946.32,   478.54  L  4946.82,   478.25  L  4947.02,   477.71  L  4946.82,   477.16  L  4946.32,   476.87  L  4945.75,   476.97  L  4946.17,   477.71  " /><path style="stroke-width: 0.85 ;&st7;  " d=" M  4792.00,   476.70  L  4791.73,   477.17  L  4791.64,   477.71  L  4791.73,   478.24  L  4792.00,   478.71  L  4792.42,   479.05  L  4792.93,   479.24  L  4793.47,   479.24  L  4793.98,   479.05  L  4794.39,   478.71  L  4794.66,   478.24  L  4794.76,   477.71  L  4794.66,   477.17  L  4794.39,   476.70  L  4793.98,   476.36  L  4793.47,   476.17  L  4792.93,   476.17  L  4792.42,   476.36  L  4792.00,   476.70  L  4792.40,   477.41  L  4792.40,   478.00  L  4792.77,   478.44  L  4793.34,   478.54  L  4793.85,   478.25  L  4794.05,   477.71  L  4793.85,   477.16  L  4793.34,   476.87  L  4792.77,   476.97  L  4793.20,   477.71  " /><path style="stroke-width: 0.85 ;&st7;  " d=" M  5048.15,   418.22  L  5045.32,   416.80  L  5050.99,   413.97  L  5045.32,   411.13  L  5050.99,   408.30  L  5045.32,   405.47  L  5050.99,   402.63  L  5048.15,   401.22  L  5048.15,   358.73  " /><path style="stroke-width: 0.85 ;&st7;  " d=" M  5048.15,   358.73  L  4971.67,   358.73  " /><path style="stroke-width: 0.85 ;&st7;  " d=" M  5048.15,   477.71  L  4971.67,   477.71  " /><path style="stroke-width: 0.85 ;&st7;  " d=" M  4997.16,   418.22  L  4997.16,   477.71  " /><path style="stroke-width: 0.85 ;&st7;  " d=" M  5011.90,   429.02  L  5009.57,   432.06  L  5008.10,   429.52  L  5011.90,   429.02  L  5010.62,   429.76  L  5009.63,   431.04  L  5009.01,   429.97  L  5010.62,   429.76  L  5009.98,   430.13  L  5009.66,   430.53  L  5009.47,   430.20  L  5009.98,   430.13  " /><path style="stroke-width: 0.85 ;&st7;  " d=" M  5009.90,   425.55  L  5007.56,   428.59  L  5006.09,   426.05  L  5009.90,   425.55  L  5008.61,   426.29  L  5007.63,   427.57  L  5007.01,   426.50  L  5008.61,   426.29  L  5007.97,   426.66  L  5007.66,   427.06  L  5007.47,   426.73  L  5007.97,   426.66  " /><path style="stroke-width: 0.28 ;&st9;  " d=" M  4997.16,   435.21  L  4991.50,   426.71  L  5002.83,   426.71  L  4997.16,   435.21  " /><path style="stroke-width: 0.85 ;&st7;  " d=" M  4997.16,   418.22  L  4994.33,   416.80  L  5000.00,   413.97  L  4994.33,   411.13  L  5000.00,   408.30  L  4994.33,   405.47  L  5000.00,   402.63  L  4997.16,   401.22  L  4997.16,   358.73  " /><path style="stroke-width: 0.85 ;&st7;  " d=" M  4995.97,   357.72  L  4995.70,   358.19  L  4995.60,   358.73  L  4995.70,   359.26  L  4995.97,   359.73  L  4996.38,   360.07  L  4996.89,   360.26  L  4997.43,   360.26  L  4997.94,   360.07  L  4998.36,   359.73  L  4998.63,   359.26  L  4998.72,   358.73  L  4998.63,   358.19  L  4998.36,   357.72  L  4997.94,   357.38  L  4997.43,   357.19  L  4996.89,   357.19  L  4996.38,   357.38  L  4995.97,   357.72  L  4996.36,   358.43  L  4996.36,   359.02  L  4996.74,   359.46  L  4997.31,   359.56  L  4997.81,   359.27  L  4998.01,   358.73  L  4997.81,   358.18  L  4997.31,   357.89  L  4996.74,   357.99  L  4997.16,   358.73  " /><path style="stroke-width: 0.85 ;&st7;  " d=" M  4995.97,   476.70  L  4995.70,   477.17  L  4995.60,   477.71  L  4995.70,   478.24  L  4995.97,   478.71  L  4996.38,   479.05  L  4996.89,   479.24  L  4997.43,   479.24  L  4997.94,   479.05  L  4998.36,   478.71  L  4998.63,   478.24  L  4998.72,   477.71  L  4998.63,   477.17  L  4998.36,   476.70  L  4997.94,   476.36  L  4997.43,   476.17  L  4996.89,   476.17  L  4996.38,   476.36  L  4995.97,   476.70  L  4996.36,   477.41  L  4996.36,   478.00  L  4996.74,   478.44  L  4997.31,   478.54  L  4997.81,   478.25  L  4998.01,   477.71  L  4997.81,   477.16  L  4997.31,   476.87  L  4996.74,   476.97  L  4997.16,   477.71  " /><path style="stroke-width: 0.85 ;&st7;  " d=" M  4742.21,   418.22  L  4742.21,   477.71  " /><path style="stroke-width: 0.85 ;&st7;  " d=" M  4741.01,   476.70  L  4740.74,   477.17  L  4740.65,   477.71  L  4740.74,   478.24  L  4741.01,   478.71  L  4741.43,   479.05  L  4741.94,   479.24  L  4742.47,   479.24  L  4742.98,   479.05  L  4743.40,   478.71  L  4743.67,   478.24  L  4743.76,   477.71  L  4743.67,   477.17  L  4743.40,   476.70  L  4742.98,   476.36  L  4742.47,   476.17  L  4741.94,   476.17  L  4741.43,   476.36  L  4741.01,   476.70  L  4741.41,   477.41  L  4741.41,   478.00  L  4741.78,   478.44  L  4742.35,   478.54  L  4742.86,   478.25  L  4743.06,   477.71  L  4742.86,   477.16  L  4742.35,   476.87  L  4741.78,   476.97  L  4742.21,   477.71  " /><path style="stroke-width: 0.85 ;&st7;  " d=" M  4754.94,   425.55  L  4752.61,   428.59  L  4751.14,   426.05  L  4754.94,   425.55  L  4753.66,   426.29  L  4752.67,   427.57  L  4752.05,   426.50  L  4753.66,   426.29  L  4753.02,   426.66  L  4752.70,   427.06  L  4752.51,   426.73  L  4753.02,   426.66  " /><path style="stroke-width: 0.85 ;&st7;  " d=" M  4766.51,   357.72  L  4766.24,   358.19  L  4766.14,   358.73  L  4766.24,   359.26  L  4766.51,   359.73  L  4766.92,   360.07  L  4767.43,   360.26  L  4767.97,   360.26  L  4768.48,   360.07  L  4768.89,   359.73  L  4769.17,   359.26  L  4769.26,   358.73  L  4769.17,   358.19  L  4768.89,   357.72  L  4768.48,   357.38  L  4767.97,   357.19  L  4767.43,   357.19  L  4766.92,   357.38  L  4766.51,   357.72  L  4766.90,   358.43  L  4766.90,   359.02  L  4767.28,   359.46  L  4767.85,   359.56  L  4768.35,   359.27  L  4768.55,   358.73  L  4768.35,   358.18  L  4767.85,   357.89  L  4767.28,   357.99  L  4767.70,   358.73  " /><path style="stroke-width: 0.85 ;&st7;  " d=" M  4767.70,   418.22  L  4767.70,   477.71  " /><path style="stroke-width: 0.85 ;&st7;  " d=" M  5022.66,   418.22  L  5022.66,   477.71  " /><path style="stroke-width: 0.85 ;&st7;  " d=" M  5037.40,   429.02  L  5035.06,   432.06  L  5033.59,   429.52  L  5037.40,   429.02  L  5036.11,   429.76  L  5035.13,   431.04  L  5034.51,   429.97  L  5036.11,   429.76  L  5035.47,   430.13  L  5035.16,   430.53  L  5034.96,   430.20  L  5035.47,   430.13  " /><path style="stroke-width: 0.85 ;&st7;  " d=" M  5035.39,   425.55  L  5033.06,   428.59  L  5031.59,   426.05  L  5035.39,   425.55  L  5034.11,   426.29  L  5033.12,   427.57  L  5032.51,   426.50  L  5034.11,   426.29  L  5033.47,   426.66  L  5033.16,   427.06  L  5032.96,   426.73  L  5033.47,   426.66  " /><path style="stroke-width: 0.28 ;&st9;  " d=" M  5022.66,   435.21  L  5016.99,   426.71  L  5028.32,   426.71  L  5022.66,   435.21  " /><path style="stroke-width: 0.85 ;&st7;  " d=" M  5022.66,   418.22  L  5019.83,   416.80  L  5025.49,   413.97  L  5019.83,   411.13  L  5025.49,   408.30  L  5019.83,   405.47  L  5025.49,   402.63  L  5022.66,   401.22  L  5022.66,   358.73  " /><path style="stroke-width: 0.85 ;&st7;  " d=" M  5021.47,   357.72  L  5021.19,   358.19  L  5021.10,   358.73  L  5021.19,   359.26  L  5021.47,   359.73  L  5021.88,   360.07  L  5022.39,   360.26  L  5022.93,   360.26  L  5023.44,   360.07  L  5023.85,   359.73  L  5024.12,   359.26  L  5024.22,   358.73  L  5024.12,   358.19  L  5023.85,   357.72  L  5023.44,   357.38  L  5022.93,   357.19  L  5022.39,   357.19  L  5021.88,   357.38  L  5021.47,   357.72  L  5021.86,   358.43  L  5021.86,   359.02  L  5022.23,   359.46  L  5022.81,   359.56  L  5023.31,   359.27  L  5023.51,   358.73  L  5023.31,   358.18  L  5022.81,   357.89  L  5022.23,   357.99  L  5022.66,   358.73  " /><path style="stroke-width: 0.85 ;&st7;  " d=" M  5021.47,   476.70  L  5021.19,   477.17  L  5021.10,   477.71  L  5021.19,   478.24  L  5021.47,   478.71  L  5021.88,   479.05  L  5022.39,   479.24  L  5022.93,   479.24  L  5023.44,   479.05  L  5023.85,   478.71  L  5024.12,   478.24  L  5024.22,   477.71  L  5024.12,   477.17  L  5023.85,   476.70  L  5023.44,   476.36  L  5022.93,   476.17  L  5022.39,   476.17  L  5021.88,   476.36  L  5021.47,   476.70  L  5021.86,   477.41  L  5021.86,   478.00  L  5022.23,   478.44  L  5022.81,   478.54  L  5023.31,   478.25  L  5023.51,   477.71  L  5023.31,   477.16  L  5022.81,   476.87  L  5022.23,   476.97  L  5022.66,   477.71  " /><path style="stroke-width: 0.85 ;&st7;  " d=" M  4767.70,   418.22  L  4764.87,   416.80  L  4770.53,   413.97  L  4764.87,   411.13  L  4770.53,   408.30  L  4764.87,   405.47  L  4770.53,   402.63  L  4767.70,   401.22  L  4767.70,   358.73  " /><path style="stroke-width: 0.85 ;&st7;  " d=" M  4782.44,   429.02  L  4780.10,   432.06  L  4778.64,   429.52  L  4782.44,   429.02  L  4781.15,   429.76  L  4780.17,   431.04  L  4779.55,   429.97  L  4781.15,   429.76  L  4780.51,   430.13  L  4780.20,   430.53  L  4780.01,   430.20  L  4780.51,   430.13  " /><path style="stroke-width: 0.28 ;&st9;  " d=" M  4767.70,   435.21  L  4762.04,   426.71  L  4773.37,   426.71  L  4767.70,   435.21  " /><path style="stroke-width: 0.28 ;&st9;  " d=" M  4742.21,   435.21  L  4736.54,   426.71  L  4747.87,   426.71  L  4742.21,   435.21  " /><path style="stroke-width: 0.85 ;&st7;  " d=" M  4944.98,   357.72  L  4944.71,   358.19  L  4944.61,   358.73  L  4944.71,   359.26  L  4944.98,   359.73  L  4945.39,   360.07  L  4945.90,   360.26  L  4946.44,   360.26  L  4946.95,   360.07  L  4947.36,   359.73  L  4947.64,   359.26  L  4947.73,   358.73  L  4947.64,   358.19  L  4947.36,   357.72  L  4946.95,   357.38  L  4946.44,   357.19  L  4945.90,   357.19  L  4945.39,   357.38  L  4944.98,   357.72  L  4945.37,   358.43  L  4945.37,   359.02  L  4945.75,   359.46  L  4946.32,   359.56  L  4946.82,   359.27  L  4947.02,   358.73  L  4946.82,   358.18  L  4946.32,   357.89  L  4945.75,   357.99  L  4946.17,   358.73  " /><path style="stroke-width: 0.85 ;&st7;  " d=" M  4826.07,   433.27  L  4833.43,   429.02  " /><path style="stroke-width: 0.85 ;&st7;  " d=" M  4831.43,   425.55  L  4824.07,   429.80  " /><path style="stroke-width: 0.85 ;&st7;  " d=" M  4822.94,   435.21  L  4814.45,   435.21  " /><path style="stroke-width: 0.85 ;&st7;  " d=" M  4848.44,   435.21  L  4839.94,   435.21  " /><path style="stroke-width: 0.85 ;&st7;  " d=" M  4856.92,   425.55  L  4849.56,   429.80  " /><path style="stroke-width: 0.85 ;&st7;  " d=" M  4851.57,   433.27  L  4858.93,   429.02  " /><path style="stroke-width: 0.85 ;&st7;  " d=" M  5055.53,   433.27  L  5062.89,   429.02  " /><path style="stroke-width: 0.85 ;&st7;  " d=" M  5060.89,   425.55  L  5053.53,   429.80  " /><path style="stroke-width: 0.85 ;&st7;  " d=" M  5052.41,   435.21  L  5043.91,   435.21  " /><path style="stroke-width: 0.85 ;&st7;  " d=" M  4953.55,   433.27  L  4960.91,   429.02  " /><path style="stroke-width: 0.85 ;&st7;  " d=" M  4902.56,   433.27  L  4909.92,   429.02  " /><path style="stroke-width: 0.85 ;&st7;  " d=" M  4907.92,   425.55  L  4900.55,   429.80  " /><path style="stroke-width: 0.85 ;&st7;  " d=" M  4899.43,   435.21  L  4890.93,   435.21  " /><path style="stroke-width: 0.85 ;&st7;  " d=" M  4877.06,   433.27  L  4884.42,   429.02  " /><path style="stroke-width: 0.85 ;&st7;  " d=" M  4882.42,   425.55  L  4875.06,   429.80  " /><path style="stroke-width: 0.85 ;&st7;  " d=" M  4873.94,   435.21  L  4865.44,   435.21  " /><path style="stroke-width: 0.85 ;&st7;  " d=" M  4950.42,   435.21  L  4941.92,   435.21  " /><path style="stroke-width: 0.85 ;&st7;  " d=" M  4958.91,   425.55  L  4951.54,   429.80  " /><path style="stroke-width: 0.85 ;&st7;  " d=" M  4979.05,   433.27  L  4986.41,   429.02  " /><path style="stroke-width: 0.85 ;&st7;  " d=" M  4975.92,   435.21  L  4967.42,   435.21  " /><path style="stroke-width: 0.85 ;&st7;  " d=" M  4805.93,   425.55  L  4798.57,   429.80  " /><path style="stroke-width: 0.85 ;&st7;  " d=" M  4800.58,   433.27  L  4807.94,   429.02  " /><path style="stroke-width: 0.85 ;&st7;  " d=" M  4797.45,   435.21  L  4788.95,   435.21  " /><path style="stroke-width: 0.85 ;&st7;  " d=" M  5004.54,   433.27  L  5011.90,   429.02  " /><path style="stroke-width: 0.85 ;&st7;  " d=" M  5009.90,   425.55  L  5002.54,   429.80  " /><path style="stroke-width: 0.85 ;&st7;  " d=" M  5001.41,   435.21  L  4992.92,   435.21  " /><path style="stroke-width: 0.85 ;&st7;  " d=" M  5030.04,   433.27  L  5037.40,   429.02  " /><path style="stroke-width: 0.85 ;&st7;  " d=" M  5035.39,   425.55  L  5028.03,   429.80  " /><path style="stroke-width: 0.85 ;&st7;  " d=" M  5026.91,   435.21  L  5018.41,   435.21  " /><path style="stroke-width: 0.85 ;&st7;  " d=" M  4771.95,   435.21  L  4763.45,   435.21  " /><path style="stroke-width: 0.85 ;&st7;  " d=" M  4754.94,   425.55  L  4747.58,   429.80  " /><path style="stroke-width: 0.85 ;&st7;  " d=" M  4749.58,   433.27  L  4756.94,   429.02  " /><path style="stroke-width: 0.85 ;&st7;  " d=" M  4775.08,   433.27  L  4782.44,   429.02  " /><path style="stroke-width: 0.85 ;&st7;  " d=" M  4780.44,   425.55  L  4773.07,   429.80  " /><path style="stroke-width: 0.85 ;&st7;  " d=" M  4746.46,   435.21  L  4737.96,   435.21  " /><g ewd:code="" ewd:figID="235" ewd:comment="41,42" ewd:figtype="commref"><text style="&st18;" transform="matrix(&st17;  5030.3  468.31 )">(*41 *42)</text></g><g ewd:code="" ewd:figID="240" ewd:comment="41,42" ewd:figtype="commref"><text style="&st18;" transform="matrix(&st17;  5004.8  468.31 )">(*41 *42)</text></g><g ewd:code="" ewd:figID="244" ewd:comment="41" ewd:figtype="commref"><text style="&st18;" transform="matrix(&st17;  5055.79  462.72 )">(*41)</text></g><g ewd:code="" ewd:figID="241" ewd:comment="41,42" ewd:figtype="commref"><text style="&st18;" transform="matrix(&st17;  4953.81  391.82 )">(*41 *42)</text></g><g ewd:code="" ewd:figID="237" ewd:comment="41,42" ewd:figtype="commref"><text style="&st18;" transform="matrix(&st17;  4979.31  468.31 )">(*41 *42)</text></g><g ewd:code="" ewd:figID="243" ewd:comment="41,42" ewd:figtype="commref"><text style="&st18;" transform="matrix(&st17;  4979.31  391.82 )">(*41 *42)</text></g><g ewd:code="" ewd:figID="238" ewd:comment="41,42" ewd:figtype="commref"><text style="&st18;" transform="matrix(&st17;  5004.8  391.82 )">(*41 *42)</text></g><g ewd:code="" ewd:figID="236" ewd:comment="41,42" ewd:figtype="commref"><text style="&st18;" transform="matrix(&st17;  4953.81  468.31 )">(*41 *42)</text></g><g ewd:code="" ewd:figID="239" ewd:comment="41,42" ewd:figtype="commref"><text style="&st18;" transform="matrix(&st17;  5030.3  391.82 )">(*41 *42)</text></g><g ewd:code="" ewd:figID="242" ewd:comment="41" ewd:figtype="commref"><text style="&st18;" transform="matrix(&st17;  5055.79  386.24 )">(*41)</text></g><g ewd:figtype="title"><text style="&st18;" transform="matrix(&st16;  4696.3  510.81 )">z2(D)</text><text style="&st18;" transform="matrix(&st16;  4696.31  517.92 )" ewd:textID="107">Steering Pad Switch Assembly</text></g></g><g ewd:figtype="conn" ewd:figID="74" ewd:code="G51"><path style="stroke-width: 0.85 ;&st7;  " d=" M  5386.90,   119.76  L  5386.63,   120.23  L  5386.54,   120.77  L  5386.63,   121.30  L  5386.90,   121.77  L  5387.32,   122.11  L  5387.83,   122.30  L  5388.37,   122.30  L  5388.88,   122.11  L  5389.29,   121.77  L  5389.56,   121.30  L  5389.66,   120.77  L  5389.56,   120.23  L  5389.29,   119.76  L  5388.88,   119.42  L  5388.37,   119.23  L  5387.83,   119.23  L  5387.32,   119.42  L  5386.90,   119.76  L  5387.30,   120.47  L  5387.30,   121.06  L  5387.67,   121.50  L  5388.24,   121.60  L  5388.75,   121.31  L  5388.95,   120.77  L  5388.75,   120.22  L  5388.24,   119.93  L  5387.67,   120.03  L  5388.10,   120.77  " /><path style="stroke-width: 0.85 ;&st7;  " d=" M  4970.47,   119.76  L  4970.20,   120.23  L  4970.11,   120.77  L  4970.20,   121.30  L  4970.47,   121.77  L  4970.89,   122.11  L  4971.40,   122.30  L  4971.94,   122.30  L  4972.45,   122.11  L  4972.86,   121.77  L  4973.13,   121.30  L  4973.23,   120.77  L  4973.13,   120.23  L  4972.86,   119.76  L  4972.45,   119.42  L  4971.94,   119.23  L  4971.40,   119.23  L  4970.89,   119.42  L  4970.47,   119.76  L  4970.87,   120.47  L  4970.87,   121.06  L  4971.24,   121.50  L  4971.81,   121.60  L  4972.32,   121.31  L  4972.52,   120.77  L  4972.32,   120.22  L  4971.81,   119.93  L  4971.24,   120.03  L  4971.67,   120.77  " /><path style="stroke-width: 0.85 ;&st7;  " d=" M  5388.10,   120.77  L  5388.10,   129.26  " /><path style="stroke-width: 0.85 ;&st7;  " d=" M  4971.67,   120.77  L  5456.09,   120.77  L  5456.09,   129.26  " /><path style="stroke-width: 0.85 ;&st7;  " d=" M  4971.67,   112.27  L  4971.67,   129.26  " /><path style="stroke-width: 1.42 ;&st7;  " d=" M  4963.17,   112.27  L  4963.17,   129.26  L  5524.07,   129.26  L  5524.07,   112.27  L  4963.17,   112.27  " /><path style="stroke-width: 0.85 ;&st7;  " d=" M  5456.09,   120.77  L  5515.58,   120.77  L  5515.58,   129.26  " /><path style="stroke-width: 0.85 ;&st7;  " d=" M  5454.89,   119.76  L  5454.62,   120.23  L  5454.53,   120.77  L  5454.62,   121.30  L  5454.89,   121.77  L  5455.31,   122.11  L  5455.82,   122.30  L  5456.36,   122.30  L  5456.87,   122.11  L  5457.28,   121.77  L  5457.55,   121.30  L  5457.64,   120.77  L  5457.55,   120.23  L  5457.28,   119.76  L  5456.87,   119.42  L  5456.36,   119.23  L  5455.82,   119.23  L  5455.31,   119.42  L  5454.89,   119.76  L  5455.29,   120.47  L  5455.29,   121.06  L  5455.66,   121.50  L  5456.23,   121.60  L  5456.74,   121.31  L  5456.94,   120.77  L  5456.74,   120.22  L  5456.23,   119.93  L  5455.66,   120.03  L  5456.09,   120.77  " /><path style="stroke-width: 0.85 ;&st7;  " d=" M  5318.92,   119.76  L  5318.64,   120.23  L  5318.55,   120.77  L  5318.64,   121.30  L  5318.92,   121.77  L  5319.33,   122.11  L  5319.84,   122.30  L  5320.38,   122.30  L  5320.89,   122.11  L  5321.30,   121.77  L  5321.57,   121.30  L  5321.67,   120.77  L  5321.57,   120.23  L  5321.30,   119.76  L  5320.89,   119.42  L  5320.38,   119.23  L  5319.84,   119.23  L  5319.33,   119.42  L  5318.92,   119.76  L  5319.31,   120.47  L  5319.31,   121.06  L  5319.68,   121.50  L  5320.26,   121.60  L  5320.76,   121.31  L  5320.96,   120.77  L  5320.76,   120.22  L  5320.26,   119.93  L  5319.68,   120.03  L  5320.11,   120.77  " /><path style="stroke-width: 0.85 ;&st7;  " d=" M  5320.11,   120.77  L  5320.11,   129.26  " /><path style="stroke-width: 0.85 ;&st7;  " d=" M  5515.58,   112.27  L  5515.58,   120.77  " /><path style="stroke-width: 0.85 ;&st7;  " d=" M  5514.38,   119.76  L  5514.11,   120.23  L  5514.02,   120.77  L  5514.11,   121.30  L  5514.38,   121.77  L  5514.80,   122.11  L  5515.31,   122.30  L  5515.85,   122.30  L  5516.36,   122.11  L  5516.77,   121.77  L  5517.04,   121.30  L  5517.13,   120.77  L  5517.04,   120.23  L  5516.77,   119.76  L  5516.36,   119.42  L  5515.85,   119.23  L  5515.31,   119.23  L  5514.80,   119.42  L  5514.38,   119.76  L  5514.78,   120.47  L  5514.78,   121.06  L  5515.15,   121.50  L  5515.72,   121.60  L  5516.23,   121.31  L  5516.43,   120.77  L  5516.23,   120.22  L  5515.72,   119.93  L  5515.15,   120.03  L  5515.58,   120.77  " /><path style="stroke-width: 0.85 ;&st7;  " d=" M  5123.45,   119.76  L  5123.18,   120.23  L  5123.08,   120.77  L  5123.18,   121.30  L  5123.45,   121.77  L  5123.86,   122.11  L  5124.37,   122.30  L  5124.91,   122.30  L  5125.42,   122.11  L  5125.83,   121.77  L  5126.11,   121.30  L  5126.20,   120.77  L  5126.11,   120.23  L  5125.83,   119.76  L  5125.42,   119.42  L  5124.91,   119.23  L  5124.37,   119.23  L  5123.86,   119.42  L  5123.45,   119.76  L  5123.84,   120.47  L  5123.84,   121.06  L  5124.22,   121.50  L  5124.79,   121.60  L  5125.29,   121.31  L  5125.49,   120.77  L  5125.29,   120.22  L  5124.79,   119.93  L  5124.22,   120.03  L  5124.64,   120.77  " /><path style="stroke-width: 0.85 ;&st7;  " d=" M  5124.64,   120.77  L  5124.64,   129.26  " /><text style="&st18;" transform="matrix(&st16;  4965.49  108.58 )">9</text><text style="&st18;" transform="matrix(&st16;  4962.38  137.46 )">10</text><text style="&st18;" transform="matrix(&st16;  5118.46  137.46 )">6</text><text style="&st18;" transform="matrix(&st16;  5313.93  137.46 )">7</text><text style="&st18;" transform="matrix(&st16;  5381.92  137.46 )">8</text><text style="&st18;" transform="matrix(&st16;  5449.9  137.46 )">3</text><text style="&st18;" transform="matrix(&st16;  5509.39  137.46 )">1</text><text style="&st18;" transform="matrix(&st16;  5509.39  108.58 )">2</text><g ewd:figtype="title"><text style="&st18;" transform="matrix(&st16;  5002.26  102.62 )" ewd:textID="82">No. 11 <tspan x="0 " dy="6.0">Junction Connector</tspan></text><text style="&st18;" transform="matrix(&st16;  5002.25  95.8 )">G51</text></g></g><g ewd:figtype="gp" ewd:figID="125" ewd:code="GB"><path style="stroke-width: 0.85 ;&st7;  " d=" M  4613.31,   710.00  L  4616.14,   710.00  " /><path style="stroke-width: 0.85 ;&st7;  " d=" M  4611.89,   707.17  L  4617.56,   707.17  " /><path style="stroke-width: 0.85 ;&st7;  " d=" M  4610.48,   704.33  L  4618.98,   704.33  " /><path style="stroke-width: 0.85 ;&st7;  " d=" M  4606.23,   701.50  L  4623.23,   701.50  " /><path style="stroke-width: 0.85 ;&st7;  " d=" M  4614.73,   697.25  L  4614.73,   701.50  " /></g><g ewd:code="16" ewd:figID="139" ewd:comment="" ewd:figtype="comment"><text style="&st18;" transform="matrix(&st16;  4730.3  105.74 )" ewd:textID="11">*16 :w/ Headlight Beam Level Control (Manual)</text></g><g ewd:code="19" ewd:figID="181" ewd:comment="" ewd:figtype="comment"><text style="&st18;" transform="matrix(&st16;  4730.3  122.73 )" ewd:textID="14">*19 :LED Type Headlight</text></g><g ewd:code="37" ewd:figID="182" ewd:comment="" ewd:figtype="comment"><text style="&st18;" transform="matrix(&st16;  4730.3  190.72 )" ewd:textID="32">*37 :w/ Viscous Heater</text></g><g ewd:code="27" ewd:figID="173" ewd:comment="" ewd:figtype="comment"><text style="&st18;" transform="matrix(&st16;  4730.3  139.73 )" ewd:textID="22">*27 :w/ Steering Pad Switch Assembly</text></g><g ewd:code="34" ewd:figID="143" ewd:comment="" ewd:figtype="comment"><text style="&st18;" transform="matrix(&st16;  4730.3  165.23 )" ewd:textID="29">*34 :w/ Telltale Light Assembly</text></g><g ewd:code="20" ewd:figID="184" ewd:comment="" ewd:figtype="comment"><text style="&st18;" transform="matrix(&st16;  4730.3  131.23 )" ewd:textID="15">*20 :Halogen Type Headlight w/ Daytime Running Light</text></g><g ewd:code="42" ewd:figID="209" ewd:comment="" ewd:figtype="comment"><text style="&st18;" transform="matrix(&st16;  4730.3  207.72 )" ewd:textID="37">*42 :w/o DISP Switch</text></g><g ewd:code="18" ewd:figID="226" ewd:comment="" ewd:figtype="comment"><text style="&st18;" transform="matrix(&st16;  4730.3  114.24 )" ewd:textID="13">*18 :w/ Seat Heater</text></g><g ewd:code="32" ewd:figID="138" ewd:comment="" ewd:figtype="comment"><text style="&st18;" transform="matrix(&st16;  4730.3  156.73 )" ewd:textID="27">*32 :w/ TFT Display</text></g><g ewd:code="28" ewd:figID="174" ewd:comment="" ewd:figtype="comment"><text style="&st18;" transform="matrix(&st16;  4730.3  148.23 )" ewd:textID="23">*28 :w/ Automatic Light Control, w/ Rear Fog Light</text></g><g ewd:code="36" ewd:figID="183" ewd:comment="" ewd:figtype="comment"><text style="&st18;" transform="matrix(&st16;  4730.3  182.22 )" ewd:textID="31">*36 :w/ Idle Up Switch</text></g><g ewd:code="49" ewd:figID="229" ewd:comment="" ewd:figtype="comment"><text style="&st18;" transform="matrix(&st16;  4730.3  224.72 )" ewd:textID="42">*49 :w/ Telematics System</text></g><g ewd:code="48" ewd:figID="230" ewd:comment="" ewd:figtype="comment"><text style="&st18;" transform="matrix(&st16;  4730.3  216.22 )" ewd:textID="41">*48 :w/ Tire Pressure Warning System</text></g><g ewd:code="35" ewd:figID="137" ewd:comment="" ewd:figtype="comment"><text style="&st18;" transform="matrix(&st16;  4730.3  173.73 )" ewd:textID="30">*35 :w/ Remote Control Mirror</text></g><g ewd:code="41" ewd:figID="210" ewd:comment="" ewd:figtype="comment"><text style="&st18;" transform="matrix(&st16;  4730.3  199.22 )" ewd:textID="36">*41 :w/ Steering Pad Switch RH</text></g></svg>