﻿<?xml version="1.0" encoding="utf-8"?>
<!DOCTYPE svg PUBLIC "-//W3C//DTD SVG 1.0//EN" "http://www.w3.org/TR/2001/REC-SVG-20010904/DTD/svg10.dtd"[
	<!ENTITY ns_flows "http://ns.adobe.com/Flows/1.0/">
	<!ENTITY ns_svg "http://www.w3.org/2000/svg">
	<!ENTITY ns_xlink "http://www.w3.org/1999/xlink">
	<!ENTITY st0 "font-size:7px;font-family:'MS-PGothic';adobe-font-script:japanese;">
	<!ENTITY st1 "font-size:6px;font-family:'ArialMT';">
	<!-- White fill  -->
	<!ENTITY st2 "fill:#FFFFFF;stroke:#000000; stroke-width:1.41;stroke-linecap:round;stroke-linejoin:round;">
	<!-- Yellow fill  -->
	<!ENTITY st3 "fill:#FFFFCC;stroke:#FFFFCC; stroke-width:0.1;stroke-linecap:round;stroke-linejoin:round;">
	<!-- Gray fill  -->
	<!ENTITY st4 "fill:#CCCCCC;stroke:#CCCCCC; stroke-width:0.1;stroke-linecap:round;stroke-linejoin:round;">
	<!-- Light-blue fill -->
	<!ENTITY st5 "fill:#CCECF4;stroke:#000000; stroke-width:1.133;stroke-linecap:round;stroke-linejoin:round;">
	<!ENTITY st6 "fill:none;stroke-linecap:butt; stroke-linejoin:round;">
	<!ENTITY st7 "fill:none;stroke:#000000;stroke-linecap:round;stroke-linejoin:round;">
	<!ENTITY st8 "enable-background:new    ;">
	<!-- Black fill -->
	<!ENTITY st9 "fill:#000000;stroke:#000000; stroke-linecap:round;stroke-linejoin:round;">
	<!-- SRS note   -->
	<!ENTITY st10 "font-size:9px;font-family:'ArialMT';">
	<!ENTITY st11 "font-size:9px;font-family:'Svg Symbol';">
	<!ENTITY st12 "font-size:6px;font-family:'Svg Symbol';">
	<!ENTITY st13 "fill:none;stroke:#ff0000;stroke-linecap:round;stroke-linejoin:round;">
	<!-- Yellow fill  -->
	<!ENTITY st14 "fill:#FFFF00;stroke:#FFFF00; stroke-width:0.1;stroke-linecap:round;stroke-linejoin:round;">
	<!ENTITY st15 "font-size:6px;font-family:'MS-PGothic';adobe-font-script:japanese;">
	<!ENTITY st16 "1.00 0.00 0.00 1.00">
	<!ENTITY st17 "0.00 -1.00 1.00 0.00">
	<!ENTITY st18 "font-size:6px;font-family:'Arial';">
	<!ENTITY st19 "font-size:9px;font-family:'Arial';">
	<!ENTITY st20 "font-size:6px;font-family:'MS-PGothic','MS PGothic';adobe-font-script:japanese;">
	<!ENTITY st21 "font-size:7px;font-family:'MS-PGothic','MS PGothic';adobe-font-script:japanese;">
	<!ATTLIST svg
		xmlns:ewd CDATA #FIXED "http://shcl.co.jp/ewd"
		xmlns:a CDATA #FIXED "http://ns.adobe.com/AdobeSVGViewerExtensions/3.0/"
		ewd:ver CDATA #IMPLIED
	>
	<!ATTLIST a
		ewd:lineID CDATA #IMPLIED
		ewd:groupID CDATA #IMPLIED
		ewd:figtype CDATA #IMPLIED
		ewd:code CDATA #IMPLIED
		ewd:figID CDATA #IMPLIED
		ewd:pinNo CDATA #IMPLIED
		ewd:comment CDATA #IMPLIED >
	<!ATTLIST g
		ewd:lineID CDATA #IMPLIED
		ewd:groupID CDATA #IMPLIED
		ewd:figtype CDATA #IMPLIED
		ewd:code CDATA #IMPLIED
		ewd:figID CDATA #IMPLIED
		ewd:pinNo CDATA #IMPLIED
		ewd:comment CDATA #IMPLIED >
	<!ATTLIST text
		ewd:textID CDATA #IMPLIED >
	<!ATTLIST title
		ewd:textID CDATA #IMPLIED >
]>
<!-- Generator: Shintec Hozumi YS   -->
<svg onload="call_execInitLoadProc_svg('system')" style="overflow:visible;  enable-background:new 0 0 6198.837 710.000" viewBox="0 0 6198.837 710.000" height="710.000" width="6198.837" xml:space="preserve" ewd:ver="2.1.2.9" xmlns="&ns_svg;" xmlns:a="http://ns.adobe.com/AdobeSVGViewerExtensions/3.0/" xmlns:ewd="http://shcl.co.jp/ewd" xmlns:xlink="&ns_xlink;">
<text style="&st18;" transform="matrix(&st17;  585.54  424.48 )">(*49)</text><text style="&st18;" transform="matrix(&st17;  786.67  580.17 )">W(*40)</text><text style="&st18;" transform="matrix(&st17;  803.67  580.17 )">W(*19)</text><text style="&st18;" transform="matrix(&st17;  905.65  237.11 )">R</text><text style="&st18;" transform="matrix(&st17;  880.16  237.11 )">R</text><text style="&st18;" transform="matrix(&st17;  786.67  454.67 )">W</text><text style="&st18;" transform="matrix(&st17;  880.16  454.01 )">V</text><text style="&st18;" transform="matrix(&st17;  880.16  369.69 )">W</text><text style="&st18;" transform="matrix(&st17;  905.65  369.18 )">G</text><text style="&st18;" transform="matrix(&st17;  905.65  156.37 )">R</text><text style="&st18;" transform="matrix(&st17;  609.62  395.63 )" ewd:textID="42">Body ECU</text><text style="&st18;" transform="matrix(&st17;  616.7  645.13 )">W-B</text><text style="&st18;" transform="matrix(&st17;  574.21  419.71 )">P</text><text style="&st18;" transform="matrix(&st17;  650.69  419.71 )">P</text><text style="&st18;" transform="matrix(&st17;  662.03  424.48 )">(*50)</text><text style="&st18;" transform="matrix(&st17;  798.01  464.06 )">(*19,*40)</text><text style="&st18;" transform="matrix(&st17;  891.49  464.06 )">(*19,*40)</text><text style="&st18;" transform="matrix(&st17;  891.49  379.07 )">(*19,*40)</text><text style="&st18;" transform="matrix(&st16;  537.15  289.87 )">(*50)</text><text style="&st18;" transform="matrix(&st16;  541.91  278.54 )">P</text><text style="&st18;" transform="matrix(&st16;  541.84  23.58 )">L</text><path style="stroke-width: 1.42 ;&st7;  " d=" M   875.35,   520.20  L   883.85,   520.20  " /><path style="stroke-width: 1.42 ;&st7;  " d=" M   781.87,   520.20  L   790.37,   520.20  " /><text style="&st18;" transform="matrix(&st17;  585.54  254.51 )">(*49)</text><text style="&st18;" transform="matrix(&st17;  574.21  250.71 )">W</text><text style="&st18;" transform="matrix(&st17;  602.79  395.62 )">G27(A),G28(B)</text><text style="&st18;" transform="matrix(&st16;  996.77  57.58 )">G(*19,*40)</text><text style="&st18;" transform="matrix(&st17;  916.99  379.07 )">(*19,*40)</text><text style="&st18;" transform="matrix(&st17;  916.99  247.34 )">(*19,*40)</text><text style="&st18;" transform="matrix(&st17;  891.49  247.34 )">(*19,*40)</text><text style="&st18;" transform="matrix(&st17;  916.99  166.61 )">(*19,*40)</text><g ewd:figtype="conn" ewd:figID="19" ewd:code="G27,G28"><g ewd:lineID="19"><text style="&st18;" transform="matrix(&st16;  569.21  399.22 )">7</text><path style="stroke-width: 1.42 ;&st7;   " d=" M   582.44,   397.25  C   582.44    394.75    580.41    392.72    577.90    392.72  " /><path style="stroke-width: 1.42 ;&st7;   " d=" M   577.90,   392.72  C   575.40    392.72    573.37    394.75    573.37    397.25  " /><path style="stroke-width: 1.42 ;&st7;   " d=" M   573.37,   397.25  C   573.37    399.76    575.40    401.78    577.90    401.78  " /><path style="stroke-width: 1.42 ;&st7;   " d=" M   577.90,   401.78  C   580.41    401.78    582.44    399.76    582.44    397.25  " /><text style="&st18;" transform="matrix(&st16;  575.72  399.22 )">B</text><text style="&st18;" transform="matrix(&st16;  570.95  389.02 )">TAIL</text></g><g ewd:lineID="175"><text style="&st18;" transform="matrix(&st16;  569.32  349.36 )">ACAN</text></g></g><g ewd:figtype="conn" ewd:figID="22" ewd:code="G98"><path style="stroke-width: 0.85 ;&st7;  " d=" M   790.37,   418.22  L   790.37,   409.72  L   883.85,   409.72  " /><path style="stroke-width: 0.85 ;&st7;  " d=" M   883.85,   401.22  L   883.85,   418.22  " /><path style="stroke-width: 1.42 ;&st7;  " d=" M   781.87,   401.22  L   892.35,   401.22  L   892.35,   418.22  L   781.87,   418.22  L   781.87,   401.22  " /><path style="stroke-width: 0.85 ;&st7;  " d=" M   882.66,   408.71  L   882.39,   409.18  L   882.29,   409.72  L   882.39,   410.25  L   882.66,   410.72  L   883.07,   411.07  L   883.58,   411.25  L   884.12,   411.25  L   884.63,   411.07  L   885.04,   410.72  L   885.32,   410.25  L   885.41,   409.72  L   885.32,   409.18  L   885.04,   408.71  L   884.63,   408.37  L   884.12,   408.18  L   883.58,   408.18  L   883.07,   408.37  L   882.66,   408.71  L   883.05,   409.43  L   883.05,   410.01  L   883.43,   410.45  L   884.00,   410.55  L   884.50,   410.26  L   884.70,   409.72  L   884.50,   409.17  L   884.00,   408.88  L   883.43,   408.98  L   883.85,   409.72  " /><text style="&st18;" transform="matrix(&st16;  781.08  426.41 )">14</text><text style="&st18;" transform="matrix(&st16;  874.57  426.41 )">13</text><text style="&st18;" transform="matrix(&st16;  874.57  397.53 )">12</text><g ewd:figtype="title"><text style="&st18;" transform="matrix(&st16;  778.46  384.75 )">G98</text><text style="&st18;" transform="matrix(&st16;  778.46  391.57 )" ewd:textID="81">No. 31 <tspan x="0 " dy="6.0">Junction Connector</tspan></text></g></g><g ewd:figtype="rb" ewd:figID="24" ewd:code="3"><text style="&st18;" transform="matrix(&st16;  920.11  298.38 )" ewd:textID="50">DRL <tspan x="0 " dy="6.0">Relay</tspan></text><text style="&st18;" transform="matrix(&st16;  882.05  262.96 )">3</text><text style="&st18;" transform="matrix(&st16;  907.55  262.96 )">3</text><text style="&st18;" transform="matrix(&st16;  882.05  339.45 )">3</text><text style="&st18;" transform="matrix(&st16;  907.55  339.45 )">3</text><path style="stroke-width: 0.28 ;&st9;  " d=" M   883.85,   270.14  L   886.68,   272.97  L   886.68,   268.72  L   883.85,   265.89  L   881.02,   268.72  L   881.02,   272.97  L   883.85,   270.14  " /><path style="stroke-width: 0.28 ;&st9;  " d=" M   909.35,   270.14  L   912.18,   272.97  L   912.18,   268.72  L   909.35,   265.89  L   906.51,   268.72  L   906.51,   272.97  L   909.35,   270.14  " /><path style="stroke-width: 0.28 ;&st9;  " d=" M   883.85,   328.33  L   881.02,   325.50  L   881.02,   329.75  L   883.85,   332.58  L   886.68,   329.75  L   886.68,   325.50  L   883.85,   328.33  " /><path style="stroke-width: 0.28 ;&st9;  " d=" M   909.35,   328.33  L   906.51,   325.50  L   906.51,   329.75  L   909.35,   332.58  L   912.18,   329.75  L   912.18,   325.50  L   909.35,   328.33  " /><path style="stroke-width: 0.85 ;&st7;  " d=" M   883.85,   282.24  L   883.85,   265.24  " /><path style="stroke-width: 0.85 ;&st7;  " d=" M   909.35,   282.24  L   909.35,   265.24  " /><path style="stroke-width: 0.85 ;&st7;  " d=" M   883.85,   333.23  L   883.85,   316.23  " /><path style="stroke-width: 0.85 ;&st7;  " d=" M   909.35,   333.23  L   909.35,   316.23  " /><path style="stroke-width: 1.42 ;&st7;   " d=" M   881.73,   256.74  C   879.38    256.74    877.48    258.64    877.48    260.99  " /><path style="stroke-width: 1.42 ;&st7;   " d=" M   877.48,   260.99  C   877.48    263.34    879.38    265.24    881.73    265.24  " /><path style="stroke-width: 1.42 ;&st7;   " d=" M   885.98,   265.24  C   888.32    265.24    890.23    263.34    890.23    260.99  " /><path style="stroke-width: 1.42 ;&st7;   " d=" M   890.23,   260.99  C   890.23    258.64    888.32    256.74    885.98    256.74  " /><path style="stroke-width: 1.42 ;&st7;   " d=" M   907.22,   256.74  C   904.88    256.74    902.97    258.64    902.97    260.99  " /><path style="stroke-width: 1.42 ;&st7;   " d=" M   911.47,   265.24  C   913.82    265.24    915.72    263.34    915.72    260.99  " /><path style="stroke-width: 1.42 ;&st7;   " d=" M   915.72,   260.99  C   915.72    258.64    913.82    256.74    911.47    256.74  " /><path style="stroke-width: 1.42 ;&st7;   " d=" M   881.73,   333.23  C   879.38    333.23    877.48    335.13    877.48    337.48  " /><path style="stroke-width: 1.42 ;&st7;   " d=" M   902.97,   260.99  C   902.97    263.34    904.88    265.24    907.22    265.24  " /><path style="stroke-width: 1.42 ;&st7;   " d=" M   877.48,   337.48  C   877.48    339.83    879.38    341.73    881.73    341.73  " /><path style="stroke-width: 1.42 ;&st7;   " d=" M   885.98,   341.73  C   888.32    341.73    890.23    339.83    890.23    337.48  " /><path style="stroke-width: 1.42 ;&st7;   " d=" M   890.23,   337.48  C   890.23    335.13    888.32    333.23    885.98    333.23  " /><path style="stroke-width: 1.42 ;&st7;   " d=" M   907.22,   333.23  C   904.88    333.23    902.97    335.13    902.97    337.48  " /><path style="stroke-width: 1.42 ;&st7;   " d=" M   902.97,   337.48  C   902.97    339.83    904.88    341.73    907.22    341.73  " /><path style="stroke-width: 1.42 ;&st7;   " d=" M   911.47,   341.73  C   913.82    341.73    915.72    339.83    915.72    337.48  " /><path style="stroke-width: 1.42 ;&st7;   " d=" M   915.72,   337.48  C   915.72    335.13    913.82    333.23    911.47    333.23  " /><path style="stroke-width: 1.42 ;&st7;  " d=" M   885.98,   256.74  L   881.73,   256.74  " /><path style="stroke-width: 1.42 ;&st7;  " d=" M   885.98,   265.24  L   881.73,   265.24  " /><path style="stroke-width: 1.42 ;&st7;  " d=" M   911.47,   256.74  L   907.22,   256.74  " /><path style="stroke-width: 1.42 ;&st7;  " d=" M   911.47,   265.24  L   907.22,   265.24  " /><path style="stroke-width: 1.42 ;&st7;  " d=" M   885.98,   333.23  L   881.73,   333.23  " /><path style="stroke-width: 1.42 ;&st7;  " d=" M   885.98,   341.73  L   881.73,   341.73  " /><path style="stroke-width: 1.42 ;&st7;  " d=" M   911.47,   341.73  L   907.22,   341.73  " /><path style="stroke-width: 1.42 ;&st7;  " d=" M   911.47,   333.23  L   907.22,   333.23  " /><text style="&st18;" transform="matrix(&st16;  877.67  324.43 )">5</text><text style="&st18;" transform="matrix(&st16;  903.16  324.43 )">2</text><text style="&st18;" transform="matrix(&st16;  877.67  278.55 )">3</text><text style="&st18;" transform="matrix(&st16;  903.16  278.55 )">1</text><path style="stroke-width: 1.42 ;&st7;  " d=" M   917.85,   282.24  L   875.35,   282.24  L   875.35,   316.23  L   917.85,   316.23  L   917.85,   282.24  " /><path style="stroke-width: 0.85 ;&st7;   " d=" M   909.35,   307.73  C   911.30    307.73    912.89    306.15    912.89    304.19  " /><path style="stroke-width: 0.85 ;&st7;   " d=" M   912.89,   304.19  C   912.89    302.24    911.30    300.65    909.35    300.65  " /><path style="stroke-width: 0.85 ;&st7;   " d=" M   909.35,   300.65  C   908.36    300.65    907.51    301.01    906.82    301.71  " /><path style="stroke-width: 0.85 ;&st7;   " d=" M   906.82,   301.71  C   908.19    303.11    910.43    303.13    911.83    301.77  " /><path style="stroke-width: 0.85 ;&st7;   " d=" M   911.83,   301.77  C   913.22    300.40    913.25    298.15    911.88    296.76  " /><path style="stroke-width: 0.85 ;&st7;   " d=" M   911.88,   296.76  C   910.51    295.36    908.27    295.34    906.87    296.71  " /><path style="stroke-width: 0.85 ;&st7;   " d=" M   906.87,   296.71  C   906.85    296.72    906.84    296.74    906.82    296.76  " /><path style="stroke-width: 0.85 ;&st7;   " d=" M   906.82,   296.76  C   908.19    298.15    910.43    298.18    911.83    296.81  " /><path style="stroke-width: 0.85 ;&st7;   " d=" M   911.83,   296.81  C   913.22    295.44    913.25    293.20    911.88    291.80  " /><path style="stroke-width: 0.85 ;&st7;   " d=" M   911.88,   291.80  C   911.18    291.09    910.34    290.74    909.35    290.74  " /><path style="stroke-width: 0.85 ;&st7;   " d=" M   885.27,   287.90  C   885.27    287.12    884.63    286.49    883.85    286.49  " /><path style="stroke-width: 0.85 ;&st7;   " d=" M   883.85,   286.49  C   883.07    286.49    882.44    287.12    882.44    287.90  " /><path style="stroke-width: 0.85 ;&st7;   " d=" M   882.44,   287.90  C   882.44    288.69    883.07    289.32    883.85    289.32  " /><path style="stroke-width: 0.85 ;&st7;   " d=" M   883.85,   289.32  C   884.63    289.32    885.27    288.69    885.27    287.90  " /><path style="stroke-width: 0.85 ;&st7;   " d=" M   885.27,   310.57  C   885.27    309.78    884.63    309.15    883.85    309.15  " /><path style="stroke-width: 0.85 ;&st7;   " d=" M   883.85,   309.15  C   883.07    309.15    882.44    309.78    882.44    310.57  " /><path style="stroke-width: 0.85 ;&st7;   " d=" M   882.44,   310.57  C   882.44    311.35    883.07    311.98    883.85    311.98  " /><path style="stroke-width: 0.85 ;&st7;   " d=" M   883.85,   311.98  C   884.63    311.98    885.27    311.35    885.27    310.57  " /><path style="stroke-width: 0.85 ;&st7;  " d=" M   909.35,   307.73  L   909.35,   316.23  " /><path style="stroke-width: 0.85 ;&st7;  " d=" M   909.35,   282.24  L   909.35,   290.74  " /><path style="stroke-width: 0.85 ;&st7;  " d=" M   883.85,   286.49  L   883.85,   282.24  " /><path style="stroke-width: 0.85 ;&st7;  " d=" M   883.85,   316.23  L   883.85,   311.98  " /><path style="stroke-width: 1.42 ;&st7;  " d=" M   883.85,   289.32  L   878.19,   311.98  " /></g><g ewd:figtype="conn" ewd:figID="25" ewd:code="G103,G104"><path style="stroke-width: 0.85 ;&st7;  " d=" M   909.35,   197.25  L   883.85,   197.25  L   883.85,   205.75  " /><path style="stroke-width: 0.85 ;&st7;  " d=" M   908.16,   196.25  L   907.88,   196.72  L   907.79,   197.25  L   907.88,   197.79  L   908.16,   198.26  L   908.57,   198.60  L   909.08,   198.79  L   909.62,   198.79  L   910.13,   198.60  L   910.54,   198.26  L   910.81,   197.79  L   910.91,   197.25  L   910.81,   196.72  L   910.54,   196.25  L   910.13,   195.90  L   909.62,   195.72  L   909.08,   195.72  L   908.57,   195.90  L   908.16,   196.25  L   908.55,   196.96  L   908.55,   197.54  L   908.92,   197.99  L   909.49,   198.09  L   910.00,   197.80  L   910.20,   197.25  L   910.00,   196.71  L   909.49,   196.42  L   908.92,   196.52  L   909.35,   197.25  " /><path style="stroke-width: 0.85 ;&st7;  " d=" M   909.35,   188.75  L   909.35,   205.75  " /><path style="stroke-width: 1.42 ;&st7;  " d=" M   875.35,   188.75  L   917.85,   188.75  L   917.85,   205.75  L   875.35,   205.75  L   875.35,   188.75  " /><text style="&st18;" transform="matrix(&st16;  875.16  212.25 )">9</text><text style="&st18;" transform="matrix(&st16;  881.66  212.25 )">B</text><path style="stroke-width: 1.42 ;&st7;   " d=" M   888.38,   210.28  C   888.38    207.78    886.36    205.75    883.85    205.75  " /><path style="stroke-width: 1.42 ;&st7;   " d=" M   883.85,   205.75  C   881.35    205.75    879.32    207.78    879.32    210.28  " /><path style="stroke-width: 1.42 ;&st7;   " d=" M   879.32,   210.28  C   879.32    212.79    881.35    214.82    883.85    214.82  " /><path style="stroke-width: 1.42 ;&st7;   " d=" M   883.85,   214.82  C   886.36    214.82    888.38    212.79    888.38    210.28  " /><text style="&st18;" transform="matrix(&st16;  897.55  212.25 )">10</text><text style="&st18;" transform="matrix(&st16;  907.16  212.25 )">B</text><path style="stroke-width: 1.42 ;&st7;   " d=" M   913.88,   210.28  C   913.88    207.78    911.85    205.75    909.35    205.75  " /><path style="stroke-width: 1.42 ;&st7;   " d=" M   909.35,   205.75  C   906.84    205.75    904.82    207.78    904.82    210.28  " /><path style="stroke-width: 1.42 ;&st7;   " d=" M   904.82,   210.28  C   904.82    212.79    906.84    214.82    909.35    214.82  " /><path style="stroke-width: 1.42 ;&st7;   " d=" M   909.35,   214.82  C   911.85    214.82    913.88    212.79    913.88    210.28  " /><text style="&st18;" transform="matrix(&st16;  900.65  186.19 )">9</text><text style="&st18;" transform="matrix(&st16;  907.04  186.19 )">A</text><path style="stroke-width: 1.42 ;&st7;   " d=" M   913.88,   184.22  C   913.88    181.72    911.85    179.69    909.35    179.69  " /><path style="stroke-width: 1.42 ;&st7;   " d=" M   909.35,   179.69  C   906.84    179.69    904.82    181.72    904.82    184.22  " /><path style="stroke-width: 1.42 ;&st7;   " d=" M   904.82,   184.22  C   904.82    186.72    906.84    188.75    909.35    188.75  " /><path style="stroke-width: 1.42 ;&st7;   " d=" M   909.35,   188.75  C   911.85    188.75    913.88    186.72    913.88    184.22  " /><g ewd:figtype="title"><text style="&st18;" transform="matrix(&st17;  925.74  208.65 )">G103(A),G104(B)</text><text style="&st18;" transform="matrix(&st17;  932.56  208.66 )" ewd:textID="84">No. 36 <tspan x="0 " dy="6.0">Junction Connector</tspan></text></g></g><g ewd:code="G3" ewd:figID="57" ewd:comment="49,58,57,53" ewd:figtype="conn"><path style="stroke-width: 0.85 ;&st7;  " d=" M   654.39,   477.71  L   654.39,   494.70  " /><path style="stroke-width: 0.85 ;&st7;  " d=" M   652.97,   571.19  L   621.81,   571.19  " /><path style="stroke-width: 0.85 ;&st7;  " d=" M   652.97,   554.19  L   621.81,   554.19  " /><path style="stroke-width: 1.42 ;&st7;  " d=" M   569.40,   494.70  L   569.40,   579.69  " /><path style="stroke-width: 0.85 ;&st7;  " d=" M   671.39,   494.70  L   671.39,   579.69  " /><path style="stroke-width: 0.85 ;&st7;  " d=" M   569.40,   562.69  L   739.38,   562.69  " /><path style="stroke-width: 0.85 ;&st7;  " d=" M   569.40,   511.70  L   739.38,   511.70  " /><path style="stroke-width: 0.85 ;&st7;  " d=" M   655.81,   571.19  L   686.97,   571.19  " /><path style="stroke-width: 0.85 ;&st7;  " d=" M   720.96,   537.20  L   621.81,   537.20  " /><path style="stroke-width: 0.85 ;&st7;  " d=" M   637.39,   494.70  L   637.39,   579.69  " /><path style="stroke-width: 0.85 ;&st7;  " d=" M   603.40,   494.70  L   603.40,   579.69  " /><path style="stroke-width: 0.85 ;&st7;  " d=" M   569.40,   545.69  L   739.38,   545.69  " /><path style="stroke-width: 1.42 ;&st7;  " d=" M   552.41,   494.70  L   739.38,   494.70  L   739.38,   579.69  L   552.41,   579.69  L   552.41,   494.70  " /><path style="stroke-width: 0.85 ;&st7;  " d=" M   620.40,   579.69  L   620.40,   596.69  " /><path style="stroke-width: 0.85 ;&st7;  " d=" M   705.38,   494.70  L   705.38,   579.69  " /><path style="stroke-width: 1.42 ;&st7;  " d=" M   535.41,   477.71  L   535.41,   596.69  L   756.37,   596.69  L   756.37,   477.71  L   535.41,   477.71  " /><path style="stroke-width: 0.85 ;&st7;   " d=" M   621.81,   571.19  C   621.81    570.41    621.18    569.77    620.40    569.77  " /><path style="stroke-width: 0.85 ;&st7;   " d=" M   620.40,   569.77  C   619.61    569.77    618.98    570.41    618.98    571.19  " /><path style="stroke-width: 0.85 ;&st7;   " d=" M   618.98,   571.19  C   618.98    571.97    619.61    572.61    620.40    572.61  " /><path style="stroke-width: 0.85 ;&st7;   " d=" M   620.40,   572.61  C   621.18    572.61    621.81    571.97    621.81    571.19  " /><path style="stroke-width: 0.85 ;&st7;   " d=" M   621.81,   554.19  C   621.81    553.41    621.18    552.78    620.40    552.78  " /><path style="stroke-width: 0.85 ;&st7;   " d=" M   620.40,   552.78  C   619.61    552.78    618.98    553.41    618.98    554.19  " /><path style="stroke-width: 0.85 ;&st7;   " d=" M   618.98,   554.19  C   618.98    554.97    619.61    555.61    620.40    555.61  " /><path style="stroke-width: 0.85 ;&st7;   " d=" M   620.40,   555.61  C   621.18    555.61    621.81    554.97    621.81    554.19  " /><path style="stroke-width: 0.85 ;&st7;   " d=" M   655.81,   554.19  C   655.81    553.41    655.17    552.78    654.39    552.78  " /><path style="stroke-width: 0.85 ;&st7;   " d=" M   654.39,   552.78  C   653.61    552.78    652.97    553.41    652.97    554.19  " /><path style="stroke-width: 0.85 ;&st7;   " d=" M   652.97,   554.19  C   652.97    554.97    653.61    555.61    654.39    555.61  " /><path style="stroke-width: 0.85 ;&st7;   " d=" M   654.39,   555.61  C   655.17    555.61    655.81    554.97    655.81    554.19  " /><path style="stroke-width: 0.85 ;&st7;   " d=" M   621.81,   537.20  C   621.81    536.41    621.18    535.78    620.40    535.78  " /><path style="stroke-width: 0.85 ;&st7;   " d=" M   620.40,   535.78  C   619.61    535.78    618.98    536.41    618.98    537.20  " /><path style="stroke-width: 0.85 ;&st7;   " d=" M   618.98,   537.20  C   618.98    537.98    619.61    538.61    620.40    538.61  " /><path style="stroke-width: 0.85 ;&st7;   " d=" M   620.40,   538.61  C   621.18    538.61    621.81    537.98    621.81    537.20  " /><path style="stroke-width: 0.85 ;&st7;   " d=" M   655.81,   571.19  C   655.81    570.41    655.17    569.77    654.39    569.77  " /><path style="stroke-width: 0.85 ;&st7;   " d=" M   654.39,   569.77  C   653.61    569.77    652.97    570.41    652.97    571.19  " /><path style="stroke-width: 0.85 ;&st7;   " d=" M   652.97,   571.19  C   652.97    571.97    653.61    572.61    654.39    572.61  " /><path style="stroke-width: 0.85 ;&st7;   " d=" M   654.39,   572.61  C   655.17    572.61    655.81    571.97    655.81    571.19  " /><path style="stroke-width: 0.85 ;&st7;   " d=" M   689.80,   571.19  C   689.80    570.41    689.17    569.77    688.38    569.77  " /><path style="stroke-width: 0.85 ;&st7;   " d=" M   688.38,   569.77  C   687.60    569.77    686.97    570.41    686.97    571.19  " /><path style="stroke-width: 0.85 ;&st7;   " d=" M   686.97,   571.19  C   686.97    571.97    687.60    572.61    688.38    572.61  " /><path style="stroke-width: 0.85 ;&st7;   " d=" M   688.38,   572.61  C   689.17    572.61    689.80    571.97    689.80    571.19  " /><path style="stroke-width: 0.85 ;&st7;   " d=" M   723.80,   537.20  C   723.80    536.41    723.16    535.78    722.38    535.78  " /><path style="stroke-width: 0.85 ;&st7;   " d=" M   722.38,   535.78  C   721.60    535.78    720.96    536.41    720.96    537.20  " /><path style="stroke-width: 0.85 ;&st7;   " d=" M   720.96,   537.20  C   720.96    537.98    721.60    538.61    722.38    538.61  " /><path style="stroke-width: 0.85 ;&st7;   " d=" M   722.38,   538.61  C   723.16    538.61    723.80    537.98    723.80    537.20  " /><g ewd:code="" ewd:figID="242" ewd:comment="49" ewd:figtype="commref"><text style="&st18;" transform="matrix(&st16;  577.66  536.34 )">AUTO <tspan x="0 " dy="6.0">(*49)</tspan></text></g><text style="&st18;" transform="matrix(&st16;  581.34  556.16 )" ewd:textID="110">Tail</text><text style="&st18;" transform="matrix(&st16;  579.48  573.16 )" ewd:textID="58">Head</text><text style="&st18;" transform="matrix(&st16;  720.07  505.17 )">A</text><text style="&st18;" transform="matrix(&st16;  616.46  505.17 )">EL</text><text style="&st18;" transform="matrix(&st16;  652.2  505.17 )">T</text><text style="&st18;" transform="matrix(&st17;  560.05  554.32 )" ewd:textID="68">Light Control <tspan x="0 " dy="6.0">Switch</tspan></text><text style="&st18;" transform="matrix(&st16;  685.89  505.17 )">H</text><text style="&st18;" transform="matrix(&st16;  622.98  593.0 )">EL</text><text style="&st18;" transform="matrix(&st16;  656.97  485.9 )">T</text><path style="stroke-width: 0.85 ;&st7;  " d=" M   569.40,   528.70  L   739.38,   528.70  " /><g ewd:code="" ewd:figID="241" ewd:comment="53" ewd:figtype="commref"><text style="&st18;" transform="matrix(&st16;  579.64  519.34 )" ewd:textID="91">Off <tspan x="0 " dy="6.0">(*53)</tspan></text></g><text style="&st18;" transform="matrix(&st16;  642.59  475.14 )">18</text><text style="&st18;" transform="matrix(&st16;  642.59  466.08 )">13</text><text style="&st18;" transform="matrix(&st16;  652.09  466.08 )">A</text><path style="stroke-width: 1.42 ;&st7;   " d=" M   658.92,   464.11  C   658.92    461.60    656.89    459.58    654.39    459.58  " /><path style="stroke-width: 1.42 ;&st7;   " d=" M   654.39,   459.58  C   651.89    459.58    649.86    461.60    649.86    464.11  " /><path style="stroke-width: 1.42 ;&st7;   " d=" M   649.86,   464.11  C   649.86    466.61    651.89    468.64    654.39    468.64  " /><path style="stroke-width: 1.42 ;&st7;   " d=" M   654.39,   468.64  C   656.89    468.64    658.92    466.61    658.92    464.11  " /><path style="stroke-width: 1.42 ;&st7;   " d=" M   658.92,   473.17  C   658.92    470.67    656.89    468.64    654.39    468.64  " /><path style="stroke-width: 1.42 ;&st7;   " d=" M   654.39,   468.64  C   651.89    468.64    649.86    470.67    649.86    473.17  " /><path style="stroke-width: 1.42 ;&st7;   " d=" M   649.86,   473.17  C   649.86    475.68    651.89    477.71    654.39    477.71  " /><path style="stroke-width: 1.42 ;&st7;   " d=" M   654.39,   477.71  C   656.89    477.71    658.92    475.68    658.92    473.17  " /><text style="&st18;" transform="matrix(&st16;  652.09  475.14 )">A</text><text style="&st18;" transform="matrix(&st16;  608.6  603.19 )">16</text><text style="&st18;" transform="matrix(&st16;  608.6  612.25 )">15</text><text style="&st18;" transform="matrix(&st16;  618.09  612.25 )">A</text><text style="&st18;" transform="matrix(&st16;  618.09  603.19 )">A</text><path style="stroke-width: 1.42 ;&st7;   " d=" M   624.93,   601.22  C   624.93    598.71    622.90    596.69    620.40    596.69  " /><path style="stroke-width: 1.42 ;&st7;   " d=" M   620.40,   596.69  C   617.89    596.69    615.86    598.71    615.86    601.22  " /><path style="stroke-width: 1.42 ;&st7;   " d=" M   615.86,   601.22  C   615.86    603.72    617.89    605.75    620.40    605.75  " /><path style="stroke-width: 1.42 ;&st7;   " d=" M   620.40,   605.75  C   622.90    605.75    624.93    603.72    624.93    601.22  " /><path style="stroke-width: 1.42 ;&st7;   " d=" M   624.93,   610.28  C   624.93    607.78    622.90    605.75    620.40    605.75  " /><path style="stroke-width: 1.42 ;&st7;   " d=" M   620.40,   605.75  C   617.89    605.75    615.86    607.78    615.86    610.28  " /><path style="stroke-width: 1.42 ;&st7;   " d=" M   615.86,   610.28  C   615.86    612.79    617.89    614.82    620.40    614.82  " /><path style="stroke-width: 1.42 ;&st7;   " d=" M   620.40,   614.82  C   622.90    614.82    624.93    612.79    624.93    610.28  " /><g ewd:figtype="title"><text style="&st18;" transform="matrix(&st16;  667.98  611.4 )" ewd:textID="61">Headlight Dimmer <tspan x="0 " dy="6.0">Switch Assembly</tspan></text><text style="&st18;" transform="matrix(&st16;  667.98  604.58 )">G3(A)</text></g><g ewd:code="" ewd:figID="208" ewd:comment="58" ewd:figtype="commref"><text style="&st18;" transform="matrix(&st16;  659.48  475.14 )">(*58)</text></g><g ewd:code="" ewd:figID="209" ewd:comment="57" ewd:figtype="commref"><text style="&st18;" transform="matrix(&st16;  659.48  466.08 )">(*57)</text></g><g ewd:code="" ewd:figID="210" ewd:comment="58" ewd:figtype="commref"><text style="&st18;" transform="matrix(&st16;  625.49  612.25 )">(*58)</text></g><g ewd:code="" ewd:figID="211" ewd:comment="57" ewd:figtype="commref"><text style="&st18;" transform="matrix(&st16;  625.49  603.19 )">(*57)</text></g></g><g ewd:figtype="jb" ewd:figID="79" ewd:code="2"><path style="stroke-width: 0.85 ;&st7;  " d=" M   577.90,   307.73  L   577.90,   341.73  " /><path style="stroke-width: 0.28 ;&st9;  " d=" M   577.90,   312.63  L   580.74,   315.46  L   580.74,   311.21  L   577.90,   308.38  L   575.07,   311.21  L   575.07,   315.46  L   577.90,   312.63  " /><path style="stroke-width: 1.42 ;&st7;   " d=" M   584.28,   303.48  C   584.28    301.14    582.37    299.24    580.03    299.24  " /><path style="stroke-width: 1.42 ;&st7;   " d=" M   580.03,   307.73  C   582.37    307.73    584.28    305.83    584.28    303.48  " /><path style="stroke-width: 1.42 ;&st7;   " d=" M   571.53,   303.48  C   571.53    305.83    573.43    307.73    575.78    307.73  " /><path style="stroke-width: 1.42 ;&st7;   " d=" M   575.78,   299.24  C   573.43    299.24    571.53    301.14    571.53    303.48  " /><path style="stroke-width: 1.42 ;&st7;  " d=" M   580.03,   307.73  L   575.78,   307.73  " /><path style="stroke-width: 1.42 ;&st7;  " d=" M   580.03,   299.24  L   575.78,   299.24  " /><text style="&st18;" transform="matrix(&st16;  573.74  305.45 )">2Q</text><text style="&st18;" transform="matrix(&st16;  567.4  305.45 )">3</text><text style="&st18;" transform="matrix(&st16;  568.62  338.04 )">12</text></g><g ewd:figtype="jb" ewd:figID="83" ewd:code="2"><text style="&st18;" transform="matrix(&st16;  898.84  126.98 )">3</text><text style="&st18;" transform="matrix(&st16;  901.3  57.58 )">(BAT)</text><text style="&st18;" transform="matrix(&st16;  903.16  111.96 )">2</text><text style="&st18;" transform="matrix(&st16;  905.8  126.98 )">2P</text><text style="&st18;" transform="matrix(&st16;  925.77  78.84 )">10A <tspan x="0 " dy="6.0">FOG </tspan><tspan x="0 " dy="6.0">FR/DRL</tspan></text><path style="stroke-width: 1.42 ;&st7;  " d=" M   896.60,    61.28  L   896.60,   103.77  L   922.10,   103.77  L   922.10,    61.28  L   896.60,    61.28  " /><path style="stroke-width: 0.28 ;&st9;  " d=" M   909.35,   115.87  L   906.51,   113.04  L   906.51,   117.29  L   909.35,   120.12  L   912.18,   117.29  L   912.18,   113.04  L   909.35,   115.87  " /><path style="stroke-width: 1.42 ;&st7;   " d=" M   915.72,   125.01  C   915.72    122.67    913.82    120.77    911.47    120.77  " /><path style="stroke-width: 1.42 ;&st7;   " d=" M   911.47,   129.26  C   913.82    129.26    915.72    127.36    915.72    125.01  " /><path style="stroke-width: 1.42 ;&st7;   " d=" M   902.97,   125.01  C   902.97    127.36    904.88    129.26    907.22    129.26  " /><path style="stroke-width: 1.42 ;&st7;   " d=" M   907.22,   120.77  C   904.88    120.77    902.97    122.67    902.97    125.01  " /><path style="stroke-width: 0.85 ;&st7;   " d=" M   910.76,    93.85  C   910.76     93.07    910.13     92.44    909.35     92.44  " /><path style="stroke-width: 0.85 ;&st7;   " d=" M   909.35,    92.44  C   908.57     92.44    907.93     93.07    907.93     93.85  " /><path style="stroke-width: 0.85 ;&st7;   " d=" M   907.93,    93.85  C   907.93     94.64    908.57     95.27    909.35     95.27  " /><path style="stroke-width: 0.85 ;&st7;   " d=" M   909.35,    95.27  C   910.13     95.27    910.76     94.64    910.76     93.85  " /><path style="stroke-width: 0.85 ;&st7;   " d=" M   910.76,    71.19  C   910.76     70.41    910.13     69.77    909.35     69.77  " /><path style="stroke-width: 0.85 ;&st7;   " d=" M   909.35,    69.77  C   908.57     69.77    907.93     70.41    907.93     71.19  " /><path style="stroke-width: 0.85 ;&st7;   " d=" M   907.93,    71.19  C   907.93     71.97    908.57     72.61    909.35     72.61  " /><path style="stroke-width: 0.85 ;&st7;   " d=" M   909.35,    72.61  C   910.13     72.61    910.76     71.97    910.76     71.19  " /><path style="stroke-width: 1.42 ;&st7;   " d=" M   909.35,    92.44  C   912.09     90.82    913.00     87.30    911.38     84.56  " /><path style="stroke-width: 1.42 ;&st7;   " d=" M   911.38,    84.56  C   910.87     83.68    910.23     83.04    909.35     82.52  " /><path style="stroke-width: 1.42 ;&st7;   " d=" M   909.35,    72.61  C   906.61     74.22    905.70     77.75    907.31     80.48  " /><path style="stroke-width: 1.42 ;&st7;   " d=" M   907.31,    80.48  C   907.83     81.37    908.47     82.00    909.35     82.52  " /><path style="stroke-width: 0.85 ;&st7;  " d=" M   909.35,   103.77  L   909.35,   120.77  " /><path style="stroke-width: 1.42 ;&st7;  " d=" M   911.47,   129.26  L   907.22,   129.26  " /><path style="stroke-width: 1.42 ;&st7;  " d=" M   911.47,   120.77  L   907.22,   120.77  " /><path style="stroke-width: 0.85 ;&st7;  " d=" M   909.35,    95.27  L   909.35,   103.77  " /></g><g ewd:figtype="w2w" ewd:figID="92" ewd:code="AG7"><text style="&st18;" transform="matrix(&st16;  774.63  526.42 )">24</text><path style="stroke-width: 1.42 ;&st7;  " d=" M   794.62,   514.53  L   790.37,   518.78  L   786.12,   514.53  " /><path style="stroke-width: 1.42 ;&st7;  " d=" M   786.12,   511.13  L   790.37,   515.38  L   794.62,   511.13  " /></g><g ewd:figtype="w2w" ewd:figID="93" ewd:code="AG7"><text style="&st18;" transform="matrix(&st16;  868.12  526.42 )">12</text><path style="stroke-width: 1.42 ;&st7;  " d=" M   888.10,   514.53  L   883.85,   518.78  L   879.60,   514.53  " /><path style="stroke-width: 1.42 ;&st7;  " d=" M   879.60,   511.13  L   883.85,   515.38  L   888.10,   511.13  " /></g><g ewd:figtype="gp" ewd:figID="117" ewd:code="GE"><path style="stroke-width: 0.85 ;&st7;  " d=" M   620.40,   697.25  L   620.40,   701.50  " /><path style="stroke-width: 0.85 ;&st7;  " d=" M   611.90,   701.50  L   628.89,   701.50  " /><path style="stroke-width: 0.85 ;&st7;  " d=" M   616.15,   704.33  L   624.65,   704.33  " /><path style="stroke-width: 0.85 ;&st7;  " d=" M   617.56,   707.17  L   623.23,   707.17  " /><path style="stroke-width: 0.85 ;&st7;  " d=" M   618.98,   710.00  L   621.81,   710.00  " /></g><g ewd:code="6" ewd:figID="158" ewd:comment="" ewd:figtype="comment"><text style="&st18;" transform="matrix(&st16;  616.99  105.74 )">* 6 :1GD-FTV, 2GD-FTV</text></g><g ewd:code="5" ewd:figID="159" ewd:comment="" ewd:figtype="comment"><text style="&st18;" transform="matrix(&st16;  616.99  97.24 )">* 5 :1KD-FTV, 2KD-FTV, 1GR-FE, 1TR-FE, 2TR-FE</text></g><g ewd:code="19" ewd:figID="160" ewd:comment="" ewd:figtype="comment"><text style="&st18;" transform="matrix(&st16;  616.99  114.24 )" ewd:textID="11">*19 :LED Type Headlight</text></g><g ewd:code="3" ewd:figID="205" ewd:comment="" ewd:figtype="comment"><text style="&st18;" transform="matrix(&st16;  616.99  80.24 )" ewd:textID="3">* 3 :w/ Stop &amp; Start System</text></g><g ewd:code="57" ewd:figID="207" ewd:comment="" ewd:figtype="comment"><text style="&st18;" transform="matrix(&st16;  616.99  173.73 )" ewd:textID="37">*57 :Except Europe</text></g><g ewd:code="23" ewd:figID="161" ewd:comment="" ewd:figtype="comment"><text style="&st18;" transform="matrix(&st16;  616.99  131.23 )" ewd:textID="14">*23 :w/o Door Control Battery</text></g><g ewd:code="22" ewd:figID="162" ewd:comment="" ewd:figtype="comment"><text style="&st18;" transform="matrix(&st16;  616.99  122.73 )" ewd:textID="13">*22 :w/ Door Control Battery</text></g><g ewd:code="40" ewd:figID="164" ewd:comment="" ewd:figtype="comment"><text style="&st18;" transform="matrix(&st16;  616.99  139.73 )" ewd:textID="20">*40 :Halogen Type Headlight w/ Daytime Running Light</text></g><g ewd:code="49" ewd:figID="165" ewd:comment="" ewd:figtype="comment"><text style="&st18;" transform="matrix(&st16;  616.99  148.23 )" ewd:textID="29">*49 :w/ Automatic Light Control</text></g><g ewd:code="53" ewd:figID="200" ewd:comment="" ewd:figtype="comment"><text style="&st18;" transform="matrix(&st16;  616.99  165.23 )" ewd:textID="33">*53 :w/ Off Position</text></g><g ewd:code="50" ewd:figID="203" ewd:comment="" ewd:figtype="comment"><text style="&st18;" transform="matrix(&st16;  616.99  156.73 )" ewd:textID="30">*50 :w/o Automatic Light Control</text></g><g ewd:code="4" ewd:figID="204" ewd:comment="" ewd:figtype="comment"><text style="&st18;" transform="matrix(&st16;  616.99  88.74 )" ewd:textID="4">* 4 :w/o Stop &amp; Start System</text></g><g ewd:code="58" ewd:figID="206" ewd:comment="" ewd:figtype="comment"><text style="&st18;" transform="matrix(&st16;  616.99  182.22 )" ewd:textID="38">*58 :Europe</text></g></svg>