﻿<?xml version="1.0" encoding="utf-8"?>
<!DOCTYPE svg PUBLIC "-//W3C//DTD SVG 1.0//EN" "http://www.w3.org/TR/2001/REC-SVG-20010904/DTD/svg10.dtd"[
	<!ENTITY ns_flows "http://ns.adobe.com/Flows/1.0/">
	<!ENTITY ns_svg "http://www.w3.org/2000/svg">
	<!ENTITY ns_xlink "http://www.w3.org/1999/xlink">
	<!ENTITY st0 "font-size:7px;font-family:'MS-PGothic';adobe-font-script:japanese;">
	<!ENTITY st1 "font-size:6px;font-family:'ArialMT';">
	<!-- White fill  -->
	<!ENTITY st2 "fill:#FFFFFF;stroke:#000000; stroke-width:1.41;stroke-linecap:round;stroke-linejoin:round;">
	<!-- Yellow fill  -->
	<!ENTITY st3 "fill:#FFFFCC;stroke:#FFFFCC; stroke-width:0.1;stroke-linecap:round;stroke-linejoin:round;">
	<!-- Gray fill  -->
	<!ENTITY st4 "fill:#CCCCCC;stroke:#CCCCCC; stroke-width:0.1;stroke-linecap:round;stroke-linejoin:round;">
	<!-- Light-blue fill -->
	<!ENTITY st5 "fill:#CCECF4;stroke:#000000; stroke-width:1.133;stroke-linecap:round;stroke-linejoin:round;">
	<!ENTITY st6 "fill:none;stroke-linecap:butt; stroke-linejoin:round;">
	<!ENTITY st7 "fill:none;stroke:#000000;stroke-linecap:round;stroke-linejoin:round;">
	<!ENTITY st8 "enable-background:new    ;">
	<!-- Black fill -->
	<!ENTITY st9 "fill:#000000;stroke:#000000; stroke-linecap:round;stroke-linejoin:round;">
	<!-- SRS note   -->
	<!ENTITY st10 "font-size:9px;font-family:'ArialMT';">
	<!ENTITY st11 "font-size:9px;font-family:'Svg Symbol';">
	<!ENTITY st12 "font-size:6px;font-family:'Svg Symbol';">
	<!ENTITY st13 "fill:none;stroke:#ff0000;stroke-linecap:round;stroke-linejoin:round;">
	<!-- Yellow fill  -->
	<!ENTITY st14 "fill:#FFFF00;stroke:#FFFF00; stroke-width:0.1;stroke-linecap:round;stroke-linejoin:round;">
	<!ENTITY st15 "font-size:6px;font-family:'MS-PGothic';adobe-font-script:japanese;">
	<!ENTITY st16 "1.00 0.00 0.00 1.00">
	<!ENTITY st17 "0.00 -1.00 1.00 0.00">
	<!ENTITY st18 "font-size:6px;font-family:'Arial';">
	<!ENTITY st19 "font-size:9px;font-family:'Arial';">
	<!ENTITY st20 "font-size:6px;font-family:'MS-PGothic','MS PGothic';adobe-font-script:japanese;">
	<!ENTITY st21 "font-size:7px;font-family:'MS-PGothic','MS PGothic';adobe-font-script:japanese;">
	<!ATTLIST svg
		xmlns:ewd CDATA #FIXED "http://shcl.co.jp/ewd"
		xmlns:a CDATA #FIXED "http://ns.adobe.com/AdobeSVGViewerExtensions/3.0/"
		ewd:ver CDATA #IMPLIED
	>
	<!ATTLIST a
		ewd:lineID CDATA #IMPLIED
		ewd:groupID CDATA #IMPLIED
		ewd:figtype CDATA #IMPLIED
		ewd:code CDATA #IMPLIED
		ewd:figID CDATA #IMPLIED
		ewd:pinNo CDATA #IMPLIED
		ewd:comment CDATA #IMPLIED >
	<!ATTLIST g
		ewd:lineID CDATA #IMPLIED
		ewd:groupID CDATA #IMPLIED
		ewd:figtype CDATA #IMPLIED
		ewd:code CDATA #IMPLIED
		ewd:figID CDATA #IMPLIED
		ewd:pinNo CDATA #IMPLIED
		ewd:comment CDATA #IMPLIED >
	<!ATTLIST text
		ewd:textID CDATA #IMPLIED >
	<!ATTLIST title
		ewd:textID CDATA #IMPLIED >
]>
<!-- Generator: Shintec Hozumi YS   -->
<svg onload="call_execInitLoadProc_svg('system')" style="overflow:visible;  enable-background:new 0 0 438.733 710.000" viewBox="0 0 438.733 710.000" height="710.000" width="438.733" xml:space="preserve" ewd:ver="2.1.2.9" xmlns="&ns_svg;" xmlns:a="http://ns.adobe.com/AdobeSVGViewerExtensions/3.0/" xmlns:ewd="http://shcl.co.jp/ewd" xmlns:xlink="&ns_xlink;">
<text style="&st18;" transform="matrix(&st17;  81.29  153.18 )">LA-P</text><text style="&st18;" transform="matrix(&st17;  81.29  280.66 )">LA-P</text><text style="&st18;" transform="matrix(&st17;  123.78  483.66 )">W-B</text><text style="&st18;" transform="matrix(&st17;  174.78  280.66 )">LA-P</text><text style="&st18;" transform="matrix(&st17;  217.27  483.66 )">W-B</text><text style="&st18;" transform="matrix(&st17;  186.11  278.45 )">(*1)</text><text style="&st18;" transform="matrix(&st17;  228.6  489.59 )">(*1 RHD)</text><text style="&st18;" transform="matrix(&st17;  81.29  483.66 )">W-B</text><text style="&st18;" transform="matrix(&st17;  174.77  483.66 )">W-B</text><text style="&st18;" transform="matrix(&st17;  186.11  489.55 )">(*1 LHD)</text><text style="&st18;" transform="matrix(&st17;  135.12  485.56 )">(RHD)</text><text style="&st18;" transform="matrix(&st17;  92.62  485.52 )">(LHD)</text><g ewd:figtype="conn" ewd:figID="1" ewd:code="G55,G93"><path style="stroke-width: 0.85 ;&st7; stroke-dasharray:3, 1.5;" d=" M    93.48,   227.28  L   161.47,   227.28  " /><path style="stroke-width: 0.85 ;&st7; stroke-dasharray:3, 1.5;" d=" M    93.48,   236.35  L   161.47,   236.35  " /><path style="stroke-width: 1.42 ;&st7;  " d=" M    76.49,   205.75  L   186.97,   205.75  L   186.97,   222.75  L    76.49,   222.75  L    76.49,   205.75  " /><path style="stroke-width: 0.85 ;&st7;  " d=" M    84.99,   205.75  L    84.99,   222.75  " /><path style="stroke-width: 0.85 ;&st7;  " d=" M   178.47,   222.75  L   178.47,   214.25  L    84.99,   214.25  " /><path style="stroke-width: 0.85 ;&st7;  " d=" M    83.79,   213.25  L    83.52,   213.72  L    83.43,   214.25  L    83.52,   214.78  L    83.79,   215.25  L    84.21,   215.60  L    84.71,   215.79  L    85.26,   215.79  L    85.76,   215.60  L    86.18,   215.25  L    86.45,   214.78  L    86.54,   214.25  L    86.45,   213.72  L    86.18,   213.25  L    85.76,   212.90  L    85.26,   212.71  L    84.71,   212.71  L    84.21,   212.90  L    83.79,   213.25  L    84.19,   213.96  L    84.19,   214.54  L    84.56,   214.99  L    85.13,   215.09  L    85.64,   214.80  L    85.84,   214.25  L    85.64,   213.70  L    85.13,   213.41  L    84.56,   213.51  L    84.99,   214.25  " /><text style="&st18;" transform="matrix(&st16;  73.19  238.32 )">13</text><text style="&st18;" transform="matrix(&st16;  73.19  229.25 )">20</text><text style="&st18;" transform="matrix(&st16;  82.8  238.32 )">B</text><path style="stroke-width: 1.42 ;&st7;   " d=" M    89.52,   227.28  C    89.52    224.78     87.49    222.75     84.99    222.75  " /><path style="stroke-width: 1.42 ;&st7;   " d=" M    84.99,   222.75  C    82.48    222.75     80.45    224.78     80.45    227.28  " /><path style="stroke-width: 1.42 ;&st7;   " d=" M    80.45,   227.28  C    80.45    229.78     82.48    231.81     84.99    231.81  " /><path style="stroke-width: 1.42 ;&st7;   " d=" M    84.99,   231.81  C    87.49    231.81     89.52    229.78     89.52    227.28  " /><path style="stroke-width: 1.42 ;&st7;   " d=" M    89.52,   236.35  C    89.52    233.84     87.49    231.81     84.99    231.81  " /><path style="stroke-width: 1.42 ;&st7;   " d=" M    84.99,   231.81  C    82.48    231.81     80.45    233.84     80.45    236.35  " /><path style="stroke-width: 1.42 ;&st7;   " d=" M    80.45,   236.35  C    80.45    238.85     82.48    240.88     84.99    240.88  " /><path style="stroke-width: 1.42 ;&st7;   " d=" M    84.99,   240.88  C    87.49    240.88     89.52    238.85     89.52    236.35  " /><text style="&st18;" transform="matrix(&st16;  82.68  229.25 )">A</text><text style="&st18;" transform="matrix(&st16;  73.19  203.19 )">12</text><text style="&st18;" transform="matrix(&st16;  73.19  194.12 )">19</text><text style="&st18;" transform="matrix(&st16;  82.8  203.19 )">B</text><path style="stroke-width: 1.42 ;&st7;   " d=" M    89.52,   201.22  C    89.52    198.72     87.49    196.69     84.99    196.69  " /><path style="stroke-width: 1.42 ;&st7;   " d=" M    84.99,   196.69  C    82.48    196.69     80.45    198.72     80.45    201.22  " /><path style="stroke-width: 1.42 ;&st7;   " d=" M    80.45,   201.22  C    80.45    203.72     82.48    205.75     84.99    205.75  " /><path style="stroke-width: 1.42 ;&st7;   " d=" M    84.99,   205.75  C    87.49    205.75     89.52    203.72     89.52    201.22  " /><path style="stroke-width: 1.42 ;&st7;   " d=" M    89.52,   192.15  C    89.52    189.65     87.49    187.62     84.99    187.62  " /><path style="stroke-width: 1.42 ;&st7;   " d=" M    84.99,   187.62  C    82.48    187.62     80.45    189.65     80.45    192.15  " /><path style="stroke-width: 1.42 ;&st7;   " d=" M    80.45,   192.15  C    80.45    194.66     82.48    196.69     84.99    196.69  " /><path style="stroke-width: 1.42 ;&st7;   " d=" M    84.99,   196.69  C    87.49    196.69     89.52    194.66     89.52    192.15  " /><text style="&st18;" transform="matrix(&st16;  82.68  194.12 )">A</text><text style="&st18;" transform="matrix(&st16;  166.67  238.32 )">14</text><text style="&st18;" transform="matrix(&st16;  166.67  229.25 )">21</text><path style="stroke-width: 1.42 ;&st7;   " d=" M   183.00,   227.28  C   183.00    224.78    180.97    222.75    178.47    222.75  " /><path style="stroke-width: 1.42 ;&st7;   " d=" M   178.47,   222.75  C   175.97    222.75    173.94    224.78    173.94    227.28  " /><path style="stroke-width: 1.42 ;&st7;   " d=" M   173.94,   227.28  C   173.94    229.78    175.97    231.81    178.47    231.81  " /><path style="stroke-width: 1.42 ;&st7;   " d=" M   178.47,   231.81  C   180.97    231.81    183.00    229.78    183.00    227.28  " /><path style="stroke-width: 1.42 ;&st7;   " d=" M   183.00,   236.35  C   183.00    233.84    180.97    231.81    178.47    231.81  " /><path style="stroke-width: 1.42 ;&st7;   " d=" M   178.47,   231.81  C   175.97    231.81    173.94    233.84    173.94    236.35  " /><path style="stroke-width: 1.42 ;&st7;   " d=" M   173.94,   236.35  C   173.94    238.85    175.97    240.88    178.47    240.88  " /><path style="stroke-width: 1.42 ;&st7;   " d=" M   178.47,   240.88  C   180.97    240.88    183.00    238.85    183.00    236.35  " /><text style="&st18;" transform="matrix(&st16;  176.17  229.25 )">A</text><text style="&st18;" transform="matrix(&st16;  176.28  238.32 )">B</text><g ewd:figtype="title"><text style="&st18;" transform="matrix(&st16;  124.07  202.05 )" ewd:textID="6">No. 26 Junction Connector</text><text style="&st18;" transform="matrix(&st16;  124.07  195.23 )">G93(B)</text><text style="&st18;" transform="matrix(&st16;  124.07  187.89 )" ewd:textID="4">No. 15 Junction Connector</text><text style="&st18;" transform="matrix(&st16;  124.07  181.07 )">G55(A)</text></g><g ewd:code="" ewd:figID="11" ewd:comment="" ewd:figtype="commref"><text style="&st18;" transform="matrix(&st16;  90.08  203.19 )">(RHD)</text></g><g ewd:code="" ewd:figID="12" ewd:comment="" ewd:figtype="commref"><text style="&st18;" transform="matrix(&st16;  90.08  194.12 )">(LHD)</text></g><g ewd:code="" ewd:figID="13" ewd:comment="" ewd:figtype="commref"><text style="&st18;" transform="matrix(&st16;  183.56  238.32 )">(RHD)</text></g><g ewd:code="" ewd:figID="14" ewd:comment="" ewd:figtype="commref"><text style="&st18;" transform="matrix(&st16;  183.56  229.25 )">(LHD)</text></g></g><g ewd:figtype="conn" ewd:figID="2" ewd:code="G15"><path style="stroke-width: 1.42 ;&st7;  " d=" M   161.47,   324.73  L   161.47,   358.73  L   195.47,   358.73  L   195.47,   324.73  L   161.47,   324.73  " /><g ewd:lineID="5,6"><text style="&st18;" transform="matrix(&st16;  172.29  366.92 )">2</text><text style="&st18;" transform="matrix(&st16;  176.36  355.03 )">E</text></g><g ewd:lineID="7"><text style="&st18;" transform="matrix(&st16;  172.29  321.04 )">1</text><text style="&st18;" transform="matrix(&st16;  176.28  332.37 )">B</text></g><g ewd:figtype="title"><text style="&st18;" transform="matrix(&st17;  203.36  361.62 )">G15</text><text style="&st18;" transform="matrix(&st17;  210.19  361.63 )" ewd:textID="3">No. 2 Power Outlet Socket <tspan x="0 " dy="6.0">Assembly</tspan></text></g></g><g ewd:figtype="conn" ewd:figID="3" ewd:code="G14"><path style="stroke-width: 1.42 ;&st7;  " d=" M    67.99,   324.73  L    67.99,   358.73  L   101.98,   358.73  L   101.98,   324.73  L    67.99,   324.73  " /><g ewd:lineID="1,2"><text style="&st18;" transform="matrix(&st16;  78.8  366.92 )">2</text><text style="&st18;" transform="matrix(&st16;  82.88  355.03 )">E</text></g><g ewd:lineID="3"><text style="&st18;" transform="matrix(&st16;  78.8  321.04 )">1</text><text style="&st18;" transform="matrix(&st16;  82.8  332.37 )">B</text></g><g ewd:figtype="title"><text style="&st18;" transform="matrix(&st17;  109.88  361.62 )">G14</text><text style="&st18;" transform="matrix(&st17;  116.7  361.63 )" ewd:textID="2">No. 1 Power Outlet Socket <tspan x="0 " dy="6.0">Assembly</tspan></text></g></g><g ewd:figtype="jb" ewd:figID="4" ewd:code="2"><path style="stroke-width: 1.42 ;&st7;  " d=" M    87.11,    95.27  L    82.86,    95.27  " /><path style="stroke-width: 0.85 ;&st7;  " d=" M    84.99,    69.77  L    84.99,    78.27  " /><path style="stroke-width: 1.42 ;&st7;  " d=" M    87.11,   103.77  L    82.86,   103.77  " /><path style="stroke-width: 0.85 ;&st7;  " d=" M    84.99,    78.27  L    84.99,    95.27  " /><path style="stroke-width: 1.42 ;&st7;   " d=" M    84.99,    47.11  C    82.25     48.72     81.34     52.25     82.95     54.99  " /><path style="stroke-width: 1.42 ;&st7;   " d=" M    82.95,    54.99  C    83.47     55.87     84.10     56.51     84.99     57.03  " /><path style="stroke-width: 1.42 ;&st7;   " d=" M    84.99,    66.94  C    87.72     65.33     88.64     61.80     87.02     59.06  " /><path style="stroke-width: 1.42 ;&st7;   " d=" M    87.02,    59.06  C    86.50     58.18     85.87     57.55     84.99     57.03  " /><path style="stroke-width: 0.85 ;&st7;   " d=" M    86.40,    45.69  C    86.40     44.91     85.77     44.28     84.99     44.28  " /><path style="stroke-width: 0.85 ;&st7;   " d=" M    84.99,    44.28  C    84.20     44.28     83.57     44.91     83.57     45.69  " /><path style="stroke-width: 0.85 ;&st7;   " d=" M    83.57,    45.69  C    83.57     46.48     84.20     47.11     84.99     47.11  " /><path style="stroke-width: 0.85 ;&st7;   " d=" M    84.99,    47.11  C    85.77     47.11     86.40     46.48     86.40     45.69  " /><path style="stroke-width: 0.85 ;&st7;   " d=" M    86.40,    68.36  C    86.40     67.57     85.77     66.94     84.99     66.94  " /><path style="stroke-width: 0.85 ;&st7;   " d=" M    84.99,    66.94  C    84.20     66.94     83.57     67.57     83.57     68.36  " /><path style="stroke-width: 0.85 ;&st7;   " d=" M    83.57,    68.36  C    83.57     69.14     84.20     69.77     84.99     69.77  " /><path style="stroke-width: 0.85 ;&st7;   " d=" M    84.99,    69.77  C    85.77     69.77     86.40     69.14     86.40     68.36  " /><path style="stroke-width: 1.42 ;&st7;   " d=" M    82.86,    95.27  C    80.51     95.27     78.61     97.17     78.61     99.52  " /><path style="stroke-width: 1.42 ;&st7;   " d=" M    78.61,    99.52  C    78.61    101.87     80.51    103.77     82.86    103.77  " /><path style="stroke-width: 1.42 ;&st7;   " d=" M    87.11,   103.77  C    89.46    103.77     91.36    101.87     91.36     99.52  " /><path style="stroke-width: 1.42 ;&st7;   " d=" M    91.36,    99.52  C    91.36     97.17     89.46     95.27     87.11     95.27  " /><path style="stroke-width: 0.28 ;&st9;  " d=" M    84.99,    90.37  L    82.15,    87.54  L    82.15,    91.79  L    84.99,    94.62  L    87.82,    91.79  L    87.82,    87.54  L    84.99,    90.37  " /><path style="stroke-width: 1.42 ;&st7;  " d=" M    72.24,    35.78  L    72.24,    78.27  L    97.73,    78.27  L    97.73,    35.78  L    72.24,    35.78  " /><text style="&st18;" transform="matrix(&st16;  101.41  53.34 )">15A <tspan x="0 " dy="6.0">P/OUTLET </tspan><tspan x="0 " dy="6.0">NO.1</tspan></text><text style="&st18;" transform="matrix(&st16;  81.98  101.49 )">2J</text><text style="&st18;" transform="matrix(&st16;  74.48  101.49 )">2</text><text style="&st18;" transform="matrix(&st16;  78.8  86.47 )">2</text><text style="&st18;" transform="matrix(&st16;  76.48  32.08 )">(ACC)</text></g><g ewd:figtype="gp" ewd:figID="5" ewd:code="GA"><path style="stroke-width: 0.85 ;&st7;  " d=" M    84.99,   697.25  L    84.99,   701.50  " /><path style="stroke-width: 0.85 ;&st7;  " d=" M    76.49,   701.50  L    93.48,   701.50  " /><path style="stroke-width: 0.85 ;&st7;  " d=" M    80.74,   704.33  L    89.24,   704.33  " /><path style="stroke-width: 0.85 ;&st7;  " d=" M    82.15,   707.17  L    87.82,   707.17  " /><path style="stroke-width: 0.85 ;&st7;  " d=" M    83.57,   710.00  L    86.40,   710.00  " /></g><g ewd:figtype="gp" ewd:figID="6" ewd:code="GE"><path style="stroke-width: 0.85 ;&st7;  " d=" M   127.48,   697.25  L   127.48,   701.50  " /><path style="stroke-width: 0.85 ;&st7;  " d=" M   118.98,   701.50  L   135.98,   701.50  " /><path style="stroke-width: 0.85 ;&st7;  " d=" M   123.23,   704.33  L   131.73,   704.33  " /><path style="stroke-width: 0.85 ;&st7;  " d=" M   124.65,   707.17  L   130.31,   707.17  " /><path style="stroke-width: 0.85 ;&st7;  " d=" M   126.06,   710.00  L   128.90,   710.00  " /></g><g ewd:figtype="gp" ewd:figID="7" ewd:code="GB"><path style="stroke-width: 0.85 ;&st7;  " d=" M   178.47,   697.25  L   178.47,   701.50  " /><path style="stroke-width: 0.85 ;&st7;  " d=" M   169.97,   701.50  L   186.97,   701.50  " /><path style="stroke-width: 0.85 ;&st7;  " d=" M   174.22,   704.33  L   182.72,   704.33  " /><path style="stroke-width: 0.85 ;&st7;  " d=" M   175.64,   707.17  L   181.30,   707.17  " /><path style="stroke-width: 0.85 ;&st7;  " d=" M   177.05,   710.00  L   179.89,   710.00  " /></g><g ewd:figtype="gp" ewd:figID="8" ewd:code="GD"><path style="stroke-width: 0.85 ;&st7;  " d=" M   220.96,   697.25  L   220.96,   701.50  " /><path style="stroke-width: 0.85 ;&st7;  " d=" M   212.46,   701.50  L   229.46,   701.50  " /><path style="stroke-width: 0.85 ;&st7;  " d=" M   216.71,   704.33  L   225.21,   704.33  " /><path style="stroke-width: 0.85 ;&st7;  " d=" M   218.13,   707.17  L   223.80,   707.17  " /><path style="stroke-width: 0.85 ;&st7;  " d=" M   219.55,   710.00  L   222.38,   710.00  " /></g><g ewd:code="1" ewd:figID="10" ewd:comment="" ewd:figtype="comment"><text style="&st18;" transform="matrix(&st16;  277.05  88.74 )" ewd:textID="1">* 1 :w/ No. 2 Power Outlet Socket Assembly</text></g></svg>