﻿<?xml version="1.0" encoding="utf-8"?>
<!DOCTYPE svg PUBLIC "-//W3C//DTD SVG 1.0//EN" "http://www.w3.org/TR/2001/REC-SVG-20010904/DTD/svg10.dtd"[
	<!ENTITY ns_flows "http://ns.adobe.com/Flows/1.0/">
	<!ENTITY ns_svg "http://www.w3.org/2000/svg">
	<!ENTITY ns_xlink "http://www.w3.org/1999/xlink">
	<!ENTITY st0 "font-size:7px;font-family:'MS-PGothic';adobe-font-script:japanese;">
	<!ENTITY st1 "font-size:6px;font-family:'ArialMT';">
	<!-- White fill  -->
	<!ENTITY st2 "fill:#FFFFFF;stroke:#000000; stroke-width:1.41;stroke-linecap:round;stroke-linejoin:round;">
	<!-- Yellow fill  -->
	<!ENTITY st3 "fill:#FFFFCC;stroke:#FFFFCC; stroke-width:0.1;stroke-linecap:round;stroke-linejoin:round;">
	<!-- Gray fill  -->
	<!ENTITY st4 "fill:#CCCCCC;stroke:#CCCCCC; stroke-width:0.1;stroke-linecap:round;stroke-linejoin:round;">
	<!-- Light-blue fill -->
	<!ENTITY st5 "fill:#CCECF4;stroke:#000000; stroke-width:1.133;stroke-linecap:round;stroke-linejoin:round;">
	<!ENTITY st6 "fill:none;stroke-linecap:butt; stroke-linejoin:round;">
	<!ENTITY st7 "fill:none;stroke:#000000;stroke-linecap:round;stroke-linejoin:round;">
	<!ENTITY st8 "enable-background:new    ;">
	<!-- Black fill -->
	<!ENTITY st9 "fill:#000000;stroke:#000000; stroke-linecap:round;stroke-linejoin:round;">
	<!-- SRS note   -->
	<!ENTITY st10 "font-size:9px;font-family:'ArialMT';">
	<!ENTITY st11 "font-size:9px;font-family:'Svg Symbol';">
	<!ENTITY st12 "font-size:6px;font-family:'Svg Symbol';">
	<!ENTITY st13 "fill:none;stroke:#ff0000;stroke-linecap:round;stroke-linejoin:round;">
	<!-- Yellow fill  -->
	<!ENTITY st14 "fill:#FFFF00;stroke:#FFFF00; stroke-width:0.1;stroke-linecap:round;stroke-linejoin:round;">
	<!ENTITY st15 "font-size:6px;font-family:'MS-PGothic';adobe-font-script:japanese;">
	<!ENTITY st16 "1.00 0.00 0.00 1.00">
	<!ENTITY st17 "0.00 -1.00 1.00 0.00">
	<!ENTITY st18 "font-size:6px;font-family:'Arial';">
	<!ENTITY st19 "font-size:9px;font-family:'Arial';">
	<!ENTITY st20 "font-size:6px;font-family:'MS-PGothic','MS PGothic';adobe-font-script:japanese;">
	<!ENTITY st21 "font-size:7px;font-family:'MS-PGothic','MS PGothic';adobe-font-script:japanese;">
	<!ATTLIST svg
		xmlns:ewd CDATA #FIXED "http://shcl.co.jp/ewd"
		xmlns:a CDATA #FIXED "http://ns.adobe.com/AdobeSVGViewerExtensions/3.0/"
		ewd:ver CDATA #IMPLIED
	>
	<!ATTLIST a
		ewd:lineID CDATA #IMPLIED
		ewd:groupID CDATA #IMPLIED
		ewd:figtype CDATA #IMPLIED
		ewd:code CDATA #IMPLIED
		ewd:figID CDATA #IMPLIED
		ewd:pinNo CDATA #IMPLIED
		ewd:comment CDATA #IMPLIED >
	<!ATTLIST g
		ewd:lineID CDATA #IMPLIED
		ewd:groupID CDATA #IMPLIED
		ewd:figtype CDATA #IMPLIED
		ewd:code CDATA #IMPLIED
		ewd:figID CDATA #IMPLIED
		ewd:pinNo CDATA #IMPLIED
		ewd:comment CDATA #IMPLIED >
	<!ATTLIST text
		ewd:textID CDATA #IMPLIED >
	<!ATTLIST title
		ewd:textID CDATA #IMPLIED >
]>
<!-- Generator: Shintec Hozumi YS   -->
<svg onload="call_execInitLoadProc_svg('system')" style="overflow:visible;  enable-background:new 0 0 683.259 710.000" viewBox="0 0 683.259 710.000" height="710.000" width="683.259" xml:space="preserve" ewd:ver="2.1.2.9" xmlns="&ns_svg;" xmlns:a="http://ns.adobe.com/AdobeSVGViewerExtensions/3.0/" xmlns:ewd="http://shcl.co.jp/ewd" xmlns:xlink="&ns_xlink;"><script type="text/javascript" xlink:href="../../../../../system/js/ewd/fig/svgfig.js" xmlns:xlink="http://www.w3.org/1999/xlink" />
<g id="ewd_top"><a ewd:figtype="conn" style="cursor:pointer;" ewd:code="T4" ewd:figID="1"><path style="fill:#CCECF4;stroke:#000000; stroke-width:1.133; stroke-linecap:round;stroke-linejoin:round; " d=" M    59.49,   290.74  L    59.49,   426.71  L   662.89,   426.71  L   662.89,   290.74  L    59.49,   290.74 " /><title ewd:textID="8">Front Power Seat Switch LH</title></a><a ewd:figtype="conn" style="cursor:pointer;" ewd:code="T6" ewd:figID="2"><path style="fill:#CCECF4;stroke:#000000; stroke-width:1.133; stroke-linecap:round;stroke-linejoin:round; " d=" M    67.99,   520.20  L    84.99,   520.20  L    84.99,   537.20  L    67.99,   537.20  L    67.99,   520.20 " /><title ewd:textID="12">No. 52 Junction Connector</title></a><a ewd:figtype="conn" style="cursor:pointer;" ewd:code="T2" ewd:figID="3"><path style="fill:#CCECF4;stroke:#000000; stroke-width:1.133; stroke-linecap:round;stroke-linejoin:round; " d=" M   573.65,   572.33  L   573.65,   572.33  L   573.65,   568.36  L   582.15,   568.36  L   582.16,   572.33  C   583.51    573.11    584.48    574.08    585.26    575.44  L   585.26,   575.44  C   587.61    579.50    586.22    584.70    582.16    587.05  L   582.15,   587.05  L   582.15,   591.02  L   573.65,   591.02  L   573.66,   587.05  C   572.30    586.27    571.33    585.29    570.54    583.93  L   570.54,   583.93  C   568.20    579.87    569.59    574.67    573.66    572.33 " /><title ewd:textID="9">Front Power Seat Tilt Position Motor LH (Front Seat Adjuster Assembly LH)</title></a><a ewd:figtype="conn" style="cursor:pointer;" ewd:code="T1" ewd:figID="4"><path style="fill:#CCECF4;stroke:#000000; stroke-width:1.133; stroke-linecap:round;stroke-linejoin:round; " d=" M   403.68,   572.33  L   403.68,   572.33  L   403.68,   568.36  L   412.18,   568.36  L   412.18,   572.33  C   413.54    573.11    414.51    574.08    415.29    575.44  L   415.29,   575.44  C   417.64    579.50    416.25    584.70    412.18    587.05  L   412.18,   587.05  L   412.18,   591.02  L   403.68,   591.02  L   403.69,   587.05  C   402.33    586.27    401.35    585.29    400.57    583.93  L   400.57,   583.93  C   398.23    579.87    399.62    574.67    403.69    572.33 " /><title ewd:textID="7">Front Power Seat Slide Position Motor LH (Front Seat Adjuster Assembly LH)</title></a><a ewd:figtype="conn" style="cursor:pointer;" ewd:code="T3" ewd:figID="5"><path style="fill:#CCECF4;stroke:#000000; stroke-width:1.133; stroke-linecap:round;stroke-linejoin:round; " d=" M   276.20,   572.33  L   276.20,   572.33  L   276.20,   568.36  L   284.70,   568.36  L   284.71,   572.33  C   286.06    573.11    287.03    574.08    287.81    575.44  L   287.81,   575.44  C   290.16    579.50    288.77    584.70    284.71    587.05  L   284.70,   587.05  L   284.70,   591.02  L   276.20,   591.02  L   276.21,   587.05  C   274.85    586.27    273.88    585.29    273.09    583.93  L   273.09,   583.93  C   270.75    579.87    272.14    574.67    276.21    572.33 " /><title ewd:textID="5">Front Power Seat Lift Position Motor LH (Front Seat Adjuster Assembly LH)</title></a><a ewd:figtype="conn" style="cursor:pointer;" ewd:code="V1" ewd:figID="6"><path style="fill:#CCECF4;stroke:#000000; stroke-width:1.133; stroke-linecap:round;stroke-linejoin:round; " d=" M   148.73,   572.33  L   148.73,   572.33  L   148.73,   568.36  L   157.22,   568.36  L   157.23,   572.33  C   158.58    573.11    159.55    574.08    160.33    575.44  L   160.33,   575.44  C   162.68    579.50    161.29    584.70    157.23    587.05  L   157.22,   587.05  L   157.22,   591.02  L   148.73,   591.02  L   148.73,   587.05  C   147.37    586.27    146.40    585.29    145.61    583.93  L   145.61,   583.93  C   143.27    579.87    144.66    574.67    148.73    572.33 " /><title ewd:textID="6">Front Power Seat Reclining Position Motor LH (Front Seat Back Frame Sub-Assembly LH)</title></a><a ewd:figtype="rb" style="cursor:pointer;" ewd:code="FUSE30" ewd:figID="7"><path style="fill:#CCECF4;stroke:#000000; stroke-width:0; stroke-linecap:round;stroke-linejoin:round; " d=" M   131.73,    35.78  L   131.73,    78.27  L   157.22,    78.27  L   157.22,    35.78  L   131.73,    35.78 " /></a><a ewd:figtype="fuse" style="cursor:pointer;" ewd:code="FUSE30" ewd:figID="15"><path style="&st7; stroke-width:0;" d=" M   131.73,    35.78  L   131.73,    78.27  L   157.22,    78.27  L   157.22,    35.78  L   131.73,    35.78 " /></a><a style="cursor:pointer;" ewd:lineID="1"><path style="stroke:#000000;stroke-width: 5.10 ;&st6;" d=" M    76.49,   630.68  L    76.49,   681.67  " /><path style="stroke:#FFFFFF;stroke-width: 4.53 ;&st6;" d=" M    76.49,   630.68  L    76.49,   681.67  " /><path style="stroke:#000000;stroke-width: 1.13 ;&st6;" d=" M    76.49,   630.68  L    76.49,   681.67  " /></a><a ewd:comment="1" style="cursor:pointer;" ewd:lineID="2"><path style="stroke:#000000;stroke-width: 5.10 ;&st6;" d=" M    76.49,   537.20  L    76.49,   615.95  " /><path style="stroke:#FFFFFF;stroke-width: 4.53 ;&st6;" d=" M    76.49,   537.20  L    76.49,   615.95  " /><path style="stroke:#000000;stroke-width: 1.13 ;&st6;" d=" M    76.49,   537.20  L    76.49,   615.95  " /></a><a ewd:comment="2" style="cursor:pointer;" ewd:lineID="3"><path style="stroke:#000000;stroke-width: 5.10 ;&st6;" d=" M    76.49,   426.71  L    76.49,   435.21  L    84.99,   443.71  L   110.48,   443.71  L   110.48,   605.18  L    84.99,   605.18  L    76.49,   613.68  L    76.49,   615.95  " /><path style="stroke:#FFFFFF;stroke-width: 4.53 ;&st6;" d=" M    76.49,   426.71  L    76.49,   435.21  L    84.99,   443.71  L   110.48,   443.71  L   110.48,   605.18  L    84.99,   605.18  L    76.49,   613.68  L    76.49,   615.95  " /><path style="stroke:#000000;stroke-width: 1.13 ;&st6;" d=" M    76.49,   426.71  L    76.49,   435.21  L    84.99,   443.71  L   110.48,   443.71  L   110.48,   605.18  L    84.99,   605.18  L    76.49,   613.68  L    76.49,   615.95  " /></a><a ewd:comment="1" style="cursor:pointer;" ewd:lineID="4"><path style="stroke:#000000;stroke-width: 5.10 ;&st6;" d=" M    76.49,   426.71  L    76.49,   520.20  " /><path style="stroke:#FFFFFF;stroke-width: 4.53 ;&st6;" d=" M    76.49,   426.71  L    76.49,   520.20  " /><path style="stroke:#000000;stroke-width: 1.13 ;&st6;" d=" M    76.49,   426.71  L    76.49,   520.20  " /></a><a style="cursor:pointer;" ewd:lineID="5"> d=" M   144.48,   237.76  L   144.48,   290.74 
	
		<path style="stroke:#000000;stroke-width: 5.10 ;&st6;" d=" M   144.48,   237.76  L   144.48,   290.74  " /><path style="stroke:#FFFFFF;stroke-width: 4.53 ;&st6;" d=" M   144.48,   237.76  L   144.48,   290.74  " /></a><a style="cursor:pointer;" ewd:lineID="6"><path style="stroke:#00A0C6;stroke-width: 5.10 ;&st6;" d=" M   144.48,   186.49  L   144.48,   222.75  " /></a><a style="cursor:pointer;" ewd:lineID="7"><path style="stroke:#008837;stroke-width: 5.10 ;&st6;" d=" M   144.48,   103.77  L   144.48,   171.76  " /></a><a style="cursor:pointer;" ewd:lineID="8"><path style="stroke:#F668B2;stroke-width: 5.10 ;&st6;" d=" M   152.97,   591.02  L   152.97,   630.68  L   212.46,   630.68  L   212.46,   520.20  " /></a><a style="cursor:pointer;" ewd:lineID="9"><path style="stroke:#7FC97F;stroke-width: 5.10 ;&st6;" d=" M   152.97,   520.20  L   152.97,   568.36  " /></a><a style="cursor:pointer;" ewd:lineID="10"><path style="stroke:#7FC97F;stroke-width: 5.10 ;&st6;" d=" M   152.97,   426.71  L   152.97,   505.47  " /></a><a style="cursor:pointer;" ewd:lineID="11"><path style="stroke:#F668B2;stroke-width: 5.10 ;&st6;" d=" M   212.46,   426.71  L   212.46,   505.47  " /></a><a style="cursor:pointer;" ewd:lineID="12"><path style="stroke:#56077D;stroke-width: 5.10 ;&st6;" d=" M   280.45,   591.02  L   280.45,   630.68  L   331.44,   630.68  L   331.44,   426.71  " /></a><a style="cursor:pointer;" ewd:lineID="13"><path style="stroke:#008837;stroke-width: 5.10 ;&st6;" d=" M   280.45,   426.71  L   280.45,   568.36  " /></a><a style="cursor:pointer;" ewd:lineID="14"><path style="stroke:#00A0C6;stroke-width: 5.10 ;&st6;" d=" M   407.93,   591.02  L   407.93,   630.68  L   458.92,   630.68  L   458.92,   426.71  " /></a><a style="cursor:pointer;" ewd:lineID="15"><path style="stroke:#999999;stroke-width: 5.10 ;&st6;" d=" M   407.93,   426.71  L   407.93,   568.36  " /></a><a style="cursor:pointer;" ewd:lineID="16"><path style="stroke:#FF0000;stroke-width: 5.10 ;&st6;" d=" M   577.90,   426.71  L   577.90,   568.36  " /></a><a style="cursor:pointer;" ewd:lineID="17"><path style="stroke:#000000;stroke-width: 5.10 ;&st6;" d=" M   628.89,   426.71  L   628.89,   630.68  L   577.90,   630.68  L   577.90,   591.02  " /></a><a ewd:figtype="w2w" style="cursor:pointer;" ewd:pinNo="5" ewd:code="NT1" ewd:figID="9"><path style="&st2;" d=" M    84.99,   622.18  L    67.99,   622.18  L    67.99,   630.68  L    84.99,   630.68  L    84.99,   622.18 " /><text style="&st8;" transform="matrix(&st16;  71.11  628.55 )"><tspan x="0" style="&st18;" y="0">NT1</tspan></text></a><a ewd:figtype="w2w" style="cursor:pointer;" ewd:pinNo="1" ewd:code="NT1" ewd:figID="10"><path style="&st2;" d=" M   152.97,   222.75  L   135.98,   222.75  L   135.98,   231.25  L   152.97,   231.25  L   152.97,   222.75 " /><text style="&st8;" transform="matrix(&st16;  139.1  229.12 )"><tspan x="0" style="&st18;" y="0">NT1</tspan></text></a><a ewd:figtype="w2w" style="cursor:pointer;" ewd:pinNo="16" ewd:code="AN1" ewd:figID="11"><path style="&st2;" d=" M   152.97,   171.76  L   135.98,   171.76  L   135.98,   180.26  L   152.97,   180.26  L   152.97,   171.76 " /><text style="&st8;" transform="matrix(&st16;  138.98  178.13 )"><tspan x="0" style="&st18;" y="0">AN1</tspan></text></a><a ewd:figtype="w2w" style="cursor:pointer;" ewd:pinNo="3" ewd:code="VT1" ewd:figID="12"><path style="&st2;" d=" M   161.47,   511.70  L   144.48,   511.70  L   144.48,   520.20  L   161.47,   520.20  L   161.47,   511.70 " /><text style="&st8;" transform="matrix(&st16;  147.59  518.07 )"><tspan x="0" style="&st18;" y="0">VT1</tspan></text></a><a ewd:figtype="w2w" style="cursor:pointer;" ewd:pinNo="2" ewd:code="VT1" ewd:figID="13"><path style="&st2;" d=" M   220.96,   511.70  L   203.97,   511.70  L   203.97,   520.20  L   220.96,   520.20  L   220.96,   511.70 " /><text style="&st8;" transform="matrix(&st16;  207.08  518.07 )"><tspan x="0" style="&st18;" y="0">VT1</tspan></text></a><a ewd:figtype="gp" style="cursor:pointer;" ewd:code="NA" ewd:figID="14"><path style="&st2;" d=" M    65.86,   681.67  L    87.11,   681.67  L    76.49,   697.25  L    65.86,   681.67 " /><text style="&st8;" transform="matrix(&st16;  72.5  689.46 )"><tspan x="0" style="&st18;" y="0">NA</tspan></text></a></g></svg>