﻿<?xml version="1.0" encoding="utf-8"?>
<!DOCTYPE svg PUBLIC "-//W3C//DTD SVG 1.0//EN" "http://www.w3.org/TR/2001/REC-SVG-20010904/DTD/svg10.dtd"[
	<!ENTITY ns_flows "http://ns.adobe.com/Flows/1.0/">
	<!ENTITY ns_svg "http://www.w3.org/2000/svg">
	<!ENTITY ns_xlink "http://www.w3.org/1999/xlink">
	<!ENTITY st0 "font-size:7px;font-family:'MS-PGothic';adobe-font-script:japanese;">
	<!ENTITY st1 "font-size:6px;font-family:'ArialMT';">
	<!-- White fill  -->
	<!ENTITY st2 "fill:#FFFFFF;stroke:#000000; stroke-width:1.41;stroke-linecap:round;stroke-linejoin:round;">
	<!-- Yellow fill  -->
	<!ENTITY st3 "fill:#FFFFCC;stroke:#FFFFCC; stroke-width:0.1;stroke-linecap:round;stroke-linejoin:round;">
	<!-- Gray fill  -->
	<!ENTITY st4 "fill:#CCCCCC;stroke:#CCCCCC; stroke-width:0.1;stroke-linecap:round;stroke-linejoin:round;">
	<!-- Light-blue fill -->
	<!ENTITY st5 "fill:#CCECF4;stroke:#000000; stroke-width:1.133;stroke-linecap:round;stroke-linejoin:round;">
	<!ENTITY st6 "fill:none;stroke-linecap:butt; stroke-linejoin:round;">
	<!ENTITY st7 "fill:none;stroke:#000000;stroke-linecap:round;stroke-linejoin:round;">
	<!ENTITY st8 "enable-background:new    ;">
	<!-- Black fill -->
	<!ENTITY st9 "fill:#000000;stroke:#000000; stroke-linecap:round;stroke-linejoin:round;">
	<!-- SRS note   -->
	<!ENTITY st10 "font-size:9px;font-family:'ArialMT';">
	<!ENTITY st11 "font-size:9px;font-family:'Svg Symbol';">
	<!ENTITY st12 "font-size:6px;font-family:'Svg Symbol';">
	<!ENTITY st13 "fill:none;stroke:#ff0000;stroke-linecap:round;stroke-linejoin:round;">
	<!-- Yellow fill  -->
	<!ENTITY st14 "fill:#FFFF00;stroke:#FFFF00; stroke-width:0.1;stroke-linecap:round;stroke-linejoin:round;">
	<!ENTITY st15 "font-size:6px;font-family:'MS-PGothic';adobe-font-script:japanese;">
	<!ENTITY st16 "1.00 0.00 0.00 1.00">
	<!ENTITY st17 "0.00 -1.00 1.00 0.00">
	<!ENTITY st18 "font-size:6px;font-family:'Arial';">
	<!ENTITY st19 "font-size:9px;font-family:'Arial';">
	<!ENTITY st20 "font-size:6px;font-family:'MS-PGothic','MS PGothic';adobe-font-script:japanese;">
	<!ENTITY st21 "font-size:7px;font-family:'MS-PGothic','MS PGothic';adobe-font-script:japanese;">
	<!ATTLIST svg
		xmlns:ewd CDATA #FIXED "http://shcl.co.jp/ewd"
		xmlns:a CDATA #FIXED "http://ns.adobe.com/AdobeSVGViewerExtensions/3.0/"
		ewd:ver CDATA #IMPLIED
	>
	<!ATTLIST a
		ewd:lineID CDATA #IMPLIED
		ewd:groupID CDATA #IMPLIED
		ewd:figtype CDATA #IMPLIED
		ewd:code CDATA #IMPLIED
		ewd:figID CDATA #IMPLIED
		ewd:pinNo CDATA #IMPLIED
		ewd:comment CDATA #IMPLIED >
	<!ATTLIST g
		ewd:lineID CDATA #IMPLIED
		ewd:groupID CDATA #IMPLIED
		ewd:figtype CDATA #IMPLIED
		ewd:code CDATA #IMPLIED
		ewd:figID CDATA #IMPLIED
		ewd:pinNo CDATA #IMPLIED
		ewd:comment CDATA #IMPLIED >
	<!ATTLIST text
		ewd:textID CDATA #IMPLIED >
	<!ATTLIST title
		ewd:textID CDATA #IMPLIED >
]>
<!-- Generator: Shintec Hozumi YS   -->
<svg onload="call_execInitLoadProc_svg('system')" style="overflow:visible;  enable-background:new 0 0 1543.005 710.000" viewBox="0 0 1543.005 710.000" height="710.000" width="1543.005" xml:space="preserve" ewd:ver="2.1.2.9" xmlns="&ns_svg;" xmlns:a="http://ns.adobe.com/AdobeSVGViewerExtensions/3.0/" xmlns:ewd="http://shcl.co.jp/ewd" xmlns:xlink="&ns_xlink;">
<text style="&st18;" transform="matrix(&st17;  262.59  397.43 )">(*7)</text><text style="&st18;" transform="matrix(&st17;  251.26  394.29 )">L</text><text style="&st18;" transform="matrix(&st17;  313.59  398.98 )">(*20)</text><text style="&st18;" transform="matrix(&st17;  302.25  394.29 )">L</text><text style="&st18;" transform="matrix(&st17;  336.25  398.67 )">W-B</text><text style="&st18;" transform="matrix(&st17;  41.63  643.89 )">(*9)</text><text style="&st18;" transform="matrix(&st17;  174.77  640.87 )">B</text><text style="&st18;" transform="matrix(&st17;  123.78  640.87 )">B</text><text style="&st18;" transform="matrix(&st16;  278.26  346.53 )">B</text><text style="&st18;" transform="matrix(&st16;  275.24  357.86 )">(*8)</text><text style="&st18;" transform="matrix(&st17;  30.3  640.87 )">B</text><text style="&st18;" transform="matrix(&st16;  159.28  457.01 )">B</text><text style="&st18;" transform="matrix(&st16;  65.8  457.01 )">B</text><text style="&st18;" transform="matrix(&st16;  62.78  468.34 )">(*9)</text><text style="&st18;" transform="matrix(&st17;  251.26  283.81 )">L</text><text style="&st18;" transform="matrix(&st17;  276.76  288.19 )">W-B</text><text style="&st18;" transform="matrix(&st17;  251.26  131.73 )">W</text><path style="stroke-width: 1.42 ;&st7;  " d=" M   348.44,   295.71  L   343.47,   290.74  " /><path style="stroke-width: 1.42 ;&st7;  " d=" M   331.44,   302.77  L   336.41,   307.73  " /><path style="stroke-width: 1.42 ;&st7;  " d=" M   343.47,   307.73  L   348.44,   302.77  " /><path style="stroke-width: 1.42 ;&st7;  " d=" M   336.41,   290.74  L   331.44,   295.71  " /><path style="stroke-width: 1.42 ;&st7;  " d=" M   314.45,   346.70  L   309.48,   341.73  " /><path style="stroke-width: 1.42 ;&st7;  " d=" M   297.45,   353.76  L   302.42,   358.73  " /><path style="stroke-width: 1.42 ;&st7;  " d=" M   309.48,   358.73  L   314.45,   353.76  " /><path style="stroke-width: 1.42 ;&st7;  " d=" M   302.42,   341.73  L   297.45,   346.70  " /><path style="stroke-width: 1.42 ;&st7;  " d=" M   246.46,   324.73  L   254.96,   324.73  " /><text style="&st18;" transform="matrix(&st17;  217.27  394.41 )">B</text><text style="&st18;" transform="matrix(&st17;  228.6  398.98 )">(*15)</text><path style="stroke-width: 1.42 ;&st7;  " d=" M   441.93,   341.73  L   450.42,   341.73  " /><path style="stroke-width: 1.42 ;&st7;  " d=" M   446.89,   392.72  L   441.93,   397.69  " /><path style="stroke-width: 1.42 ;&st7;  " d=" M   453.95,   409.72  L   458.92,   404.75  " /><path style="stroke-width: 1.42 ;&st7;  " d=" M   441.93,   404.75  L   446.89,   409.72  " /><path style="stroke-width: 1.42 ;&st7;  " d=" M   458.92,   397.69  L   453.95,   392.72  " /><text style="&st18;" transform="matrix(&st16;  154.71  493.84 )">(*16)</text><text style="&st18;" transform="matrix(&st16;  159.28  482.51 )">B</text><text style="&st18;" transform="matrix(&st17;  381.57  551.96 )">(*16)</text><text style="&st18;" transform="matrix(&st17;  370.24  547.38 )">B</text><text style="&st18;" transform="matrix(&st17;  381.57  432.98 )">(*19)</text><text style="&st18;" transform="matrix(&st17;  370.24  428.29 )">L</text><text style="&st18;" transform="matrix(&st17;  415.57  432.98 )">(*16)</text><text style="&st18;" transform="matrix(&st17;  404.24  428.33 )">R</text><text style="&st18;" transform="matrix(&st17;  458.06  432.98 )">(*16)</text><text style="&st18;" transform="matrix(&st17;  446.73  428.33 )">R</text><text style="&st18;" transform="matrix(&st17;  458.06  381.99 )">(*16)</text><text style="&st18;" transform="matrix(&st17;  446.73  377.33 )">R</text><text style="&st18;" transform="matrix(&st17;  458.06  322.5 )">(*16)</text><text style="&st18;" transform="matrix(&st17;  458.06  152.53 )">(*16)</text><text style="&st18;" transform="matrix(&st17;  446.73  149.5 )">SB</text><text style="&st18;" transform="matrix(&st17;  446.73  317.84 )">R</text><text style="&st18;" transform="matrix(&st16;  392.98  295.54 )">W-B</text><text style="&st18;" transform="matrix(&st16;  392.67  306.87 )">(*16)</text><text style="&st18;" transform="matrix(&st16;  490.85  117.07 )">L</text><text style="&st18;" transform="matrix(&st16;  486.15  162.39 )">(*16)</text><text style="&st18;" transform="matrix(&st16;  488.6  151.06 )">GR</text><text style="&st18;" transform="matrix(&st16;  154.71  468.34 )">(*17)</text><g ewd:figtype="rb" ewd:figID="1" ewd:code="FUSE34"><path style="stroke-width: 1.42 ;&st7;  " d=" M   452.55,    95.27  L   448.30,    95.27  " /><path style="stroke-width: 1.42 ;&st7;  " d=" M   452.55,   103.77  L   448.30,   103.77  " /><path style="stroke-width: 0.85 ;&st7;  " d=" M   450.42,    78.27  L   450.42,    95.27  " /><path style="stroke-width: 1.42 ;&st7;   " d=" M   448.30,    95.27  C   445.95     95.27    444.05     97.17    444.05     99.52  " /><path style="stroke-width: 1.42 ;&st7;   " d=" M   444.05,    99.52  C   444.05    101.87    445.95    103.77    448.30    103.77  " /><path style="stroke-width: 1.42 ;&st7;   " d=" M   452.55,   103.77  C   454.90    103.77    456.80    101.87    456.80     99.52  " /><path style="stroke-width: 1.42 ;&st7;   " d=" M   456.80,    99.52  C   456.80     97.17    454.90     95.27    452.55     95.27  " /><path style="stroke-width: 0.28 ;&st9;  " d=" M   450.42,    90.37  L   447.59,    87.54  L   447.59,    91.79  L   450.42,    94.62  L   453.26,    91.79  L   453.26,    87.54  L   450.42,    90.37  " /><text style="&st18;" transform="matrix(&st16;  466.85  56.17 )">30A <tspan x="0 " dy="6.0">ST NO.2</tspan></text><text style="&st18;" transform="matrix(&st16;  444.24  86.47 )">2</text><text style="&st18;" transform="matrix(&st16;  442.38  32.08 )">(BAT)</text><text style="&st18;" transform="matrix(&st16;  448.62  101.49 )">1</text><path style="stroke-width: 0.85 ;&st7;  " d=" M   450.42,    69.77  L   450.42,    78.27  " /><path style="stroke-width: 1.42 ;&st7;   " d=" M   450.42,    47.11  C   447.69     48.72    446.77     52.25    448.39     54.99  " /><path style="stroke-width: 1.42 ;&st7;   " d=" M   448.39,    54.99  C   448.91     55.87    449.54     56.51    450.42     57.03  " /><path style="stroke-width: 1.42 ;&st7;   " d=" M   450.42,    66.94  C   453.16     65.33    454.07     61.80    452.46     59.06  " /><path style="stroke-width: 1.42 ;&st7;   " d=" M   452.46,    59.06  C   451.94     58.18    451.31     57.55    450.42     57.03  " /><path style="stroke-width: 0.85 ;&st7;   " d=" M   451.84,    45.69  C   451.84     44.91    451.21     44.28    450.42     44.28  " /><path style="stroke-width: 0.85 ;&st7;   " d=" M   450.42,    44.28  C   449.64     44.28    449.01     44.91    449.01     45.69  " /><path style="stroke-width: 0.85 ;&st7;   " d=" M   449.01,    45.69  C   449.01     46.48    449.64     47.11    450.42     47.11  " /><path style="stroke-width: 0.85 ;&st7;   " d=" M   450.42,    47.11  C   451.21     47.11    451.84     46.48    451.84     45.69  " /><path style="stroke-width: 0.85 ;&st7;   " d=" M   451.84,    68.36  C   451.84     67.57    451.21     66.94    450.42     66.94  " /><path style="stroke-width: 0.85 ;&st7;   " d=" M   450.42,    66.94  C   449.64     66.94    449.01     67.57    449.01     68.36  " /><path style="stroke-width: 0.85 ;&st7;   " d=" M   449.01,    68.36  C   449.01     69.14    449.64     69.77    450.42     69.77  " /><path style="stroke-width: 0.85 ;&st7;   " d=" M   450.42,    69.77  C   451.21     69.77    451.84     69.14    451.84     68.36  " /><path style="stroke-width: 1.42 ;&st7;  " d=" M   437.68,    35.78  L   437.68,    78.27  L   463.17,    78.27  L   463.17,    35.78  L   437.68,    35.78  " /></g><g ewd:figtype="conn" ewd:figID="2" ewd:code="C140,C141,D3"><path style="stroke-width: 1.42 ;&st7;  " d=" M   356.94,   503.20  L   424.93,   503.20  L   424.93,   469.21  L   356.94,   469.21  L   356.94,   503.20  " /><g ewd:lineID="13"><text style="&st18;" transform="matrix(&st16;  365.24  466.64 )">1</text><text style="&st18;" transform="matrix(&st16;  371.75  466.64 )">B</text><path style="stroke-width: 1.42 ;&st7;   " d=" M   378.47,   464.67  C   378.47    462.17    376.44    460.14    373.94    460.14  " /><path style="stroke-width: 1.42 ;&st7;   " d=" M   373.94,   460.14  C   371.43    460.14    369.40    462.17    369.40    464.67  " /><path style="stroke-width: 1.42 ;&st7;   " d=" M   369.40,   464.67  C   369.40    467.18    371.43    469.21    373.94    469.21  " /><path style="stroke-width: 1.42 ;&st7;   " d=" M   373.94,   469.21  C   376.44    469.21    378.47    467.18    378.47    464.67  " /><text style="&st18;" transform="matrix(&st16;  368.76  476.84 )">SL1</text></g><g ewd:lineID="15"><text style="&st18;" transform="matrix(&st16;  365.24  509.7 )">1</text><text style="&st18;" transform="matrix(&st16;  371.52  509.7 )">C</text><path style="stroke-width: 1.42 ;&st7;   " d=" M   378.47,   507.73  C   378.47    505.23    376.44    503.20    373.94    503.20  " /><path style="stroke-width: 1.42 ;&st7;   " d=" M   373.94,   503.20  C   371.43    503.20    369.40    505.23    369.40    507.73  " /><path style="stroke-width: 1.42 ;&st7;   " d=" M   369.40,   507.73  C   369.40    510.24    371.43    512.27    373.94    512.27  " /><path style="stroke-width: 1.42 ;&st7;   " d=" M   373.94,   512.27  C   376.44    512.27    378.47    510.24    378.47    507.73  " /><text style="&st18;" transform="matrix(&st16;  371.75  499.5 )">B</text></g><g ewd:lineID="16"><text style="&st18;" transform="matrix(&st16;  399.24  509.7 )">1</text><path style="stroke-width: 1.42 ;&st7;   " d=" M   412.46,   507.73  C   412.46    505.23    410.44    503.20    407.93    503.20  " /><path style="stroke-width: 1.42 ;&st7;   " d=" M   407.93,   503.20  C   405.43    503.20    403.40    505.23    403.40    507.73  " /><path style="stroke-width: 1.42 ;&st7;   " d=" M   403.40,   507.73  C   403.40    510.24    405.43    512.27    407.93    512.27  " /><path style="stroke-width: 1.42 ;&st7;   " d=" M   407.93,   512.27  C   410.44    512.27    412.46    510.24    412.46    507.73  " /><text style="&st18;" transform="matrix(&st16;  405.63  509.7 )">A</text><text style="&st18;" transform="matrix(&st16;  404.19  499.5 )">ST</text></g><g ewd:lineID="17"><text style="&st18;" transform="matrix(&st16;  399.24  466.64 )">2</text><text style="&st18;" transform="matrix(&st16;  405.74  466.64 )">B</text><path style="stroke-width: 1.42 ;&st7;   " d=" M   412.46,   464.67  C   412.46    462.17    410.44    460.14    407.93    460.14  " /><path style="stroke-width: 1.42 ;&st7;   " d=" M   407.93,   460.14  C   405.43    460.14    403.40    462.17    403.40    464.67  " /><path style="stroke-width: 1.42 ;&st7;   " d=" M   403.40,   464.67  C   403.40    467.18    405.43    469.21    407.93    469.21  " /><path style="stroke-width: 1.42 ;&st7;   " d=" M   407.93,   469.21  C   410.44    469.21    412.46    467.18    412.46    464.67  " /><text style="&st18;" transform="matrix(&st16;  402.76  476.84 )">SL2</text></g><g ewd:figtype="title"><text style="&st18;" transform="matrix(&st17;  432.82  506.1 )">C140(A),C141(B),D3(C)</text><text style="&st18;" transform="matrix(&st17;  439.65  506.11 )" ewd:textID="23">Starter Assembly</text></g></g><g ewd:code="C32,C131,D3" ewd:figID="7" ewd:comment="7,15,8" ewd:figtype="conn"><text style="&st18;" transform="matrix(&st16;  206.55  502.9 )">B</text><text style="&st18;" transform="matrix(&st16;  257.54  502.9 )">ST</text><text style="&st18;" transform="matrix(&st16;  252.23  530.67 )">M</text><path style="stroke-width: 0.85 ;&st7;  " d=" M   279.26,   527.69  L   278.99,   528.16  L   278.89,   528.70  L   278.99,   529.23  L   279.26,   529.70  L   279.67,   530.05  L   280.18,   530.23  L   280.72,   530.23  L   281.23,   530.05  L   281.65,   529.70  L   281.92,   529.23  L   282.01,   528.70  L   281.92,   528.16  L   281.65,   527.69  L   281.23,   527.35  L   280.72,   527.16  L   280.18,   527.16  L   279.67,   527.35  L   279.26,   527.69  L   279.65,   528.41  L   279.65,   528.99  L   280.03,   529.43  L   280.60,   529.53  L   281.10,   529.24  L   281.30,   528.70  L   281.10,   528.15  L   280.60,   527.86  L   280.03,   527.96  L   280.45,   528.70  " /><path style="stroke-width: 0.85 ;&st7;  " d=" M   228.27,   510.70  L   228.00,   511.17  L   227.90,   511.70  L   228.00,   512.23  L   228.27,   512.70  L   228.68,   513.05  L   229.19,   513.24  L   229.73,   513.24  L   230.24,   513.05  L   230.65,   512.70  L   230.93,   512.23  L   231.02,   511.70  L   230.93,   511.17  L   230.65,   510.70  L   230.24,   510.35  L   229.73,   510.16  L   229.19,   510.16  L   228.68,   510.35  L   228.27,   510.70  L   228.66,   511.41  L   228.66,   511.99  L   229.04,   512.44  L   229.61,   512.54  L   230.11,   512.25  L   230.31,   511.70  L   230.11,   511.15  L   229.61,   510.86  L   229.04,   510.96  L   229.46,   511.70  " /><path style="stroke-width: 0.85 ;&st7;  " d=" M   253.76,   510.70  L   253.49,   511.17  L   253.40,   511.70  L   253.49,   512.23  L   253.76,   512.70  L   254.18,   513.05  L   254.69,   513.24  L   255.23,   513.24  L   255.74,   513.05  L   256.15,   512.70  L   256.42,   512.23  L   256.52,   511.70  L   256.42,   511.17  L   256.15,   510.70  L   255.74,   510.35  L   255.23,   510.16  L   254.69,   510.16  L   254.18,   510.35  L   253.76,   510.70  L   254.16,   511.41  L   254.16,   511.99  L   254.53,   512.44  L   255.10,   512.54  L   255.61,   512.25  L   255.81,   511.70  L   255.61,   511.15  L   255.10,   510.86  L   254.53,   510.96  L   254.96,   511.70  " /><path style="stroke-width: 1.42 ;&st7;  " d=" M   262.32,   524.45  L   266.29,   524.45  L   266.29,   532.95  L   262.32,   532.95  " /><path style="stroke-width: 1.42 ;&st7;  " d=" M   247.59,   524.45  L   243.63,   524.45  L   243.63,   532.95  L   247.59,   532.95  " /><path style="stroke-width: 1.42 ;&st7;  " d=" M   288.95,   545.69  L   195.47,   545.69  L   195.47,   494.70  L   288.95,   494.70  L   288.95,   545.69  " /><path style="stroke-width: 0.85 ;&st7;  " d=" M   229.46,   511.70  L   229.46,   528.70  L   243.63,   528.70  " /><path style="stroke-width: 0.85 ;&st7;  " d=" M   219.55,   528.70  L   203.97,   528.70  L   203.97,   494.70  " /><path style="stroke-width: 0.85 ;&st7;   " d=" M   276.20,   511.70  C   276.20    509.74    274.62    508.16    272.66    508.16  " /><path style="stroke-width: 0.85 ;&st7;   " d=" M   272.66,   508.16  C   270.71    508.16    269.12    509.74    269.12    511.70  " /><path style="stroke-width: 0.85 ;&st7;   " d=" M   269.12,   511.70  C   269.12    512.69    269.48    513.54    270.18    514.23  " /><path style="stroke-width: 0.85 ;&st7;   " d=" M   270.18,   514.23  C   271.58    512.86    271.60    510.62    270.24    509.22  " /><path style="stroke-width: 0.85 ;&st7;   " d=" M   270.24,   509.22  C   268.87    507.82    266.62    507.80    265.23    509.17  " /><path style="stroke-width: 0.85 ;&st7;   " d=" M   265.23,   509.17  C   263.83    510.54    263.81    512.78    265.18    514.18  " /><path style="stroke-width: 0.85 ;&st7;   " d=" M   265.18,   514.18  C   265.19    514.20    265.21    514.21    265.23    514.23  " /><path style="stroke-width: 0.85 ;&st7;   " d=" M   265.23,   514.23  C   266.62    512.86    266.65    510.62    265.28    509.22  " /><path style="stroke-width: 0.85 ;&st7;   " d=" M   265.28,   509.22  C   263.91    507.82    261.67    507.80    260.27    509.17  " /><path style="stroke-width: 0.85 ;&st7;   " d=" M   260.27,   509.17  C   259.56    509.86    259.21    510.71    259.21    511.70  " /><path style="stroke-width: 0.85 ;&st7;   " d=" M   250.71,   511.70  C   250.71    509.74    249.12    508.16    247.17    508.16  " /><path style="stroke-width: 0.85 ;&st7;   " d=" M   247.17,   508.16  C   245.21    508.16    243.63    509.74    243.63    511.70  " /><path style="stroke-width: 0.85 ;&st7;   " d=" M   243.63,   511.70  C   243.63    512.69    243.98    513.54    244.69    514.23  " /><path style="stroke-width: 0.85 ;&st7;   " d=" M   244.69,   514.23  C   246.09    512.86    246.11    510.62    244.74    509.22  " /><path style="stroke-width: 0.85 ;&st7;   " d=" M   244.74,   509.22  C   243.37    507.82    241.13    507.80    239.73    509.17  " /><path style="stroke-width: 0.85 ;&st7;   " d=" M   239.73,   509.17  C   238.33    510.54    238.31    512.78    239.68    514.18  " /><path style="stroke-width: 0.85 ;&st7;   " d=" M   239.68,   514.18  C   239.70    514.20    239.71    514.21    239.73    514.23  " /><path style="stroke-width: 0.85 ;&st7;   " d=" M   239.73,   514.23  C   241.13    512.86    241.15    510.62    239.78    509.22  " /><path style="stroke-width: 0.85 ;&st7;   " d=" M   239.78,   509.22  C   238.41    507.82    236.17    507.80    234.77    509.17  " /><path style="stroke-width: 0.85 ;&st7;   " d=" M   234.77,   509.17  C   234.07    509.86    233.71    510.71    233.71    511.70  " /><path style="stroke-width: 1.42 ;&st7;   " d=" M   263.46,   528.70  C   263.46    524.00    259.65    520.20    254.96    520.20  " /><path style="stroke-width: 1.42 ;&st7;   " d=" M   254.96,   520.20  C   250.26    520.20    246.46    524.00    246.46    528.70  " /><path style="stroke-width: 1.42 ;&st7;   " d=" M   246.46,   528.70  C   246.46    533.39    250.26    537.20    254.96    537.20  " /><path style="stroke-width: 1.42 ;&st7;   " d=" M   254.96,   537.20  C   259.65    537.20    263.46    533.39    263.46    528.70  " /><path style="stroke-width: 0.85 ;&st7;   " d=" M   222.38,   511.70  C   222.38    510.92    221.75    510.28    220.96    510.28  " /><path style="stroke-width: 0.85 ;&st7;   " d=" M   220.96,   510.28  C   220.18    510.28    219.55    510.92    219.55    511.70  " /><path style="stroke-width: 0.85 ;&st7;   " d=" M   219.55,   511.70  C   219.55    512.48    220.18    513.12    220.96    513.12  " /><path style="stroke-width: 0.85 ;&st7;   " d=" M   220.96,   513.12  C   221.75    513.12    222.38    512.48    222.38    511.70  " /><path style="stroke-width: 0.85 ;&st7;   " d=" M   222.38,   528.70  C   222.38    527.91    221.75    527.28    220.96    527.28  " /><path style="stroke-width: 0.85 ;&st7;   " d=" M   220.96,   527.28  C   220.18    527.28    219.55    527.91    219.55    528.70  " /><path style="stroke-width: 0.85 ;&st7;   " d=" M   219.55,   528.70  C   219.55    529.48    220.18    530.11    220.96    530.11  " /><path style="stroke-width: 0.85 ;&st7;   " d=" M   220.96,   530.11  C   221.75    530.11    222.38    529.48    222.38    528.70  " /><path style="stroke-width: 0.85 ;&st7;  " d=" M   250.71,   511.70  L   259.21,   511.70  " /><path style="stroke-width: 0.85 ;&st7;  " d=" M   222.38,   511.70  L   233.71,   511.70  " /><path style="stroke-width: 0.85 ;&st7;  " d=" M   266.29,   528.70  L   280.45,   528.70  " /><path style="stroke-width: 0.85 ;&st7;  " d=" M   254.96,   511.70  L   254.96,   494.70  " /><path style="stroke-width: 1.42 ;&st7;  " d=" M   220.96,   527.28  L   216.71,   510.28  " /><text style="&st18;" transform="matrix(&st16;  246.26  483.07 )">1</text><text style="&st18;" transform="matrix(&st16;  246.26  492.14 )">1</text><text style="&st18;" transform="matrix(&st16;  252.54  492.14 )">C</text><path style="stroke-width: 1.42 ;&st7;   " d=" M   259.49,   490.17  C   259.49    487.67    257.46    485.64    254.96    485.64  " /><path style="stroke-width: 1.42 ;&st7;   " d=" M   254.96,   485.64  C   252.45    485.64    250.42    487.67    250.42    490.17  " /><path style="stroke-width: 1.42 ;&st7;   " d=" M   250.42,   490.17  C   250.42    492.67    252.45    494.70    254.96    494.70  " /><path style="stroke-width: 1.42 ;&st7;   " d=" M   254.96,   494.70  C   257.46    494.70    259.49    492.67    259.49    490.17  " /><text style="&st18;" transform="matrix(&st16;  252.65  483.07 )">A</text><path style="stroke-width: 1.42 ;&st7;   " d=" M   259.49,   481.10  C   259.49    478.60    257.46    476.57    254.96    476.57  " /><path style="stroke-width: 1.42 ;&st7;   " d=" M   254.96,   476.57  C   252.45    476.57    250.42    478.60    250.42    481.10  " /><path style="stroke-width: 1.42 ;&st7;   " d=" M   250.42,   481.10  C   250.42    483.61    252.45    485.64    254.96    485.64  " /><path style="stroke-width: 1.42 ;&st7;   " d=" M   254.96,   485.64  C   257.46    485.64    259.49    483.61    259.49    481.10  " /><text style="&st18;" transform="matrix(&st16;  195.27  492.14 )">1</text><path style="stroke-width: 1.42 ;&st7;   " d=" M   208.50,   490.17  C   208.50    487.67    206.47    485.64    203.97    485.64  " /><path style="stroke-width: 1.42 ;&st7;   " d=" M   203.97,   485.64  C   201.46    485.64    199.43    487.67    199.43    490.17  " /><path style="stroke-width: 1.42 ;&st7;   " d=" M   199.43,   490.17  C   199.43    492.67    201.46    494.70    203.97    494.70  " /><path style="stroke-width: 1.42 ;&st7;   " d=" M   203.97,   494.70  C   206.47    494.70    208.50    492.67    208.50    490.17  " /><text style="&st18;" transform="matrix(&st16;  201.78  492.14 )">B</text><g ewd:figtype="title"><text style="&st18;" transform="matrix(&st16;  192.06  566.36 )" ewd:textID="23">Starter Assembly</text><text style="&st18;" transform="matrix(&st16;  192.05  553.32 )">C32(A),C131(C), <tspan x="0 " dy="6.0">D3(B)</tspan></text></g><g ewd:code="" ewd:figID="83" ewd:comment="15" ewd:figtype="commref"><text style="&st18;" transform="matrix(&st16;  260.05  492.14 )">(*15)</text></g><g ewd:code="" ewd:figID="84" ewd:comment="7,8" ewd:figtype="commref"><text style="&st18;" transform="matrix(&st16;  260.05  483.07 )">(*7,*8)</text></g></g><g ewd:figtype="conn" ewd:figID="8" ewd:code="A60,D1,D2"><path style="stroke-width: 1.42 ;&st7;  " d=" M    84.99,   511.70  L   144.48,   511.70  L   144.48,   588.19  L    84.99,   588.19  L    84.99,   511.70  " /><path style="stroke-width: 1.42 ;&st7;  " d=" M   131.73,   571.19  L   131.73,   569.77  L   123.23,   569.77  L   123.23,   571.19  L   131.73,   571.19  " /><path style="stroke-width: 1.42 ;&st7;  " d=" M   131.73,   551.36  L   123.23,   551.36  L   123.23,   549.94  L   131.73,   549.94  L   131.73,   551.36  " /><path style="stroke-width: 0.85 ;&st7;  " d=" M   101.98,   511.70  L   101.98,   528.70  L   127.48,   528.70  " /><path style="stroke-width: 0.85 ;&st7;  " d=" M   126.29,   527.69  L   126.01,   528.16  L   125.92,   528.70  L   126.01,   529.23  L   126.29,   529.70  L   126.70,   530.05  L   127.21,   530.23  L   127.75,   530.23  L   128.26,   530.05  L   128.67,   529.70  L   128.94,   529.23  L   129.04,   528.70  L   128.94,   528.16  L   128.67,   527.69  L   128.26,   527.35  L   127.75,   527.16  L   127.21,   527.16  L   126.70,   527.35  L   126.29,   527.69  L   126.68,   528.41  L   126.68,   528.99  L   127.05,   529.43  L   127.63,   529.53  L   128.13,   529.24  L   128.33,   528.70  L   128.13,   528.15  L   127.63,   527.86  L   127.05,   527.96  L   127.48,   528.70  " /><path style="stroke-width: 0.85 ;&st7;  " d=" M   127.48,   562.69  L   127.48,   565.52  " /><path style="stroke-width: 0.85 ;&st7;  " d=" M   127.48,   551.36  L   127.48,   554.19  " /><path style="stroke-width: 0.85 ;&st7;  " d=" M   127.48,   571.19  L   127.48,   588.19  " /><path style="stroke-width: 0.85 ;&st7;  " d=" M   118.98,   545.69  L   135.98,   545.69  " /><path style="stroke-width: 0.85 ;&st7;  " d=" M   118.98,   565.52  L   135.98,   565.52  " /><path style="stroke-width: 0.85 ;&st7;  " d=" M   127.48,   545.69  L   127.48,   511.70  " /><path style="stroke-width: 0.85 ;&st7;  " d=" M   127.48,   557.03  L   127.48,   559.86  " /><text style="&st18;" transform="matrix(&st16;  118.78  509.14 )">1</text><text style="&st18;" transform="matrix(&st16;  125.29  509.14 )">B</text><path style="stroke-width: 1.42 ;&st7;   " d=" M   132.01,   507.17  C   132.01    504.66    129.98    502.63    127.48    502.63  " /><path style="stroke-width: 1.42 ;&st7;   " d=" M   127.48,   502.63  C   124.98    502.63    122.95    504.66    122.95    507.17  " /><path style="stroke-width: 1.42 ;&st7;   " d=" M   122.95,   507.17  C   122.95    509.67    124.98    511.70    127.48    511.70  " /><path style="stroke-width: 1.42 ;&st7;   " d=" M   127.48,   511.70  C   129.98    511.70    132.01    509.67    132.01    507.17  " /><text style="&st18;" transform="matrix(&st16;  93.29  509.14 )">1</text><path style="stroke-width: 1.42 ;&st7;   " d=" M   106.52,   507.17  C   106.52    504.66    104.49    502.63    101.98    502.63  " /><path style="stroke-width: 1.42 ;&st7;   " d=" M   101.98,   502.63  C    99.48    502.63     97.45    504.66     97.45    507.17  " /><path style="stroke-width: 1.42 ;&st7;   " d=" M    97.45,   507.17  C    97.45    509.67     99.48    511.70    101.98    511.70  " /><path style="stroke-width: 1.42 ;&st7;   " d=" M   101.98,   511.70  C   104.49    511.70    106.52    509.67    106.52    507.17  " /><text style="&st18;" transform="matrix(&st16;  99.6  509.14 )">D</text><text style="&st18;" transform="matrix(&st16;  118.78  594.69 )">1</text><path style="stroke-width: 1.42 ;&st7;   " d=" M   132.01,   592.72  C   132.01    590.22    129.98    588.19    127.48    588.19  " /><path style="stroke-width: 1.42 ;&st7;   " d=" M   127.48,   588.19  C   124.98    588.19    122.95    590.22    122.95    592.72  " /><path style="stroke-width: 1.42 ;&st7;   " d=" M   122.95,   592.72  C   122.95    595.22    124.98    597.25    127.48    597.25  " /><path style="stroke-width: 1.42 ;&st7;   " d=" M   127.48,   597.25  C   129.98    597.25    132.01    595.22    132.01    592.72  " /><text style="&st18;" transform="matrix(&st16;  125.06  594.69 )">C</text><g ewd:figtype="title"><text style="&st18;" transform="matrix(&st17;  159.19  591.09 )" ewd:textID="11">No. 1 Battery</text><text style="&st18;" transform="matrix(&st17;  152.37  591.09 )">A60(D),D1(B),D2(C)</text></g></g><g ewd:figtype="conn" ewd:figID="9" ewd:code="A61,b1"><path style="stroke-width: 1.42 ;&st7;  " d=" M    38.24,   551.36  L    29.75,   551.36  L    29.75,   549.94  L    38.24,   549.94  L    38.24,   551.36  " /><path style="stroke-width: 1.42 ;&st7;  " d=" M    38.24,   571.19  L    38.24,   569.77  L    29.75,   569.77  L    29.75,   571.19  L    38.24,   571.19  " /><path style="stroke-width: 1.42 ;&st7;  " d=" M    17.00,   528.70  L    50.99,   528.70  L    50.99,   588.19  L    17.00,   588.19  L    17.00,   528.70  " /><path style="stroke-width: 0.85 ;&st7;  " d=" M    33.99,   545.69  L    33.99,   528.70  " /><path style="stroke-width: 0.85 ;&st7;  " d=" M    25.50,   565.52  L    42.49,   565.52  " /><path style="stroke-width: 0.85 ;&st7;  " d=" M    25.50,   545.69  L    42.49,   545.69  " /><path style="stroke-width: 0.85 ;&st7;  " d=" M    33.99,   571.19  L    33.99,   588.19  " /><path style="stroke-width: 0.85 ;&st7;  " d=" M    33.99,   551.36  L    33.99,   554.19  " /><path style="stroke-width: 0.85 ;&st7;  " d=" M    33.99,   557.03  L    33.99,   559.86  " /><path style="stroke-width: 0.85 ;&st7;  " d=" M    33.99,   562.69  L    33.99,   565.52  " /><text style="&st18;" transform="matrix(&st16;  25.3  594.69 )">1</text><text style="&st18;" transform="matrix(&st16;  31.81  594.69 )">B</text><path style="stroke-width: 1.42 ;&st7;   " d=" M    38.53,   592.72  C    38.53    590.22     36.50    588.19     33.99    588.19  " /><path style="stroke-width: 1.42 ;&st7;   " d=" M    33.99,   588.19  C    31.49    588.19     29.46    590.22     29.46    592.72  " /><path style="stroke-width: 1.42 ;&st7;   " d=" M    29.46,   592.72  C    29.46    595.22     31.49    597.25     33.99    597.25  " /><path style="stroke-width: 1.42 ;&st7;   " d=" M    33.99,   597.25  C    36.50    597.25     38.53    595.22     38.53    592.72  " /><text style="&st18;" transform="matrix(&st16;  25.3  526.13 )">1</text><text style="&st18;" transform="matrix(&st16;  31.69  526.13 )">A</text><path style="stroke-width: 1.42 ;&st7;   " d=" M    38.53,   524.16  C    38.53    521.66     36.50    519.63     33.99    519.63  " /><path style="stroke-width: 1.42 ;&st7;   " d=" M    33.99,   519.63  C    31.49    519.63     29.46    521.66     29.46    524.16  " /><path style="stroke-width: 1.42 ;&st7;   " d=" M    29.46,   524.16  C    29.46    526.67     31.49    528.70     33.99    528.70  " /><path style="stroke-width: 1.42 ;&st7;   " d=" M    33.99,   528.70  C    36.50    528.70     38.53    526.67     38.53    524.16  " /><g ewd:figtype="title"><text style="&st18;" transform="matrix(&st17;  65.71  591.09 )" ewd:textID="13">No. 2 Battery</text><text style="&st18;" transform="matrix(&st17;  58.89  591.09 )">A61(A),b1(B)</text></g></g><g ewd:figtype="conn" ewd:figID="11" ewd:code="A49"><path style="stroke-width: 0.85 ;&st7;  " d=" M   339.94,   656.18  L   339.94,   673.17  " /><path style="stroke-width: 0.85 ;&st7;  " d=" M   339.94,   681.67  L   339.94,   673.17  " /><path style="stroke-width: 1.42 ;&st7;  " d=" M   331.44,   656.18  L   348.44,   656.18  L   348.44,   673.17  L   331.44,   673.17  L   331.44,   656.18  " /><text style="&st18;" transform="matrix(&st16;  330.66  652.49 )">12</text><g ewd:figtype="title"><text style="&st18;" transform="matrix(&st17;  363.16  676.08 )" ewd:textID="12">No. 1 Ground <tspan x="0 " dy="6.0">Junction Connector</tspan></text><text style="&st18;" transform="matrix(&st17;  356.34  676.07 )">A49</text></g></g><g ewd:code="FUSE33,FUSE43" ewd:figID="19" ewd:comment="7,15,8" ewd:figtype="rb"><text style="&st18;" transform="matrix(&st16;  253.16  101.49 )">1</text><g ewd:code="" ewd:figID="101" ewd:comment="7,8,15" ewd:figtype="commref"><text style="&st18;" transform="matrix(&st16;  271.38  50.52 )">30A <tspan x="0 " dy="6.0">ST NO.1 (*7) </tspan><tspan x="0 " dy="6.0">50A </tspan><tspan x="0 " dy="6.0">ST NO.1 (*8,*15)</tspan></text></g><text style="&st18;" transform="matrix(&st16;  246.91  32.08 )">(BAT)</text><text style="&st18;" transform="matrix(&st16;  248.77  86.47 )">2</text><path style="stroke-width: 0.28 ;&st9;  " d=" M   254.96,    90.37  L   252.12,    87.54  L   252.12,    91.79  L   254.96,    94.62  L   257.79,    91.79  L   257.79,    87.54  L   254.96,    90.37  " /><path style="stroke-width: 1.42 ;&st7;   " d=" M   261.33,    99.52  C   261.33     97.17    259.43     95.27    257.08     95.27  " /><path style="stroke-width: 1.42 ;&st7;   " d=" M   257.08,   103.77  C   259.43    103.77    261.33    101.87    261.33     99.52  " /><path style="stroke-width: 1.42 ;&st7;   " d=" M   248.58,    99.52  C   248.58    101.87    250.49    103.77    252.83    103.77  " /><path style="stroke-width: 1.42 ;&st7;   " d=" M   252.83,    95.27  C   250.49     95.27    248.58     97.17    248.58     99.52  " /><path style="stroke-width: 0.85 ;&st7;  " d=" M   254.96,    78.27  L   254.96,    95.27  " /><path style="stroke-width: 1.42 ;&st7;  " d=" M   257.08,   103.77  L   252.83,   103.77  " /><path style="stroke-width: 1.42 ;&st7;  " d=" M   257.08,    95.27  L   252.83,    95.27  " /><path style="stroke-width: 1.42 ;&st7;  " d=" M   242.21,    35.78  L   242.21,    78.27  L   267.71,    78.27  L   267.71,    35.78  L   242.21,    35.78  " /><path style="stroke-width: 0.85 ;&st7;   " d=" M   256.37,    68.36  C   256.37     67.57    255.74     66.94    254.96     66.94  " /><path style="stroke-width: 0.85 ;&st7;   " d=" M   254.96,    66.94  C   254.18     66.94    253.54     67.57    253.54     68.36  " /><path style="stroke-width: 0.85 ;&st7;   " d=" M   253.54,    68.36  C   253.54     69.14    254.18     69.77    254.96     69.77  " /><path style="stroke-width: 0.85 ;&st7;   " d=" M   254.96,    69.77  C   255.74     69.77    256.37     69.14    256.37     68.36  " /><path style="stroke-width: 0.85 ;&st7;   " d=" M   256.37,    45.69  C   256.37     44.91    255.74     44.28    254.96     44.28  " /><path style="stroke-width: 0.85 ;&st7;   " d=" M   254.96,    44.28  C   254.18     44.28    253.54     44.91    253.54     45.69  " /><path style="stroke-width: 0.85 ;&st7;   " d=" M   253.54,    45.69  C   253.54     46.48    254.18     47.11    254.96     47.11  " /><path style="stroke-width: 0.85 ;&st7;   " d=" M   254.96,    47.11  C   255.74     47.11    256.37     46.48    256.37     45.69  " /><path style="stroke-width: 1.42 ;&st7;   " d=" M   254.96,    66.94  C   257.70     65.33    258.61     61.80    256.99     59.06  " /><path style="stroke-width: 1.42 ;&st7;   " d=" M   256.99,    59.06  C   256.47     58.18    255.84     57.55    254.96     57.03  " /><path style="stroke-width: 1.42 ;&st7;   " d=" M   254.96,    47.11  C   252.22     48.72    251.31     52.25    252.92     54.99  " /><path style="stroke-width: 1.42 ;&st7;   " d=" M   252.92,    54.99  C   253.44     55.87    254.08     56.51    254.96     57.03  " /><path style="stroke-width: 0.85 ;&st7;  " d=" M   254.96,    69.77  L   254.96,    78.27  " /></g><g ewd:figtype="rb" ewd:figID="20" ewd:code="1"><text style="&st18;" transform="matrix(&st16;  248.77  222.44 )">3</text><text style="&st18;" transform="matrix(&st16;  274.27  222.44 )">1</text><text style="&st18;" transform="matrix(&st16;  248.77  176.57 )">5</text><text style="&st18;" transform="matrix(&st16;  274.27  176.57 )">2</text><text style="&st18;" transform="matrix(&st16;  253.16  152.48 )">1</text><text style="&st18;" transform="matrix(&st16;  278.65  152.48 )">1</text><text style="&st18;" transform="matrix(&st16;  253.16  245.96 )">1</text><path style="stroke-width: 1.42 ;&st7;   " d=" M   286.83,   243.99  C   286.83    241.65    284.92    239.75    282.58    239.75  " /><path style="stroke-width: 1.42 ;&st7;   " d=" M   261.33,   150.51  C   261.33    148.16    259.43    146.26    257.08    146.26  " /><path style="stroke-width: 0.28 ;&st9;  " d=" M   280.45,   159.65  L   283.29,   162.49  L   283.29,   158.24  L   280.45,   155.41  L   277.62,   158.24  L   277.62,   162.49  L   280.45,   159.65  " /><path style="stroke-width: 0.28 ;&st9;  " d=" M   254.96,   234.85  L   252.12,   232.02  L   252.12,   236.27  L   254.96,   239.10  L   257.79,   236.27  L   257.79,   232.02  L   254.96,   234.85  " /><path style="stroke-width: 0.28 ;&st9;  " d=" M   280.45,   234.85  L   277.62,   232.02  L   277.62,   236.27  L   280.45,   239.10  L   283.29,   236.27  L   283.29,   232.02  L   280.45,   234.85  " /><path style="stroke-width: 0.85 ;&st7;  " d=" M   280.45,   154.76  L   280.45,   180.26  " /><path style="stroke-width: 0.85 ;&st7;  " d=" M   254.96,   180.26  L   254.96,   154.76  " /><path style="stroke-width: 0.85 ;&st7;  " d=" M   254.96,   239.75  L   254.96,   214.25  " /><path style="stroke-width: 0.85 ;&st7;  " d=" M   280.45,   239.75  L   280.45,   214.25  " /><path style="stroke-width: 1.42 ;&st7;  " d=" M   282.58,   239.75  L   278.33,   239.75  " /><path style="stroke-width: 1.42 ;&st7;  " d=" M   282.58,   248.24  L   278.33,   248.24  " /><path style="stroke-width: 0.28 ;&st9;  " d=" M   254.96,   159.65  L   257.79,   162.49  L   257.79,   158.24  L   254.96,   155.41  L   252.12,   158.24  L   252.12,   162.49  L   254.96,   159.65  " /><path style="stroke-width: 1.42 ;&st7;   " d=" M   257.08,   154.76  C   259.43    154.76    261.33    152.86    261.33    150.51  " /><path style="stroke-width: 1.42 ;&st7;   " d=" M   248.58,   150.51  C   248.58    152.86    250.49    154.76    252.83    154.76  " /><path style="stroke-width: 1.42 ;&st7;   " d=" M   252.83,   146.26  C   250.49    146.26    248.58    148.16    248.58    150.51  " /><path style="stroke-width: 1.42 ;&st7;   " d=" M   274.08,   150.51  C   274.08    152.86    275.98    154.76    278.33    154.76  " /><path style="stroke-width: 1.42 ;&st7;   " d=" M   278.33,   146.26  C   275.98    146.26    274.08    148.16    274.08    150.51  " /><path style="stroke-width: 1.42 ;&st7;   " d=" M   282.58,   154.76  C   284.92    154.76    286.83    152.86    286.83    150.51  " /><path style="stroke-width: 1.42 ;&st7;   " d=" M   286.83,   150.51  C   286.83    148.16    284.92    146.26    282.58    146.26  " /><path style="stroke-width: 1.42 ;&st7;   " d=" M   252.83,   239.75  C   250.49    239.75    248.58    241.65    248.58    243.99  " /><path style="stroke-width: 1.42 ;&st7;   " d=" M   248.58,   243.99  C   248.58    246.34    250.49    248.24    252.83    248.24  " /><path style="stroke-width: 1.42 ;&st7;   " d=" M   257.08,   248.24  C   259.43    248.24    261.33    246.34    261.33    243.99  " /><path style="stroke-width: 1.42 ;&st7;   " d=" M   261.33,   243.99  C   261.33    241.65    259.43    239.75    257.08    239.75  " /><path style="stroke-width: 1.42 ;&st7;   " d=" M   278.33,   239.75  C   275.98    239.75    274.08    241.65    274.08    243.99  " /><path style="stroke-width: 1.42 ;&st7;   " d=" M   274.08,   243.99  C   274.08    246.34    275.98    248.24    278.33    248.24  " /><path style="stroke-width: 1.42 ;&st7;   " d=" M   282.58,   248.24  C   284.92    248.24    286.83    246.34    286.83    243.99  " /><path style="stroke-width: 1.42 ;&st7;  " d=" M   257.08,   154.76  L   252.83,   154.76  " /><path style="stroke-width: 1.42 ;&st7;  " d=" M   257.08,   146.26  L   252.83,   146.26  " /><path style="stroke-width: 1.42 ;&st7;  " d=" M   282.58,   146.26  L   278.33,   146.26  " /><path style="stroke-width: 1.42 ;&st7;  " d=" M   282.58,   154.76  L   278.33,   154.76  " /><path style="stroke-width: 1.42 ;&st7;  " d=" M   257.08,   239.75  L   252.83,   239.75  " /><path style="stroke-width: 1.42 ;&st7;  " d=" M   257.08,   248.24  L   252.83,   248.24  " /><text style="&st18;" transform="matrix(&st16;  291.21  193.57 )" ewd:textID="21">ST <tspan x="0 " dy="6.0">NO.1 </tspan><tspan x="0 " dy="6.0">Relay</tspan></text><text style="&st18;" transform="matrix(&st16;  278.65  245.96 )">1</text><path style="stroke-width: 1.42 ;&st7;  " d=" M   254.96,   207.17  L   249.29,   184.50  " /><path style="stroke-width: 1.42 ;&st7;  " d=" M   288.95,   180.26  L   246.46,   180.26  L   246.46,   214.25  L   288.95,   214.25  L   288.95,   180.26  " /><path style="stroke-width: 0.85 ;&st7;   " d=" M   256.37,   208.58  C   256.37    207.80    255.74    207.17    254.96    207.17  " /><path style="stroke-width: 0.85 ;&st7;   " d=" M   254.96,   207.17  C   254.18    207.17    253.54    207.80    253.54    208.58  " /><path style="stroke-width: 0.85 ;&st7;   " d=" M   253.54,   208.58  C   253.54    209.37    254.18    210.00    254.96    210.00  " /><path style="stroke-width: 0.85 ;&st7;   " d=" M   254.96,   210.00  C   255.74    210.00    256.37    209.37    256.37    208.58  " /><path style="stroke-width: 0.85 ;&st7;   " d=" M   256.37,   185.92  C   256.37    185.14    255.74    184.50    254.96    184.50  " /><path style="stroke-width: 0.85 ;&st7;   " d=" M   254.96,   184.50  C   254.18    184.50    253.54    185.14    253.54    185.92  " /><path style="stroke-width: 0.85 ;&st7;   " d=" M   253.54,   185.92  C   253.54    186.70    254.18    187.34    254.96    187.34  " /><path style="stroke-width: 0.85 ;&st7;   " d=" M   254.96,   187.34  C   255.74    187.34    256.37    186.70    256.37    185.92  " /><path style="stroke-width: 0.85 ;&st7;   " d=" M   277.92,   194.77  C   279.29    196.17    281.53    196.19    282.93    194.82  " /><path style="stroke-width: 0.85 ;&st7;   " d=" M   282.93,   194.82  C   284.33    193.46    284.35    191.21    282.98    189.82  " /><path style="stroke-width: 0.85 ;&st7;   " d=" M   282.98,   189.82  C   282.29    189.11    281.44    188.75    280.45    188.75  " /><path style="stroke-width: 0.85 ;&st7;   " d=" M   277.92,   199.73  C   279.29    201.13    281.53    201.15    282.93    199.78  " /><path style="stroke-width: 0.85 ;&st7;   " d=" M   282.93,   199.78  C   284.33    198.41    284.35    196.17    282.98    194.77  " /><path style="stroke-width: 0.85 ;&st7;   " d=" M   282.98,   194.77  C   281.61    193.38    279.37    193.35    277.97    194.72  " /><path style="stroke-width: 0.85 ;&st7;   " d=" M   277.97,   194.72  C   277.96    194.74    277.94    194.76    277.92    194.77  " /><path style="stroke-width: 0.85 ;&st7;   " d=" M   280.45,   205.75  C   282.41    205.75    283.99    204.17    283.99    202.21  " /><path style="stroke-width: 0.85 ;&st7;   " d=" M   283.99,   202.21  C   283.99    200.25    282.41    198.67    280.45    198.67  " /><path style="stroke-width: 0.85 ;&st7;   " d=" M   280.45,   198.67  C   279.46    198.67    278.62    199.02    277.92    199.73  " /><path style="stroke-width: 0.85 ;&st7;  " d=" M   254.96,   214.25  L   254.96,   210.00  " /><path style="stroke-width: 0.85 ;&st7;  " d=" M   254.96,   184.50  L   254.96,   180.26  " /><path style="stroke-width: 0.85 ;&st7;  " d=" M   280.45,   180.26  L   280.45,   188.75  " /><path style="stroke-width: 0.85 ;&st7;  " d=" M   280.45,   205.75  L   280.45,   214.25  " /></g><g ewd:figtype="rb" ewd:figID="22" ewd:code="1"><path style="stroke-width: 1.42 ;&st7;  " d=" M   478.05,   273.74  L   473.80,   273.74  " /><path style="stroke-width: 1.42 ;&st7;  " d=" M   478.05,   265.24  L   473.80,   265.24  " /><path style="stroke-width: 1.42 ;&st7;  " d=" M   452.55,   273.74  L   448.30,   273.74  " /><path style="stroke-width: 1.42 ;&st7;  " d=" M   452.55,   265.24  L   448.30,   265.24  " /><path style="stroke-width: 1.42 ;&st7;  " d=" M   478.05,   180.26  L   473.80,   180.26  " /><path style="stroke-width: 1.42 ;&st7;  " d=" M   478.05,   171.76  L   473.80,   171.76  " /><path style="stroke-width: 1.42 ;&st7;  " d=" M   452.55,   171.76  L   448.30,   171.76  " /><path style="stroke-width: 1.42 ;&st7;  " d=" M   452.55,   180.26  L   448.30,   180.26  " /><path style="stroke-width: 1.42 ;&st7;   " d=" M   482.29,   269.49  C   482.29    267.14    480.39    265.24    478.05    265.24  " /><path style="stroke-width: 1.42 ;&st7;   " d=" M   478.05,   273.74  C   480.39    273.74    482.29    271.84    482.29    269.49  " /><path style="stroke-width: 1.42 ;&st7;   " d=" M   469.55,   269.49  C   469.55    271.84    471.45    273.74    473.80    273.74  " /><path style="stroke-width: 1.42 ;&st7;   " d=" M   473.80,   265.24  C   471.45    265.24    469.55    267.14    469.55    269.49  " /><path style="stroke-width: 1.42 ;&st7;   " d=" M   456.80,   269.49  C   456.80    267.14    454.90    265.24    452.55    265.24  " /><path style="stroke-width: 1.42 ;&st7;   " d=" M   452.55,   273.74  C   454.90    273.74    456.80    271.84    456.80    269.49  " /><path style="stroke-width: 1.42 ;&st7;   " d=" M   444.05,   269.49  C   444.05    271.84    445.95    273.74    448.30    273.74  " /><path style="stroke-width: 1.42 ;&st7;   " d=" M   448.30,   265.24  C   445.95    265.24    444.05    267.14    444.05    269.49  " /><path style="stroke-width: 1.42 ;&st7;   " d=" M   482.29,   176.01  C   482.29    173.66    480.39    171.76    478.05    171.76  " /><path style="stroke-width: 1.42 ;&st7;   " d=" M   478.05,   180.26  C   480.39    180.26    482.29    178.35    482.29    176.01  " /><path style="stroke-width: 1.42 ;&st7;   " d=" M   473.80,   171.76  C   471.45    171.76    469.55    173.66    469.55    176.01  " /><path style="stroke-width: 1.42 ;&st7;   " d=" M   469.55,   176.01  C   469.55    178.35    471.45    180.26    473.80    180.26  " /><path style="stroke-width: 1.42 ;&st7;   " d=" M   448.30,   171.76  C   445.95    171.76    444.05    173.66    444.05    176.01  " /><path style="stroke-width: 1.42 ;&st7;   " d=" M   444.05,   176.01  C   444.05    178.35    445.95    180.26    448.30    180.26  " /><path style="stroke-width: 1.42 ;&st7;   " d=" M   452.55,   180.26  C   454.90    180.26    456.80    178.35    456.80    176.01  " /><path style="stroke-width: 1.42 ;&st7;   " d=" M   456.80,   176.01  C   456.80    173.66    454.90    171.76    452.55    171.76  " /><path style="stroke-width: 0.85 ;&st7;  " d=" M   475.92,   265.24  L   475.92,   239.75  " /><path style="stroke-width: 0.85 ;&st7;  " d=" M   450.42,   265.24  L   450.42,   239.75  " /><path style="stroke-width: 0.85 ;&st7;  " d=" M   450.42,   205.75  L   450.42,   180.26  " /><path style="stroke-width: 0.85 ;&st7;  " d=" M   475.92,   180.26  L   475.92,   205.75  " /><path style="stroke-width: 0.28 ;&st9;  " d=" M   475.92,   260.35  L   473.09,   257.51  L   473.09,   261.76  L   475.92,   264.60  L   478.75,   261.76  L   478.75,   257.51  L   475.92,   260.35  " /><path style="stroke-width: 0.28 ;&st9;  " d=" M   450.42,   260.35  L   447.59,   257.51  L   447.59,   261.76  L   450.42,   264.60  L   453.26,   261.76  L   453.26,   257.51  L   450.42,   260.35  " /><path style="stroke-width: 0.28 ;&st9;  " d=" M   475.92,   185.15  L   478.75,   187.98  L   478.75,   183.73  L   475.92,   180.90  L   473.09,   183.73  L   473.09,   187.98  L   475.92,   185.15  " /><path style="stroke-width: 0.28 ;&st9;  " d=" M   450.42,   185.15  L   453.26,   187.98  L   453.26,   183.73  L   450.42,   180.90  L   447.59,   183.73  L   447.59,   187.98  L   450.42,   185.15  " /><text style="&st18;" transform="matrix(&st16;  486.68  219.07 )" ewd:textID="22">ST <tspan x="0 " dy="6.0">NO.2 </tspan><tspan x="0 " dy="6.0">Relay</tspan></text><text style="&st18;" transform="matrix(&st16;  474.12  271.46 )">1</text><text style="&st18;" transform="matrix(&st16;  448.62  271.46 )">1</text><text style="&st18;" transform="matrix(&st16;  474.12  177.98 )">1</text><text style="&st18;" transform="matrix(&st16;  448.62  177.98 )">1</text><text style="&st18;" transform="matrix(&st16;  469.74  202.06 )">2</text><text style="&st18;" transform="matrix(&st16;  444.24  202.06 )">5</text><text style="&st18;" transform="matrix(&st16;  469.74  247.94 )">1</text><text style="&st18;" transform="matrix(&st16;  444.24  247.94 )">3</text><path style="stroke-width: 0.85 ;&st7;  " d=" M   475.92,   231.25  L   475.92,   239.75  " /><path style="stroke-width: 0.85 ;&st7;  " d=" M   475.92,   205.75  L   475.92,   214.25  " /><path style="stroke-width: 0.85 ;&st7;  " d=" M   450.42,   210.00  L   450.42,   205.75  " /><path style="stroke-width: 0.85 ;&st7;  " d=" M   450.42,   239.75  L   450.42,   235.50  " /><path style="stroke-width: 1.42 ;&st7;  " d=" M   450.42,   232.66  L   444.76,   210.00  " /><path style="stroke-width: 0.85 ;&st7;   " d=" M   475.92,   231.25  C   477.88    231.25    479.46    229.66    479.46    227.71  " /><path style="stroke-width: 0.85 ;&st7;   " d=" M   479.46,   227.71  C   479.46    225.75    477.88    224.16    475.92    224.16  " /><path style="stroke-width: 0.85 ;&st7;   " d=" M   475.92,   224.16  C   474.93    224.16    474.08    224.52    473.39    225.23  " /><path style="stroke-width: 0.85 ;&st7;   " d=" M   473.39,   225.23  C   474.76    226.62    477.00    226.65    478.40    225.28  " /><path style="stroke-width: 0.85 ;&st7;   " d=" M   478.40,   225.28  C   479.80    223.91    479.82    221.67    478.45    220.27  " /><path style="stroke-width: 0.85 ;&st7;   " d=" M   478.45,   220.27  C   477.08    218.87    474.84    218.85    473.44    220.22  " /><path style="stroke-width: 0.85 ;&st7;   " d=" M   473.44,   220.22  C   473.42    220.24    473.41    220.25    473.39    220.27  " /><path style="stroke-width: 0.85 ;&st7;   " d=" M   473.39,   220.27  C   474.76    221.67    477.00    221.69    478.40    220.32  " /><path style="stroke-width: 0.85 ;&st7;   " d=" M   478.40,   220.32  C   479.80    218.95    479.82    216.71    478.45    215.31  " /><path style="stroke-width: 0.85 ;&st7;   " d=" M   478.45,   215.31  C   477.76    214.60    476.91    214.25    475.92    214.25  " /><path style="stroke-width: 0.85 ;&st7;   " d=" M   451.84,   211.42  C   451.84    210.63    451.21    210.00    450.42    210.00  " /><path style="stroke-width: 0.85 ;&st7;   " d=" M   450.42,   210.00  C   449.64    210.00    449.01    210.63    449.01    211.42  " /><path style="stroke-width: 0.85 ;&st7;   " d=" M   449.01,   211.42  C   449.01    212.20    449.64    212.83    450.42    212.83  " /><path style="stroke-width: 0.85 ;&st7;   " d=" M   450.42,   212.83  C   451.21    212.83    451.84    212.20    451.84    211.42  " /><path style="stroke-width: 0.85 ;&st7;   " d=" M   451.84,   234.08  C   451.84    233.30    451.21    232.66    450.42    232.66  " /><path style="stroke-width: 0.85 ;&st7;   " d=" M   450.42,   232.66  C   449.64    232.66    449.01    233.30    449.01    234.08  " /><path style="stroke-width: 0.85 ;&st7;   " d=" M   449.01,   234.08  C   449.01    234.86    449.64    235.50    450.42    235.50  " /><path style="stroke-width: 0.85 ;&st7;   " d=" M   450.42,   235.50  C   451.21    235.50    451.84    234.86    451.84    234.08  " /><path style="stroke-width: 1.42 ;&st7;  " d=" M   484.42,   205.75  L   441.93,   205.75  L   441.93,   239.75  L   484.42,   239.75  L   484.42,   205.75  " /></g><g ewd:figtype="w2w" ewd:figID="30" ewd:code="CA1"><text style="&st18;" transform="matrix(&st16;  242.33  330.95 )">2</text><path style="stroke-width: 1.42 ;&st7;  " d=" M   259.21,   319.07  L   254.96,   323.31  L   250.71,   319.07  " /><path style="stroke-width: 1.42 ;&st7;  " d=" M   250.71,   315.67  L   254.96,   319.92  L   259.21,   315.67  " /></g><g ewd:figtype="w2w" ewd:figID="31" ewd:code="CA2"><path style="stroke-width: 1.42 ;&st7;  " d=" M   454.67,   336.06  L   450.42,   340.31  L   446.18,   336.06  " /><path style="stroke-width: 1.42 ;&st7;  " d=" M   446.18,   332.66  L   450.42,   336.91  L   454.67,   332.66  " /><text style="&st18;" transform="matrix(&st16;  434.69  347.95 )">11</text></g><g ewd:figtype="gp" ewd:figID="42" ewd:code="bC"><path style="stroke-width: 0.85 ;&st7;  " d=" M    33.99,   697.25  L    33.99,   701.50  " /><path style="stroke-width: 0.85 ;&st7;  " d=" M    25.50,   701.50  L    42.49,   701.50  " /><path style="stroke-width: 0.85 ;&st7;  " d=" M    29.75,   704.33  L    38.24,   704.33  " /><path style="stroke-width: 0.85 ;&st7;  " d=" M    31.16,   707.17  L    36.83,   707.17  " /><path style="stroke-width: 0.85 ;&st7;  " d=" M    32.58,   710.00  L    35.41,   710.00  " /></g><g ewd:figtype="gp" ewd:figID="43" ewd:code="DA"><path style="stroke-width: 0.85 ;&st7;  " d=" M   126.06,   710.00  L   128.90,   710.00  " /><path style="stroke-width: 0.85 ;&st7;  " d=" M   124.65,   707.17  L   130.31,   707.17  " /><path style="stroke-width: 0.85 ;&st7;  " d=" M   123.23,   704.33  L   131.73,   704.33  " /><path style="stroke-width: 0.85 ;&st7;  " d=" M   118.98,   701.50  L   135.98,   701.50  " /><path style="stroke-width: 0.85 ;&st7;  " d=" M   127.48,   697.25  L   127.48,   701.50  " /></g><g ewd:figtype="gp" ewd:figID="44" ewd:code="DB"><path style="stroke-width: 0.85 ;&st7;  " d=" M   177.05,   710.00  L   179.89,   710.00  " /><path style="stroke-width: 0.85 ;&st7;  " d=" M   175.64,   707.17  L   181.30,   707.17  " /><path style="stroke-width: 0.85 ;&st7;  " d=" M   174.22,   704.33  L   182.72,   704.33  " /><path style="stroke-width: 0.85 ;&st7;  " d=" M   169.97,   701.50  L   186.97,   701.50  " /><path style="stroke-width: 0.85 ;&st7;  " d=" M   178.47,   697.25  L   178.47,   701.50  " /></g><g ewd:figtype="gp" ewd:figID="45" ewd:code="AC"><path style="stroke-width: 0.85 ;&st7;  " d=" M   339.94,   697.25  L   339.94,   701.50  " /><path style="stroke-width: 0.85 ;&st7;  " d=" M   331.44,   701.50  L   348.44,   701.50  " /><path style="stroke-width: 0.85 ;&st7;  " d=" M   335.69,   704.33  L   344.19,   704.33  " /><path style="stroke-width: 0.85 ;&st7;  " d=" M   337.11,   707.17  L   342.78,   707.17  " /><path style="stroke-width: 0.85 ;&st7;  " d=" M   338.53,   710.00  L   341.36,   710.00  " /></g><g ewd:figtype="annex" ewd:figID="68" ewd:code=" "><path style="stroke-width: 0.85 ;&st7;  " d=" M   271.95,   554.19  L   288.95,   554.19  " /><path style="stroke-width: 0.85 ;&st7;  " d=" M   277.62,   559.86  L   283.29,   559.86  " /><path style="stroke-width: 0.85 ;&st7;  " d=" M   276.20,   511.70  L   280.45,   511.70  L   280.45,   554.19  " /><path style="stroke-width: 0.85 ;&st7;  " d=" M   276.20,   511.70  L   280.45,   511.70  L   280.45,   554.19  " /><path style="stroke-width: 0.85 ;&st7;  " d=" M   276.20,   557.03  L   284.70,   557.03  " /><path style="stroke-width: 0.85 ;&st7;  " d=" M   276.20,   557.03  L   284.70,   557.03  " /><path style="stroke-width: 0.85 ;&st7;  " d=" M   276.20,   557.03  L   284.70,   557.03  " /><path style="stroke-width: 0.85 ;&st7;  " d=" M   276.20,   557.03  L   284.70,   557.03  " /><path style="stroke-width: 0.85 ;&st7;  " d=" M   276.20,   511.70  L   280.45,   511.70  L   280.45,   554.19  " /><path style="stroke-width: 0.85 ;&st7;  " d=" M   271.95,   554.19  L   288.95,   554.19  " /><path style="stroke-width: 0.85 ;&st7;  " d=" M   276.20,   511.70  L   280.45,   511.70  L   280.45,   554.19  " /><path style="stroke-width: 0.85 ;&st7;  " d=" M   271.95,   554.19  L   288.95,   554.19  " /><path style="stroke-width: 0.85 ;&st7;  " d=" M   279.04,   562.69  L   281.87,   562.69  " /><path style="stroke-width: 0.85 ;&st7;  " d=" M   279.04,   562.69  L   281.87,   562.69  " /><path style="stroke-width: 0.85 ;&st7;  " d=" M   279.04,   562.69  L   281.87,   562.69  " /><path style="stroke-width: 0.85 ;&st7;  " d=" M   279.04,   562.69  L   281.87,   562.69  " /><path style="stroke-width: 0.85 ;&st7;  " d=" M   277.62,   559.86  L   283.29,   559.86  " /><path style="stroke-width: 0.85 ;&st7;  " d=" M   277.62,   559.86  L   283.29,   559.86  " /><path style="stroke-width: 0.85 ;&st7;  " d=" M   277.62,   559.86  L   283.29,   559.86  " /><path style="stroke-width: 0.85 ;&st7;  " d=" M   271.95,   554.19  L   288.95,   554.19  " /></g><g ewd:code="13" ewd:figID="74" ewd:comment="" ewd:figtype="comment"><text style="&st18;" transform="matrix(&st16;  22.09  105.74 )">*13 :1GR-FE</text></g><g ewd:code="18" ewd:figID="70" ewd:comment="" ewd:figtype="comment"><text style="&st18;" transform="matrix(&st16;  22.09  139.73 )" ewd:textID="4">*18 :1GR-FE, 1GD-FTV, 2GD-FTV w/o Stop &amp; Start System, <tspan x="14.16" dy="8.5">1KD-FTV, 2KD-FTV, 5L-E</tspan></text></g><g ewd:code="9" ewd:figID="69" ewd:comment="" ewd:figtype="comment"><text style="&st18;" transform="matrix(&st16;  22.09  88.74 )" ewd:textID="1">* 9 :w/ No. 2 Battery</text></g><g ewd:code="20" ewd:figID="100" ewd:comment="" ewd:figtype="comment"><text style="&st18;" transform="matrix(&st16;  22.09  165.23 )" ewd:textID="6">*20 :1GD-FTV, 2GD-FTV w/o Stop &amp; Start System, <tspan x="14.16" dy="8.5">1KD-FTV, 2KD-FTV</tspan></text></g><g ewd:code="8" ewd:figID="61" ewd:comment="" ewd:figtype="comment"><text style="&st18;" transform="matrix(&st16;  22.09  80.24 )">* 8 :1GD-FTV, 2GD-FTV, 1KD-FTV, 2KD-FTV</text></g><g ewd:code="3" ewd:figID="64" ewd:comment="" ewd:figtype="comment"><text style="&st18;" transform="matrix(&st16;  22.09  63.24 )">* 3 :1TR-FE, 2TR-FE</text></g><g ewd:code="12" ewd:figID="67" ewd:comment="" ewd:figtype="comment"><text style="&st18;" transform="matrix(&st16;  22.09  97.24 )">*12 :1KD-FTV</text></g><g ewd:code="17" ewd:figID="89" ewd:comment="" ewd:figtype="comment"><text style="&st18;" transform="matrix(&st16;  22.09  131.23 )" ewd:textID="3">*17 :w/o Stop &amp; Start System</text></g><g ewd:code="16" ewd:figID="88" ewd:comment="" ewd:figtype="comment"><text style="&st18;" transform="matrix(&st16;  22.09  122.73 )" ewd:textID="2">*16 :w/ Stop &amp; Start System</text></g><g ewd:code="15" ewd:figID="82" ewd:comment="" ewd:figtype="comment"><text style="&st18;" transform="matrix(&st16;  22.09  114.24 )">*15 :5L-E</text></g><g ewd:code="7" ewd:figID="60" ewd:comment="" ewd:figtype="comment"><text style="&st18;" transform="matrix(&st16;  22.09  71.74 )">* 7 :1GR-FE, 1TR-FE, 2TR-FE</text></g><g ewd:code="19" ewd:figID="90" ewd:comment="" ewd:figtype="comment"><text style="&st18;" transform="matrix(&st16;  22.09  156.73 )" ewd:textID="5">*19 :2GD-FTV w/ Stop &amp; Start System</text></g></svg>