﻿<?xml version="1.0"?>
<!-- Generator: Adobe Illustrator 10.0, SVG Export Plug-In . SVG Version: 3.0.0 Build 77)  -->
<!DOCTYPE svg PUBLIC "-//W3C//DTD SVG 1.0//EN" "http://www.w3.org/TR/2001/REC-SVG-20010904/DTD/svg10.dtd"[
	<!ENTITY ns_flows "http://ns.adobe.com/Flows/1.0/">
	<!ENTITY ns_svg "http://www.w3.org/2000/svg">
	<!ENTITY ns_xlink "http://www.w3.org/1999/xlink">
	<!ENTITY st0 "fill:none;stroke:#000000;stroke-linecap:round;stroke-linejoin:round;">
	<!ENTITY st1 "fill:none;stroke:#000000;stroke-width:0.6;stroke-linecap:round;stroke-linejoin:round;">
	<!ENTITY st2 "font-size:6px;">
	<!ENTITY st3 "font-family:'Arial';">
	<!ATTLIST svg
		ewd:ver CDATA #IMPLIED
		xmlns:ewd CDATA #FIXED "http://shcl.co.jp/ewd"
		xmlns:a CDATA #FIXED "http://ns.adobe.com/AdobeSVGViewerExtensions/3.0/">
	<!ATTLIST g
		ewd:pinNo CDATA #IMPLIED>
]>
<svg width="43.493" height="42.077" viewBox="0 0 43.493 42.077" style="overflow:visible;enable-background:new 0 0 43.493 42.077" xml:space="preserve" onload="call_execInitLoadProc_svg('connector')" ewd:ver="2.1.2.9" xmlns="&ns_svg;" xmlns:ewd="http://shcl.co.jp/ewd" xmlns:a="http://ns.adobe.com/AdobeSVGViewerExtensions/3.0/" xmlns:xlink="&ns_xlink;">
<script type="text/javascript" xlink:href="../../../../../system/js/ewd/fig/svgfig.js"/>
<g id="レイヤー_1">
	<path style="&st0;" d="M38.744,2.483c0-1.095-0.888-1.983-1.983-1.983"/>
	<path style="&st0;" d="M7.582,38.744c0,1.564,1.269,2.833,2.833,2.833"/>
	<path style="&st0;" d="M33.078,41.577c1.564,0,2.833-1.269,2.833-2.833"/>
	<path style="&st0;" d="M6.732,0.5c-1.096,0-1.983,0.888-1.983,1.983"/>
	<path style="&st1;" d="M11.832,23.163v14.164"/>
	<path style="&st1;" d="M21.747,23.163v14.164"/>
	<path style="&st1;" d="M31.662,23.163v14.164"/>
	<path style="&st1;" d="M11.832,23.163h19.83"/>
	<path style="&st1;" d="M11.832,37.327h19.83"/>
	<path style="&st0;" d="M10.415,41.577h22.663"/>
	<path style="&st0;" d="M4.749,2.483v10.765"/>
	<path style="&st1;" d="M4.749,13.248v7.082"/>
	<path style="&st0;" d="M35.911,30.245h2.833"/>
	<path style="&st0;" d="M38.744,20.33v9.915"/>
	<path style="&st0;" d="M38.744,2.483v10.765"/>
	<path style="&st0;" d="M7.582,23.163v15.581"/>
	<path style="&st1;" d="M38.744,13.248v7.082"/>
	<path style="&st1;" d="M28.829,13.248v4.25"/>
	<path style="&st0;" d="M4.749,20.33l2.833,2.833"/>
	<path style="&st1;" d="M4.749,10.416h4.25"/>
	<path style="&st1;" d="M28.829,8.432v4.816"/>
	<path style="&st1;" d="M8.999,10.416v7.082"/>
	<path style="&st1;" d="M32.511,4.948v8.3"/>
	<path style="&st1;" d="M8.999,17.498h5.666"/>
	<path style="&st1;" d="M34.494,17.498h-5.666"/>
	<path style="&st1;" d="M32.511,13.248h-3.683"/>
	<path style="&st1;" d="M4.749,2.965h33.995"/>
	<path style="&st0;" d="M38.744,13.248h4.249v7.082h-4.249"/>
	<path style="&st0;" d="M4.749,13.248H0.5v7.082h4.249"/>
	<path style="&st1;" d="M10.981,4.948h21.53"/>
	<path style="&st1;" d="M34.494,10.416v7.082"/>
	<path style="&st1;" d="M10.981,13.248h3.683"/>
	<path style="&st1;" d="M10.981,4.948v8.3"/>
	<path style="&st1;" d="M38.744,10.416h-4.25"/>
	<path style="&st1;" d="M14.664,8.432h14.165"/>
	<path style="&st0;" d="M35.911,30.245v8.499"/>
	<path style="&st1;" d="M14.664,8.432v4.816"/>
	<path style="&st1;" d="M14.664,11.832h14.165"/>
	<path style="&st1;" d="M14.664,13.248v4.25"/>
	<path style="&st0;" d="M6.732,0.5h30.028"/>
	<g ewd:pinNo="1">
		<text transform="matrix(1 0 0 1 15.2153 32.2397)"><tspan x="0" y="0" style="&st3; &st2;">1</tspan></text>
	</g>
	<g ewd:pinNo="2">
		<text transform="matrix(1 0 0 1 25.1304 32.2397)"><tspan x="0" y="0" style="&st3; &st2;">2</tspan></text>
	</g>
</g>
</svg>