﻿<?xml version="1.0"?>
<!-- Generator: Adobe Illustrator 10.0, SVG Export Plug-In . SVG Version: 3.0.0 Build 77)  -->
<!DOCTYPE svg PUBLIC "-//W3C//DTD SVG 1.0//EN" "http://www.w3.org/TR/2001/REC-SVG-20010904/DTD/svg10.dtd"[
	<!ENTITY ns_flows "http://ns.adobe.com/Flows/1.0/">
	<!ENTITY ns_svg "http://www.w3.org/2000/svg">
	<!ENTITY ns_xlink "http://www.w3.org/1999/xlink">
	<!ENTITY st0 "fill:none;">
	<!ENTITY st1 "stroke:#000000;">
	<!ENTITY st2 "stroke-linecap:round;">
	<!ENTITY st3 "stroke-linejoin:round;">
	<!ENTITY st4 "stroke-width:0.6;">
	<!ENTITY st5 "font-size:6px;">
	<!ENTITY st6 "font-family:'Arial';">
	<!ENTITY st7 "stroke-width:1.4;">
	<!ATTLIST svg
		ewd:ver CDATA #IMPLIED
		xmlns:ewd CDATA #FIXED "http://shcl.co.jp/ewd"
		xmlns:a CDATA #FIXED "http://ns.adobe.com/AdobeSVGViewerExtensions/3.0/">
	<!ATTLIST g
		ewd:pinNo CDATA #IMPLIED>
]>
<svg width="256.996" height="105.116" viewBox="0 0 256.996 105.116" style="overflow:visible;enable-background:new 0 0 107.26 80.321" xml:space="preserve" onload="call_execInitLoadProc_svg('connector')" ewd:ver="2.1.2.9" xmlns="&ns_svg;" xmlns:ewd="http://shcl.co.jp/ewd" xmlns:a="http://ns.adobe.com/AdobeSVGViewerExtensions/3.0/" xmlns:xlink="&ns_xlink;">
<script type="text/javascript" xlink:href="../../../../../system/js/ewd/fig/svgfig.js"/>
<g id="レイヤー_1" transform="translate(0,17.008)">
	<path style="&st0;&st1;&st2;&st3;" d="M95.95,79.82c1.816,0,3.362-0.485,4.853-1.521"/>
	<path style="&st0;&st1;&st2;&st3;" d="M6.458,78.299c1.491,1.037,3.037,1.522,4.853,1.522"/>
	<path style="&st0;&st1;&st2;&st3;" d="M106.747,14.665c0-7.823-6.342-14.165-14.165-14.165"/>
	<path style="&st0;&st1;&st2;&st3;" d="M14.678,0.5C6.855,0.5,0.514,6.842,0.514,14.665"/>
	<path style="&st0;&st1;&st4;&st2;&st3;" d="M100.373,69.905v4.25"/>
	<path style="&st0;&st1;&st4;&st2;&st3;" d="M6.888,69.905v4.25"/>
	<path style="&st0;&st1;&st4;&st2;&st3;" d="M21.761,50.075V34.495H6.18v15.581h94.901V34.495H85.5v15.581"/>
	<path style="&st0;&st1;&st4;&st2;&st3;" d="M21.761,37.327H85.5"/>
	<path style="&st0;&st1;&st4;&st2;&st3;" d="M34.508,37.327v12.748"/>
	<path style="&st0;&st1;&st4;&st2;&st3;" d="M47.256,37.327v12.748"/>
	<path style="&st0;&st1;&st4;&st2;&st3;" d="M60.004,37.327v12.748"/>
	<path style="&st0;&st1;&st4;&st2;&st3;" d="M72.752,37.327v12.748"/>
	<path style="&st0;&st1;&st4;&st2;&st3;" d="M21.761,50.075v15.581H6.18V50.075"/>
	<path style="&st0;&st1;&st4;&st2;&st3;" d="M101.081,50.075v15.581H85.5V50.075"/>
	<path style="&st0;&st1;&st4;&st2;&st3;" d="M21.761,62.823h25.496V50.075"/>
	<path style="&st0;&st1;&st4;&st2;&st3;" d="M60.004,50.075v12.748H85.5"/>
	<path style="&st0;&st1;&st4;&st2;&st3;" d="M72.752,50.075v12.748"/>
	<path style="&st0;&st1;&st4;&st2;&st3;" d="M34.508,50.075v12.748"/>
	<path style="&st0;&st1;&st4;&st2;&st3;" d="M101.081,55.741h5.666"/>
	<path style="&st0;&st1;&st4;&st2;&st3;" d="M0.514,69.905h106.232"/>
	<path style="&st0;&st1;&st4;&st2;&st3;" d="M50.089,74.155V52.908h7.082v21.247"/>
	<path style="&st0;&st1;&st4;&st2;&st3;" d="M50.089,55.741h7.082"/>
	<path style="&st0;&st1;&st2;&st3;" d="M11.31,79.82h84.64"/>
	<path style="&st0;&st1;&st2;&st3;" d="M0.5,74.155l5.958,4.144"/>
	<path style="&st0;&st1;&st2;&st3;" d="M106.76,74.155l-5.958,4.144"/>
	<path style="&st0;&st1;&st4;&st2;&st3;" d="M106.747,23.163h-5.666v8.499"/>
	<path style="&st0;&st1;&st4;&st2;&st3;" d="M0.514,23.163H6.18v8.499"/>
	<path style="&st0;&st1;&st4;&st2;&st3;" d="M101.081,25.996h5.666"/>
	<path style="&st0;&st1;&st4;&st2;&st3;" d="M0.514,25.996H6.18"/>
	<path style="&st0;&st1;&st4;&st2;&st3;" d="M34.508,31.662V13.248"/>
	<path style="&st0;&st1;&st2;&st3;" d="M14.678,0.5h77.904"/>
	<path style="&st0;&st1;&st2;&st3;" d="M0.514,14.665v59.49"/>
	<path style="&st0;&st1;&st4;&st2;&st3;" d="M72.752,13.248v18.414"/>
	<path style="&st0;&st1;&st4;&st2;&st3;" d="M57.171,74.155h49.575"/>
	<path style="&st0;&st1;&st2;&st3;" d="M106.747,14.665v59.49"/>
	<path style="&st0;&st1;&st4;&st2;&st3;" d="M34.508,18.914h38.244"/>
	<path style="&st0;&st1;&st4;&st2;&st3;" d="M6.18,31.662h15.581"/>
	<path style="&st0;&st1;&st4;&st2;&st3;" d="M0.514,74.155h49.575"/>
	<path style="&st0;&st1;&st4;&st2;&st3;" d="M30.259,13.248h46.742"/>
	<path style="&st0;&st1;&st4;&st2;&st3;" d="M34.508,21.747h-4.249V8.999h46.742v12.748h-4.25"/>
	<path style="&st0;&st1;&st4;&st2;&st3;" d="M21.761,31.662V16.081h5.666v15.581"/>
	<path style="&st0;&st1;&st4;&st2;&st3;" d="M79.834,31.662V16.081H85.5v15.581"/>
	<path style="&st0;&st1;&st4;&st2;&st3;" d="M40.174,13.248v-1.417h26.912v1.417"/>
	<path style="&st0;&st1;&st4;&st2;&st3;" d="M34.508,16.081h5.666v-2.833"/>
	<path style="&st0;&st1;&st4;&st2;&st3;" d="M79.834,18.914H85.5"/>
	<path style="&st0;&st1;&st4;&st2;&st3;" d="M21.761,18.914h5.666"/>
	<path style="&st0;&st1;&st4;&st2;&st3;" d="M67.086,13.248v2.833h5.666"/>
	<path style="&st0;&st1;&st4;&st2;&st3;" d="M27.426,16.081V6.166h52.408v9.915"/>
	<path style="&st0;&st1;&st4;&st2;&st3;" d="M101.081,38.744h5.666"/>
	<path style="&st0;&st1;&st4;&st2;&st3;" d="M6.18,55.741H0.514"/>
	<path style="&st0;&st1;&st4;&st2;&st3;" d="M6.18,38.744H0.514"/>
	<path style="&st0;&st1;&st4;&st2;&st3;" d="M1.93,58.574v7.083h2.833v-7.083H1.93"/>
	<path style="&st0;&st1;&st4;&st2;&st3;" d="M102.497,58.574v7.083h2.833v-7.083H102.497"/>
	<path style="&st0;&st1;&st4;&st2;&st3;" d="M27.426,31.662h7.082"/>
	<path style="&st0;&st1;&st4;&st2;&st3;" d="M85.5,31.662h15.581"/>
	<path style="&st0;&st1;&st4;&st2;&st3;" d="M72.752,31.662h7.082"/>
	<g ewd:pinNo="1">
		<text transform="matrix(1 0 0 1 12.3374 44.5933)"><tspan x="0" y="0" style="&st6; &st5;">1</tspan></text>
	</g>
	<g ewd:pinNo="2">
		<text transform="matrix(1 0 0 1 26.5015 46.0098)"><tspan x="0" y="0" style="&st6; &st5;">2</tspan></text>
	</g>
	<g ewd:pinNo="3">
		<text transform="matrix(1 0 0 1 39.2495 46.0098)"><tspan x="0" y="0" style="&st6; &st5;">3</tspan></text>
	</g>
	<g ewd:pinNo="4">
		<text transform="matrix(1 0 0 1 51.9971 46.0098)"><tspan x="0" y="0" style="&st6; &st5;">4</tspan></text>
	</g>
	<g ewd:pinNo="5">
		<text transform="matrix(1 0 0 1 64.7451 46.0098)"><tspan x="0" y="0" style="&st6; &st5;">5</tspan></text>
	</g>
	<g ewd:pinNo="6">
		<text transform="matrix(1 0 0 1 77.4927 46.0098)"><tspan x="0" y="0" style="&st6; &st5;">6</tspan></text>
	</g>
	<g ewd:pinNo="7">
		<text transform="matrix(1 0 0 1 91.6572 44.5933)"><tspan x="0" y="0" style="&st6; &st5;">7</tspan></text>
	</g>
	<g ewd:pinNo="13">
		<text transform="matrix(1 0 0 1 89.6709 60.1743)"><tspan x="0" y="0" style="&st6; &st5;">13</tspan></text>
	</g>
	<g ewd:pinNo="12">
		<text transform="matrix(1 0 0 1 75.8062 58.7578)"><tspan x="0" y="0" style="&st6; &st5;">12</tspan></text>
	</g>
	<g ewd:pinNo="11">
		<text transform="matrix(1 0 0 1 63.2813 58.7578)"><tspan x="0" y="0" style="&st6; &st5;">11</tspan></text>
	</g>
	<g ewd:pinNo="10">
		<text transform="matrix(1 0 0 1 37.5625 58.7578)"><tspan x="0" y="0" style="&st6; &st5;">10</tspan></text>
	</g>
	<g ewd:pinNo="9">
		<text transform="matrix(1 0 0 1 26.5015 58.7578)"><tspan x="0" y="0" style="&st6; &st5;">9</tspan></text>
	</g>
	<g ewd:pinNo="8">
		<text transform="matrix(1 0 0 1 12.3374 60.1743)"><tspan x="0" y="0" style="&st6; &st5;">8</tspan></text>
	</g>
</g>
<g id="レイヤー_1" transform="translate(127.101,17.008)">
	<path style="&st0;&st1;&st2;&st3;" d="M129.395,14.665c0-4.694-3.805-8.499-8.499-8.499"/>
	<path style="&st0;&st1;&st2;&st3;" d="M123.729,76.279c3.129,0,5.666-2.537,5.666-5.666"/>
	<path style="&st0;&st1;&st2;&st3;" d="M0.5,70.613c0,3.129,2.537,5.666,5.666,5.666"/>
	<path style="&st0;&st1;&st2;&st3;" d="M8.999,6.166c-4.694,0-8.499,3.805-8.499,8.499"/>
	<path style="&st0;&st1;&st2;&st3;" d="M6.166,83.361c0,2.347,1.903,4.249,4.25,4.249"/>
	<path style="&st0;&st1;&st2;&st3;" d="M119.48,87.61c2.347,0,4.25-1.902,4.25-4.249"/>
	<path style="&st0;&st1;&st4;&st2;&st3;" d="M31.662,87.61c0.782,0,1.416-0.634,1.416-1.416"/>
	<path style="&st0;&st1;&st4;&st2;&st3;" d="M96.817,86.194c0,0.782,0.634,1.416,1.417,1.416"/>
	<path style="&st0;&st1;&st4;&st2;&st3;" d="M34.494,79.112c-0.782,0-1.417,0.634-1.417,1.416"/>
	<path style="&st0;&st1;&st4;&st2;&st3;" d="M96.817,80.528c0-0.782-0.634-1.416-1.416-1.416"/>
	<path style="&st0;&st1;&st4;&st2;&st3;" d="M67.072,70.613h30.453l5.666-2.833"/>
	<path style="&st0;&st1;&st4;&st2;&st3;" d="M123.729,16.081h-8.499v8.499"/>
	<path style="&st0;&st1;&st4;&st2;&st3;" d="M6.166,16.081h8.499v8.499"/>
	<path style="&st0;&st1;&st2;&st3;" d="M0.5,14.665v55.949"/>
	<path style="&st0;&st1;&st4;&st2;&st3;" d="M45.826,24.58H40.16"/>
	<path style="&st0;&st1;&st2;&st3;" d="M129.395,14.665v55.949"/>
	<path style="&st0;&st1;&st4;&st2;&st3;" d="M6.166,16.081v51.7"/>
	<path style="&st0;&st1;&st4;&st2;&st3;" d="M123.729,16.081v51.7"/>
	<path style="&st0;&st1;&st4;&st2;&st3;" d="M33.078,45.826V30.245H17.497v15.581h94.901V30.245H96.817v15.581"/>
	<path style="&st0;&st1;&st4;&st2;&st3;" d="M33.078,33.078h63.739"/>
	<path style="&st0;&st1;&st4;&st2;&st3;" d="M45.826,33.078v12.748"/>
	<path style="&st0;&st1;&st4;&st2;&st3;" d="M58.574,33.078v12.748"/>
	<path style="&st0;&st1;&st4;&st2;&st3;" d="M71.321,33.078v12.748"/>
	<path style="&st0;&st1;&st4;&st2;&st3;" d="M84.069,33.078v12.748"/>
	<path style="&st0;&st1;&st4;&st2;&st3;" d="M6.166,47.951h5.666v16.289H6.166"/>
	<path style="&st0;&st1;&st4;&st2;&st3;" d="M6.166,27.413h5.666v16.289H6.166"/>
	<path style="&st0;&st1;&st4;&st2;&st3;" d="M123.729,47.951h-5.666v16.289h5.666"/>
	<path style="&st0;&st1;&st4;&st2;&st3;" d="M123.729,27.413h-5.666v16.289h5.666"/>
	<path style="&st0;&st1;&st4;&st2;&st3;" d="M96.817,80.528v5.666"/>
	<path style="&st0;&st1;&st4;&st2;&st3;" d="M45.826,24.58V10.416h38.244V24.58"/>
	<path style="&st0;&st1;&st2;&st3;" d="M8.999,6.166h13.456"/>
	<path style="&st0;&st1;&st4;&st2;&st3;" d="M33.078,45.826v15.581H17.497V45.826"/>
	<path style="&st0;&st1;&st4;&st2;&st3;" d="M112.398,45.826v15.581H96.817V45.826"/>
	<path style="&st0;&st1;&st4;&st2;&st3;" d="M33.078,58.574h25.496V45.826"/>
	<path style="&st0;&st1;&st4;&st2;&st3;" d="M71.321,45.826v12.748h25.496"/>
	<path style="&st0;&st1;&st4;&st2;&st3;" d="M84.069,45.826v12.748"/>
	<path style="&st0;&st1;&st4;&st2;&st3;" d="M45.826,45.826v12.748"/>
	<path style="&st0;&st1;&st2;&st3;" d="M123.729,76.279v7.082"/>
	<path style="&st0;&st1;&st2;&st3;" d="M119.48,87.61H98.233"/>
	<path style="&st0;&st1;&st2;&st3;" d="M10.415,87.61h18.414"/>
	<path style="&st0;&st1;&st2;&st3;" d="M6.166,76.279v7.082"/>
	<path style="&st0;&st1;&st4;&st2;&st3;" d="M18.914,13.248v7.082h7.082v-7.082H18.914"/>
	<path style="&st0;&st1;&st4;&st2;&st3;" d="M103.899,13.248v7.082h7.082v-7.082H103.899"/>
	<path style="&st0;&st1;&st4;&st2;&st3;" d="M45.826,14.665h38.244"/>
	<path style="&st0;&st1;&st4;&st2;&st3;" d="M56.449,14.665v4.25h16.997v-4.25"/>
	<path style="&st0;&st1;&st4;&st2;&st3;" d="M6.166,67.781h17.706"/>
	<path style="&st0;&st1;&st4;&st2;&st3;" d="M56.449,23.163v5.666h16.997v-5.666H56.449"/>
	<path style="&st0;&st1;&st4;&st2;&st3;" d="M62.823,70.613V50.075h4.25v20.538"/>
	<path style="&st0;&st1;&st4;&st2;&st3;" d="M103.191,67.781h20.539"/>
	<path style="&st0;&st1;&st2;&st3;" d="M22.455,6.166L28.12,0.5h73.654l5.666,5.666"/>
	<path style="&st0;&st1;&st4;&st2;&st3;" d="M56.449,70.613v8.499"/>
	<path style="&st0;&st1;&st4;&st2;&st3;" d="M73.446,70.613v8.499"/>
	<path style="&st0;&st1;&st4;&st2;&st3;" d="M112.398,67.781v-3.542H71.321v6.374"/>
	<path style="&st0;&st1;&st4;&st2;&st3;" d="M17.497,67.781v-3.542h41.077v6.374"/>
	<path style="&st0;&st1;&st4;&st2;&st3;" d="M34.494,79.112h21.955"/>
	<path style="&st0;&st1;&st2;&st3;" d="M107.44,6.166h13.456"/>
	<path style="&st0;&st1;&st4;&st2;&st3;" d="M73.446,79.112h21.955"/>
	<path style="&st0;&st1;&st4;&st2;&st3;" d="M23.871,67.781l5.666,2.833h33.286"/>
	<path style="&st0;&st1;&st4;&st2;&st3;" d="M61.406,83.361h7.083"/>
	<path style="&st0;&st1;&st4;&st2;&st3;" d="M61.406,81.945v2.833h7.083v-2.833"/>
	<path style="&st0;&st1;&st4;&st2;&st3;" d="M99.65,24.58V6.166h-9.915V24.58"/>
	<path style="&st0;&st1;&st4;&st2;&st3;" d="M30.245,24.58V6.166h9.915V24.58"/>
	<path style="&st0;&st1;&st4;&st2;&st3;" d="M89.735,24.58h-5.666"/>
	<path style="&st0;&st1;&st4;&st2;&st3;" d="M115.231,24.58H99.65"/>
	<path style="&st0;&st1;&st4;&st2;&st3;" d="M30.245,24.58H14.664"/>
	<path style="&st0;&st1;&st4;&st2;&st3;" d="M33.321,81.945h63.252"/>
	<path style="&st0;&st1;&st4;&st2;&st3;" d="M33.078,80.528v5.666"/>
	<path style="&st0;&st1;&st2;&st3;" d="M28.829,87.61h72.238"/>
	<path style="&st0;&st1;&st4;&st2;&st3;" d="M59.282,77.696v4.249"/>
	<path style="&st0;&st1;&st4;&st2;&st3;" d="M59.282,77.696h11.332"/>
	<path style="&st0;&st1;&st4;&st2;&st3;" d="M70.613,77.696v4.249"/>
	<path style="&st0;&st1;&st4;&st2;&st3;" d="M11.832,74.863h106.232"/>
	<g ewd:pinNo="7">
		<text transform="matrix(1 0 0 1 23.6309 40.2422)"><tspan x="0" y="0" style="&st6; &st5;">7</tspan></text>
	</g>
	<g ewd:pinNo="6">
		<text transform="matrix(1 0 0 1 37.7954 41.6587)"><tspan x="0" y="0" style="&st6; &st5;">6</tspan></text>
	</g>
	<g ewd:pinNo="5">
		<text transform="matrix(1 0 0 1 50.543 41.6587)"><tspan x="0" y="0" style="&st6; &st5;">5</tspan></text>
	</g>
	<g ewd:pinNo="4">
		<text transform="matrix(1 0 0 1 63.291 41.6587)"><tspan x="0" y="0" style="&st6; &st5;">4</tspan></text>
	</g>
	<g ewd:pinNo="3">
		<text transform="matrix(1 0 0 1 76.0391 41.6587)"><tspan x="0" y="0" style="&st6; &st5;">3</tspan></text>
	</g>
	<g ewd:pinNo="2">
		<text transform="matrix(1 0 0 1 88.7866 41.6587)"><tspan x="0" y="0" style="&st6; &st5;">2</tspan></text>
	</g>
	<g ewd:pinNo="1">
		<text transform="matrix(1 0 0 1 102.9512 40.2422)"><tspan x="0" y="0" style="&st6; &st5;">1</tspan></text>
	</g>
	<g ewd:pinNo="8">
		<text transform="matrix(1 0 0 1 102.9512 55.8228)"><tspan x="0" y="0" style="&st6; &st5;">8</tspan></text>
	</g>
	<g ewd:pinNo="9">
		<text transform="matrix(1 0 0 1 88.7866 54.4063)"><tspan x="0" y="0" style="&st6; &st5;">9</tspan></text>
	</g>
	<g ewd:pinNo="10">
		<text transform="matrix(1 0 0 1 74.2178 54.4063)"><tspan x="0" y="0" style="&st6; &st5;">10</tspan></text>
	</g>
	<g ewd:pinNo="11">
		<text transform="matrix(1 0 0 1 48.9448 54.4063)"><tspan x="0" y="0" style="&st6; &st5;">11</tspan></text>
	</g>
	<g ewd:pinNo="12">
		<text transform="matrix(1 0 0 1 35.9741 54.4063)"><tspan x="0" y="0" style="&st6; &st5;">12</tspan></text>
	</g>
	<g ewd:pinNo="13">
		<text transform="matrix(1 0 0 1 21.6206 55.8228)"><tspan x="0" y="0" style="&st6; &st5;">13</tspan></text>
	</g>
</g>
<path d="M53.63,9.069v-8.504h138.4185v8.504" style="&st0;&st1;&st7;&st2;&st3;"/>
</svg>