﻿<?xml version="1.0"?>
<!-- Generator: Adobe Illustrator 10.0, SVG Export Plug-In . SVG Version: 3.0.0 Build 77)  -->
<!DOCTYPE svg PUBLIC "-//W3C//DTD SVG 1.0//EN" "http://www.w3.org/TR/2001/REC-SVG-20010904/DTD/svg10.dtd"[
	<!ENTITY ns_flows "http://ns.adobe.com/Flows/1.0/">
	<!ENTITY ns_svg "http://www.w3.org/2000/svg">
	<!ENTITY ns_xlink "http://www.w3.org/1999/xlink">
	<!ENTITY st0 "fill:none;stroke:#000000;stroke-linecap:round;stroke-linejoin:round;">
	<!ENTITY st1 "fill:none;stroke:#000000;stroke-width:0.6;stroke-linecap:round;stroke-linejoin:round;">
	<!ENTITY st2 "font-size:6px;">
	<!ENTITY st3 "font-family:'Arial';">
	<!ATTLIST svg
		ewd:ver CDATA #IMPLIED
		xmlns:ewd CDATA #FIXED "http://shcl.co.jp/ewd"
		xmlns:a CDATA #FIXED "http://ns.adobe.com/AdobeSVGViewerExtensions/3.0/">
	<!ATTLIST g
		ewd:pinNo CDATA #IMPLIED>
]>
<svg width="51.991" height="95.901" viewBox="0 0 51.991 95.901" style="overflow:visible;enable-background:new 0 0 51.991 95.901" xml:space="preserve" onload="call_execInitLoadProc_svg('connector')" ewd:ver="2.1.2.9" xmlns="&ns_svg;" xmlns:ewd="http://shcl.co.jp/ewd" xmlns:a="http://ns.adobe.com/AdobeSVGViewerExtensions/3.0/" xmlns:xlink="&ns_xlink;">
<script type="text/javascript" xlink:href="../../../../../system/js/ewd/fig/svgfig.js"/>
<g id="レイヤー_1">
	<path style="&st1;" d="M43.701,25.996h7.79"/>
	<path style="&st1;" d="M0.5,25.996h7.791"/>
	<path style="&st1;" d="M0.5,81.237h50.991"/>
	<path style="&st1;" d="M6.166,30.245v48.159h39.66V30.245H6.166"/>
	<path style="&st1;" d="M6.166,65.656h39.66"/>
	<path style="&st1;" d="M16.081,78.404V52.908"/>
	<path style="&st1;" d="M25.996,78.404V30.245"/>
	<path style="&st1;" d="M35.911,78.404V52.908"/>
	<path style="&st1;" d="M6.166,52.908h39.66"/>
	<path style="&st1;" d="M11.123,7.583h14.873"/>
	<path style="&st1;" d="M25.996,10.416H18.56v8.499"/>
	<path style="&st0;" d="M0.5,25.996V0.5h7.791v25.496h2.833V4.75l7.437-2.833h14.873l7.436,2.833v21.246h2.833V0.5h7.79v89.235    l-10.623,5.666H11.123L0.5,89.735V25.996"/>
	<path style="&st1;" d="M40.868,13.248l-2.833,2.833h-4.603"/>
	<path style="&st1;" d="M11.123,18.914h14.873"/>
	<path style="&st1;" d="M40.868,7.583H25.996"/>
	<path style="&st1;" d="M25.996,10.416h7.437v8.499"/>
	<path style="&st1;" d="M40.868,18.914H25.996"/>
	<path style="&st1;" d="M11.123,13.248l2.833,2.833h4.604"/>
	<g ewd:pinNo="1">
		<text transform="matrix(1 0 0 1 14.4043 43.7427)"><tspan x="0" y="0" style="&st3; &st2;">1</tspan></text>
	</g>
	<g ewd:pinNo="2">
		<text transform="matrix(1 0 0 1 34.2344 43.7427)"><tspan x="0" y="0" style="&st3; &st2;">2</tspan></text>
	</g>
	<g ewd:pinNo="3">
		<text transform="matrix(1 0 0 1 9.4468 61.4482)"><tspan x="0" y="0" style="&st3; &st2;">3</tspan></text>
	</g>
	<g ewd:pinNo="4">
		<text transform="matrix(1 0 0 1 19.3618 61.4482)"><tspan x="0" y="0" style="&st3; &st2;">4</tspan></text>
	</g>
	<g ewd:pinNo="5">
		<text transform="matrix(1 0 0 1 29.2769 61.4482)"><tspan x="0" y="0" style="&st3; &st2;">5</tspan></text>
	</g>
	<g ewd:pinNo="6">
		<text transform="matrix(1 0 0 1 39.1919 61.4482)"><tspan x="0" y="0" style="&st3; &st2;">6</tspan></text>
	</g>
	<g ewd:pinNo="7">
		<text transform="matrix(1 0 0 1 9.4468 74.1958)"><tspan x="0" y="0" style="&st3; &st2;">7</tspan></text>
	</g>
	<g ewd:pinNo="8">
		<text transform="matrix(1 0 0 1 19.3618 74.1958)"><tspan x="0" y="0" style="&st3; &st2;">8</tspan></text>
	</g>
	<g ewd:pinNo="9">
		<text transform="matrix(1 0 0 1 29.2769 74.1958)"><tspan x="0" y="0" style="&st3; &st2;">9</tspan></text>
	</g>
	<g ewd:pinNo="10">
		<text transform="matrix(1 0 0 1 37.2817 74.1958)"><tspan x="0" y="0" style="&st3; &st2;">10</tspan></text>
	</g>
</g>
</svg>